%!PS-Adobe-3.0 EPSF-3.0
%%Creator: cairo 1.14.8 (http://cairographics.org)
%%CreationDate: Wed Mar 20 09:06:38 2019
%%Pages: 1
%%DocumentData: Clean7Bit
%%LanguageLevel: 2
%%BoundingBox: 0 1 488 486
%%EndComments
%%BeginProlog
save
50 dict begin
/q { gsave } bind def
/Q { grestore } bind def
/cm { 6 array astore concat } bind def
/w { setlinewidth } bind def
/J { setlinecap } bind def
/j { setlinejoin } bind def
/M { setmiterlimit } bind def
/d { setdash } bind def
/m { moveto } bind def
/l { lineto } bind def
/c { curveto } bind def
/h { closepath } bind def
/re { exch dup neg 3 1 roll 5 3 roll moveto 0 rlineto
      0 exch rlineto 0 rlineto closepath } bind def
/S { stroke } bind def
/f { fill } bind def
/f* { eofill } bind def
/n { newpath } bind def
/W { clip } bind def
/W* { eoclip } bind def
/BT { } bind def
/ET { } bind def
/pdfmark where { pop globaldict /?pdfmark /exec load put }
    { globaldict begin /?pdfmark /pop load def /pdfmark
    /cleartomark load def end } ifelse
/BDC { mark 3 1 roll /BDC pdfmark } bind def
/EMC { mark /EMC pdfmark } bind def
/cairo_store_point { /cairo_point_y exch def /cairo_point_x exch def } def
/Tj { show currentpoint cairo_store_point } bind def
/TJ {
  {
    dup
    type /stringtype eq
    { show } { -0.001 mul 0 cairo_font_matrix dtransform rmoveto } ifelse
  } forall
  currentpoint cairo_store_point
} bind def
/cairo_selectfont { cairo_font_matrix aload pop pop pop 0 0 6 array astore
    cairo_font exch selectfont cairo_point_x cairo_point_y moveto } bind def
/Tf { pop /cairo_font exch def /cairo_font_matrix where
      { pop cairo_selectfont } if } bind def
/Td { matrix translate cairo_font_matrix matrix concatmatrix dup
      /cairo_font_matrix exch def dup 4 get exch 5 get cairo_store_point
      /cairo_font where { pop cairo_selectfont } if } bind def
/Tm { 2 copy 8 2 roll 6 array astore /cairo_font_matrix exch def
      cairo_store_point /cairo_font where { pop cairo_selectfont } if } bind def
/g { setgray } bind def
/rg { setrgbcolor } bind def
/d1 { setcachedevice } bind def
%%EndProlog
%%BeginSetup
%%EndSetup
%%Page: 1 1
%%BeginPageSetup
%%PageBoundingBox: 0 1 488 486
%%EndPageSetup
q 0 1 488 485 rectclip q
0.419608 0.866667 0.866667 rg
79.426 140.777 m 51.996 140.777 l 51.996 449.559 l 51.996 456.18 57.367
 461.547 63.984 461.547 c 79.426 461.547 l h
79.426 140.777 m f
147.359 445.52 m 79.426 445.52 l 79.426 461.504 l 147.359 461.504 l 151.773
 461.504 155.352 457.926 155.352 453.512 c 155.352 449.098 151.773 445.52
 147.359 445.52 c h
147.359 445.52 m f
0.215686 0.384314 0.8 rg
79.426 136.781 m 51.996 136.781 l 49.789 136.781 48 138.57 48 140.777 c
 48 449.559 l 48 458.371 55.172 465.543 63.984 465.543 c 79.426 465.543 
l 79.625 465.543 79.816 465.527 80.008 465.5 c 147.359 465.5 l 153.969 465.5
 159.348 460.125 159.348 453.512 c 159.348 446.902 153.969 441.523 147.359
 441.523 c 83.422 441.523 l 83.422 140.777 l 83.422 138.57 81.629 136.781
 79.426 136.781 c h
55.992 144.773 m 75.43 144.773 l 75.43 445.52 l 75.43 447.727 77.223 449.516
 79.426 449.516 c 147.359 449.516 l 149.562 449.516 151.355 451.309 151.355
 453.512 c 151.355 455.719 149.562 457.508 147.359 457.508 c 79.426 457.508
 l 79.227 457.508 79.035 457.52 78.844 457.551 c 63.984 457.551 l 59.578
 457.551 55.992 453.965 55.992 449.559 c h
55.992 144.773 m f
0.976471 0.811765 0.811765 rg
94.234 292.836 m 101.641 306.68 119.438 312.188 133.977 305.133 c 149.426
 297.633 l 150.082 298.852 l 151.234 301.004 153.996 301.855 156.254 300.762
 c 158.512 299.668 159.41 297.035 158.258 294.883 c 157.238 292.984 l 165.832
 286.094 169.613 275.086 166.898 264.707 c 170.516 262.949 l 168.652 261.215
 167.035 259.184 165.785 256.852 c 159.023 244.211 l 158.539 243.305 158.164
 242.379 157.848 241.449 c 149.512 245.492 l 141.809 242.457 132.82 242.527
 124.809 246.414 c 107.148 254.984 l 92.609 262.039 86.824 278.984 94.234
 292.836 c h
94.234 292.836 m f
0.215686 0.384314 0.8 rg
144.742 288.363 m 145.422 289.641 144.891 291.199 143.551 291.852 c 139.504
 293.816 l 138.16 294.469 136.52 293.961 135.836 292.684 c 135.152 291.406
 135.688 289.84 137.023 289.191 c 141.07 287.227 l 142.414 286.574 144.059
 287.082 144.742 288.363 c h
144.742 288.363 m f
0.976471 0.811765 0.811765 rg
145.156 268.289 m 145.156 273.789 140.477 278.25 134.695 278.25 c 128.918
 278.25 124.234 273.789 124.234 268.289 c 124.234 262.785 128.918 258.324
 134.695 258.324 c 140.477 258.324 145.156 262.785 145.156 268.289 c h
145.156 268.289 m f
0.215686 0.384314 0.8 rg
157.848 237.453 m 157.246 237.453 156.652 237.586 156.105 237.855 c 149.285
 241.16 l 140.688 238.277 131.227 238.859 123.062 242.82 c 105.402 251.391
 l 97.242 255.352 91.25 262.141 88.531 270.516 c 85.906 278.594 86.684 287.191
 90.711 294.719 c 99.105 310.41 119.305 316.695 135.723 308.73 c 148.059
 302.738 l 150.598 305.238 154.617 305.996 157.996 304.359 c 160.102 303.336
 161.645 301.578 162.355 299.395 c 162.941 297.578 162.883 295.664 162.199
 293.91 c 169.434 286.805 172.863 276.758 171.426 266.949 c 172.262 266.543
 l 173.445 265.965 174.27 264.844 174.465 263.539 c 174.66 262.234 174.199
 260.922 173.23 260.023 c 171.617 258.523 170.297 256.82 169.301 254.961
 c 162.543 242.32 l 162.211 241.707 161.91 240.996 161.625 240.156 c 161.254
 239.074 160.441 238.199 159.383 237.762 c 158.895 237.555 158.371 237.453
 157.848 237.453 c h
149.512 249.488 m 150.109 249.488 150.707 249.355 151.258 249.086 c 155.895
 246.836 l 162.262 258.73 l 162.824 259.789 163.465 260.809 164.172 261.785
 c 163.121 262.766 162.652 264.266 163.031 265.719 c 165.328 274.504 162.074
 283.984 154.742 289.859 c 153.242 291.062 152.812 293.168 153.719 294.859
 c 154.734 296.766 l 154.734 296.98 154.684 297.082 154.508 297.168 c 154.156
 297.336 153.727 297.195 153.605 296.969 c 152.953 295.746 l 151.941 293.852
 149.617 293.102 147.688 294.035 c 132.234 301.539 l 119.621 307.652 104.16
 302.906 97.762 290.945 c 94.77 285.355 94.191 278.973 96.137 272.984 c 
98.176 266.695 102.707 261.582 108.898 258.578 c 126.555 250.008 l 133.25
 246.758 141.086 246.465 148.055 249.211 c 148.523 249.395 149.016 249.488
 149.512 249.488 c h
94.234 292.836 m 94.254 292.836 l h
94.234 292.836 m f
0.27451 0.443137 0.776471 rg
86.652 259.266 m 86.656 259.266 l 81.871 267.223 81.371 277.535 86.246 
286.652 c 87.285 288.594 89.688 289.41 91.617 288.473 c 92.352 288.117 l
 91.488 288.535 90.82 289.176 90.383 289.926 c 90.383 289.926 90.188 290.172
 90.027 290.699 c 89.781 291.418 89.711 292.191 89.855 292.957 c 89.961 
294.074 90.336 295.527 91.211 297.359 c 91.215 297.363 91.215 297.363 91.219
 297.371 c 92.133 299.262 93.59 301.562 95.879 304.309 c 97.324 306.41 99.059
 308.246 101.008 309.793 c 101.012 309.801 101.02 309.805 101.023 309.812
 c 101.027 309.809 l 102.129 310.691 103.305 311.473 104.531 312.156 c 105.055
 312.461 105.348 312.598 105.348 312.598 c 112.543 316.301 121.387 316.719
 129.133 312.957 c 137.516 308.891 l 137.906 308.703 138.059 308.242 137.855
 307.867 c 120.094 274.656 l 138.266 265.836 l 145.121 262.508 l 151.562
 254.34 l 151.742 254.105 151.773 253.797 151.633 253.535 c 150.172 250.805
 l 149.648 249.832 l 146.066 243.129 l 145.5 242.074 144.797 241.121 143.969
 240.281 c 143.938 240.258 142.906 239.426 141.957 239.348 c 139.719 239.16
 134.441 238.723 129.629 238.332 c 122.484 237.754 115.312 238.934 108.879
 241.879 c 91.246 249.938 86.652 259.266 86.652 259.266 c h
86.652 259.266 m f
0.215686 0.384314 0.8 rg
126.102 234.195 m 119.516 234.195 113.055 235.57 107.211 238.242 c 89.473
 246.352 83.859 256.008 83.145 257.359 c 77.508 266.848 77.352 278.492 82.723
 288.539 c 83.453 289.898 84.535 290.98 85.793 291.715 c 85.766 292.305 
85.797 292.906 85.895 293.504 c 86.082 295.223 86.652 297.094 87.598 299.059
 c 87.609 299.086 87.625 299.117 87.637 299.148 c 88.777 301.504 90.473 
304.055 92.691 306.727 c 94.289 309.02 96.215 311.074 98.406 312.84 c 98.41
 312.844 98.414 312.844 98.418 312.848 c 98.445 312.871 98.473 312.891 98.5
 312.914 c 98.504 312.914 98.508 312.918 98.512 312.922 c 99.859 313.98 
101.188 314.867 102.574 315.645 c 103.078 315.938 103.441 316.117 103.578
 316.184 c 112.129 320.562 122.324 320.703 130.879 316.555 c 139.262 312.484
 l 140.426 311.918 141.316 310.891 141.711 309.668 c 142.105 308.457 141.984
 307.109 141.379 305.977 c 125.574 276.438 l 146.863 266.102 l 147.406 265.84
 147.887 265.457 148.258 264.984 c 154.699 256.816 l 155.867 255.328 156.043
 253.301 155.148 251.641 c 149.586 241.246 l 148.855 239.875 147.922 238.609
 146.82 237.484 c 146.703 237.363 146.57 237.246 146.434 237.141 c 145.676
 236.543 144.137 235.52 142.285 235.367 c 140.047 235.18 134.766 234.742
 129.949 234.352 c 128.668 234.246 127.383 234.195 126.102 234.195 c h
90.254 261.012 m 90.691 260.238 95.422 252.422 110.535 245.516 c 116.27
 242.891 122.762 241.781 129.301 242.316 c 133.906 242.691 138.938 243.109
 141.32 243.309 c 141.32 243.309 141.324 243.312 141.328 243.312 c 141.805
 243.84 142.211 244.41 142.539 245.023 c 147.098 253.547 l 142.547 259.32
 l 118.344 271.066 l 117.363 271.539 116.625 272.395 116.289 273.43 c 115.953
 274.461 116.051 275.59 116.566 276.547 c 132.738 306.773 l 127.391 309.371
 l 121.07 312.438 113.512 312.316 107.176 309.055 c 107.133 309.031 107.09
 309.008 107.047 308.988 c 107.02 308.977 106.84 308.891 106.543 308.715
 c 105.426 308.086 104.426 307.418 103.508 306.688 c 103.484 306.668 103.457
 306.648 103.434 306.629 c 101.723 305.246 100.328 303.734 99.168 302.047
 c 99.098 301.945 99.023 301.848 98.945 301.754 c 97.082 299.516 95.691 
297.465 94.816 295.641 c 94.805 295.617 94.793 295.594 94.781 295.566 c 
94.098 294.121 93.887 293.152 93.832 292.582 c 93.82 292.465 93.805 292.348
 93.781 292.23 c 93.77 292.16 93.777 292.094 93.801 292.02 c 93.805 292 
93.812 291.984 93.812 291.977 c 93.816 291.969 93.824 291.961 93.832 291.949
 c 93.887 291.852 93.973 291.773 94.094 291.719 c 96.082 290.75 96.91 288.359
 95.941 286.375 c 94.973 284.395 92.586 283.566 90.602 284.531 c 90.598 
284.531 l 89.867 284.887 l 85.703 277.18 85.82 268.414 90.082 261.332 c 
90.145 261.223 90.199 261.117 90.254 261.012 c h
148.102 255.422 m 148.102 255.418 148.102 255.414 148.098 255.414 c h
93.543 292.371 m 93.543 292.371 93.543 292.367 93.547 292.367 c 93.547 
292.367 93.547 292.371 93.543 292.371 c h
93.539 292.379 m 93.539 292.375 l 93.539 292.379 93.539 292.379 93.539 
292.379 c h
93.531 292.387 m 93.535 292.387 93.535 292.387 93.535 292.383 c 93.535 
292.383 93.535 292.387 93.531 292.387 c h
93.527 292.395 m 93.527 292.391 93.531 292.391 93.531 292.387 c 93.531 
292.391 93.527 292.391 93.527 292.395 c h
93.523 292.402 m 93.523 292.398 93.523 292.398 93.527 292.395 c 93.523 
292.395 93.523 292.398 93.523 292.402 c h
134.332 309.75 m 134.332 309.746 134.328 309.746 134.328 309.746 c h
134.332 309.75 m f
0.976471 0.811765 0.811765 rg
145.156 268.289 m 145.156 273.789 140.477 278.25 134.695 278.25 c 128.918
 278.25 124.234 273.789 124.234 268.289 c 124.234 262.785 128.918 258.324
 134.695 258.324 c 140.477 258.324 145.156 262.785 145.156 268.289 c h
145.156 268.289 m f
1 0.917647 0.572549 rg
71.418 429.535 m 71.418 354.203 l 71.418 352.832 71.891 351.496 72.758 
350.43 c 81.336 339.848 l 82.473 338.441 84.184 337.625 85.988 337.625 c
 132.797 337.625 l 134.602 337.625 136.316 338.441 137.453 339.848 c 146.031
 350.43 l 146.895 351.496 147.367 352.832 147.367 354.203 c 147.367 429.535
 l 147.367 432.844 144.684 435.531 141.371 435.531 c 77.414 435.531 l 74.102
 435.531 71.418 432.844 71.418 429.535 c h
71.418 429.535 m f
0.878431 0.921569 0.988235 rg
109.391 337.625 m 103.312 337.625 l 103.355 314.812 l 107.238 315.754 111.34
 315.844 115.344 314.961 c 115.305 337.625 l h
109.391 337.625 m f
0.215686 0.384314 0.8 rg
103.355 310.816 m 102.469 310.816 101.598 311.113 100.887 311.672 c 99.926
 312.426 99.359 313.582 99.359 314.805 c 99.316 337.617 l 99.316 338.68 
99.738 339.699 100.488 340.449 c 101.238 341.199 102.25 341.621 103.312 
341.621 c 115.301 341.621 l 117.504 341.621 119.293 339.836 119.297 337.629
 c 119.34 314.969 l 119.34 313.754 118.793 312.609 117.848 311.848 c 116.906
 311.09 115.668 310.797 114.484 311.059 c 111.172 311.785 107.652 311.742
 104.293 310.93 c 103.984 310.855 103.668 310.816 103.355 310.816 c h
107.32 333.629 m 107.344 319.477 l 108.676 319.574 110.008 319.594 111.34
 319.523 c 111.316 333.629 l h
107.32 333.629 m f
0.72549 0.745098 0.988235 rg
79.426 83.668 329.297 -18.285 re f
0.643137 0.788235 1 rg
51.996 140.777 m 3.996 140.777 l 3.996 332.758 l 3.996 337.844 8.121 341.969
 13.211 341.969 c 42.781 341.969 l 47.875 341.969 52 337.844 52 332.758 
c 52 140.777 l h
51.996 140.777 m f
484.004 140.777 m 440.801 140.777 l 440.801 239.258 l 440.801 244.277 444.871
 248.348 449.895 248.348 c 474.91 248.348 l 479.93 248.348 484 244.277 484
 239.258 c 484 140.777 l h
484.004 140.777 m f
0.72549 0.745098 0.988235 rg
52.074 186.488 388.727 -45.711 re f
0.643137 0.788235 1 rg
3.996 118.098 m 3.996 140.727 l 484.004 140.727 l 484.004 118.098 l 484.004
 112.922 479.809 108.727 474.633 108.727 c 13.367 108.727 l 8.191 108.727
 3.996 112.922 3.996 118.098 c h
3.996 118.098 m f
0.27451 0.443137 0.776471 rg
97.086 37.059 m 97.086 19.73 83.035 5.688 65.711 5.688 c 48.387 5.688 34.34
 19.73 34.34 37.059 c 34.34 54.387 48.387 68.43 65.711 68.43 c 83.035 68.43
 97.086 54.387 97.086 37.059 c h
97.086 37.059 m f
0.643137 0.788235 1 rg
65.711 21.168 m 56.953 21.168 49.82 28.297 49.82 37.059 c 49.82 45.824 
56.953 52.953 65.711 52.953 c 74.473 52.953 81.602 45.824 81.602 37.059 
c 81.602 28.297 74.473 21.168 65.711 21.168 c h
65.711 21.168 m f
0.27451 0.443137 0.776471 rg
453.812 37.059 m 453.812 19.73 439.766 5.688 422.441 5.688 c 405.113 5.688
 391.07 19.73 391.07 37.059 c 391.07 54.387 405.113 68.43 422.441 68.43 
c 439.766 68.43 453.812 54.387 453.812 37.059 c h
453.812 37.059 m f
0.643137 0.788235 1 rg
422.441 21.168 m 413.68 21.168 406.551 28.297 406.551 37.059 c 406.551 
45.824 413.68 52.953 422.441 52.953 c 431.199 52.953 438.332 45.824 438.332
 37.059 c 438.332 28.297 431.199 21.168 422.441 21.168 c h
422.441 21.168 m f
0.878431 0.921569 0.988235 rg
431.203 223.109 m 154.48 223.109 l 76.152 266.18 l 71.559 268.707 65.688
 267.207 63.039 262.832 c 53.438 246.996 l 50.785 242.621 52.359 237.035
 56.953 234.504 c 143.758 186.773 l 143.758 186.535 l 144.195 186.535 l 
144.281 186.488 l 144.309 186.535 l 431.203 186.535 l 436.508 186.535 440.805
 190.629 440.805 195.68 c 440.805 213.969 l 440.801 219.016 436.504 223.109
 431.203 223.109 c h
431.203 223.109 m f
0.976471 0.654902 0.654902 rg
460.027 425.582 m 428.859 425.582 l 426.211 425.582 424.062 427.73 424.062
 430.375 c 424.062 461.547 l 424.062 474.789 413.328 485.523 400.086 485.523
 c 386.848 485.523 376.109 474.789 376.109 461.547 c 376.109 430.375 l 376.109
 427.73 373.961 425.582 371.316 425.582 c 340.145 425.582 l 326.906 425.582
 316.168 414.848 316.168 401.605 c 316.168 388.367 326.906 377.629 340.145
 377.629 c 371.316 377.629 l 373.961 377.629 376.109 375.48 376.109 372.836
 c 376.109 341.664 l 376.109 328.426 386.848 317.688 400.086 317.688 c 413.328
 317.688 424.062 328.426 424.062 341.664 c 424.062 372.836 l 424.062 375.48
 426.211 377.629 428.859 377.629 c 460.027 377.629 l 473.27 377.629 484.004
 388.367 484.004 401.605 c 484.004 414.848 473.27 425.582 460.027 425.582
 c h
460.027 425.582 m f
0.215686 0.384314 0.8 rg
51.996 136.781 m 3.996 136.781 l 1.793 136.781 0 138.57 0 140.777 c 0 332.758
 l 0 340.039 5.93 345.961 13.211 345.961 c 42.781 345.961 l 50.066 345.961
 55.992 340.039 55.992 332.758 c 55.992 140.777 l 55.992 138.57 54.203 136.781
 51.996 136.781 c h
7.992 144.773 m 48 144.773 l 48 332.758 l 48 335.633 45.664 337.969 42.781
 337.969 c 13.211 337.969 l 10.332 337.969 7.992 335.633 7.992 332.758 c
 h
7.992 144.773 m f
484.004 136.781 m 440.801 136.781 l 438.598 136.781 436.805 138.57 436.805
 140.777 c 436.805 239.262 l 436.805 246.473 442.68 252.348 449.895 252.348
 c 474.914 252.348 l 482.133 252.348 488 246.473 488 239.262 c 488 140.777
 l 488 138.57 486.215 136.781 484.004 136.781 c h
444.797 144.773 m 480.008 144.773 l 480.008 239.262 l 480.008 242.066 477.723
 244.355 474.914 244.355 c 449.895 244.355 l 447.082 244.355 444.797 242.066
 444.797 239.262 c h
444.797 144.773 m f
474.633 104.73 m 13.367 104.73 l 5.996 104.73 0 110.727 0 118.098 c 0 140.727
 l 0 142.934 1.793 144.723 3.996 144.723 c 484.004 144.723 l 486.211 144.723
 488 142.934 488 140.727 c 488 118.098 l 488 110.73 482.004 104.73 474.633
 104.73 c h
7.992 136.73 m 7.992 118.098 l 7.992 115.133 10.398 112.723 13.367 112.723
 c 474.633 112.723 l 477.598 112.723 480.008 115.133 480.008 118.098 c 480.008
 136.73 l h
7.992 136.73 m f
0.419608 0.866667 0.866667 rg
303.758 223.109 m 174.336 223.109 l 164.957 223.109 157.355 230.711 157.355
 240.094 c 157.355 242.773 l 157.355 257.742 169.484 269.871 184.457 269.871
 c 299.074 269.871 l 301.66 269.871 303.758 267.777 303.758 265.191 c h
303.758 223.109 m f
0.643137 0.788235 1 rg
412.16 251.531 m 426.945 268.91 l 427.469 269.523 428.215 269.871 429.004
 269.871 c 430.527 269.871 431.762 268.578 431.762 266.98 c 431.762 229.973
 l 431.762 226.18 428.836 223.113 425.227 223.113 c 412.16 223.113 l h
412.16 251.531 m f
0.419608 0.866667 0.866667 rg
229.75 223.109 m 188.098 223.109 l 178.625 223.109 170.953 230.785 170.953
 240.254 c 170.953 249.723 178.625 257.398 188.098 257.398 c 225.18 257.398
 l 227.707 257.398 229.75 255.352 229.75 252.828 c h
229.75 223.109 m f
0.27451 0.443137 0.776471 rg
303.758 260.223 m 303.758 223.109 l 412.156 223.109 l 412.156 252.191 l
 412.156 253.402 411.164 254.402 409.895 254.469 c h
303.758 260.223 m f
0.215686 0.384314 0.8 rg
303.758 219.113 m 174.336 219.113 l 162.77 219.113 153.359 228.523 153.359
 240.094 c 153.359 242.773 l 153.359 259.922 167.309 273.867 184.457 273.867
 c 299.074 273.867 l 303.859 273.867 307.758 269.977 307.758 265.191 c 307.758
 223.109 l 307.754 220.902 305.965 219.113 303.758 219.113 c h
184.457 265.875 m 171.719 265.875 161.352 255.512 161.352 242.773 c 161.352
 240.09 l 161.352 232.934 167.176 227.105 174.336 227.105 c 299.762 227.105
 l 299.762 265.188 l 299.762 265.57 299.453 265.875 299.074 265.875 c h
184.457 265.875 m f
229.75 219.113 m 188.098 219.113 l 176.441 219.113 166.957 228.598 166.957
 240.254 c 166.957 251.906 176.441 261.395 188.098 261.395 c 225.18 261.395
 l 229.906 261.395 233.75 257.551 233.75 252.828 c 233.75 223.109 l 233.746
 220.902 231.961 219.113 229.75 219.113 c h
188.098 253.398 m 180.844 253.398 174.949 247.5 174.949 240.25 c 174.949
 233.004 180.844 227.105 188.098 227.105 c 225.754 227.105 l 225.754 252.824
 l 225.754 253.141 225.496 253.398 225.18 253.398 c h
188.098 253.398 m f
144.242 182.504 m 144.062 182.504 143.883 182.516 143.707 182.539 c 142.559
 182.551 141.527 183.047 140.812 183.836 c 55.023 231.004 l 51.801 232.777
 49.516 235.664 48.586 239.133 c 47.68 242.52 48.188 246.047 50.016 249.066
 c 59.617 264.906 l 63.359 271.074 71.641 273.219 78.07 269.684 c 155.504
 227.105 l 431.195 227.105 l 438.695 227.105 444.793 221.211 444.793 213.969
 c 444.793 195.68 l 444.793 188.434 438.695 182.539 431.195 182.539 c 144.781
 182.539 l 144.602 182.516 144.422 182.504 144.242 182.504 c h
145.215 190.531 m 431.199 190.531 l 434.293 190.531 436.805 192.844 436.805
 195.68 c 436.805 213.969 l 436.805 216.805 434.293 219.113 431.199 219.113
 c 154.48 219.113 l 153.805 219.113 153.145 219.281 152.555 219.609 c 74.223
 262.676 l 71.496 264.18 68.008 263.32 66.453 260.762 c 56.855 244.926 l
 56.164 243.785 55.973 242.461 56.309 241.203 c 56.668 239.855 57.582 238.719
 58.875 238.012 c h
145.215 190.531 m f
425.227 219.113 m 412.156 219.113 l 409.953 219.113 408.16 220.906 408.16
 223.109 c 408.16 251.531 l 408.16 252.48 408.5 253.402 409.117 254.121 
c 423.898 271.496 l 425.188 273.004 427.043 273.867 429.004 273.867 c 432.727
 273.867 435.758 270.777 435.758 266.977 c 435.758 229.969 l 435.758 223.984
 431.031 219.113 425.227 219.113 c h
416.152 227.105 m 425.227 227.105 l 426.625 227.105 427.766 228.391 427.766
 229.969 c 427.766 263.703 l 416.152 250.059 l h
416.152 227.105 m f
412.16 219.113 m 303.758 219.113 l 301.551 219.113 299.762 220.906 299.762
 223.109 c 299.762 260.223 l 299.762 261.32 300.211 262.367 301.008 263.121
 c 301.805 263.879 302.871 264.27 303.973 264.211 c 410.113 258.461 l 413.5
 258.273 416.152 255.52 416.152 252.188 c 416.152 223.109 l 416.156 220.902
 414.371 219.113 412.16 219.113 c h
307.754 227.105 m 408.164 227.105 l 408.164 250.562 l 307.754 256.004 l
 h
307.754 227.105 m f
0.976471 0.811765 0.811765 rg
229.75 246.488 m 313.504 240.934 l 329.988 243.559 l 330.633 243.66 331.281
 243.711 331.926 243.711 c 343.961 243.711 l 348.555 243.711 352.727 241.164
 354.645 237.188 c 355.086 236.273 l 355.789 234.805 356.152 233.219 356.152
 231.605 c 356.152 223.109 l 229.75 223.109 l h
229.75 246.488 m f
0.215686 0.384314 0.8 rg
356.156 219.113 m 229.75 219.113 l 227.547 219.113 225.754 220.906 225.754
 223.109 c 225.754 246.488 l 225.754 247.598 226.215 248.652 227.02 249.41
 c 227.828 250.164 228.918 250.547 230.016 250.477 c 313.32 244.949 l 329.359
 247.504 l 330.211 247.637 331.074 247.707 331.926 247.707 c 343.961 247.707
 l 350.066 247.707 355.668 244.262 358.242 238.918 c 358.684 238.004 l 359.637
 236.02 360.148 233.805 360.148 231.605 c 360.148 223.109 l 360.152 220.902
 358.363 219.113 356.156 219.113 c h
233.746 227.105 m 352.16 227.105 l 352.16 231.605 l 352.16 232.625 351.934
 233.609 351.484 234.535 c 351.043 235.457 l 349.797 238.039 347.02 239.715
 343.961 239.715 c 331.926 239.715 l 331.492 239.715 331.055 239.68 330.617
 239.613 c 314.133 236.988 l 313.84 236.941 313.543 236.93 313.238 236.945
 c 233.75 242.219 l 233.75 227.105 l h
233.746 227.105 m f
0.72549 0.745098 0.988235 rg
362.246 282.395 m 208.344 282.395 l 194.566 282.395 183.395 270.207 183.395
 255.18 c 183.395 186.488 l 387.195 186.488 l 387.195 255.18 l 387.195 270.207
 376.02 282.395 362.246 282.395 c h
364.773 207.059 m 205.809 207.059 l 205.809 251.84 l 205.809 257.355 209.91
 261.828 214.969 261.828 c 355.613 261.828 l 360.676 261.828 364.773 257.355
 364.773 251.836 c h
364.773 207.059 m f
0.215686 0.384314 0.8 rg
387.195 182.492 m 183.395 182.492 l 181.188 182.492 179.398 184.285 179.398
 186.488 c 179.398 255.18 l 179.398 272.391 192.383 286.391 208.344 286.391
 c 362.246 286.391 l 378.203 286.391 391.191 272.391 391.191 255.18 c 391.191
 186.488 l 391.191 184.285 389.398 182.492 387.195 182.492 c h
187.391 190.484 m 383.199 190.484 l 383.199 255.18 l 383.199 267.984 373.797
 278.398 362.246 278.398 c 208.344 278.398 l 196.789 278.398 187.391 267.984
 187.391 255.18 c h
364.773 203.062 m 205.809 203.062 l 203.605 203.062 201.812 204.852 201.812
 207.059 c 201.812 251.84 l 201.812 259.547 207.715 265.828 214.969 265.828
 c 355.613 265.828 l 362.871 265.828 368.77 259.547 368.77 251.84 c 368.77
 207.062 l 368.77 204.852 366.984 203.062 364.773 203.062 c h
209.809 211.055 m 360.781 211.055 l 360.781 251.836 l 360.781 255.137 358.465
 257.832 355.617 257.832 c 214.969 257.832 l 212.125 257.832 209.809 255.137
 209.809 251.836 c h
209.809 211.055 m f
440.801 136.781 m 52.074 136.781 l 49.863 136.781 48.078 138.57 48.078 
140.777 c 48.078 186.488 l 48.078 188.695 49.863 190.484 52.074 190.484 
c 440.801 190.484 l 443.008 190.484 444.797 188.695 444.797 186.488 c 444.797
 140.777 l 444.797 138.57 443.008 136.781 440.801 136.781 c h
56.07 144.773 m 436.805 144.773 l 436.805 182.492 l 56.07 182.492 l h
56.07 144.773 m f
0.878431 0.921569 0.988235 rg
65.711 68.43 m 70.637 68.43 75.277 67.262 79.426 65.242 c 79.426 108.727
 l 51.996 108.727 l 51.996 65.242 l 56.145 67.262 60.789 68.43 65.711 68.43
 c h
65.711 68.43 m f
422.441 68.43 m 427.363 68.43 432.008 67.262 436.156 65.242 c 436.156 108.727
 l 408.727 108.727 l 408.727 65.242 l 412.871 67.262 417.516 68.43 422.441
 68.43 c h
422.441 68.43 m f
0.215686 0.384314 0.8 rg
408.723 61.387 m 79.426 61.387 l 77.223 61.387 75.43 63.18 75.43 65.383
 c 75.43 83.668 l 75.43 85.875 77.223 87.664 79.426 87.664 c 408.727 87.664
 l 410.934 87.664 412.723 85.875 412.723 83.668 c 412.723 65.383 l 412.719
 63.18 410.934 61.387 408.723 61.387 c h
83.422 69.379 m 404.73 69.379 l 404.73 79.672 l 83.422 79.672 l h
83.422 69.379 m f
65.711 1.691 m 46.207 1.691 30.34 17.559 30.34 37.059 c 30.34 56.559 46.207
 72.426 65.711 72.426 c 85.215 72.426 101.082 56.559 101.082 37.059 c 101.082
 17.559 85.215 1.691 65.711 1.691 c h
65.711 64.434 m 50.613 64.434 38.332 52.152 38.332 37.059 c 38.332 21.965
 50.613 9.684 65.711 9.684 c 80.809 9.684 93.09 21.961 93.09 37.059 c 93.09
 52.152 80.809 64.434 65.711 64.434 c h
65.711 64.434 m f
422.441 1.691 m 402.941 1.691 387.074 17.559 387.074 37.059 c 387.074 56.559
 402.941 72.426 422.441 72.426 c 441.945 72.426 457.809 56.559 457.809 37.059
 c 457.809 17.559 441.941 1.691 422.441 1.691 c h
422.441 64.434 m 407.344 64.434 395.066 52.152 395.066 37.059 c 395.066
 21.965 407.344 9.684 422.441 9.684 c 437.535 9.684 449.816 21.961 449.816
 37.059 c 449.816 52.152 437.535 64.434 422.441 64.434 c h
422.441 64.434 m f
79.426 61.246 m 78.828 61.246 78.227 61.379 77.676 61.648 c 70.094 65.348
 61.332 65.348 53.746 61.648 c 52.512 61.047 51.051 61.121 49.879 61.855
 c 48.715 62.582 48 63.863 48 65.242 c 48 108.727 l 48 110.934 49.789 112.723
 51.996 112.723 c 79.426 112.723 l 81.629 112.723 83.422 110.934 83.422 
108.727 c 83.422 65.242 l 83.422 63.863 82.711 62.582 81.543 61.855 c 80.898
 61.449 80.164 61.246 79.426 61.246 c h
55.992 104.73 m 55.992 71.055 l 62.297 72.879 69.129 72.879 75.43 71.055
 c 75.43 104.73 l h
55.992 104.73 m f
436.156 61.246 m 435.555 61.246 434.957 61.379 434.406 61.648 c 426.824
 65.348 418.059 65.348 410.477 61.648 c 409.238 61.047 407.773 61.121 406.609
 61.855 c 405.438 62.582 404.727 63.863 404.727 65.242 c 404.727 108.727
 l 404.727 110.934 406.52 112.723 408.723 112.723 c 436.156 112.723 l 438.363
 112.723 440.152 110.934 440.152 108.727 c 440.152 65.242 l 440.152 63.863
 439.441 62.582 438.273 61.855 c 437.629 61.449 436.891 61.246 436.156 61.246
 c h
422.441 72.426 m 425.758 72.426 429.008 71.965 432.16 71.055 c 432.16 104.73
 l 412.719 104.73 l 412.719 71.055 l 415.871 71.965 419.121 72.426 422.441
 72.426 c h
422.441 72.426 m f
0.878431 0.921569 0.988235 rg
71.418 404.957 75.949 -36.758 re f
0.215686 0.384314 0.8 rg
132.797 333.629 m 85.988 333.629 l 82.965 333.629 80.137 334.977 78.227
 337.328 c 69.652 347.914 l 68.219 349.684 67.422 351.922 67.422 354.203
 c 67.422 429.535 l 67.422 435.043 71.906 439.527 77.414 439.527 c 141.371
 439.527 l 146.883 439.527 151.363 435.043 151.363 429.535 c 151.363 354.203
 l 151.363 351.922 150.57 349.684 149.133 347.914 c 140.559 337.332 l 138.652
 334.977 135.824 333.629 132.797 333.629 c h
77.414 431.535 m 76.312 431.535 75.414 430.637 75.414 429.535 c 75.414 
354.203 l 75.414 353.746 75.574 353.297 75.863 352.949 c 84.438 342.363 
l 84.82 341.891 85.387 341.621 85.988 341.621 c 132.797 341.621 l 133.398
 341.621 133.965 341.891 134.344 342.363 c 142.922 352.949 l 143.211 353.301
 143.367 353.746 143.367 354.203 c 143.367 429.535 l 143.367 430.637 142.469
 431.535 141.367 431.535 c h
77.414 431.535 m f
0.878431 0.921569 0.988235 rg
109.305 424.52 m 106 424.52 103.32 426.871 103.312 429.777 c 103.25 463.195
 l 103.242 466.105 105.922 468.469 109.23 468.473 c 109.242 468.473 l 112.551
 468.473 115.23 466.121 115.238 463.215 c 115.301 429.793 l 115.309 426.883
 112.629 424.523 109.316 424.52 c 109.316 424.52 109.312 424.52 109.305 
424.52 c h
109.305 424.52 m f
0.215686 0.384314 0.8 rg
109.324 420.523 m 109.324 420.523 109.312 420.523 109.309 420.523 c 103.812
 420.523 99.332 424.672 99.32 429.77 c 99.254 463.188 l 99.25 465.723 100.379
 468.18 102.355 469.922 c 104.215 471.562 106.656 472.465 109.227 472.469
 c 114.742 472.469 119.227 468.324 119.234 463.223 c 119.301 429.805 l 119.305
 427.27 118.176 424.812 116.199 423.07 c 114.34 421.43 111.902 420.527 109.324
 420.523 c h
109.242 464.477 m 108.621 464.477 108.039 464.277 107.641 463.93 c 107.461
 463.77 107.246 463.512 107.246 463.203 c 107.312 429.785 l 107.312 429.184
 108.168 428.516 109.309 428.516 c 109.32 428.516 l 109.934 428.516 110.516
 428.711 110.91 429.059 c 111.094 429.219 111.309 429.477 111.305 429.785
 c 111.242 463.207 l 111.242 463.809 110.383 464.477 109.242 464.477 c h
109.242 464.477 m f
Q Q
showpage
%%Trailer
end restore
%%EOF
