%!PS-Adobe-3.0 EPSF-3.0
%%Creator: cairo 1.14.8 (http://cairographics.org)
%%CreationDate: Wed Mar 20 09:06:38 2019
%%Pages: 1
%%DocumentData: Clean7Bit
%%LanguageLevel: 2
%%BoundingBox: 107 0 381 488
%%EndComments
%%BeginProlog
save
50 dict begin
/q { gsave } bind def
/Q { grestore } bind def
/cm { 6 array astore concat } bind def
/w { setlinewidth } bind def
/J { setlinecap } bind def
/j { setlinejoin } bind def
/M { setmiterlimit } bind def
/d { setdash } bind def
/m { moveto } bind def
/l { lineto } bind def
/c { curveto } bind def
/h { closepath } bind def
/re { exch dup neg 3 1 roll 5 3 roll moveto 0 rlineto
      0 exch rlineto 0 rlineto closepath } bind def
/S { stroke } bind def
/f { fill } bind def
/f* { eofill } bind def
/n { newpath } bind def
/W { clip } bind def
/W* { eoclip } bind def
/BT { } bind def
/ET { } bind def
/pdfmark where { pop globaldict /?pdfmark /exec load put }
    { globaldict begin /?pdfmark /pop load def /pdfmark
    /cleartomark load def end } ifelse
/BDC { mark 3 1 roll /BDC pdfmark } bind def
/EMC { mark /EMC pdfmark } bind def
/cairo_store_point { /cairo_point_y exch def /cairo_point_x exch def } def
/Tj { show currentpoint cairo_store_point } bind def
/TJ {
  {
    dup
    type /stringtype eq
    { show } { -0.001 mul 0 cairo_font_matrix dtransform rmoveto } ifelse
  } forall
  currentpoint cairo_store_point
} bind def
/cairo_selectfont { cairo_font_matrix aload pop pop pop 0 0 6 array astore
    cairo_font exch selectfont cairo_point_x cairo_point_y moveto } bind def
/Tf { pop /cairo_font exch def /cairo_font_matrix where
      { pop cairo_selectfont } if } bind def
/Td { matrix translate cairo_font_matrix matrix concatmatrix dup
      /cairo_font_matrix exch def dup 4 get exch 5 get cairo_store_point
      /cairo_font where { pop cairo_selectfont } if } bind def
/Tm { 2 copy 8 2 roll 6 array astore /cairo_font_matrix exch def
      cairo_store_point /cairo_font where { pop cairo_selectfont } if } bind def
/g { setgray } bind def
/rg { setrgbcolor } bind def
/d1 { setcachedevice } bind def
%%EndProlog
%%BeginSetup
%%EndSetup
%%Page: 1 1
%%BeginPageSetup
%%PageBoundingBox: 107 0 381 488
%%EndPageSetup
q 107 0 274 488 rectclip q
0.419608 0.866667 0.866667 rg
300.422 245.309 m 281.297 245.309 l 281.297 234.551 l 281.297 229.711 277.371
 225.785 272.531 225.785 c 212.41 225.785 l 207.57 225.785 203.648 229.711
 203.648 234.551 c 203.648 245.309 l 186.266 245.309 l 185.723 245.309 185.199
 245.25 184.664 245.223 c 172.41 244.938 l 172.41 238.5 l 172.473 238.477
 l 172.473 4 l 338.715 4 l 338.715 203.621 l 338.715 226.645 321.57 245.309
 300.422 245.309 c h
300.422 245.309 m f
0.976471 0.811765 0.811765 rg
242.473 255.203 m 228.344 255.203 215.094 258.949 203.648 265.492 c 203.648
 234.551 l 203.648 229.711 207.57 225.785 212.41 225.785 c 272.531 225.785
 l 277.371 225.785 281.297 229.711 281.297 234.551 c 281.297 265.492 l 269.852
 258.949 256.602 255.203 242.473 255.203 c h
242.473 255.203 m f
267.223 4 m 133.09 4 l 120.938 4 111.09 13.852 111.09 26 c 111.09 58.664
 l 111.09 70.816 120.938 80.664 133.09 80.664 c 267.223 80.664 l 287.258
 80.664 303.5 64.426 303.5 44.387 c 303.5 40.277 l 303.5 20.242 287.258 
4 267.223 4 c h
267.223 4 m f
0.215686 0.384314 0.8 rg
267.223 0 m 133.09 0 l 118.754 0 107.09 11.664 107.09 26 c 107.09 58.664
 l 107.09 73.004 118.754 84.664 133.09 84.664 c 267.223 84.664 l 289.43 
84.664 307.5 66.598 307.5 44.387 c 307.5 40.277 l 307.5 18.066 289.43 0 
267.223 0 c h
133.09 76.664 m 123.164 76.664 115.09 68.59 115.09 58.664 c 115.09 26 l
 115.09 16.074 123.164 8 133.09 8 c 267.223 8 l 285.02 8 299.5 22.48 299.5
 40.277 c 299.5 44.387 l 299.5 62.188 285.02 76.664 267.223 76.664 c h
133.09 76.664 m f
0.419608 0.866667 0.866667 rg
307.715 245.309 m 303.5 245.309 l 303.5 245.137 l 323.203 243.426 338.715
 225.516 338.715 203.621 c 338.715 113.332 l 375.719 113.332 l 375.719 177.305
 l 375.715 214.863 345.273 245.309 307.715 245.309 c h
307.715 245.309 m f
0.878431 0.921569 0.988235 rg
255.344 80.664 m 267.223 80.664 l 271.48 80.664 275.547 79.895 279.344 
78.547 c 281.508 77.777 283.566 76.793 285.523 75.648 c 313.992 245.008 
l 311.926 245.199 309.836 245.309 307.715 245.309 c 303.5 245.309 l 303.5
 245.137 l 302.48 245.227 301.461 245.309 300.422 245.309 c 284.484 245.309
 l 254.094 80.668 l 255.344 80.668 l h
255.344 80.664 m f
0.215686 0.384314 0.8 rg
285.523 71.648 m 284.82 71.648 284.121 71.832 283.496 72.199 c 281.691 
73.258 279.844 74.125 278.004 74.781 c 274.473 76.031 270.848 76.668 267.219
 76.668 c 254.094 76.668 l 252.906 76.668 251.781 77.195 251.02 78.109 c
 250.262 79.023 249.945 80.227 250.16 81.395 c 280.551 246.035 l 280.898
 247.934 282.555 249.309 284.484 249.309 c 300.422 249.309 l 301.199 249.309
 301.957 249.273 302.684 249.219 c 302.945 249.281 303.219 249.309 303.496
 249.309 c 307.715 249.309 l 309.855 249.309 312.027 249.207 314.355 248.992
 c 315.461 248.891 316.48 248.336 317.156 247.453 c 317.836 246.57 318.117
 245.445 317.934 244.348 c 289.465 74.988 l 289.246 73.691 288.406 72.586
 287.215 72.027 c 286.68 71.773 286.098 71.648 285.523 71.648 c h
258.902 84.664 m 267.223 84.664 l 271.762 84.664 276.289 83.875 280.68 
82.316 c 281.277 82.105 281.875 81.875 282.473 81.629 c 309.309 241.285 
l 308.773 241.301 308.242 241.309 307.715 241.309 c 304.539 241.309 l 304.094
 241.172 303.621 241.109 303.152 241.152 c 302.219 241.234 301.305 241.309
 300.422 241.309 c 287.816 241.309 l h
258.902 84.664 m f
375.715 109.336 m 338.715 109.336 l 336.508 109.336 334.715 111.125 334.715
 113.336 c 334.715 203.625 l 334.715 223.133 320.852 239.617 303.152 241.152
 c 301.086 241.336 299.5 243.062 299.5 245.141 c 299.5 247.348 301.293 249.309
 303.5 249.309 c 307.715 249.309 l 347.418 249.309 379.715 217.012 379.715
 177.309 c 379.715 113.336 l 379.715 111.125 377.926 109.336 375.715 109.336
 c h
342.715 117.336 m 371.715 117.336 l 371.715 177.309 l 371.715 205.438 353.473
 229.387 328.199 237.945 c 337.102 229.52 342.715 217.168 342.715 203.621
 c h
342.715 117.336 m f
0.878431 0.921569 0.988235 rg
228.574 80.664 25 -76.664 re f
278.574 78.828 m 278.574 5.84 l 293.043 10.605 303.5 24.211 303.5 40.277
 c 303.5 44.387 l 303.5 60.457 293.043 74.062 278.574 78.828 c h
278.574 78.828 m f
267.223 4 m 271.191 4 275 4.66 278.574 5.84 c 278.574 78.797 l 277.715 
79.086 276.84 79.34 275.957 79.566 c 275.895 79.582 275.836 79.598 275.773
 79.613 c 275.02 79.801 274.254 79.953 273.48 80.094 c 273.035 80.172 272.586
 80.238 272.133 80.301 c 271.59 80.375 271.047 80.453 270.496 80.508 c 269.414
 80.602 268.324 80.672 267.219 80.672 c 253.57 80.672 l 253.57 4 l h
267.223 4 m f
0.419608 0.866667 0.866667 rg
172.41 238.5 m 172.41 244.938 l 172.43 244.984 l 137.957 241.68 111 212.645
 111 177.309 c 111 113.336 l 172.473 113.336 l 172.473 238.477 l h
172.41 238.5 m f
0.976471 0.811765 0.811765 rg
375.715 113.336 m 338.715 113.336 l 338.715 4 l 376.137 4 l h
375.715 113.336 m f
0.215686 0.384314 0.8 rg
253.574 0 m 228.574 0 l 226.367 0 224.574 1.793 224.574 4 c 224.574 80.664
 l 224.574 82.875 226.367 84.664 228.574 84.664 c 253.574 84.664 l 255.781
 84.664 257.574 82.875 257.574 80.664 c 257.574 4 l 257.574 1.793 255.781
 0 253.574 0 c h
232.574 8 m 249.574 8 l 249.574 76.664 l 232.574 76.664 l h
232.574 8 m f
278.574 1.836 m 277.742 1.836 276.922 2.094 276.23 2.594 c 275.188 3.348
 274.574 4.551 274.574 5.836 c 274.574 78.828 l 274.574 80.113 275.191 81.316
 276.23 82.07 c 277.27 82.82 278.609 83.027 279.824 82.629 c 296.379 77.176
 307.5 61.805 307.5 44.387 c 307.5 40.277 l 307.5 22.859 296.379 7.492 279.824
 2.039 c 279.418 1.902 278.992 1.836 278.574 1.836 c h
282.574 72.773 m 282.574 11.895 l 292.887 17.453 299.5 28.258 299.5 40.281
 c 299.5 44.391 l 299.5 56.41 292.887 67.215 282.574 72.773 c h
282.574 72.773 m f
267.223 0 m 253.574 0 l 251.367 0 249.574 1.793 249.574 4 c 249.574 80.664
 l 249.574 82.875 251.367 84.664 253.574 84.664 c 267.223 84.664 l 268.312
 84.664 269.469 84.609 270.855 84.484 c 271.465 84.426 272.051 84.348 272.633
 84.266 c 273.176 84.191 273.676 84.117 274.172 84.027 c 275.047 83.871 
275.898 83.699 276.738 83.492 c 276.75 83.488 276.945 83.438 276.953 83.438
 c 277.922 83.191 278.891 82.906 279.844 82.59 c 281.473 82.043 282.57 80.516
 282.57 78.797 c 282.57 5.84 l 282.57 4.113 281.465 2.578 279.824 2.039 
c 275.723 0.688 271.48 0 267.223 0 c h
257.574 8 m 267.223 8 l 269.688 8 272.152 8.289 274.574 8.859 c 274.574
 75.785 l 273.996 75.922 273.387 76.043 272.773 76.152 c 272.395 76.219 
271.996 76.277 271.594 76.328 c 271.055 76.406 270.598 76.473 270.125 76.516
 c 269 76.617 268.074 76.664 267.223 76.664 c 257.574 76.664 l h
257.574 8 m f
0.878431 0.921569 0.988235 rg
204.793 80.664 m 205.406 4 l 228.574 4 l 228.574 80.664 l h
204.793 80.664 m f
0.215686 0.384314 0.8 rg
228.574 0 m 205.406 0 l 203.211 0 201.426 1.773 201.406 3.969 c 200.793
 80.633 l 200.785 81.699 201.203 82.727 201.953 83.484 c 202.703 84.238 
203.727 84.664 204.793 84.664 c 228.574 84.664 l 230.781 84.664 232.574 
82.875 232.574 80.664 c 232.574 4 l 232.574 1.793 230.781 0 228.574 0 c 
h
209.375 8 m 224.574 8 l 224.574 76.664 l 208.824 76.664 l h
209.375 8 m f
172.473 109.336 m 111 109.336 l 108.793 109.336 107 111.125 107 113.336
 c 107 177.309 l 107 214.605 134.965 245.41 172.047 248.969 c 173.441 249.109
 174.805 248.496 175.641 247.375 c 176.242 246.562 176.508 245.57 176.41
 244.594 c 176.41 239.184 l 176.453 238.953 176.473 238.719 176.473 238.477
 c 176.473 113.336 l 176.473 111.125 174.68 109.336 172.473 109.336 c h
115 117.336 m 168.473 117.336 l 168.473 237.812 l 168.43 238.039 168.41
 238.27 168.41 238.504 c 168.41 240.434 l 137.664 235.367 115 208.969 115
 177.309 c h
115 117.336 m f
0.976471 0.811765 0.811765 rg
321.367 363.422 m 321.199 363.422 321.035 363.398 320.871 363.395 c 320.871
 370.805 l 320.871 414.102 285.77 449.203 242.473 449.203 c 199.176 449.203
 164.074 414.102 164.074 370.805 c 164.074 363.395 l 163.906 363.398 163.746
 363.422 163.578 363.422 c 150.367 363.422 139.66 352.715 139.66 339.504
 c 139.66 326.293 150.367 315.586 163.578 315.586 c 164.445 315.586 165.301
 315.637 166.145 315.727 c 174.234 281.047 205.324 255.203 242.469 255.203
 c 279.617 255.203 310.707 281.047 318.797 315.727 c 319.641 315.637 320.492
 315.586 321.363 315.586 c 334.57 315.586 345.281 326.293 345.281 339.504
 c 345.281 352.715 334.574 363.422 321.367 363.422 c h
321.367 363.422 m f
0.215686 0.384314 0.8 rg
242.473 251.203 m 205.094 251.203 172.906 275.867 163.07 311.594 c 147.91
 311.863 135.66 324.281 135.66 339.508 c 135.66 353.715 146.324 365.477 
160.074 367.207 c 160.074 370.809 l 160.074 416.242 197.035 453.207 242.473
 453.207 c 287.906 453.207 324.871 416.242 324.871 370.809 c 324.871 367.207
 l 338.613 365.477 349.281 353.711 349.281 339.508 c 349.281 324.281 337.031
 311.867 321.871 311.594 c 312.039 275.867 279.852 251.203 242.473 251.203
 c h
166.148 319.727 m 167.984 319.727 169.613 318.465 170.039 316.637 c 177.93
 282.82 207.715 259.203 242.473 259.203 c 277.23 259.203 307.016 282.82 
314.902 316.637 c 315.363 318.605 317.246 319.93 319.223 319.707 c 319.98
 319.625 320.68 319.59 321.363 319.59 c 332.348 319.59 341.281 328.523 341.281
 339.508 c 341.281 350.473 332.375 359.395 321.414 359.426 c 321.188 359.406
 321.035 359.402 320.871 359.398 c 319.824 359.398 318.816 359.812 318.066
 360.547 c 317.301 361.297 316.871 362.324 316.871 363.398 c 316.871 370.809
 l 316.871 411.828 283.492 445.207 242.473 445.207 c 201.449 445.207 168.074
 411.828 168.074 370.809 c 168.074 363.398 l 168.074 362.324 167.641 361.297
 166.879 360.547 c 166.113 359.793 165.078 359.352 164.004 359.398 c 163.855
 359.402 163.711 359.41 163.566 359.422 c 163.562 359.422 163.562 359.422
 163.562 359.422 c 152.598 359.422 143.66 350.484 143.66 339.504 c 143.66
 328.523 152.598 319.586 163.578 319.586 c 164.262 319.586 164.961 319.625
 165.723 319.707 c 165.863 319.723 166.008 319.727 166.148 319.727 c h
166.148 319.727 m f
242.473 251.203 m 205.094 251.203 172.906 275.867 163.07 311.594 c 147.91
 311.863 135.66 324.281 135.66 339.508 c 135.66 353.715 146.324 365.477 
160.074 367.207 c 160.074 370.809 l 160.074 416.242 197.035 453.207 242.473
 453.207 c 287.906 453.207 324.871 416.242 324.871 370.809 c 324.871 367.207
 l 338.613 365.477 349.281 353.711 349.281 339.508 c 349.281 324.281 337.031
 311.867 321.871 311.594 c 312.039 275.867 279.852 251.203 242.473 251.203
 c h
166.148 319.727 m 167.984 319.727 169.613 318.465 170.039 316.637 c 177.93
 282.82 207.715 259.203 242.473 259.203 c 277.23 259.203 307.016 282.82 
314.902 316.637 c 315.363 318.605 317.246 319.93 319.223 319.707 c 319.98
 319.625 320.68 319.59 321.363 319.59 c 332.348 319.59 341.281 328.523 341.281
 339.508 c 341.281 350.473 332.375 359.395 321.414 359.426 c 321.188 359.406
 321.035 359.402 320.871 359.398 c 319.824 359.398 318.816 359.812 318.066
 360.547 c 317.301 361.297 316.871 362.324 316.871 363.398 c 316.871 370.809
 l 316.871 411.828 283.492 445.207 242.473 445.207 c 201.449 445.207 168.074
 411.828 168.074 370.809 c 168.074 363.398 l 168.074 362.324 167.641 361.297
 166.879 360.547 c 166.113 359.793 165.078 359.352 164.004 359.398 c 163.855
 359.402 163.711 359.41 163.566 359.422 c 163.562 359.422 163.562 359.422
 163.562 359.422 c 152.598 359.422 143.66 350.484 143.66 339.504 c 143.66
 328.523 152.598 319.586 163.578 319.586 c 164.262 319.586 164.961 319.625
 165.723 319.707 c 165.863 319.723 166.008 319.727 166.148 319.727 c h
166.148 319.727 m f
201.086 333.699 m 196.684 333.699 193.113 337.27 193.113 341.672 c 193.113
 354.961 l 193.113 359.363 196.684 362.934 201.086 362.934 c 205.488 362.934
 209.059 359.363 209.059 354.961 c 209.059 341.672 l 209.059 337.27 205.488
 333.699 201.086 333.699 c h
201.086 333.699 m f
283.859 333.699 m 279.453 333.699 275.887 337.27 275.887 341.672 c 275.887
 354.961 l 275.887 359.363 279.457 362.934 283.859 362.934 c 288.262 362.934
 291.828 359.363 291.828 354.961 c 291.828 341.672 l 291.832 337.27 288.262
 333.699 283.859 333.699 c h
283.859 333.699 m f
0.27451 0.443137 0.776471 rg
319.902 383.012 m 320.527 379.035 320.867 374.961 320.867 370.805 c 320.867
 363.395 l 321.035 363.398 321.195 363.422 321.363 363.422 c 326.004 363.422
 330.32 362.078 333.988 359.789 c 333.988 383.012 l h
319.902 383.012 m f
150.953 383.012 m 150.953 359.789 l 154.621 362.078 158.938 363.422 163.578
 363.422 c 163.746 363.422 163.906 363.398 164.074 363.395 c 164.074 370.805
 l 164.074 374.961 164.414 379.035 165.039 383.012 c h
150.953 383.012 m f
0.215686 0.384314 0.8 rg
242.473 294.18 m 230.102 294.18 220.773 299.703 220.773 307.031 c 220.773
 309.238 222.562 311.031 224.773 311.031 c 226.98 311.031 228.773 309.238
 228.773 307.031 c 228.773 305.621 233.57 302.18 242.473 302.18 c 251.371
 302.18 256.176 305.625 256.176 307.031 c 256.176 309.238 257.965 311.031
 260.176 311.031 c 262.383 311.031 264.176 309.238 264.176 307.031 c 264.176
 299.703 254.844 294.18 242.473 294.18 c h
242.473 294.18 m f
0.27451 0.443137 0.776471 rg
300.41 383.016 m 341.82 383.016 l 344.883 383.016 347.367 385.496 347.367
 388.559 c 347.367 420.23 l 347.363 455.449 318.812 484 283.594 484 c 281.617
 484 l 272.43 484 264.98 476.551 264.98 467.363 c 264.98 418.445 l 264.98
 398.875 280.844 383.016 300.41 383.016 c h
300.41 383.016 m f
215.297 383.016 m 143.145 383.016 l 140.07 383.016 137.578 385.508 137.578
 388.582 c 137.578 414.773 l 137.578 453.008 168.574 484 206.805 484 c 248.527
 484 l 257.703 484 265.141 476.562 265.141 467.387 c 265.141 432.859 l 265.141
 405.328 242.824 383.016 215.297 383.016 c h
215.297 383.016 m f
0.215686 0.384314 0.8 rg
341.82 379.016 m 300.41 379.016 l 278.672 379.016 260.98 396.703 260.98
 418.445 c 260.98 467.363 l 260.98 478.742 270.238 488 281.617 488 c 283.594
 488 l 320.965 488 351.363 457.598 351.363 420.23 c 351.363 388.559 l 351.363
 383.297 347.086 379.016 341.82 379.016 c h
281.617 480 m 274.648 480 268.98 474.332 268.98 467.363 c 268.98 418.445
 l 268.98 401.113 283.082 387.016 300.41 387.016 c 341.82 387.016 l 342.672
 387.016 343.363 387.707 343.363 388.559 c 343.363 420.23 l 343.363 453.188
 316.551 480 283.598 480 c h
281.617 480 m f
215.297 379.016 m 143.145 379.016 l 137.871 379.016 133.578 383.305 133.578
 388.582 c 133.578 414.773 l 133.578 455.148 166.43 488 206.805 488 c 248.527
 488 l 259.895 488 269.141 478.754 269.141 467.387 c 269.141 432.859 l 269.141
 403.168 244.988 379.016 215.297 379.016 c h
206.805 480 m 170.84 480 141.578 450.738 141.578 414.773 c 141.578 388.578
 l 141.578 387.715 142.281 387.012 143.145 387.012 c 215.297 387.012 l 240.574
 387.012 261.141 407.578 261.141 432.855 c 261.141 467.387 l 261.141 474.344
 255.48 480 248.523 480 c h
206.805 480 m f
333.988 355.793 m 333.254 355.793 332.52 355.996 331.871 356.398 c 328.699
 358.375 325.066 359.422 321.363 359.422 c 321.211 359.406 321.039 359.402
 320.867 359.398 c 319.82 359.398 318.812 359.809 318.066 360.547 c 317.301
 361.297 316.867 362.324 316.867 363.398 c 316.867 370.805 l 316.867 374.625
 316.559 378.523 315.953 382.391 c 315.77 383.547 316.102 384.723 316.863
 385.613 c 317.625 386.5 318.734 387.012 319.902 387.012 c 333.988 387.012
 l 336.199 387.012 337.988 385.219 337.988 383.012 c 337.988 359.793 l 337.988
 358.34 337.199 357 335.934 356.293 c 335.324 355.957 334.656 355.793 333.988
 355.793 c h
324.867 367.199 m 326.609 366.977 328.324 366.594 329.988 366.047 c 329.988
 379.016 l 324.449 379.016 l 324.727 376.266 324.867 373.52 324.867 370.805
 c h
324.867 367.199 m f
150.953 355.793 m 150.285 355.793 149.617 355.957 149.016 356.293 c 147.742
 357 146.953 358.34 146.953 359.793 c 146.953 383.012 l 146.953 385.219 
148.746 387.012 150.953 387.012 c 165.039 387.012 l 166.207 387.012 167.316
 386.5 168.078 385.613 c 168.84 384.723 169.172 383.547 168.992 382.391 
c 168.383 378.508 168.074 374.609 168.074 370.805 c 168.074 363.395 l 168.074
 362.32 167.645 361.297 166.879 360.543 c 166.117 359.789 165.082 359.348
 164.008 359.395 c 163.859 359.398 163.711 359.406 163.566 359.414 c 163.562
 359.414 163.559 359.414 163.555 359.414 c 159.871 359.414 156.242 358.371
 153.074 356.395 c 152.426 355.996 151.691 355.793 150.953 355.793 c h
154.953 379.012 m 154.953 366.043 l 156.621 366.59 158.336 366.977 160.074
 367.199 c 160.074 370.805 l 160.074 373.512 160.215 376.258 160.492 379.012
 c h
154.953 379.012 m f
338.715 0 m 172.473 0 l 170.266 0 168.473 1.793 168.473 4 c 168.473 237.812
 l 168.43 238.035 168.41 238.266 168.41 238.5 c 168.41 244.938 l 168.41 
246.941 169.883 248.605 171.812 248.895 c 172.105 248.965 172.41 249 172.723
 249 c 175.086 249 l 183.707 249.203 l 184.551 249.266 185.402 249.309 186.266
 249.309 c 199.648 249.309 l 199.648 265.492 l 199.648 266.918 200.406 268.234
 201.645 268.953 c 202.879 269.664 204.398 269.672 205.637 268.965 c 216.805
 262.578 229.547 259.203 242.473 259.203 c 255.402 259.203 268.141 262.578
 279.312 268.965 c 280.551 269.672 282.07 269.672 283.305 268.953 c 284.539
 268.234 285.297 266.918 285.297 265.492 c 285.297 249.309 l 300.426 249.309
 l 323.742 249.309 342.715 228.812 342.715 203.625 c 342.715 4 l 342.715
 1.793 340.926 0 338.715 0 c h
176.473 8 m 334.715 8 l 334.715 203.625 l 334.715 224.402 319.332 241.309
 300.422 241.309 c 281.297 241.309 l 279.09 241.309 277.297 243.102 277.297
 245.309 c 277.297 258.922 l 266.441 253.855 254.531 251.203 242.473 251.203
 c 230.41 251.203 218.504 253.855 207.648 258.918 c 207.648 245.305 l 207.648
 243.098 205.855 241.305 203.648 241.305 c 186.266 241.305 l 185.574 241.305
 184.895 241.27 184.223 241.219 c 184.148 241.211 184.074 241.207 184 241.207
 c 176.41 241.031 l 176.41 239.164 l 176.453 238.941 176.473 238.711 176.473
 238.477 c h
176.473 8 m f
376.137 0 m 338.715 0 l 336.508 0 334.715 1.793 334.715 4 c 334.715 113.336
 l 334.715 115.543 336.508 117.336 338.715 117.336 c 375.715 117.336 l 377.922
 117.336 379.707 115.551 379.715 113.352 c 380.137 4.016 l 380.141 2.953
 379.723 1.934 378.973 1.18 c 378.223 0.426 377.203 0 376.137 0 c h
342.715 8 m 372.121 8 l 371.73 109.336 l 342.715 109.336 l h
342.715 8 m f
0.878431 0.921569 0.988235 rg
203.477 245.309 m 186.266 245.309 l 186.078 245.309 185.902 245.289 185.723
 245.281 c 185.805 245.336 l 172.41 244.938 l 172.473 241.465 l 172.473 
4 l 205.406 4 l h
203.477 245.309 m f
0.215686 0.384314 0.8 rg
205.406 0 m 172.473 0 l 170.266 0 168.473 1.793 168.473 4 c 168.473 241.465
 l 168.41 244.863 l 168.371 247.055 170.102 248.871 172.289 248.934 c 185.688
 249.328 l 185.883 249.332 186.07 249.324 186.258 249.305 c 203.469 249.305
 l 205.664 249.305 207.457 247.535 207.473 245.34 c 209.402 4.031 l 209.41
 2.965 208.992 1.938 208.242 1.18 c 207.492 0.426 206.473 0 205.406 0 c 
h
176.473 8 m 201.375 8 l 199.508 241.309 l 186.266 241.309 l 186.242 241.305
 185.957 241.285 185.938 241.285 c 185.688 241.277 185.438 241.285 185.195
 241.312 c 176.473 241.055 l h
176.473 8 m f
0.976471 0.811765 0.811765 rg
133.09 80.664 m 172.473 80.664 l 172.473 113.332 l 111.09 113.332 l 111.09
 58.664 l 111.09 70.816 120.938 80.664 133.09 80.664 c h
133.09 80.664 m f
0.215686 0.384314 0.8 rg
111.09 54.664 m 108.879 54.664 107.09 56.457 107.09 58.664 c 107.09 113.332
 l 107.09 115.539 108.879 117.332 111.09 117.332 c 172.473 117.332 l 174.68
 117.332 176.473 115.539 176.473 113.332 c 176.473 80.664 l 176.473 78.457
 174.68 76.664 172.473 76.664 c 133.09 76.664 l 123.164 76.664 115.09 68.59
 115.09 58.664 c 115.09 56.457 113.297 54.664 111.09 54.664 c h
115.09 109.336 m 115.09 77.414 l 119.762 81.906 126.109 84.668 133.09 84.668
 c 168.473 84.668 l 168.473 109.336 l h
115.09 109.336 m f
Q Q
showpage
%%Trailer
end restore
%%EOF
