%!PS-Adobe-3.0 EPSF-3.0
%%Creator: cairo 1.14.8 (http://cairographics.org)
%%CreationDate: Wed Mar 20 09:06:38 2019
%%Pages: 1
%%DocumentData: Clean7Bit
%%LanguageLevel: 2
%%BoundingBox: 7 0 490 496
%%EndComments
%%BeginProlog
save
50 dict begin
/q { gsave } bind def
/Q { grestore } bind def
/cm { 6 array astore concat } bind def
/w { setlinewidth } bind def
/J { setlinecap } bind def
/j { setlinejoin } bind def
/M { setmiterlimit } bind def
/d { setdash } bind def
/m { moveto } bind def
/l { lineto } bind def
/c { curveto } bind def
/h { closepath } bind def
/re { exch dup neg 3 1 roll 5 3 roll moveto 0 rlineto
      0 exch rlineto 0 rlineto closepath } bind def
/S { stroke } bind def
/f { fill } bind def
/f* { eofill } bind def
/n { newpath } bind def
/W { clip } bind def
/W* { eoclip } bind def
/BT { } bind def
/ET { } bind def
/pdfmark where { pop globaldict /?pdfmark /exec load put }
    { globaldict begin /?pdfmark /pop load def /pdfmark
    /cleartomark load def end } ifelse
/BDC { mark 3 1 roll /BDC pdfmark } bind def
/EMC { mark /EMC pdfmark } bind def
/cairo_store_point { /cairo_point_y exch def /cairo_point_x exch def } def
/Tj { show currentpoint cairo_store_point } bind def
/TJ {
  {
    dup
    type /stringtype eq
    { show } { -0.001 mul 0 cairo_font_matrix dtransform rmoveto } ifelse
  } forall
  currentpoint cairo_store_point
} bind def
/cairo_selectfont { cairo_font_matrix aload pop pop pop 0 0 6 array astore
    cairo_font exch selectfont cairo_point_x cairo_point_y moveto } bind def
/Tf { pop /cairo_font exch def /cairo_font_matrix where
      { pop cairo_selectfont } if } bind def
/Td { matrix translate cairo_font_matrix matrix concatmatrix dup
      /cairo_font_matrix exch def dup 4 get exch 5 get cairo_store_point
      /cairo_font where { pop cairo_selectfont } if } bind def
/Tm { 2 copy 8 2 roll 6 array astore /cairo_font_matrix exch def
      cairo_store_point /cairo_font where { pop cairo_selectfont } if } bind def
/g { setgray } bind def
/rg { setrgbcolor } bind def
/d1 { setcachedevice } bind def
%%EndProlog
%%BeginSetup
%%EndSetup
%%Page: 1 1
%%BeginPageSetup
%%PageBoundingBox: 7 0 490 496
%%EndPageSetup
q 7 0 483 496 rectclip q
0.976471 0.654902 0.654902 rg
428.613 10.934 m 482.637 45.188 l 485.801 47.191 486.738 51.379 484.734
 54.543 c 484.062 55.594 l 482.059 58.754 477.875 59.695 474.711 57.691 
c 413.125 18.641 l 416.258 13.703 l 418.906 9.527 424.438 8.285 428.613 
10.934 c h
428.613 10.934 m f
0.976471 0.811765 0.811765 rg
290.691 376.027 m 312.41 376.027 330.012 358.422 330.012 336.707 c 330.012
 313.629 l 331.922 313.629 l 335.297 313.629 338.031 310.895 338.031 307.523
 c 338.031 304.148 335.297 301.414 331.922 301.414 c 328.938 301.414 l 325.559
 286.859 314.137 275.395 299.57 272.031 c 299.57 266.625 l 296.289 267.734
 292.777 268.363 289.117 268.363 c 269.297 268.363 l 267.879 268.363 266.504
 268.223 265.145 268.008 c 265.145 280.453 l 256.719 287.664 251.375 298.367
 251.375 310.332 c 251.375 336.707 l 251.371 358.422 268.977 376.027 290.691
 376.027 c h
290.691 376.027 m f
0.976471 0.654902 0.654902 rg
189.5 264.941 m 233.777 264.941 l 238.832 264.941 242.938 260.836 242.938
 255.781 c 242.938 184.645 l 237.105 180.152 231.809 175.004 227.172 169.297
 c 227.172 249.172 l 189.5 249.172 l 185.148 249.172 181.617 252.699 181.617
 257.059 c 181.621 261.41 185.148 264.941 189.5 264.941 c h
189.5 264.941 m f
0.215686 0.384314 0.8 rg
227.172 165.305 m 226.723 165.305 226.27 165.383 225.832 165.535 c 224.242
 166.098 223.176 167.609 223.176 169.297 c 223.176 245.18 l 189.5 245.18
 l 182.957 245.18 177.629 250.508 177.629 257.059 c 177.629 263.605 182.957
 268.934 189.5 268.934 c 233.777 268.934 l 241.035 268.934 246.93 263.031
 246.93 255.781 c 246.93 184.645 l 246.93 183.406 246.359 182.238 245.375
 181.48 c 239.777 177.168 234.695 172.223 230.273 166.781 c 229.496 165.828
 228.348 165.305 227.172 165.305 c h
189.5 260.945 m 187.359 260.945 185.617 259.203 185.617 257.059 c 185.617
 254.914 187.359 253.168 189.5 253.168 c 227.172 253.168 l 229.375 253.168
 231.164 251.379 231.164 249.176 c 231.164 179.645 l 233.629 182.086 236.227
 184.402 238.941 186.586 c 238.941 255.781 l 238.941 258.629 236.625 260.945
 233.777 260.945 c h
242.938 184.645 m 242.957 184.645 l h
242.938 184.645 m f
315.633 313.305 m 317.637 313.305 319.262 314.93 319.262 316.934 c 319.262
 322.98 l 319.262 324.98 317.637 326.605 315.633 326.605 c 313.629 326.605
 312.008 324.98 312.008 322.98 c 312.008 316.934 l 312.008 314.93 313.629
 313.305 315.633 313.305 c h
315.633 313.305 m f
0.643137 0.788235 1 rg
439.027 69.371 m 464.043 73.633 l 466.258 74.008 468.504 73.18 470.008 
71.426 c 474.324 66.375 l 475.414 65.105 476.012 63.457 476.012 61.754 c
 476.012 59.32 474.793 57.066 472.805 55.816 c 433.895 31.422 l 431.699 
30.047 429.094 29.562 426.582 30.07 c 423.539 30.684 420.914 32.684 419.422
 35.531 c 415.039 43.879 l 413.719 46.391 414.348 49.539 416.52 51.281 c
 h
439.027 69.371 m f
0.215686 0.384314 0.8 rg
428.555 25.879 m 427.637 25.879 426.711 25.973 425.789 26.152 c 421.555
 27.012 417.945 29.75 415.887 33.676 c 411.504 42.02 l 409.289 46.238 410.344
 51.445 414.02 54.395 c 436.527 72.488 l 437.059 72.914 437.688 73.195 438.359
 73.312 c 463.371 77.57 l 466.996 78.18 470.605 76.863 473.039 74.023 c 
477.363 68.973 l 479.066 66.98 480.008 64.418 480.008 61.754 c 480.008 57.969
 478.062 54.398 474.926 52.434 c 436.02 28.039 l 433.746 26.613 431.168 
25.879 428.555 25.879 c h
440.727 65.609 m 419.023 48.172 l 418.34 47.625 418.145 46.555 418.574 
45.738 c 422.961 37.387 l 423.895 35.605 425.508 34.363 427.375 33.988 c
 428.875 33.68 430.445 33.977 431.777 34.805 c 470.68 59.199 l 471.508 59.719
 472.02 60.695 472.02 61.754 c 472.02 62.512 471.762 63.23 471.293 63.777
 c 466.973 68.828 l 466.387 69.512 465.539 69.836 464.715 69.695 c h
440.727 65.609 m f
0.27451 0.443137 0.776471 rg
365.457 167.266 m 373.441 167.266 381.273 164.867 388.105 160.336 c 394.422
 156.141 399.672 150.258 403.367 143.242 c 403.367 143.238 l 443.316 73.176
 l 444.109 71.773 443.816 69.941 442.621 68.934 c 417.273 47.559 l 415.938
 46.434 414.016 46.781 413.074 48.309 c 379.621 102.816 l 376 108.312 l 
374.355 110.812 371.715 112.293 368.906 112.293 c 268.055 112.293 l 254.184
 112.293 242.938 124.637 242.938 139.863 c 242.938 167.266 l h
365.457 167.266 m f
0.215686 0.384314 0.8 rg
415.488 42.902 m 415.141 42.902 414.785 42.93 414.438 42.984 c 412.477 
43.305 410.734 44.484 409.672 46.219 c 376.215 100.727 l 372.672 106.113
 l 371.77 107.48 370.367 108.293 368.91 108.293 c 268.055 108.293 l 252.004
 108.293 238.941 122.453 238.941 139.855 c 238.941 167.262 l 238.941 169.465
 240.734 171.254 242.938 171.254 c 365.461 171.254 l 374.234 171.254 382.828
 168.625 390.312 163.656 c 397.172 159.109 402.91 152.691 406.906 145.098
 c 446.789 75.152 l 448.527 72.098 447.844 68.113 445.199 65.875 c 419.852
 44.504 l 418.609 43.465 417.066 42.902 415.488 42.902 c h
246.93 163.27 m 246.93 139.863 l 246.93 126.863 256.41 116.285 268.055 
116.285 c 368.91 116.285 l 373.055 116.285 376.957 114.125 379.34 110.508
 c 382.957 105.02 l 415.785 51.531 l 439.609 71.617 l 399.898 141.266 l 
396.465 147.793 391.641 153.199 385.898 157.012 c 379.719 161.105 372.656
 163.27 365.461 163.27 c h
439.848 71.195 m 439.867 71.195 l h
439.848 71.195 m f
0.419608 0.866667 0.866667 rg
267.773 112.293 m 321.777 112.293 l 321.777 236.625 l 321.777 254.152 307.562
 268.363 290.035 268.363 c 268.555 268.363 l 254.406 268.363 242.938 256.898
 242.938 242.75 c 242.938 137.129 l 242.938 123.414 254.059 112.293 267.773
 112.293 c h
267.773 112.293 m f
0.215686 0.384314 0.8 rg
321.773 108.297 m 267.773 108.297 l 251.879 108.297 238.941 121.234 238.941
 137.129 c 238.941 242.75 l 238.941 259.074 252.223 272.359 268.551 272.359
 c 290.031 272.359 l 309.738 272.359 325.766 256.328 325.766 236.625 c 325.766
 112.293 l 325.766 110.09 323.98 108.297 321.773 108.297 c h
268.555 264.371 m 256.633 264.371 246.93 254.672 246.93 242.746 c 246.93
 137.129 l 246.93 125.637 256.285 116.285 267.773 116.285 c 317.781 116.285
 l 317.781 236.621 l 317.781 251.922 305.336 264.371 290.035 264.371 c h
268.555 264.371 m f
1 0.917647 0.572549 rg
389.055 103.402 m 389.055 51.129 346.684 8.754 294.402 8.754 c 242.129 
8.754 199.754 51.129 199.754 103.402 c 199.754 155.68 242.129 198.055 294.402
 198.055 c 346.684 198.055 389.055 155.68 389.055 103.402 c h
389.055 103.402 m f
0.215686 0.384314 0.8 rg
294.402 4.762 m 240.016 4.762 195.762 49.016 195.762 103.406 c 195.762 
157.797 240.012 202.055 294.402 202.055 c 348.801 202.055 393.051 157.797
 393.051 103.406 c 393.051 49.016 348.801 4.762 294.402 4.762 c h
294.402 194.062 m 244.414 194.062 203.75 153.395 203.75 103.402 c 203.75
 53.414 244.414 12.75 294.402 12.75 c 344.391 12.75 385.062 53.418 385.062
 103.406 c 385.062 153.395 344.395 194.062 294.402 194.062 c h
294.402 194.062 m f
0.643137 0.788235 1 rg
367.793 103.402 m 367.793 62.875 334.938 30.012 294.402 30.012 c 253.875
 30.012 221.012 62.875 221.012 103.402 c 221.012 143.938 253.875 176.793
 294.402 176.793 c 334.938 176.793 367.793 143.938 367.793 103.402 c h
367.793 103.402 m f
0.976471 0.811765 0.811765 rg
298.496 312.484 m 298.496 304.797 292.262 298.562 284.574 298.562 c 276.887
 298.562 270.652 304.797 270.652 312.484 c 270.652 320.172 276.887 326.402
 284.574 326.402 c 292.262 326.402 298.496 320.172 298.496 312.484 c h
298.496 312.484 m f
0.215686 0.384314 0.8 rg
299.566 262.633 m 299.141 262.633 298.707 262.703 298.289 262.84 c 295.289
 263.855 292.199 264.371 289.113 264.371 c 269.293 264.371 l 268.234 264.371
 267.082 264.27 265.766 264.059 c 264.621 263.883 263.434 264.211 262.547
 264.969 c 261.66 265.727 261.148 266.836 261.148 268.008 c 261.148 278.668
 l 252.371 286.852 247.375 298.289 247.375 310.332 c 247.375 336.707 l 247.375
 360.586 266.805 380.02 290.691 380.02 c 314.574 380.02 334 360.59 334 336.707
 c 334 317.406 l 338.578 316.445 342.02 312.379 342.02 307.52 c 342.02 301.973
 337.523 297.453 331.984 297.418 c 327.758 283.922 317.027 273.184 303.562
 268.973 c 303.562 266.621 l 303.562 265.332 302.941 264.125 301.898 263.375
 c 301.211 262.887 300.395 262.633 299.566 262.633 c h
269.293 272.359 m 289.117 272.359 l 291.281 272.359 293.441 272.16 295.574
 271.773 c 295.574 272.031 l 295.574 273.887 296.859 275.504 298.672 275.926
 c 311.664 278.922 322.016 289.285 325.047 302.32 c 325.473 304.129 327.082
 305.406 328.938 305.406 c 331.922 305.406 l 333.086 305.406 334.031 306.355
 334.031 307.523 c 334.031 308.684 333.086 309.637 331.922 309.637 c 330.008
 309.637 l 327.805 309.637 326.012 311.422 326.012 313.629 c 326.012 336.707
 l 326.012 356.184 310.168 372.031 290.691 372.031 c 271.211 372.031 255.363
 356.184 255.363 336.707 c 255.363 310.332 l 255.363 300 259.875 290.215
 267.742 283.488 c 268.625 282.727 269.141 281.617 269.141 280.449 c 269.141
 272.355 l 269.191 272.359 269.242 272.359 269.293 272.359 c h
269.293 272.359 m f
0.27451 0.443137 0.776471 rg
244.316 363.723 m 244.32 363.719 l 251.34 374.438 263.871 381.578 278.172
 381.578 c 281.211 381.578 283.676 379.242 283.676 376.367 c 283.676 375.273
 l 283.676 376.559 284.07 377.758 284.746 378.754 c 284.746 378.758 l 284.746
 378.758 284.938 379.141 285.496 379.664 c 286.234 380.414 287.16 380.984
 288.199 381.301 c 289.656 381.879 291.691 382.363 294.496 382.48 c 294.496
 382.484 l 294.512 382.484 l 297.422 382.605 301.168 382.332 305.965 381.363
 c 309.461 380.98 312.793 380.09 315.895 378.77 c 315.91 378.766 315.918
 378.762 315.93 378.758 c 315.93 378.754 l 317.691 378 319.371 377.102 320.965
 376.086 c 321.66 375.66 322.008 375.395 322.012 375.395 c 330.965 369.215
 336.824 358.992 336.824 347.418 c 336.824 334.895 l 336.824 334.312 336.344
 333.848 335.758 333.848 c 283.68 333.848 l 283.68 296.461 l 277.402 283.645
 l 277.223 283.281 276.848 283.051 276.438 283.051 c 260.125 283.051 l 258.477
 283.051 256.855 283.285 255.305 283.73 c 255.258 283.75 253.605 284.445
 252.934 285.523 c 251.348 288.059 247.617 294.035 244.219 299.496 c 239.184
 307.598 236.32 316.852 236.098 326.348 c 235.477 352.363 244.316 363.723
 244.316 363.723 c h
244.316 363.723 m f
0.215686 0.384314 0.8 rg
276.434 279.051 m 260.121 279.051 l 258.125 279.051 256.133 279.336 254.203
 279.887 c 254.055 279.93 253.914 279.98 253.77 280.039 c 253.094 280.324
 250.797 281.395 249.543 283.406 c 247.957 285.941 244.223 291.922 240.828
 297.383 c 235.359 306.176 232.34 316.156 232.102 326.246 c 231.477 352.426
 240.129 364.785 241.098 366.078 c 249.176 378.289 263.016 385.57 278.172
 385.57 c 280.367 385.57 282.395 384.844 284.004 383.629 c 284.855 384.23
 285.832 384.73 286.863 385.062 c 288.953 385.875 291.453 386.352 294.301
 386.473 c 294.371 386.477 294.445 386.477 294.512 386.477 c 297.883 386.621
 301.984 386.227 306.586 385.309 c 310.332 384.883 313.988 383.922 317.445
 382.445 c 317.488 382.43 317.523 382.41 317.562 382.395 c 319.469 381.57
 321.336 380.582 323.113 379.445 c 323.766 379.047 324.188 378.746 324.34
 378.637 c 334.66 371.484 340.82 359.824 340.82 347.414 c 340.82 334.891
 l 340.82 332.109 338.551 329.848 335.758 329.848 c 287.672 329.848 l 287.672
 296.461 l 287.672 295.852 287.535 295.25 287.266 294.699 c 280.984 281.883
 l 280.121 280.133 278.379 279.051 276.434 279.051 c h
256.695 287.488 m 257.82 287.191 258.973 287.039 260.125 287.039 c 274.617
 287.039 l 279.688 297.387 l 279.688 333.844 l 279.688 336.047 281.477 337.836
 283.68 337.836 c 332.836 337.836 l 332.836 347.414 l 332.836 357.223 327.941
 366.449 319.746 372.098 c 319.703 372.129 319.66 372.16 319.617 372.191
 c 319.586 372.215 319.34 372.395 318.887 372.672 c 317.387 373.625 315.883
 374.422 314.359 375.074 c 314.332 375.086 314.305 375.102 314.277 375.113
 c 311.496 376.289 308.555 377.059 305.531 377.387 c 305.41 377.402 305.293
 377.418 305.176 377.445 c 301.141 378.262 297.625 378.613 294.676 378.492
 c 292.145 378.387 290.562 377.941 289.68 377.586 c 289.574 377.547 289.469
 377.508 289.359 377.473 c 288.977 377.359 288.625 377.141 288.34 376.852
 c 288.34 376.852 288.211 376.723 288.156 376.668 c 288.125 376.617 288.094
 376.566 288.059 376.516 c 287.801 376.141 287.672 375.719 287.672 375.27
 c 287.672 373.062 285.887 371.273 283.676 371.273 c 281.473 371.273 279.684
 373.062 279.684 375.27 c 279.684 376.359 l 279.684 377.02 278.992 377.578
 278.172 377.578 c 265.648 377.578 254.246 371.578 247.664 361.523 c 247.59
 361.414 247.512 361.309 247.43 361.207 c 246.699 360.16 239.543 349.312
 240.086 326.434 c 240.293 317.773 242.895 309.18 247.613 301.598 c 250.945
 296.238 254.602 290.379 256.23 287.773 c 256.34 287.695 256.523 287.578
 256.695 287.488 c h
256.316 287.641 m 256.316 287.637 256.316 287.637 256.316 287.641 c h
288.32 376.973 m 288.32 376.969 l h
288.324 376.98 m 288.324 376.977 l h
288.324 376.98 m f
0.976471 0.811765 0.811765 rg
298.496 312.484 m 298.496 304.797 292.262 298.562 284.574 298.562 c 276.887
 298.562 270.652 304.797 270.652 312.484 c 270.652 320.172 276.887 326.402
 284.574 326.402 c 292.262 326.402 298.496 320.172 298.496 312.484 c h
298.496 312.484 m f
0.215686 0.384314 0.8 rg
423.848 5.543 m 422.898 5.543 421.941 5.648 420.988 5.859 c 417.617 6.617
 414.738 8.645 412.883 11.562 c 409.754 16.5 l 409.188 17.395 408.996 18.477
 409.227 19.512 c 409.461 20.547 410.094 21.441 410.984 22.012 c 472.574
 61.055 l 475.008 62.602 477.891 63.098 480.695 62.473 c 483.504 61.844 
485.898 60.16 487.438 57.723 c 488.105 56.68 l 491.289 51.656 489.789 44.988
 484.773 41.812 c 430.758 7.562 l 428.656 6.23 426.273 5.543 423.848 5.543
 c h
428.613 10.934 m 428.633 10.934 l h
418.637 17.406 m 419.629 15.84 l 420.344 14.723 421.441 13.945 422.738 
13.656 c 424.035 13.363 425.363 13.598 426.477 14.309 c 480.5 48.559 l 481.793
 49.383 482.184 51.105 481.359 52.402 c 480.695 53.449 l 480.297 54.082 
479.676 54.516 478.949 54.68 c 478.238 54.84 477.48 54.711 476.852 54.312
 c h
418.637 17.406 m f
294.402 26.02 m 251.734 26.02 217.02 60.734 217.02 103.406 c 217.02 146.078
 251.734 180.793 294.402 180.793 c 337.074 180.793 371.789 146.078 371.789
 103.406 c 371.789 60.734 337.078 26.02 294.402 26.02 c h
294.402 172.805 m 256.137 172.805 225.008 141.672 225.008 103.406 c 225.008
 65.145 256.137 34.008 294.402 34.008 c 332.672 34.008 363.801 65.141 363.801
 103.406 c 363.801 141.676 332.672 172.805 294.402 172.805 c h
294.402 172.805 m f
0.878431 0.921569 0.988235 rg
294.402 65.957 m 273.758 65.957 256.961 82.758 256.961 103.402 c 256.961
 124.047 273.758 140.848 294.402 140.848 c 315.055 140.848 331.848 124.047
 331.848 103.402 c 331.848 82.758 315.055 65.957 294.402 65.957 c h
294.402 65.957 m f
0.976471 0.811765 0.811765 rg
379.094 142.891 m 363.012 152.637 l 286.242 194.375 l 286.242 194.379 286.246
 194.379 286.246 194.379 c 313.645 215.988 l 313.785 216.098 313.906 216.223
 314.02 216.352 c 373.977 174.199 l 393.609 169.957 l 394.309 169.805 394.984
 169.547 395.605 169.188 c 400.254 166.531 l 403.285 164.797 404.578 161.098
 403.285 157.852 c 398.055 144.738 l 396.836 141.684 393.656 139.883 390.406
 140.418 c 382.082 141.793 l 381.023 141.957 380.012 142.332 379.094 142.891
 c h
379.094 142.891 m f
0.215686 0.384314 0.8 rg
391.512 136.332 m 390.934 136.332 390.344 136.379 389.758 136.477 c 381.43
 137.844 l 379.859 138.105 378.375 138.656 377.02 139.477 c 360.941 149.223
 l 284.336 190.863 l 283.156 191.508 282.383 192.699 282.266 194.039 c 282.152
 195.375 282.723 196.684 283.773 197.512 c 311.176 219.125 l 312.523 220.625
 314.672 220.781 316.32 219.617 c 375.613 177.934 l 394.453 173.855 l 395.555
 173.617 396.609 173.215 397.586 172.656 c 402.234 169.996 l 406.965 167.289
 409.012 161.43 406.992 156.371 c 401.766 143.254 l 400.086 139.051 395.945
 136.332 391.512 136.332 c h
293.477 194.988 m 364.922 156.148 l 381.164 146.309 l 381.164 146.309 381.168
 146.305 381.168 146.305 c 381.648 146.012 382.176 145.82 382.734 145.727
 c 391.059 144.359 l 392.469 144.121 393.82 144.891 394.344 146.215 c 399.57
 159.328 l 400.125 160.715 399.562 162.32 398.27 163.059 c 393.625 165.719
 l 393.355 165.871 393.066 165.984 392.762 166.051 c 373.133 170.297 l 372.613
 170.41 372.117 170.629 371.68 170.93 c 314.203 211.34 l h
293.477 194.988 m f
0.419608 0.866667 0.866667 rg
286.25 194.379 m 313.648 215.984 l 314.973 217.031 315.195 218.949 314.156
 220.277 c 283.75 258.82 l 276.742 267.711 263.852 269.23 254.957 262.219
 c 246.07 255.207 244.547 242.316 251.562 233.426 c 281.965 194.879 l 283.008
 193.559 284.926 193.332 286.25 194.379 c h
286.25 194.379 m f
0.215686 0.384314 0.8 rg
284.371 189.723 m 284.094 189.723 283.812 189.738 283.531 189.773 c 281.66
 189.992 279.992 190.93 278.824 192.41 c 248.426 230.953 l 240.059 241.562
 241.883 256.992 252.484 265.359 c 263.086 273.719 278.52 271.898 286.887
 261.293 c 317.293 222.75 l 319.699 219.695 319.172 215.258 316.121 212.852
 c 288.727 191.242 l 287.469 190.25 285.949 189.723 284.371 189.723 c h
286.246 194.379 m 286.266 194.379 l h
267.641 262.625 m 264.059 262.625 260.453 261.465 257.43 259.082 c 250.289
 253.449 249.062 243.047 254.695 235.902 c 284.516 198.094 l 310.438 218.539
 l 280.617 256.348 l 277.363 260.469 272.523 262.625 267.641 262.625 c h
267.641 262.625 m f
0.878431 0.921569 0.988235 rg
413.125 18.641 m 425.617 26.559 l 387.48 86.273 l 386.277 79.723 384.418
 73.41 381.949 67.402 c 415.289 15.195 l 415.305 15.203 l h
413.125 18.641 m f
0.215686 0.384314 0.8 rg
415.297 11.207 m 413.977 11.207 412.684 11.855 411.93 13.043 c 378.586 
65.258 l 377.887 66.352 377.766 67.723 378.262 68.926 c 380.637 74.699 382.418
 80.777 383.555 86.992 c 383.844 88.609 385.102 89.875 386.711 90.195 c 
388.32 90.52 389.965 89.805 390.848 88.426 c 428.984 28.715 l 429.555 27.816
 429.746 26.73 429.516 25.695 c 429.285 24.656 428.652 23.754 427.758 23.188
 c 418.641 17.41 l 418.684 17.344 l 419.254 16.445 419.441 15.359 419.207
 14.32 c 418.969 13.277 418.332 12.383 417.43 11.82 c 416.766 11.402 416.027
 11.207 415.297 11.207 c h
386.418 67.828 m 414.324 24.129 l 420.098 27.789 l 389.207 76.145 l 388.402
 73.328 387.469 70.547 386.418 67.828 c h
386.418 67.828 m f
0.878431 0.921569 0.988235 rg
34.695 59.449 m 21.848 45.441 l 21.348 44.895 20.93 44.281 20.613 43.609
 c 19.66 41.582 l 17.938 37.926 19.473 33.555 23.086 31.812 c 73.125 7.703
 l 76.832 5.918 81.234 6.539 84.316 9.285 c 85.676 12.164 l 87.125 15.25
 86.852 18.883 84.957 21.711 c 71.559 41.691 l h
34.695 59.449 m f
0.215686 0.384314 0.8 rg
77.547 2.695 m 75.461 2.695 73.359 3.16 71.395 4.109 c 21.355 28.219 l 
15.781 30.902 13.402 37.66 16.047 43.285 c 17.004 45.312 l 17.496 46.355
 18.133 47.305 18.906 48.145 c 31.754 62.152 l 32.941 63.445 34.84 63.812
 36.43 63.047 c 73.289 45.289 l 73.93 44.98 74.48 44.508 74.875 43.914 c
 88.277 23.938 l 90.945 19.961 91.332 14.797 89.285 10.457 c 87.934 7.59
 l 87.707 7.098 87.379 6.664 86.977 6.301 c 84.312 3.93 80.949 2.695 77.547
 2.695 c h
35.633 54.562 m 24.789 42.742 l 24.562 42.492 24.375 42.215 24.23 41.906
 c 23.273 39.879 l 22.488 38.207 23.18 36.203 24.82 35.41 c 74.863 11.305
 l 76.898 10.32 79.273 10.535 81.098 11.82 c 82.059 13.859 l 82.914 15.672
 82.754 17.828 81.637 19.484 c 68.844 38.562 l h
35.633 54.562 m f
0.643137 0.788235 1 rg
87.711 229.734 m 88.02 226.266 l 88.02 189.039 l 88.02 187.836 87.781 186.648
 87.312 185.539 c 34.605 60.18 l 73.402 41.324 l 139.566 164.746 l 140.793
 167.027 141.434 169.586 141.434 172.188 c 141.434 229.734 l h
87.711 229.734 m f
0.215686 0.384314 0.8 rg
73.402 37.328 m 72.816 37.328 72.223 37.461 71.66 37.734 c 32.859 56.59
 l 30.949 57.516 30.102 59.773 30.922 61.73 c 83.629 187.086 l 83.891 187.703
 84.023 188.359 84.023 189.039 c 84.023 226.094 l 83.73 229.379 l 83.629
 230.496 84.008 231.602 84.766 232.43 c 85.523 233.258 86.59 233.73 87.711
 233.73 c 141.434 233.73 l 143.641 233.73 145.43 231.938 145.43 229.734 
c 145.43 172.188 l 145.43 168.938 144.617 165.711 143.09 162.859 c 76.926
 39.438 l 76.207 38.102 74.832 37.328 73.402 37.328 c h
39.754 62.121 m 71.699 46.598 l 136.051 166.633 l 136.957 168.332 137.441
 170.254 137.441 172.188 c 137.441 225.742 l 92.012 225.742 l 92.012 189.043
 l 92.012 187.293 91.672 185.594 90.996 183.992 c h
39.754 62.121 m f
0.976471 0.811765 0.811765 rg
117.984 487.309 m 139.703 487.309 157.305 469.703 157.305 447.988 c 157.305
 424.91 l 159.223 424.91 l 162.59 424.91 165.324 422.176 165.324 418.805
 c 165.324 415.434 162.59 412.699 159.223 412.699 c 156.238 412.699 l 152.852
 398.141 141.43 386.68 126.867 383.312 c 126.867 377.906 l 123.582 379.016
 120.074 379.645 116.414 379.645 c 96.594 379.645 l 95.176 379.645 93.801
 379.5 92.441 379.289 c 92.441 391.734 l 84.016 398.945 78.668 409.652 78.668
 421.613 c 78.668 447.984 l 78.664 469.703 96.273 487.309 117.984 487.309
 c h
117.984 487.309 m f
0.215686 0.384314 0.8 rg
126.867 373.91 m 126.438 373.91 126 373.98 125.586 374.121 c 122.586 375.137
 119.496 375.652 116.41 375.652 c 96.594 375.652 l 95.527 375.652 94.371
 375.551 93.07 375.344 c 91.906 375.16 90.738 375.492 89.848 376.246 c 88.957
 377.008 88.449 378.121 88.449 379.285 c 88.449 389.945 l 79.668 398.137
 74.672 409.574 74.672 421.613 c 74.672 447.988 l 74.672 471.871 94.102 
491.305 117.984 491.305 c 141.867 491.305 161.301 471.875 161.301 447.988
 c 161.301 428.691 l 165.875 427.727 169.32 423.656 169.32 418.801 c 169.32
 413.254 164.824 408.734 159.281 408.699 c 155.055 395.203 144.324 384.465
 130.859 380.258 c 130.859 377.902 l 130.859 376.613 130.238 375.41 129.195
 374.656 c 128.504 374.164 127.691 373.91 126.867 373.91 c h
96.594 383.641 m 116.414 383.641 l 118.574 383.641 120.734 383.445 122.875
 383.055 c 122.875 383.312 l 122.875 385.172 124.156 386.781 125.965 387.203
 c 138.961 390.203 149.312 400.566 152.344 413.598 c 152.766 415.41 154.379
 416.688 156.234 416.688 c 159.223 416.688 l 160.383 416.688 161.332 417.641
 161.332 418.801 c 161.332 419.969 160.383 420.918 159.223 420.918 c 157.305
 420.918 l 155.102 420.918 153.312 422.707 153.312 424.91 c 153.312 447.988
 l 153.312 467.469 137.465 483.316 117.984 483.316 c 98.512 483.316 82.664
 467.469 82.664 447.988 c 82.664 421.613 l 82.664 411.285 87.176 401.5 95.039
 394.766 c 95.926 394.012 96.438 392.898 96.438 391.734 c 96.438 383.637
 l 96.492 383.641 96.539 383.641 96.594 383.641 c h
96.594 383.641 m f
0.643137 0.788235 1 rg
146.559 361.07 m 141.723 371.988 130.461 379.645 117.332 379.645 c 95.852
 379.645 l 81.703 379.645 70.234 368.629 70.234 355.043 c 70.234 229.734
 l 149.074 229.734 l 154.086 304.195 l 154.137 304.973 154.152 305.746 154.191
 306.523 c 154.223 306.523 l 156.52 340.988 146.559 361.07 146.559 361.07
 c h
146.559 361.07 m f
0.215686 0.384314 0.8 rg
149.074 225.742 m 70.234 225.742 l 68.027 225.742 66.238 227.531 66.238
 229.734 c 66.238 355.043 l 66.238 370.812 79.523 383.641 95.852 383.641
 c 117.332 383.641 l 131.621 383.641 144.488 375.473 150.148 362.816 c 150.746
 361.598 160.523 341.062 158.203 306.254 c 158.195 306.125 158.18 305.996
 158.16 305.871 c 158.145 305.457 l 158.121 304.945 158.102 304.438 158.07
 303.926 c 153.055 229.465 l 152.918 227.367 151.176 225.742 149.074 225.742
 c h
74.227 233.73 m 145.336 233.73 l 150.098 304.465 l 150.129 304.898 150.141
 305.324 150.16 305.754 c 150.199 306.727 l 150.207 306.91 150.23 307.09
 150.266 307.266 c 152.344 339.98 143.07 359.105 142.977 359.297 c 142.953
 359.348 142.93 359.402 142.902 359.457 c 138.551 369.293 128.512 375.652
 117.332 375.652 c 95.852 375.652 l 83.93 375.652 74.23 366.402 74.23 355.043
 c 74.23 233.73 l h
74.227 233.73 m f
142.93 424.59 m 144.934 424.59 146.559 426.215 146.559 428.219 c 146.559
 434.262 l 146.559 436.266 144.934 437.887 142.93 437.887 c 140.93 437.887
 139.301 436.266 139.301 434.262 c 139.301 428.219 l 139.301 426.215 140.93
 424.59 142.93 424.59 c h
142.93 424.59 m f
0.976471 0.811765 0.811765 rg
125.789 423.762 m 125.789 416.074 119.559 409.844 111.871 409.844 c 104.184
 409.844 97.949 416.074 97.949 423.762 c 97.949 431.457 104.184 437.688 
111.871 437.688 c 119.559 437.688 125.789 431.457 125.789 423.762 c h
125.789 423.762 m f
70.234 308.734 m 70.234 269.66 l 70.234 267.27 70.953 264.93 72.305 262.949
 c 75.371 258.453 l 77.449 255.402 80.828 253.488 84.512 253.27 c 161.348
 248.73 l 163.168 248.621 164.938 248.062 166.488 247.105 c 174.547 242.125
 l 175.992 241.23 177.668 240.758 179.371 240.758 c 197.891 240.758 l 201.949
 240.758 205.242 244.051 205.242 248.105 c 205.242 267.398 l 205.242 271.453
 201.949 274.746 197.891 274.746 c 172.895 274.746 l 171.512 274.746 170.152
 274.434 168.906 273.836 c 167.266 273.047 l 165.219 272.059 162.922 271.727
 160.684 272.098 c 111.645 280.172 l 109.766 280.48 108.434 282.172 108.574
 284.07 c 110.395 308.734 l h
70.234 308.734 m f
0.27451 0.443137 0.776471 rg
139.109 492.004 m 119.375 492.004 l 115.227 492.004 111.871 488.645 111.871
 484.496 c 111.871 484.805 l 111.871 488.785 108.648 492.004 104.672 492.004
 c 100.812 492.004 l 78.324 492.004 60.098 473.773 60.098 451.289 c 60.098
 435.34 l 60.098 412.855 78.324 394.629 100.812 394.629 c 111.875 394.629
 l 111.875 445.609 l 161.332 445.609 l 163.539 445.609 165.324 447.395 165.324
 449.605 c 165.324 465.785 l 165.324 480.27 153.59 492.004 139.109 492.004
 c h
139.109 492.004 m f
11.719 368.906 m 19 368.906 l 38.137 368.906 53.648 384.418 53.648 403.551
 c 53.648 447.531 l 36.527 447.531 l 22.828 447.531 11.719 436.426 11.719
 422.723 c h
11.719 368.906 m f
0.215686 0.384314 0.8 rg
19 364.914 m 11.719 364.914 l 9.516 364.914 7.723 366.703 7.723 368.906
 c 7.723 422.723 l 7.723 438.605 20.645 451.527 36.527 451.527 c 53.648 
451.527 l 55.852 451.527 57.641 449.738 57.641 447.531 c 57.641 403.551 
l 57.641 382.246 40.309 364.914 19 364.914 c h
15.711 372.902 m 19 372.902 l 35.906 372.902 49.652 386.652 49.652 403.551
 c 49.652 443.539 l 36.527 443.539 l 25.051 443.539 15.711 434.199 15.711
 422.723 c h
15.711 372.902 m f
0.976471 0.654902 0.654902 rg
53.02 431.75 m 54.277 431.75 l 57.492 431.75 60.098 434.359 60.098 437.574
 c 60.098 449.574 l 60.098 452.785 57.492 455.391 54.277 455.391 c 53.02
 455.391 l 49.805 455.391 47.195 452.785 47.195 449.574 c 47.195 437.574
 l 47.195 434.359 49.805 431.75 53.02 431.75 c h
53.02 431.75 m f
0.215686 0.384314 0.8 rg
54.277 427.758 m 53.02 427.758 l 47.605 427.758 43.203 432.16 43.203 437.574
 c 43.203 449.574 l 43.203 454.984 47.605 459.387 53.02 459.387 c 54.277
 459.387 l 59.691 459.387 64.094 454.984 64.094 449.574 c 64.094 437.574
 l 64.094 432.16 59.691 427.758 54.277 427.758 c h
53.02 451.395 m 52.008 451.395 51.191 450.578 51.191 449.57 c 51.191 437.57
 l 51.191 436.566 52.008 435.746 53.02 435.746 c 54.277 435.746 l 55.285
 435.746 56.105 436.566 56.105 437.57 c 56.105 449.57 l 56.105 450.574 55.285
 451.395 54.277 451.395 c h
53.02 451.395 m f
111.871 390.633 m 100.812 390.633 l 76.16 390.633 56.105 410.688 56.105
 435.344 c 56.105 451.293 l 56.105 475.945 76.16 496 100.812 496 c 104.672
 496 l 107.457 496 110.004 494.977 111.969 493.289 c 113.969 494.98 116.555
 496 119.375 496 c 139.109 496 l 155.77 496 169.32 482.449 169.32 465.789
 c 169.32 449.609 l 169.32 445.203 165.738 441.621 161.332 441.621 c 115.863
 441.621 l 115.863 394.633 l 115.863 392.422 114.078 390.633 111.871 390.633
 c h
100.812 488.012 m 80.566 488.012 64.094 471.539 64.094 451.293 c 64.094
 435.344 l 64.094 415.094 80.566 398.621 100.812 398.621 c 107.875 398.621
 l 107.875 445.613 l 107.875 447.816 109.668 449.609 111.871 449.609 c 161.332
 449.609 l 161.332 465.789 l 161.332 478.043 151.367 488.008 139.109 488.008
 c 119.375 488.008 l 117.438 488.008 115.863 486.438 115.863 484.496 c 115.863
 482.293 114.074 480.504 111.871 480.504 c 109.668 480.504 107.875 482.293
 107.875 484.496 c 107.875 484.805 l 107.875 486.574 106.438 488.008 104.672
 488.008 c 100.812 488.008 l h
100.812 488.012 m f
0.976471 0.811765 0.811765 rg
125.789 423.762 m 125.789 416.074 119.559 409.844 111.871 409.844 c 104.184
 409.844 97.949 416.074 97.949 423.762 c 97.949 431.457 104.184 437.688 
111.871 437.688 c 119.559 437.688 125.789 431.457 125.789 423.762 c h
125.789 423.762 m f
0.215686 0.384314 0.8 rg
197.895 236.762 m 179.375 236.762 l 176.926 236.762 174.531 237.441 172.449
 238.734 c 164.395 243.711 l 163.406 244.32 162.273 244.676 161.109 244.742
 c 84.273 249.289 l 79.391 249.578 74.824 252.164 72.066 256.207 c 69.004
 260.699 l 67.199 263.355 66.238 266.453 66.238 269.664 c 66.238 308.738
 l 66.238 310.941 68.027 312.734 70.234 312.734 c 110.391 312.734 l 111.504
 312.734 112.562 312.27 113.316 311.457 c 114.074 310.641 114.457 309.551
 114.375 308.441 c 112.574 284.07 l 161.336 276.039 l 162.766 275.801 164.223
 276.012 165.523 276.641 c 167.172 277.434 l 168.945 278.289 170.922 278.742
 172.895 278.742 c 197.895 278.742 l 204.152 278.742 209.238 273.648 209.238
 267.398 c 209.238 248.105 l 209.238 241.852 204.152 236.762 197.895 236.762
 c h
74.227 304.746 m 74.227 269.664 l 74.227 268.066 74.703 266.523 75.602 
265.203 c 78.664 260.707 l 80.039 258.695 82.312 257.406 84.746 257.262 
c 161.582 252.719 l 164.059 252.57 166.484 251.809 168.59 250.504 c 176.645
 245.527 l 177.465 245.02 178.406 244.754 179.371 244.754 c 197.891 244.754
 l 199.742 244.754 201.25 246.258 201.25 248.109 c 201.25 267.402 l 201.25
 269.25 199.742 270.758 197.891 270.758 c 172.891 270.758 l 172.117 270.758
 171.336 270.578 170.633 270.242 c 168.992 269.449 l 166.199 268.102 163.094
 267.66 160.031 268.16 c 110.988 276.23 l 107.047 276.883 104.293 280.379
 104.586 284.363 c 106.09 304.746 l h
74.227 304.746 m f
0.643137 0.788235 1 rg
112.648 308.734 m 68.176 308.734 l 67.395 308.734 66.758 309.371 66.758
 310.156 c 66.758 345.25 l 66.758 358.316 77.352 368.906 90.414 368.906 
c 103.48 368.906 114.07 358.316 114.07 345.25 c 114.07 310.156 l 114.07 
309.375 113.43 308.734 112.648 308.734 c h
112.648 308.734 m f
0.215686 0.384314 0.8 rg
112.648 304.746 m 68.176 304.746 l 65.191 304.746 62.762 307.172 62.762
 310.16 c 62.762 345.25 l 62.762 360.496 75.168 372.902 90.414 372.902 c
 105.66 372.902 118.062 360.496 118.062 345.25 c 118.062 310.16 l 118.062
 307.172 115.633 304.746 112.648 304.746 c h
70.75 312.734 m 110.07 312.734 l 110.07 345.25 l 110.07 356.094 101.254
 364.914 90.414 364.914 c 79.57 364.914 70.75 356.09 70.75 345.25 c h
70.75 312.734 m f
0.878431 0.921569 0.988235 rg
109.512 38.961 m 102.973 17.574 l 102.746 16.836 102.633 16.07 102.633 
15.305 c 102.633 11.598 l 102.633 7.402 105.953 3.996 110.051 3.996 c 174.762
 3.996 l 179.484 3.996 183.754 6.883 185.617 11.332 c 185.617 15.047 l 185.617
 19.027 183.551 22.719 180.199 24.73 c 156.504 38.961 l h
109.512 38.961 m f
0.215686 0.384314 0.8 rg
174.762 0 m 110.051 0 l 103.762 0 98.637 5.199 98.637 11.594 c 98.637 15.301
 l 98.637 16.465 98.812 17.621 99.152 18.734 c 105.688 40.129 l 106.203 
41.809 107.754 42.953 109.512 42.953 c 156.5 42.953 l 157.223 42.953 157.934
 42.758 158.555 42.383 c 182.25 28.156 l 186.785 25.434 189.605 20.41 189.605
 15.047 c 189.605 11.332 l 189.605 10.801 189.5 10.281 189.297 9.793 c 186.812
 3.844 181.109 0 174.762 0 c h
112.465 34.965 m 106.793 16.402 l 106.684 16.047 106.625 15.672 106.625
 15.305 c 106.625 11.598 l 106.625 9.609 108.164 7.988 110.051 7.988 c 174.762
 7.988 l 177.641 7.988 180.262 9.625 181.621 12.215 c 181.621 15.047 l 181.621
 17.621 180.289 20.02 178.145 21.305 c 155.395 34.965 l h
112.465 34.965 m f
174.762 0 m 110.051 0 l 103.762 0 98.637 5.199 98.637 11.594 c 98.637 15.301
 l 98.637 16.465 98.812 17.621 99.152 18.734 c 105.688 40.129 l 106.203 
41.809 107.754 42.953 109.512 42.953 c 156.5 42.953 l 157.223 42.953 157.934
 42.758 158.555 42.383 c 182.25 28.156 l 186.785 25.434 189.605 20.41 189.605
 15.047 c 189.605 11.332 l 189.605 10.801 189.5 10.281 189.297 9.793 c 186.812
 3.844 181.109 0 174.762 0 c h
112.465 34.965 m 106.793 16.402 l 106.684 16.047 106.625 15.672 106.625
 15.305 c 106.625 11.598 l 106.625 9.609 108.164 7.988 110.051 7.988 c 174.762
 7.988 l 177.641 7.988 180.262 9.625 181.621 12.215 c 181.621 15.047 l 181.621
 17.621 180.289 20.02 178.145 21.305 c 155.395 34.965 l h
112.465 34.965 m f
0.643137 0.788235 1 rg
146.469 213.461 m 147.531 223.25 l 148.871 229.734 l 79.324 229.734 l 78.258
 226.727 l 74.09 214.996 73.223 202.316 75.758 190.137 c 80.648 166.66 l
 106.578 39.285 l 109.59 38.961 l 151.715 38.961 l 151.637 39.434 l h
146.469 213.461 m f
0.215686 0.384314 0.8 rg
151.711 34.965 m 109.586 34.965 l 109.441 34.965 109.297 34.973 109.156
 34.988 c 106.141 35.316 l 104.414 35.504 103.004 36.789 102.656 38.492 
c 76.73 165.863 l 71.848 189.324 l 69.16 202.234 70.078 215.633 74.492 228.07
 c 75.562 231.07 l 76.125 232.664 77.633 233.73 79.324 233.73 c 148.867 
233.73 l 150.07 233.73 151.207 233.188 151.961 232.254 c 152.723 231.328
 153.02 230.102 152.777 228.926 c 151.48 222.625 l 150.465 213.301 l 155.617
 39.809 l 155.656 39.59 l 155.84 38.438 155.512 37.258 154.75 36.371 c 153.992
 35.48 152.879 34.965 151.711 34.965 c h
109.902 42.953 m 147.535 42.953 l 142.477 213.34 l 142.469 213.523 142.477
 213.707 142.5 213.891 c 143.562 223.676 l 143.578 223.801 143.598 223.926
 143.621 224.051 c 143.969 225.738 l 82.145 225.738 l 82.02 225.391 l 78.094
 214.332 77.281 202.426 79.664 190.949 c 84.551 167.473 l h
109.902 42.953 m f
Q Q
showpage
%%Trailer
end restore
%%EOF
