%!PS-Adobe-3.0 EPSF-3.0
%%Creator: cairo 1.14.8 (http://cairographics.org)
%%CreationDate: Wed Mar 20 09:06:38 2019
%%Pages: 1
%%DocumentData: Clean7Bit
%%LanguageLevel: 2
%%BoundingBox: 87 0 400 486
%%EndComments
%%BeginProlog
save
50 dict begin
/q { gsave } bind def
/Q { grestore } bind def
/cm { 6 array astore concat } bind def
/w { setlinewidth } bind def
/J { setlinecap } bind def
/j { setlinejoin } bind def
/M { setmiterlimit } bind def
/d { setdash } bind def
/m { moveto } bind def
/l { lineto } bind def
/c { curveto } bind def
/h { closepath } bind def
/re { exch dup neg 3 1 roll 5 3 roll moveto 0 rlineto
      0 exch rlineto 0 rlineto closepath } bind def
/S { stroke } bind def
/f { fill } bind def
/f* { eofill } bind def
/n { newpath } bind def
/W { clip } bind def
/W* { eoclip } bind def
/BT { } bind def
/ET { } bind def
/pdfmark where { pop globaldict /?pdfmark /exec load put }
    { globaldict begin /?pdfmark /pop load def /pdfmark
    /cleartomark load def end } ifelse
/BDC { mark 3 1 roll /BDC pdfmark } bind def
/EMC { mark /EMC pdfmark } bind def
/cairo_store_point { /cairo_point_y exch def /cairo_point_x exch def } def
/Tj { show currentpoint cairo_store_point } bind def
/TJ {
  {
    dup
    type /stringtype eq
    { show } { -0.001 mul 0 cairo_font_matrix dtransform rmoveto } ifelse
  } forall
  currentpoint cairo_store_point
} bind def
/cairo_selectfont { cairo_font_matrix aload pop pop pop 0 0 6 array astore
    cairo_font exch selectfont cairo_point_x cairo_point_y moveto } bind def
/Tf { pop /cairo_font exch def /cairo_font_matrix where
      { pop cairo_selectfont } if } bind def
/Td { matrix translate cairo_font_matrix matrix concatmatrix dup
      /cairo_font_matrix exch def dup 4 get exch 5 get cairo_store_point
      /cairo_font where { pop cairo_selectfont } if } bind def
/Tm { 2 copy 8 2 roll 6 array astore /cairo_font_matrix exch def
      cairo_store_point /cairo_font where { pop cairo_selectfont } if } bind def
/g { setgray } bind def
/rg { setrgbcolor } bind def
/d1 { setcachedevice } bind def
%%EndProlog
%%BeginSetup
%%EndSetup
%%Page: 1 1
%%BeginPageSetup
%%PageBoundingBox: 87 0 400 486
%%EndPageSetup
q 87 0 313 486 rectclip q
0.643137 0.788235 1 rg
344.824 190.766 m 142 190.766 l 142 352.266 l 142 369.355 155.855 383.215
 172.949 383.215 c 313.875 383.215 l 330.969 383.215 344.824 369.359 344.824
 352.266 c h
344.824 190.766 m f
0.215686 0.384314 0.8 rg
344.824 186.773 m 142 186.773 l 139.797 186.773 138.008 188.562 138.008
 190.766 c 138.008 352.266 l 138.008 371.527 153.684 387.203 172.949 387.203
 c 313.875 387.203 l 333.141 387.203 348.816 371.527 348.816 352.266 c 348.816
 190.766 l 348.816 188.562 347.027 186.773 344.824 186.773 c h
145.992 194.758 m 340.828 194.758 l 340.828 352.266 l 340.828 367.129 328.734
 379.219 313.875 379.219 c 172.949 379.219 l 158.086 379.219 145.992 367.125
 145.992 352.266 c h
145.992 194.758 m f
0.976471 0.811765 0.811765 rg
243.41 331.164 m 235.258 331.164 227.543 332.996 220.617 336.246 c 220.617
 329.086 l 220.617 320.398 227.664 313.352 236.355 313.352 c 250.465 313.352
 l 259.16 313.352 266.207 320.398 266.207 329.086 c 266.207 336.246 l 259.281
 332.996 251.566 331.164 243.41 331.164 c h
243.41 331.164 m f
0.878431 0.921569 0.988235 rg
136.418 102.613 m 147.582 102.613 l 148.816 102.613 149.969 102.281 150.992
 101.746 c 150.992 238.789 l 133.004 238.789 l 133.004 101.746 l 134.035
 102.281 135.18 102.613 136.418 102.613 c h
136.418 102.613 m f
0.215686 0.384314 0.8 rg
150.992 97.754 m 150.363 97.754 149.727 97.902 149.148 98.207 c 148.625
 98.48 148.098 98.621 147.582 98.621 c 136.418 98.621 l 135.902 98.621 135.375
 98.48 134.848 98.207 c 133.609 97.562 132.129 97.609 130.934 98.336 c 129.742
 99.062 129.012 100.355 129.012 101.746 c 129.012 238.789 l 129.012 240.992
 130.801 242.781 133.004 242.781 c 150.992 242.781 l 153.195 242.781 154.984
 240.992 154.984 238.789 c 154.984 101.746 l 154.984 100.352 154.258 99.059
 153.062 98.336 c 152.434 97.949 151.715 97.754 150.992 97.754 c h
136.996 106.602 m 147 106.602 l 147 234.797 l 136.996 234.797 l h
136.996 106.602 m f
0.878431 0.921569 0.988235 rg
341.023 102.613 m 352.188 102.613 l 353.426 102.613 354.574 102.281 355.598
 101.746 c 355.598 238.789 l 337.609 238.789 l 337.609 101.746 l 338.637
 102.281 339.785 102.613 341.023 102.613 c h
341.023 102.613 m f
0.215686 0.384314 0.8 rg
355.594 97.754 m 354.969 97.754 354.332 97.902 353.75 98.207 c 353.23 98.48
 352.699 98.621 352.184 98.621 c 341.023 98.621 l 340.508 98.621 339.977
 98.48 339.449 98.207 c 338.211 97.562 336.73 97.609 335.535 98.336 c 334.344
 99.062 333.617 100.355 333.617 101.746 c 333.617 238.789 l 333.617 240.992
 335.406 242.781 337.609 242.781 c 355.594 242.781 l 357.801 242.781 359.59
 240.992 359.59 238.789 c 359.59 101.746 l 359.59 100.352 358.863 99.059
 357.664 98.336 c 357.035 97.949 356.316 97.754 355.594 97.754 c h
341.602 106.602 m 351.602 106.602 l 351.602 234.797 l 341.602 234.797 l
 h
341.602 106.602 m f
0.878431 0.921569 0.988235 rg
195.699 234.012 m 291.121 234.012 l 296.484 234.012 301.391 231.445 304.5
 227.301 c 304.5 291.832 l 304.5 292.43 304.484 293.023 304.457 293.617 
c 304.445 293.82 304.43 294.02 304.418 294.219 c 304.395 294.602 304.367
 294.992 304.332 295.379 c 304.312 295.617 304.281 295.855 304.258 296.094
 c 304.219 296.43 304.176 296.77 304.129 297.109 c 304.094 297.367 304.059
 297.625 304.016 297.879 c 303.965 298.191 303.91 298.5 303.852 298.809 
c 303.805 299.078 303.754 299.348 303.695 299.617 c 303.637 299.902 303.574
 300.18 303.508 300.461 c 303.441 300.746 303.375 301.031 303.305 301.316
 c 303.242 301.547 303.176 301.773 303.113 302 c 302.773 303.238 302.367
 304.457 301.906 305.641 c 301.863 305.738 301.828 305.84 301.789 305.941
 c 301.633 306.332 301.465 306.715 301.293 307.102 c 301.246 307.211 301.199
 307.32 301.152 307.43 c 300.973 307.82 300.793 308.207 300.602 308.59 c
 300.562 308.676 300.516 308.762 300.477 308.848 c 300.27 309.254 300.059
 309.66 299.84 310.059 c 299.82 310.098 299.797 310.129 299.777 310.164 
c 293.547 321.445 281.75 329.223 268.09 329.777 c 266.211 329.773 l 266.211
 329.086 l 266.211 320.398 259.16 313.352 250.469 313.352 c 236.355 313.352
 l 227.668 313.352 220.617 320.398 220.617 329.086 c 220.617 329.664 l 218.762
 329.66 l 207.996 328.715 198.523 323.27 192.223 315.23 c 192.219 315.23
 l 192.195 315.199 192.172 315.168 192.148 315.137 c 191.941 314.871 191.742
 314.605 191.543 314.336 c 191.418 314.168 191.297 314.004 191.18 313.836
 c 190.992 313.566 190.805 313.301 190.625 313.027 c 190.5 312.848 190.379
 312.664 190.258 312.484 c 190.086 312.215 189.914 311.949 189.746 311.676
 c 189.629 311.48 189.512 311.285 189.395 311.09 c 189.238 310.816 189.082
 310.551 188.93 310.277 c 188.816 310.07 188.703 309.863 188.594 309.652
 c 188.449 309.383 188.305 309.113 188.164 308.836 c 188.055 308.613 187.949
 308.395 187.844 308.168 c 187.715 307.898 187.582 307.633 187.461 307.359
 c 187.34 307.094 187.23 306.82 187.121 306.551 c 186.938 306.125 186.766
 305.691 186.602 305.254 c 186.488 304.957 186.375 304.656 186.266 304.359
 c 186.184 304.117 186.109 303.875 186.031 303.633 c 185.934 303.34 185.836
 303.051 185.746 302.754 c 185.676 302.508 185.605 302.266 185.539 302.02
 c 185.457 301.723 185.375 301.426 185.301 301.125 c 185.238 300.879 185.184
 300.629 185.125 300.387 c 185.055 300.078 184.988 299.77 184.922 299.461
 c 184.875 299.215 184.824 298.969 184.777 298.719 c 184.719 298.398 184.668
 298.082 184.617 297.758 c 184.578 297.516 184.539 297.273 184.508 297.035
 c 184.461 296.691 184.422 296.352 184.383 296.008 c 184.359 295.777 184.332
 295.551 184.312 295.324 c 184.273 294.938 184.25 294.555 184.227 294.168
 c 184.215 293.977 184.199 293.781 184.188 293.586 c 184.164 293.004 184.148
 292.418 184.148 291.836 c 184.148 229.379 l 187.199 232.285 191.297 234.012
 195.699 234.012 c h
195.699 234.012 m f
0.27451 0.443137 0.776471 rg
285.984 324.426 m 280.707 327.582 274.617 329.512 268.09 329.777 c 266.211
 329.773 l 266.211 329.09 l 266.211 320.398 259.16 313.352 250.469 313.352
 c 243.41 313.352 l 260.762 305.645 l 265.348 303.609 270.727 304.945 273.82
 308.895 c h
285.984 324.426 m f
226.059 305.645 m 243.41 313.352 l 236.355 313.352 l 227.664 313.352 220.617
 320.398 220.617 329.09 c 220.617 329.668 l 218.758 329.664 l 212.402 329.102
 206.504 326.965 201.434 323.664 c 213.004 308.895 l 216.094 304.945 221.477
 303.605 226.059 305.645 c h
226.059 305.645 m f
0.643137 0.788235 1 rg
331.727 143.191 m 154.027 143.191 l 149.223 143.191 145.328 147.086 145.328
 151.891 c 145.328 182.062 l 145.328 186.867 149.223 190.766 154.027 190.766
 c 331.727 190.766 l 336.535 190.766 340.43 186.867 340.43 182.062 c 340.43
 151.891 l 340.43 147.086 336.535 143.191 331.727 143.191 c h
331.727 143.191 m f
0.976471 0.654902 0.654902 rg
164.332 238.789 m 119.672 238.789 l 117.617 238.789 115.953 240.453 115.953
 242.508 c 115.953 264.836 l 115.953 266.895 117.617 268.559 119.672 268.559
 c 164.332 268.559 l 166.387 268.559 168.051 266.891 168.051 264.836 c 168.051
 242.508 l 168.051 240.453 166.387 238.789 164.332 238.789 c h
164.332 238.789 m f
368.934 238.789 m 324.277 238.789 l 322.219 238.789 320.555 240.453 320.555
 242.508 c 320.555 264.836 l 320.555 266.895 322.223 268.559 324.277 268.559
 c 368.934 268.559 l 370.988 268.559 372.652 266.891 372.652 264.836 c 372.652
 242.508 l 372.652 240.453 370.988 238.789 368.934 238.789 c h
368.934 238.789 m f
0.878431 0.921569 0.988235 rg
155.023 62.605 176.773 -18.609 re f
1 0.917647 0.572549 rg
147.582 3.992 m 136.418 3.992 l 132.309 3.992 128.973 7.324 128.973 11.438
 c 128.973 95.168 l 128.973 99.281 132.309 102.613 136.418 102.613 c 147.582
 102.613 l 151.691 102.613 155.023 99.281 155.023 95.168 c 155.023 11.438
 l 155.023 7.324 151.695 3.992 147.582 3.992 c h
147.582 3.992 m f
350.406 3.992 m 339.242 3.992 l 335.133 3.992 331.797 7.324 331.797 11.438
 c 331.797 95.168 l 331.797 99.281 335.129 102.613 339.242 102.613 c 350.406
 102.613 l 354.516 102.613 357.848 99.281 357.848 95.168 c 357.848 11.438
 l 357.844 7.324 354.516 3.992 350.406 3.992 c h
350.406 3.992 m f
389.48 3.992 m 374.594 3.992 l 371.516 3.992 369.012 6.488 369.012 9.574
 c 369.012 211.93 l 369.012 215.012 371.512 217.508 374.594 217.508 c 389.48
 217.508 l 392.562 217.508 395.062 215.012 395.062 211.93 c 395.062 9.574
 l 395.062 6.488 392.562 3.992 389.48 3.992 c h
389.48 3.992 m f
112.227 3.992 m 97.344 3.992 l 94.258 3.992 91.762 6.488 91.762 9.574 c
 91.762 211.93 l 91.762 215.012 94.258 217.508 97.344 217.508 c 112.227 
217.508 l 115.309 217.508 117.812 215.012 117.812 211.93 c 117.812 9.574
 l 117.812 6.488 115.312 3.992 112.227 3.992 c h
112.227 3.992 m f
0.878431 0.921569 0.988235 rg
353.816 121.219 15.199 -18.609 re f
117.812 121.219 15.195 -18.609 re f
0.976471 0.811765 0.811765 rg
233.824 252.066 m 231.723 256.461 227.285 259.254 222.41 259.254 c 202.141
 259.254 l 197.273 259.254 192.836 256.461 190.73 252.066 c 189.73 249.98
 189.215 247.691 189.215 245.379 c 189.215 237.359 l 189.215 235.512 190.711
 234.008 192.562 234.008 c 231.992 234.008 l 233.844 234.008 235.344 235.512
 235.344 237.359 c 235.344 245.379 l 235.344 247.691 234.824 249.98 233.824
 252.066 c h
233.824 252.066 m f
296.094 252.066 m 293.988 256.461 289.551 259.254 284.68 259.254 c 264.41
 259.254 l 259.539 259.254 255.102 256.461 253 252.066 c 252 249.98 251.48
 247.691 251.48 245.379 c 251.48 237.359 l 251.48 235.512 252.977 234.008
 254.828 234.008 c 294.262 234.008 l 296.113 234.008 297.609 235.512 297.609
 237.359 c 297.609 245.379 l 297.609 247.691 297.09 249.98 296.094 252.066
 c h
296.094 252.066 m f
0.878431 0.921569 0.988235 rg
184.148 284.23 m 184.148 291.832 l 184.148 292.418 184.164 293.004 184.188
 293.586 c 184.199 293.781 184.215 293.973 184.227 294.168 c 184.25 294.551
 184.273 294.938 184.312 295.32 c 184.332 295.551 184.359 295.777 184.383
 296.004 c 184.422 296.348 184.461 296.688 184.508 297.031 c 184.543 297.273
 184.578 297.516 184.617 297.754 c 184.664 298.078 184.719 298.398 184.777
 298.719 c 184.824 298.965 184.875 299.211 184.922 299.457 c 184.988 299.766
 185.055 300.074 185.125 300.383 c 185.184 300.629 185.238 300.879 185.301
 301.125 c 185.375 301.422 185.457 301.723 185.539 302.02 c 185.605 302.266
 185.676 302.508 185.746 302.75 c 185.836 303.047 185.934 303.34 186.031
 303.633 c 186.105 303.875 186.184 304.117 186.266 304.355 c 186.375 304.652
 186.488 304.953 186.602 305.25 c 186.766 305.691 186.941 306.125 187.121
 306.551 c 187.23 306.82 187.34 307.09 187.461 307.359 c 187.582 307.629
 187.715 307.898 187.844 308.168 c 187.949 308.391 188.055 308.613 188.164
 308.832 c 188.305 309.109 188.449 309.379 188.594 309.652 c 188.703 309.859
 188.816 310.07 188.93 310.277 c 189.082 310.551 189.238 310.816 189.395
 311.086 c 189.512 311.281 189.629 311.48 189.746 311.676 c 189.914 311.945
 190.086 312.215 190.258 312.48 c 190.379 312.66 190.5 312.844 190.625 313.027
 c 190.805 313.297 190.988 313.566 191.18 313.832 c 191.297 314 191.418 
314.168 191.543 314.336 c 191.742 314.605 191.941 314.871 192.148 315.137
 c 192.172 315.168 192.195 315.199 192.219 315.227 c 192.223 315.227 l 194.129
 317.664 196.359 319.824 198.793 321.727 c 198.793 321.781 l 196.059 320.371
 l 178.473 311.281 168.051 296.699 168.051 281.172 c 168.051 224.266 l 168.051
 218.266 174.852 213.398 183.23 213.398 c 184.148 213.398 l h
184.148 284.23 m f
292.547 320.371 m 289.879 321.75 l 293.906 318.602 297.289 314.668 299.777
 310.164 c 299.797 310.129 299.82 310.098 299.84 310.059 c 300.055 309.66
 300.27 309.254 300.477 308.848 c 300.52 308.762 300.562 308.676 300.602
 308.59 c 300.793 308.207 300.973 307.82 301.152 307.43 c 301.199 307.32
 301.246 307.211 301.293 307.102 c 301.465 306.715 301.629 306.332 301.789
 305.941 c 301.828 305.84 301.863 305.738 301.906 305.641 c 302.367 304.457
 302.773 303.238 303.113 302 c 303.176 301.773 303.242 301.547 303.305 301.316
 c 303.375 301.031 303.441 300.746 303.508 300.461 c 303.574 300.18 303.641
 299.902 303.695 299.617 c 303.754 299.348 303.805 299.078 303.852 298.809
 c 303.91 298.5 303.965 298.191 304.016 297.879 c 304.059 297.625 304.094
 297.367 304.129 297.109 c 304.18 296.77 304.219 296.43 304.258 296.094 
c 304.281 295.855 304.312 295.617 304.332 295.379 c 304.367 294.992 304.395
 294.602 304.418 294.219 c 304.43 294.016 304.449 293.82 304.457 293.617
 c 304.484 293.023 304.5 292.43 304.5 291.832 c 304.5 213.402 l 305.371 
213.402 l 313.758 213.402 320.555 218.27 320.555 224.27 c 320.555 281.176
 l 320.555 296.699 310.137 311.281 292.547 320.371 c h
292.547 320.371 m f
0.215686 0.384314 0.8 rg
331.727 139.199 m 154.031 139.199 l 147.031 139.199 141.336 144.895 141.336
 151.891 c 141.336 182.062 l 141.336 189.059 147.031 194.758 154.031 194.758
 c 331.727 194.758 l 338.727 194.758 344.422 189.059 344.422 182.062 c 344.422
 151.891 l 344.422 144.895 338.727 139.199 331.727 139.199 c h
154.031 186.773 m 151.434 186.773 149.32 184.66 149.32 182.066 c 149.32
 151.895 l 149.32 149.297 151.434 147.188 154.031 147.188 c 331.727 147.188
 l 334.328 147.188 336.438 149.297 336.438 151.895 c 336.438 182.066 l 336.438
 184.66 334.324 186.773 331.727 186.773 c h
154.031 186.773 m f
164.332 234.797 m 119.672 234.797 l 115.418 234.797 111.961 238.254 111.961
 242.508 c 111.961 264.836 l 111.961 269.094 115.418 272.551 119.672 272.551
 c 164.332 272.551 l 168.586 272.551 172.043 269.094 172.043 264.836 c 172.043
 242.508 l 172.043 238.254 168.586 234.797 164.332 234.797 c h
119.941 242.781 m 164.059 242.781 l 164.059 264.566 l 119.941 264.566 l
 h
119.941 242.781 m f
368.934 234.797 m 324.277 234.797 l 320.023 234.797 316.562 238.254 316.562
 242.508 c 316.562 264.836 l 316.562 269.094 320.023 272.551 324.277 272.551
 c 368.934 272.551 l 373.188 272.551 376.645 269.094 376.645 264.836 c 376.645
 242.508 l 376.645 238.254 373.188 234.797 368.934 234.797 c h
324.547 242.781 m 368.664 242.781 l 368.664 264.566 l 324.547 264.566 l
 h
324.547 242.781 m f
369.012 98.617 m 353.816 98.617 l 351.609 98.617 349.824 100.406 349.824
 102.609 c 349.824 121.219 l 349.824 123.422 351.609 125.211 353.816 125.211
 c 369.012 125.211 l 371.215 125.211 373.004 123.422 373.004 121.219 c 373.004
 102.609 l 373.004 100.406 371.215 98.617 369.012 98.617 c h
357.809 106.602 m 365.02 106.602 l 365.02 117.227 l 357.809 117.227 l h
357.809 106.602 m f
133.004 98.617 m 117.812 98.617 l 115.609 98.617 113.82 100.406 113.82 
102.609 c 113.82 121.219 l 113.82 123.422 115.609 125.211 117.812 125.211
 c 133.004 125.211 l 135.211 125.211 136.996 123.422 136.996 121.219 c 136.996
 102.609 l 136.996 100.406 135.211 98.617 133.004 98.617 c h
121.805 106.602 m 129.012 106.602 l 129.012 117.227 l 121.805 117.227 l
 h
121.805 106.602 m f
389.48 0 m 374.594 0 l 369.316 0 365.02 4.293 365.02 9.574 c 365.02 211.93
 l 365.02 217.215 369.316 221.504 374.594 221.504 c 389.48 221.504 l 394.758
 221.504 399.055 217.211 399.055 211.93 c 399.055 9.574 l 399.055 4.293 
394.758 0 389.48 0 c h
374.594 213.52 m 373.719 213.52 373.004 212.809 373.004 211.93 c 373.004
 9.574 l 373.004 8.695 373.719 7.984 374.594 7.984 c 389.48 7.984 l 390.355
 7.984 391.07 8.695 391.07 9.574 c 391.07 211.93 l 391.07 212.809 390.355
 213.52 389.48 213.52 c h
374.594 213.52 m f
112.227 0 m 97.344 0 l 92.062 0 87.77 4.293 87.77 9.574 c 87.77 211.93 
l 87.77 217.215 92.062 221.504 97.344 221.504 c 112.227 221.504 l 117.508
 221.504 121.805 217.211 121.805 211.93 c 121.805 9.574 l 121.805 4.293 
117.508 0 112.227 0 c h
97.344 213.52 m 96.465 213.52 95.754 212.809 95.754 211.93 c 95.754 9.574
 l 95.754 8.695 96.465 7.984 97.344 7.984 c 112.227 7.984 l 113.105 7.984
 113.82 8.695 113.82 9.574 c 113.82 211.93 l 113.82 212.809 113.105 213.52
 112.227 213.52 c h
97.344 213.52 m f
147.582 0 m 136.418 0 l 130.113 0 124.98 5.129 124.98 11.438 c 124.98 95.168
 l 124.98 101.477 130.109 106.605 136.418 106.605 c 147.582 106.605 l 153.887
 106.605 159.016 101.477 159.016 95.168 c 159.016 11.438 l 159.016 5.129
 153.887 0 147.582 0 c h
136.418 98.617 m 134.512 98.617 132.965 97.07 132.965 95.168 c 132.965 
11.434 l 132.965 9.531 134.512 7.984 136.418 7.984 c 147.582 7.984 l 149.484
 7.984 151.031 9.531 151.031 11.434 c 151.031 95.168 l 151.031 97.07 149.484
 98.617 147.582 98.617 c h
136.418 98.617 m f
350.406 0 m 339.242 0 l 332.938 0 327.805 5.129 327.805 11.438 c 327.805
 95.168 l 327.805 101.477 332.934 106.605 339.242 106.605 c 350.406 106.605
 l 356.711 106.605 361.84 101.477 361.84 95.168 c 361.84 11.438 l 361.836
 5.129 356.711 0 350.406 0 c h
339.242 98.617 m 337.336 98.617 335.789 97.07 335.789 95.168 c 335.789 
11.434 l 335.789 9.531 337.336 7.984 339.242 7.984 c 350.406 7.984 l 352.309
 7.984 353.855 9.531 353.855 11.434 c 353.855 95.168 l 353.855 97.07 352.309
 98.617 350.406 98.617 c h
339.242 98.617 m f
331.797 40.004 m 155.023 40.004 l 152.82 40.004 151.031 41.793 151.031 
43.996 c 151.031 62.605 l 151.031 64.809 152.82 66.598 155.023 66.598 c 
331.797 66.598 l 334.004 66.598 335.789 64.809 335.789 62.605 c 335.789 
43.996 l 335.789 41.793 334.004 40.004 331.797 40.004 c h
159.016 47.988 m 327.805 47.988 l 327.805 58.613 l 159.016 58.613 l h
159.016 47.988 m f
0.27451 0.443137 0.776471 rg
234.965 91.594 m 233.945 93.238 232.148 94.234 230.215 94.234 c 194.695
 94.234 l 192.762 94.234 190.965 93.238 189.945 91.594 c 183.285 80.836 
l 182.117 78.949 181.496 76.77 181.496 74.551 c 181.496 66.328 l 181.496
 64.27 183.168 62.605 185.219 62.605 c 239.688 62.605 l 241.742 62.605 243.406
 64.273 243.406 66.328 c 243.406 74.551 l 243.406 76.77 242.789 78.949 241.621
 80.836 c h
234.965 91.594 m f
296.871 91.594 m 295.855 93.238 294.062 94.234 292.129 94.234 c 256.602
 94.234 l 254.672 94.234 252.875 93.238 251.859 91.594 c 245.199 80.836 
l 244.027 78.949 243.41 76.77 243.41 74.551 c 243.41 66.328 l 243.41 64.27
 245.074 62.605 247.129 62.605 c 301.602 62.605 l 303.656 62.605 305.32 
64.273 305.32 66.328 c 305.32 74.551 l 305.32 76.77 304.703 78.949 303.531
 80.836 c h
296.871 91.594 m f
0.215686 0.384314 0.8 rg
239.691 58.613 m 185.219 58.613 l 180.969 58.613 177.508 62.074 177.508
 66.328 c 177.508 74.551 l 177.508 77.516 178.336 80.418 179.895 82.941 
c 186.555 93.695 l 188.312 96.539 191.355 98.23 194.695 98.23 c 230.215 
98.23 l 233.559 98.23 236.598 96.539 238.355 93.695 c 245.016 82.941 l 246.578
 80.418 247.402 77.516 247.402 74.551 c 247.402 66.328 l 247.402 62.074 
243.945 58.613 239.691 58.613 c h
185.488 66.598 m 239.418 66.598 l 239.418 74.551 l 239.418 76.027 239.008
 77.477 238.227 78.738 c 231.57 89.492 l 231.277 89.965 230.77 90.246 230.215
 90.246 c 194.695 90.246 l 194.141 90.246 193.633 89.965 193.336 89.492 
c 186.68 78.738 l 185.898 77.477 185.488 76.027 185.488 74.551 c h
185.488 66.598 m f
301.602 58.613 m 247.133 58.613 l 242.879 58.613 239.418 62.074 239.418
 66.328 c 239.418 74.551 l 239.418 77.516 240.242 80.418 241.809 82.941 
c 248.465 93.695 l 250.223 96.539 253.266 98.23 256.605 98.23 c 292.129 
98.23 l 295.465 98.23 298.512 96.539 300.27 93.695 c 306.926 82.941 l 308.492
 80.414 309.312 77.512 309.312 74.551 c 309.312 66.328 l 309.316 62.074 
305.855 58.613 301.602 58.613 c h
247.402 66.598 m 301.332 66.598 l 301.332 74.551 l 301.332 76.027 300.918
 77.477 300.141 78.738 c 293.48 89.492 l 293.188 89.965 292.684 90.246 292.129
 90.246 c 256.605 90.246 l 256.055 90.246 255.547 89.965 255.254 89.492 
c 248.594 78.738 l 247.812 77.477 247.402 76.027 247.402 74.551 c h
247.402 66.598 m f
231.992 230.02 m 192.562 230.02 l 188.512 230.02 185.219 233.312 185.219
 237.363 c 185.219 245.383 l 185.219 248.277 185.879 251.188 187.133 253.793
 c 189.883 259.539 195.773 263.25 202.141 263.25 c 222.41 263.25 l 228.777
 263.25 234.672 259.539 237.426 253.797 c 237.426 253.793 l 238.672 251.188
 239.336 248.277 239.336 245.383 c 239.336 237.363 l 239.336 233.312 236.043
 230.02 231.992 230.02 c h
193.207 238.004 m 231.352 238.004 l 231.352 245.379 l 231.352 247.09 230.961
 248.805 230.223 250.344 c 228.793 253.332 225.727 255.262 222.414 255.262
 c 202.145 255.262 l 198.832 255.262 195.766 253.332 194.332 250.34 c 193.598
 248.805 193.211 247.09 193.211 245.379 c 193.211 238.004 l h
193.207 238.004 m f
294.262 230.02 m 254.828 230.02 l 250.781 230.02 247.488 233.312 247.488
 237.363 c 247.488 245.383 l 247.488 248.273 248.145 251.184 249.398 253.793
 c 252.148 259.539 258.043 263.25 264.41 263.25 c 284.68 263.25 l 291.047
 263.25 296.941 259.539 299.691 253.793 c 300.941 251.188 301.602 248.277
 301.602 245.383 c 301.602 237.363 l 301.602 233.312 298.309 230.02 294.262
 230.02 c h
255.473 238.004 m 293.617 238.004 l 293.617 245.379 l 293.617 247.09 293.227
 248.805 292.492 250.344 c 291.059 253.332 287.992 255.262 284.68 255.262
 c 264.41 255.262 l 261.098 255.262 258.035 253.332 256.602 250.344 c 255.863
 248.805 255.473 247.086 255.473 245.379 c h
255.473 238.004 m f
0.27451 0.443137 0.776471 rg
147.25 337.531 m 160.273 337.84 l 181.148 338.328 197.621 353.414 197.059
 371.535 c 195.602 418.457 l 178.801 418.062 l 157.922 417.574 141.453 402.484
 142.016 384.367 c 143.371 340.727 l 143.426 338.914 145.164 337.484 147.25
 337.531 c h
147.25 337.531 m f
0.215686 0.384314 0.8 rg
147.148 333.539 m 142.965 333.539 139.5 336.672 139.379 340.602 c 138.023
 384.242 l 137.742 393.219 141.176 401.945 147.691 408.828 c 155.383 416.949
 166.691 421.773 178.703 422.055 c 195.504 422.445 l 197.695 422.527 199.523
 420.77 199.59 418.578 c 201.047 371.656 l 201.328 362.684 197.891 353.953
 191.375 347.07 c 183.684 338.949 172.379 334.129 160.367 333.848 c 147.344
 333.539 l 147.281 333.539 147.215 333.539 147.148 333.539 c h
147.051 341.539 m 147.254 337.531 l 147.16 341.434 l 147.117 341.488 147.078
 341.523 147.051 341.539 c h
191.73 414.371 m 178.895 414.07 l 168.988 413.844 159.727 409.93 153.488
 403.34 c 148.453 398.016 145.793 391.324 146.004 384.492 c 147.336 341.531
 l 160.18 341.832 l 170.082 342.062 179.34 345.977 185.582 352.566 c 190.621
 357.887 193.281 364.582 193.07 371.41 c h
191.73 414.371 m f
0.976471 0.654902 0.654902 rg
173.016 394.238 m 174.449 394.242 l 179.855 394.25 184.234 398.641 184.223
 404.047 c 184.199 419.121 l 184.188 424.523 179.801 428.898 174.398 428.891
 c 172.961 428.887 l 167.551 428.879 163.176 424.488 163.188 419.082 c 163.211
 404.008 l 163.223 398.609 167.609 394.234 173.016 394.238 c h
173.016 394.238 m f
0.215686 0.384314 0.8 rg
173.004 390.25 m 165.41 390.25 159.234 396.414 159.223 404.004 c 159.195
 419.078 l 159.188 422.758 160.617 426.223 163.215 428.828 c 165.816 431.438
 169.273 432.875 172.957 432.883 c 174.41 432.883 l 182 432.883 188.176 
426.719 188.191 419.129 c 188.219 404.055 l 188.223 400.375 186.797 396.91
 184.199 394.305 c 181.594 391.695 178.141 390.258 174.457 390.254 c 173.023
 390.25 l 173.016 390.25 173.008 390.25 173.004 390.25 c h
174.41 424.898 m 174.406 424.898 174.406 424.898 174.402 424.898 c 172.969
 424.898 l 171.418 424.895 169.961 424.289 168.871 423.191 c 167.777 422.098
 167.176 420.641 167.176 419.09 c 167.203 404.016 l 167.207 402.469 167.812
 401.02 168.91 399.922 c 170.004 398.832 171.453 398.23 173.004 398.23 c
 173.012 398.23 l 174.445 398.234 l 175.992 398.234 177.445 398.844 178.543
 399.938 c 179.633 401.035 180.234 402.488 180.234 404.039 c 180.207 419.113
 l 180.199 422.305 177.598 424.898 174.41 424.898 c h
174.41 424.898 m f
0.27451 0.443137 0.776471 rg
339.57 337.531 m 326.551 337.84 l 305.672 338.328 289.199 353.414 289.766
 371.535 c 291.219 418.457 l 308.023 418.062 l 328.902 417.578 345.371 402.488
 344.809 384.367 c 343.449 340.73 l 343.398 338.914 341.656 337.484 339.57
 337.531 c h
339.57 337.531 m f
0.215686 0.384314 0.8 rg
339.672 333.539 m 339.605 333.539 339.543 333.539 339.473 333.539 c 326.457
 333.848 l 314.441 334.129 303.137 338.949 295.441 347.07 c 288.926 353.953
 285.496 362.684 285.773 371.656 c 287.23 418.578 l 287.297 420.77 289.191
 422.512 291.312 422.445 c 308.117 422.055 l 320.133 421.773 331.438 416.949
 339.129 408.828 c 345.645 401.945 349.078 393.219 348.801 384.242 c 347.445
 340.602 l 347.324 336.672 343.852 333.539 339.672 333.539 c h
295.09 414.371 m 293.754 371.41 l 293.543 364.582 296.203 357.887 301.238
 352.566 c 307.48 345.977 316.742 342.062 326.645 341.832 c 339.484 341.531
 l 340.82 384.492 l 341.031 391.324 338.371 398.016 333.332 403.34 c 327.098
 409.93 317.832 413.844 307.93 414.07 c h
295.09 414.371 m f
0.976471 0.654902 0.654902 rg
313.809 394.238 m 312.375 394.242 l 306.965 394.25 302.59 398.641 302.602
 404.047 c 302.625 419.121 l 302.637 424.523 307.02 428.898 312.426 428.891
 c 313.859 428.887 l 319.266 428.879 323.645 424.488 323.633 419.082 c 323.609
 404.008 l 323.598 398.609 319.211 394.234 313.809 394.238 c h
313.809 394.238 m f
0.215686 0.384314 0.8 rg
313.82 390.25 m 313.816 390.25 313.809 390.25 313.801 390.25 c 312.363 
390.25 l 308.684 390.254 305.227 391.695 302.625 394.301 c 300.027 396.91
 298.602 400.371 298.605 404.051 c 298.633 419.125 l 298.648 426.715 304.828
 432.883 312.414 432.883 c 312.43 432.883 l 313.867 432.879 l 317.547 432.875
 321.008 431.434 323.605 428.828 c 326.207 426.219 327.633 422.758 327.625
 419.078 c 327.598 404.004 l 327.59 396.414 321.41 390.25 313.82 390.25 
c h
312.414 424.898 m 309.219 424.898 306.625 422.305 306.617 419.113 c 306.594
 404.039 l 306.59 402.492 307.188 401.039 308.281 399.938 c 309.375 398.844
 310.832 398.238 312.379 398.234 c 313.824 398.234 l 315.367 398.234 316.824
 398.836 317.914 399.926 c 319.012 401.02 319.617 402.469 319.617 404.016
 c 319.645 419.094 l 319.648 420.641 319.051 422.098 317.957 423.195 c 316.863
 424.289 315.406 424.898 313.855 424.898 c 312.422 424.902 l 312.418 424.898
 312.418 424.898 312.414 424.898 c h
312.414 424.898 m f
0.976471 0.811765 0.811765 rg
297.543 405.426 m 297.43 405.426 297.32 405.414 297.203 405.41 c 297.203
 410.488 l 297.203 440.199 273.121 464.285 243.41 464.285 c 213.699 464.285
 189.617 440.203 189.617 410.488 c 189.617 405.41 l 189.5 405.41 189.391
 405.426 189.277 405.426 c 180.215 405.426 172.867 398.074 172.867 389.012
 c 172.867 379.945 180.215 372.602 189.277 372.602 c 189.871 372.602 190.461
 372.637 191.039 372.699 c 196.59 348.902 217.922 331.164 243.41 331.164
 c 268.898 331.164 290.234 348.902 295.785 372.699 c 296.363 372.637 296.949
 372.602 297.543 372.602 c 306.609 372.602 313.957 379.945 313.957 389.012
 c 313.957 398.074 306.609 405.426 297.543 405.426 c h
297.543 405.426 m f
0.215686 0.384314 0.8 rg
243.41 327.172 m 217.504 327.172 195.152 344.07 187.973 368.652 c 177.328
 369.328 168.875 378.199 168.875 389.012 c 168.875 399.02 176.109 407.363
 185.625 409.09 c 185.625 410.492 l 185.625 442.359 211.551 468.277 243.414
 468.277 c 275.277 468.277 301.199 442.359 301.199 410.492 c 301.199 409.09
 l 310.719 407.363 317.953 399.02 317.953 389.012 c 317.953 378.199 309.496
 369.328 298.852 368.652 c 291.672 344.07 269.32 327.172 243.41 327.172 
c h
191.043 376.691 m 192.879 376.691 194.5 375.43 194.926 373.605 c 200.207
 350.973 220.145 335.16 243.41 335.16 c 266.676 335.16 286.617 350.973 291.898
 373.605 c 292.355 375.566 294.215 376.883 296.207 376.672 c 296.648 376.625
 297.09 376.594 297.543 376.594 c 304.395 376.594 309.965 382.164 309.965
 389.016 c 309.965 395.836 304.434 401.398 297.613 401.438 c 297.426 401.426
 297.277 401.422 297.203 401.418 c 296.168 401.418 295.168 401.824 294.422
 402.547 c 293.645 403.301 293.211 404.332 293.211 405.41 c 293.211 410.492
 l 293.211 437.953 270.871 460.293 243.41 460.293 c 215.949 460.293 193.609
 437.953 193.609 410.492 c 193.609 405.41 l 193.609 404.332 193.176 403.301
 192.402 402.547 c 191.633 401.797 190.57 401.395 189.512 401.418 c 189.453
 401.422 189.242 401.434 189.184 401.438 c 182.43 401.438 176.859 395.859
 176.859 389.016 c 176.859 382.168 182.43 376.594 189.277 376.594 c 189.73
 376.594 190.176 376.621 190.621 376.672 c 190.758 376.684 190.902 376.691
 191.043 376.691 c h
191.043 376.691 m f
244.32 350.793 m 235.836 350.793 229.184 355.715 229.184 362.004 c 229.184
 363.656 230.527 365 232.176 365 c 233.832 365 235.172 363.656 235.172 362.004
 c 235.172 359.531 238.934 356.781 244.32 356.781 c 249.715 356.781 253.473
 359.531 253.473 362.004 c 253.473 363.656 254.816 365 256.465 365 c 258.121
 365 259.461 363.656 259.461 362.004 c 259.461 355.715 252.812 350.793 244.32
 350.793 c h
244.32 350.793 m f
215.016 379.219 m 211.992 379.219 209.539 381.664 209.539 384.688 c 209.539
 393.805 l 209.539 396.828 211.992 399.281 215.016 399.281 c 218.035 399.281
 220.484 396.828 220.484 393.805 c 220.484 384.688 l 220.484 381.664 218.031
 379.219 215.016 379.219 c h
215.016 379.219 m f
271.812 383.211 m 268.789 383.211 266.336 385.656 266.336 388.68 c 266.336
 397.797 l 266.336 400.82 268.789 403.273 271.812 403.273 c 274.832 403.273
 277.281 400.82 277.281 397.797 c 277.281 388.68 l 277.281 385.656 274.828
 383.211 271.812 383.211 c h
271.812 383.211 m f
0.27451 0.443137 0.776471 rg
297.203 410.492 m 297.203 405.41 l 297.32 405.414 297.43 405.43 297.543
 405.43 c 300.086 405.43 302.484 404.832 304.629 403.805 c 304.629 419.012
 l 303.895 418.203 302.848 417.691 301.676 417.691 c 296.711 417.691 l 297.027
 415.332 297.203 412.934 297.203 410.492 c h
297.203 410.492 m f
0.215686 0.384314 0.8 rg
304.629 399.809 m 304.039 399.809 303.449 399.938 302.902 400.203 c 301.195
 401.02 299.398 401.438 297.543 401.438 c 297.273 401.422 l 297.25 401.422
 297.23 401.422 297.203 401.422 c 296.16 401.422 295.156 401.828 294.41 
402.562 c 293.645 403.316 293.211 404.34 293.211 405.414 c 293.211 410.492
 l 293.211 412.637 293.059 414.879 292.754 417.164 c 292.605 418.305 292.949
 419.457 293.711 420.32 c 294.469 421.188 295.562 421.688 296.715 421.688
 c 301.676 421.688 l 302.789 422.906 304.539 423.324 306.07 422.73 c 307.609
 422.133 308.621 420.66 308.621 419.012 c 308.621 403.805 l 308.621 402.43
 307.918 401.156 306.758 400.426 c 306.109 400.016 305.367 399.809 304.629
 399.809 c h
304.629 399.809 m f
305.371 209.41 m 304.5 209.41 l 302.297 209.41 300.508 211.199 300.508 
213.402 c 300.508 225.863 l 298.105 228.484 294.68 230.02 291.121 230.02
 c 195.699 230.02 l 192.957 230.02 190.324 229.145 188.137 227.523 c 188.137
 213.402 l 188.137 211.199 186.348 209.41 184.145 209.41 c 183.23 209.41
 l 172.48 209.41 164.059 215.938 164.059 224.27 c 164.059 281.176 l 164.059
 298.18 175.332 314.156 194.227 323.918 c 196.848 325.27 l 202.684 329.695
 209.477 332.5 216.625 333.441 c 216.625 336.246 l 216.625 337.609 217.324
 338.887 218.477 339.617 c 219.629 340.348 221.074 340.441 222.312 339.859
 c 228.965 336.742 236.059 335.16 243.41 335.16 c 250.762 335.16 257.859
 336.742 264.508 339.859 c 265.75 340.441 267.191 340.348 268.348 339.617
 c 269.5 338.887 270.199 337.609 270.199 336.246 c 270.199 333.637 l 278.23
 332.918 285.691 330.004 292.039 325.125 c 294.379 323.918 l 313.266 314.156
 324.547 298.18 324.547 281.176 c 324.547 224.27 l 324.547 215.938 316.125
 209.41 305.371 209.41 c h
200.062 317.945 m 197.891 316.82 l 181.707 308.461 172.043 295.133 172.043
 281.172 c 172.043 224.266 l 172.043 221.254 175.578 218.547 180.152 217.68
 c 180.152 229.371 l 180.152 230.461 180.602 231.504 181.391 232.258 c 185.27
 235.957 190.355 238 195.699 238 c 291.121 238 l 297.594 238 303.789 234.895
 307.691 229.688 c 308.215 229 308.492 228.156 308.492 227.293 c 308.492
 217.684 l 313.043 218.559 316.562 221.262 316.562 224.262 c 316.562 281.168
 l 316.562 295.129 306.895 308.457 290.711 316.816 c 288.047 318.195 l 287.824
 318.309 287.617 318.445 287.422 318.602 c 281.781 323.008 275.039 325.496
 267.926 325.785 c 266.215 325.777 l 266.215 325.777 266.211 325.777 266.207
 325.777 c 265.148 325.777 264.137 326.199 263.387 326.941 c 262.633 327.691
 262.215 328.711 262.215 329.77 c 262.215 330.316 l 250.145 326.137 236.676
 326.137 224.609 330.316 c 224.609 329.66 l 224.609 327.457 222.828 325.672
 220.625 325.668 c 218.945 325.664 l 212.531 325.066 206.418 322.621 201.254
 318.582 c 200.891 318.305 200.488 318.09 200.062 317.945 c h
200.062 317.945 m f
184.148 225.379 m 181.941 225.379 180.156 227.172 180.156 229.375 c 180.156
 288.91 l 180.156 291.113 181.941 292.902 184.148 292.902 c 186.352 292.902
 188.141 291.113 188.141 288.91 c 188.141 229.375 l 188.141 227.172 186.352
 225.379 184.148 225.379 c h
184.148 225.379 m f
304.504 223.457 m 302.297 223.457 300.512 225.246 300.512 227.449 c 300.512
 286.988 l 300.512 289.191 302.297 290.98 304.504 290.98 c 306.707 290.98
 308.496 289.191 308.496 286.988 c 308.496 227.449 l 308.496 225.246 306.707
 223.457 304.504 223.457 c h
304.504 223.457 m f
0.878431 0.921569 0.988235 rg
278.641 373.551 m 262.02 373.551 l 257.609 373.551 254.035 377.125 254.035
 381.539 c 254.035 398.156 l 254.035 402.566 257.609 406.141 262.02 406.141
 c 278.641 406.141 l 283.051 406.141 286.625 402.566 286.625 398.156 c 286.625
 381.539 l 286.625 377.125 283.051 373.551 278.641 373.551 c h
278.641 373.551 m f
0.643137 0.788235 1 rg
254.039 398.156 m 254.039 398.594 254.102 399.012 254.164 399.43 c 189.883
 408.117 l 189.793 408.129 189.707 408.102 189.617 408.102 c 189.617 405.41
 l 189.504 405.414 189.391 405.43 189.277 405.43 c 188.789 405.43 188.305
 405.395 187.82 405.355 c 188.094 404.738 188.637 404.258 189.348 404.164
 c 254.039 395.418 l h
254.039 398.156 m f
254.039 381.539 m 254.039 384.438 l 192.703 372.715 l 192.074 372.594 191.602
 372.18 191.328 371.652 c 191.551 370.785 191.785 369.922 192.047 369.074
 c 192.355 368.887 192.699 368.758 193.074 368.758 c 193.199 368.758 193.32
 368.77 193.445 368.793 c 254.152 380.398 l 254.098 380.773 254.039 381.148
 254.039 381.539 c h
254.039 381.539 m f
282.676 374.68 m 292.305 364.613 l 292.512 364.398 292.75 364.25 293.008
 364.145 c 293.555 365.438 294.043 366.766 294.488 368.109 c 285.5 377.504
 l 284.809 376.336 283.844 375.371 282.676 374.68 c h
282.676 374.68 m f
297.195 410.875 m 284.238 403.848 l 285.191 402.906 285.879 401.723 286.27
 400.402 c 297.203 406.34 l 297.203 410.488 l 297.203 410.621 297.195 410.746
 297.195 410.875 c h
297.195 410.875 m f
0.215686 0.384314 0.8 rg
243.41 327.172 m 217.504 327.172 195.152 344.07 187.973 368.652 c 177.328
 369.328 168.875 378.199 168.875 389.012 c 168.875 399.02 176.109 407.363
 185.625 409.09 c 185.625 410.492 l 185.625 442.359 211.551 468.277 243.414
 468.277 c 275.277 468.277 301.199 442.359 301.199 410.492 c 301.199 409.09
 l 310.719 407.363 317.953 399.02 317.953 389.012 c 317.953 378.199 309.496
 369.328 298.852 368.652 c 291.672 344.07 269.32 327.172 243.41 327.172 
c h
191.043 376.691 m 192.879 376.691 194.5 375.43 194.926 373.605 c 200.207
 350.973 220.145 335.16 243.41 335.16 c 266.676 335.16 286.617 350.973 291.898
 373.605 c 292.355 375.566 294.215 376.883 296.207 376.672 c 296.648 376.625
 297.09 376.594 297.543 376.594 c 304.395 376.594 309.965 382.164 309.965
 389.016 c 309.965 395.836 304.434 401.398 297.613 401.438 c 297.426 401.426
 297.277 401.422 297.203 401.418 c 296.168 401.418 295.168 401.824 294.422
 402.547 c 293.645 403.301 293.211 404.332 293.211 405.41 c 293.211 410.492
 l 293.211 437.953 270.871 460.293 243.41 460.293 c 215.949 460.293 193.609
 437.953 193.609 410.492 c 193.609 405.41 l 193.609 404.332 193.176 403.301
 192.402 402.547 c 191.633 401.797 190.57 401.395 189.512 401.418 c 189.453
 401.422 189.242 401.434 189.184 401.438 c 182.43 401.438 176.859 395.859
 176.859 389.016 c 176.859 382.168 182.43 376.594 189.277 376.594 c 189.73
 376.594 190.176 376.621 190.621 376.672 c 190.758 376.684 190.902 376.691
 191.043 376.691 c h
191.043 376.691 m f
0.27451 0.443137 0.776471 rg
214.5 417.691 m 182.027 417.691 l 179.82 417.691 178.027 419.48 178.027
 421.691 c 178.027 436.418 l 178.027 461.598 198.441 482.008 223.617 482.008
 c 231.848 482.008 l 237.375 482.008 241.855 477.531 241.855 472.008 c 241.855
 445.043 l 241.855 429.938 229.609 417.691 214.5 417.691 c h
214.5 417.691 m f
269.207 417.691 m 301.676 417.691 l 303.887 417.691 305.676 419.48 305.676
 421.691 c 305.676 436.418 l 305.676 461.598 285.266 482.008 260.09 482.008
 c 251.855 482.008 l 246.328 482.008 241.855 477.531 241.855 472.008 c 241.855
 445.043 l 241.855 429.938 254.102 417.691 269.207 417.691 c h
269.207 417.691 m f
0.215686 0.384314 0.8 rg
214.5 413.699 m 182.027 413.699 l 177.621 413.699 174.035 417.281 174.035
 421.691 c 174.035 436.418 l 174.035 463.758 196.281 486 223.617 486 c 231.848
 486 l 239.57 486 245.848 479.723 245.848 472.008 c 245.848 445.039 l 245.848
 427.758 231.789 413.699 214.5 413.699 c h
223.617 478.016 m 200.684 478.016 182.02 459.355 182.02 436.418 c 182.02
 421.691 l 214.5 421.684 l 227.383 421.684 237.863 432.164 237.863 445.043
 c 237.863 472.008 l 237.863 475.32 235.164 478.016 231.848 478.016 c h
223.617 478.016 m f
301.676 413.699 m 269.207 413.699 l 251.922 413.699 237.863 427.758 237.863
 445.043 c 237.863 472.008 l 237.863 479.723 244.137 486 251.855 486 c 260.09
 486 l 287.426 486 309.668 463.758 309.668 436.418 c 309.668 421.691 l 309.668
 417.281 306.082 413.699 301.676 413.699 c h
251.855 478.016 m 248.539 478.016 245.848 475.316 245.848 472.008 c 245.848
 445.039 l 245.848 432.16 256.324 421.68 269.207 421.68 c 301.676 421.68
 l 301.684 436.414 l 301.684 459.352 283.023 478.012 260.09 478.012 c 251.855
 478.012 l h
251.855 478.016 m f
0.419608 0.866667 0.866667 rg
308.074 223.215 m 305.555 229.711 299.191 234.012 292.098 234.012 c 194.727
 234.012 l 187.629 234.012 181.266 229.711 178.75 223.215 c 170.566 202.094
 l 167.254 193.559 165.559 184.512 165.559 175.383 c 165.559 164.789 l 165.559
 160.68 168.961 157.348 173.156 157.348 c 313.664 157.348 l 317.859 157.348
 321.258 160.676 321.258 164.789 c 321.258 175.383 l 321.258 184.512 319.566
 193.559 316.258 202.094 c h
308.074 223.215 m f
0.215686 0.384314 0.8 rg
313.664 153.355 m 173.156 153.355 l 166.77 153.355 161.566 158.484 161.566
 164.793 c 161.566 175.383 l 161.566 185.035 163.344 194.512 166.844 203.535
 c 175.027 224.656 l 178.121 232.641 186.039 238.004 194.727 238.004 c 292.102
 238.004 l 300.789 238.004 308.703 232.641 311.797 224.656 c 319.984 203.539
 l 323.48 194.512 325.254 185.035 325.254 175.383 c 325.254 164.793 l 325.25
 158.484 320.055 153.355 313.664 153.355 c h
194.723 230.02 m 189.305 230.02 184.383 226.703 182.473 221.77 c 174.285
 200.656 l 171.145 192.551 169.551 184.047 169.551 175.383 c 169.551 164.793
 l 169.551 162.887 171.168 161.34 173.152 161.34 c 313.664 161.34 l 315.652
 161.34 317.266 162.887 317.266 164.793 c 317.266 175.383 l 317.266 184.047
 315.676 192.551 312.539 200.656 c 304.352 221.77 l 302.438 226.707 297.512
 230.02 292.098 230.02 c h
194.723 230.02 m f
0.976471 0.811765 0.811765 rg
191.109 92.891 m 192.102 93.73 193.355 94.238 194.695 94.238 c 230.215 
94.238 l 231.418 94.238 232.543 93.812 233.484 93.129 c 239.078 130.348 
l 243.621 160.551 243.895 191.086 239.895 221.34 c 238.941 228.551 231.543
 234.012 222.727 234.012 c 201.82 234.012 l 193.008 234.012 185.609 228.551
 184.66 221.34 c 184.66 221.336 l 180.66 191.086 180.934 160.551 185.473
 130.348 c h
191.109 92.891 m f
253.34 93.129 m 254.277 93.812 255.406 94.238 256.605 94.238 c 292.129 
94.238 l 293.469 94.238 294.719 93.73 295.715 92.891 c 301.344 130.348 l
 305.887 160.551 306.16 191.086 302.16 221.34 c 301.207 228.551 293.809 
234.012 284.992 234.012 c 264.094 234.012 l 255.277 234.012 247.879 228.551
 246.926 221.34 c 246.926 221.336 l 242.93 191.086 243.203 160.551 247.746
 130.348 c h
253.34 93.129 m f
0.215686 0.384314 0.8 rg
295.715 88.898 m 294.785 88.898 293.871 89.227 293.137 89.84 c 292.922 
90.027 292.57 90.246 292.129 90.246 c 256.605 90.246 l 256.238 90.246 255.91
 90.059 255.695 89.902 c 254.566 89.078 253.09 88.902 251.801 89.445 c 250.512
 89.977 249.598 91.152 249.391 92.531 c 243.797 129.758 l 239.207 160.293
 238.93 191.281 242.969 221.863 c 244.184 231.066 253.266 238.004 264.094
 238.004 c 284.992 238.004 l 295.824 238.004 304.906 231.066 306.117 221.863
 c 310.16 191.277 309.887 160.289 305.293 129.754 c 299.664 92.297 l 299.449
 90.867 298.48 89.66 297.121 89.152 c 296.668 88.984 296.191 88.898 295.715
 88.898 c h
256.605 98.23 m 292.129 98.23 l 292.246 98.23 292.363 98.227 292.48 98.223
 c 297.398 130.945 l 301.875 160.734 302.148 190.973 298.203 220.82 c 297.52
 225.977 291.719 230.02 284.992 230.02 c 264.094 230.02 l 257.371 230.02
 251.57 225.98 250.883 220.82 c 246.941 190.977 247.215 160.738 251.691 
130.945 c h
256.605 98.23 m f
191.109 88.898 m 190.633 88.898 190.156 88.984 189.699 89.156 c 188.344
 89.66 187.371 90.867 187.16 92.297 c 181.527 129.758 l 176.941 160.297 
176.664 191.285 180.707 221.867 c 181.922 231.066 191.004 238.004 201.828
 238.004 c 222.73 238.004 l 233.559 238.004 242.637 231.066 243.855 221.867
 c 247.898 191.277 247.621 160.289 243.031 129.758 c 237.438 92.535 l 237.227
 91.156 236.312 89.98 235.027 89.449 c 233.738 88.906 232.258 89.082 231.133
 89.906 c 230.918 90.062 230.586 90.25 230.219 90.25 c 194.699 90.25 l 194.254
 90.25 193.902 90.031 193.688 89.848 c 192.953 89.227 192.035 88.898 191.109
 88.898 c h
201.824 230.02 m 195.105 230.02 189.301 225.977 188.621 220.82 c 184.676
 190.977 184.949 160.738 189.422 130.945 c 194.34 98.223 l 194.461 98.227
 194.578 98.227 194.695 98.227 c 230.215 98.227 l 235.133 130.941 l 239.613
 160.73 239.883 190.969 235.938 220.816 c 235.254 225.973 229.453 230.016
 222.73 230.016 c 201.824 230.016 l h
201.824 230.02 m f
Q Q
showpage
%%Trailer
end restore
%%EOF
