%!PS-Adobe-3.0 EPSF-3.0
%%Creator: cairo 1.14.8 (http://cairographics.org)
%%CreationDate: Wed Mar 20 09:06:38 2019
%%Pages: 1
%%DocumentData: Clean7Bit
%%LanguageLevel: 2
%%BoundingBox: 64 0 427 490
%%EndComments
%%BeginProlog
save
50 dict begin
/q { gsave } bind def
/Q { grestore } bind def
/cm { 6 array astore concat } bind def
/w { setlinewidth } bind def
/J { setlinecap } bind def
/j { setlinejoin } bind def
/M { setmiterlimit } bind def
/d { setdash } bind def
/m { moveto } bind def
/l { lineto } bind def
/c { curveto } bind def
/h { closepath } bind def
/re { exch dup neg 3 1 roll 5 3 roll moveto 0 rlineto
      0 exch rlineto 0 rlineto closepath } bind def
/S { stroke } bind def
/f { fill } bind def
/f* { eofill } bind def
/n { newpath } bind def
/W { clip } bind def
/W* { eoclip } bind def
/BT { } bind def
/ET { } bind def
/pdfmark where { pop globaldict /?pdfmark /exec load put }
    { globaldict begin /?pdfmark /pop load def /pdfmark
    /cleartomark load def end } ifelse
/BDC { mark 3 1 roll /BDC pdfmark } bind def
/EMC { mark /EMC pdfmark } bind def
/cairo_store_point { /cairo_point_y exch def /cairo_point_x exch def } def
/Tj { show currentpoint cairo_store_point } bind def
/TJ {
  {
    dup
    type /stringtype eq
    { show } { -0.001 mul 0 cairo_font_matrix dtransform rmoveto } ifelse
  } forall
  currentpoint cairo_store_point
} bind def
/cairo_selectfont { cairo_font_matrix aload pop pop pop 0 0 6 array astore
    cairo_font exch selectfont cairo_point_x cairo_point_y moveto } bind def
/Tf { pop /cairo_font exch def /cairo_font_matrix where
      { pop cairo_selectfont } if } bind def
/Td { matrix translate cairo_font_matrix matrix concatmatrix dup
      /cairo_font_matrix exch def dup 4 get exch 5 get cairo_store_point
      /cairo_font where { pop cairo_selectfont } if } bind def
/Tm { 2 copy 8 2 roll 6 array astore /cairo_font_matrix exch def
      cairo_store_point /cairo_font where { pop cairo_selectfont } if } bind def
/g { setgray } bind def
/rg { setrgbcolor } bind def
/d1 { setcachedevice } bind def
%%EndProlog
%%BeginSetup
%%EndSetup
%%Page: 1 1
%%BeginPageSetup
%%PageBoundingBox: 64 0 427 490
%%EndPageSetup
q 64 0 363 490 rectclip q
0.643137 0.788235 1 rg
383.723 248.438 m 147.633 248.438 l 144.07 248.438 141.027 250.996 140.406
 254.5 c 101.188 476.914 l 100.137 482.898 94.426 486.895 88.441 485.836
 c 77.609 483.93 l 71.621 482.871 67.625 477.168 68.68 471.18 c 109.91 237.363
 l 110.895 232.73 115.914 216.84 138.324 215.434 c 145.23 215.434 l 383.723
 215.426 l 389.801 215.426 394.73 220.348 394.73 226.426 c 394.73 237.434
 l 394.727 243.512 389.797 248.438 383.723 248.438 c h
383.723 248.438 m f
0.419608 0.866667 0.866667 rg
197.27 215.434 m 197.27 149.402 l 197.27 143.328 202.191 138.398 208.27
 138.398 c 299.969 138.398 l 306.043 138.398 310.977 143.324 310.977 149.402
 c 310.977 215.43 l h
197.27 215.434 m f
0.878431 0.921569 0.988235 rg
368.184 113.156 m 140.059 113.156 l 136.832 91.152 l 371.406 91.152 l h
368.184 113.156 m f
0.215686 0.384314 0.8 rg
383.723 211.43 m 138.32 211.438 l 138.234 211.438 138.152 211.438 138.066
 211.445 c 118.086 212.699 108.402 225.227 106 236.535 c 64.742 470.488 
l 64.047 474.434 64.93 478.414 67.23 481.695 c 69.527 484.98 72.965 487.168
 76.914 487.863 c 87.75 489.773 l 95.898 491.199 103.688 485.75 105.121 
477.605 c 144.344 255.191 l 144.625 253.594 146.008 252.43 147.629 252.43
 c 383.723 252.43 l 391.992 252.43 398.723 245.703 398.723 237.434 c 398.723
 226.426 l 398.723 218.16 391.992 211.43 383.723 211.43 c h
138.449 219.426 m 383.723 219.422 l 387.586 219.422 390.73 222.566 390.73
 226.43 c 390.73 237.438 l 390.73 241.301 387.586 244.445 383.723 244.445
 c 147.629 244.445 l 142.121 244.445 137.43 248.379 136.469 253.805 c 97.254
 476.219 l 96.586 480.023 92.953 482.574 89.137 481.902 c 78.297 479.996
 l 74.492 479.324 71.941 475.68 72.613 471.875 c 113.84 238.062 l 114.68
 234.113 119.023 220.707 138.449 219.426 c h
138.449 219.426 m f
0.878431 0.921569 0.988235 rg
370.129 251.656 m 366.703 275.07 346.617 292.43 322.953 292.43 c 185.285
 292.43 l 161.621 292.43 141.539 275.074 138.109 251.656 c 109.242 54.648
 l 108.27 48.031 113.402 42.094 120.094 42.094 c 120.125 42.094 l 125.562
 42.094 130.172 46.074 130.977 51.449 c 133.77 70.242 l 159.883 248.469 
l 161.734 261.074 172.547 270.422 185.289 270.422 c 322.957 270.422 l 335.605
 270.422 346.527 260.98 348.359 248.465 c 374.43 70.52 l 377.301 51.43 l
 378.105 46.062 382.723 42.094 388.148 42.094 c 394.84 42.094 399.969 48.031
 399 54.648 c h
370.129 251.656 m f
0.215686 0.384314 0.8 rg
388.145 38.098 m 380.68 38.098 374.453 43.453 373.344 50.836 c 370.477 
69.926 l 344.402 247.891 l 342.855 258.457 333.633 266.426 322.953 266.426
 c 185.285 266.426 l 174.605 266.426 165.387 258.457 163.836 247.891 c 137.723
 69.66 l 134.934 50.859 l 133.848 43.582 127.484 38.098 120.129 38.098 c
 115.75 38.098 111.621 39.984 108.773 43.273 c 105.93 46.566 104.656 50.926
 105.293 55.23 c 134.156 252.238 l 137.848 277.426 159.832 296.426 185.289
 296.426 c 322.957 296.426 l 348.41 296.426 370.395 277.43 374.086 252.238
 c 402.949 55.23 l 403.582 50.926 402.312 46.566 399.465 43.273 c 396.621
 39.984 392.496 38.098 388.145 38.098 c h
185.285 274.414 m 322.953 274.414 l 337.57 274.414 350.191 263.512 352.309
 249.047 c 378.383 71.102 l 381.246 52.023 l 381.766 48.586 384.668 46.086
 388.145 46.086 c 390.172 46.086 392.098 46.961 393.422 48.5 c 394.75 50.031
 395.34 52.062 395.047 54.07 c 366.184 251.078 l 363.059 272.375 344.477
 288.434 322.953 288.434 c 185.285 288.434 l 163.766 288.434 145.184 272.375
 142.059 251.078 c 113.195 54.07 l 112.902 52.066 113.488 50.031 114.816
 48.5 c 116.145 46.965 118.066 46.09 120.094 46.09 c 123.551 46.09 126.52
 48.645 127.023 52.039 c 129.816 70.832 l 155.93 249.051 l 158.051 263.512
 170.672 274.414 185.285 274.414 c h
185.285 274.414 m f
0.27451 0.443137 0.776471 rg
151.773 37.957 m 151.773 19.199 136.566 3.996 117.809 3.996 c 99.055 3.996
 83.848 19.199 83.848 37.957 c 83.848 56.711 99.055 71.922 117.809 71.922
 c 136.566 71.922 151.773 56.711 151.773 37.957 c h
151.773 37.957 m f
0.643137 0.788235 1 rg
117.809 20.301 m 108.07 20.301 100.152 28.219 100.152 37.957 c 100.152 
47.695 108.07 55.621 117.809 55.621 c 127.547 55.621 135.473 47.695 135.473
 37.957 c 135.473 28.219 127.547 20.301 117.809 20.301 c h
117.809 20.301 m f
0.27451 0.443137 0.776471 rg
422.918 37.957 m 422.918 19.199 407.715 3.996 388.957 3.996 c 370.195 3.996
 354.992 19.199 354.992 37.957 c 354.992 56.711 370.195 71.922 388.957 71.922
 c 407.715 71.922 422.918 56.711 422.918 37.957 c h
422.918 37.957 m f
0.643137 0.788235 1 rg
388.957 20.301 m 379.219 20.301 371.293 28.219 371.293 37.957 c 371.293
 47.695 379.219 55.621 388.957 55.621 c 398.695 55.621 406.617 47.695 406.617
 37.957 c 406.617 28.219 398.695 20.301 388.957 20.301 c h
388.957 20.301 m f
0.215686 0.384314 0.8 rg
117.809 0 m 96.879 0 79.852 17.027 79.852 37.957 c 79.852 58.891 96.879
 75.914 117.809 75.914 c 138.742 75.914 155.766 58.887 155.766 37.957 c 
155.766 17.031 138.738 0 117.809 0 c h
117.809 67.926 m 101.285 67.926 87.84 54.48 87.84 37.957 c 87.84 21.434
 101.281 7.988 117.809 7.988 c 134.336 7.988 147.777 21.434 147.777 37.957
 c 147.777 54.48 134.332 67.926 117.809 67.926 c h
117.809 67.926 m f
388.957 0 m 368.023 0 350.996 17.027 350.996 37.957 c 350.996 58.891 368.023
 75.914 388.957 75.914 c 409.887 75.914 426.914 58.887 426.914 37.957 c 
426.914 17.031 409.887 0 388.957 0 c h
388.957 67.926 m 372.434 67.926 358.988 54.48 358.988 37.957 c 358.988 
21.434 372.43 7.988 388.957 7.988 c 405.48 7.988 418.922 21.434 418.922 
37.957 c 418.922 54.48 405.48 67.926 388.957 67.926 c h
388.957 67.926 m f
299.969 134.402 m 208.27 134.402 l 200 134.402 193.273 141.133 193.273 
149.402 c 193.273 215.434 l 193.273 216.488 193.695 217.508 194.445 218.258
 c 195.191 219.004 196.207 219.426 197.27 219.426 c 310.977 219.422 l 313.18
 219.422 314.969 217.633 314.969 215.43 c 314.969 149.402 l 314.969 141.133
 308.242 134.402 299.969 134.402 c h
201.262 211.438 m 201.262 149.402 l 201.262 145.535 204.402 142.395 208.27
 142.395 c 299.969 142.395 l 303.836 142.395 306.98 145.535 306.98 149.402
 c 306.98 211.434 l h
201.262 211.438 m f
371.406 87.156 m 136.832 87.156 l 135.676 87.156 134.566 87.66 133.809 
88.539 c 133.047 89.414 132.711 90.578 132.883 91.73 c 136.105 113.738 l
 136.391 115.699 138.074 117.152 140.055 117.152 c 368.18 117.152 l 370.16
 117.152 371.848 115.699 372.133 113.738 c 375.359 91.73 l 375.527 90.582
 375.188 89.414 374.43 88.539 c 373.672 87.66 372.57 87.156 371.406 87.156
 c h
141.457 95.148 m 366.785 95.148 l 364.73 109.16 l 143.512 109.16 l h
141.457 95.148 m f
Q Q
showpage
%%Trailer
end restore
%%EOF
