%!PS-Adobe-3.0 EPSF-3.0
%%Creator: cairo 1.14.8 (http://cairographics.org)
%%CreationDate: Wed Mar 20 09:06:38 2019
%%Pages: 1
%%DocumentData: Clean7Bit
%%LanguageLevel: 2
%%BoundingBox: 0 1 487 486
%%EndComments
%%BeginProlog
save
50 dict begin
/q { gsave } bind def
/Q { grestore } bind def
/cm { 6 array astore concat } bind def
/w { setlinewidth } bind def
/J { setlinecap } bind def
/j { setlinejoin } bind def
/M { setmiterlimit } bind def
/d { setdash } bind def
/m { moveto } bind def
/l { lineto } bind def
/c { curveto } bind def
/h { closepath } bind def
/re { exch dup neg 3 1 roll 5 3 roll moveto 0 rlineto
      0 exch rlineto 0 rlineto closepath } bind def
/S { stroke } bind def
/f { fill } bind def
/f* { eofill } bind def
/n { newpath } bind def
/W { clip } bind def
/W* { eoclip } bind def
/BT { } bind def
/ET { } bind def
/pdfmark where { pop globaldict /?pdfmark /exec load put }
    { globaldict begin /?pdfmark /pop load def /pdfmark
    /cleartomark load def end } ifelse
/BDC { mark 3 1 roll /BDC pdfmark } bind def
/EMC { mark /EMC pdfmark } bind def
/cairo_store_point { /cairo_point_y exch def /cairo_point_x exch def } def
/Tj { show currentpoint cairo_store_point } bind def
/TJ {
  {
    dup
    type /stringtype eq
    { show } { -0.001 mul 0 cairo_font_matrix dtransform rmoveto } ifelse
  } forall
  currentpoint cairo_store_point
} bind def
/cairo_selectfont { cairo_font_matrix aload pop pop pop 0 0 6 array astore
    cairo_font exch selectfont cairo_point_x cairo_point_y moveto } bind def
/Tf { pop /cairo_font exch def /cairo_font_matrix where
      { pop cairo_selectfont } if } bind def
/Td { matrix translate cairo_font_matrix matrix concatmatrix dup
      /cairo_font_matrix exch def dup 4 get exch 5 get cairo_store_point
      /cairo_font where { pop cairo_selectfont } if } bind def
/Tm { 2 copy 8 2 roll 6 array astore /cairo_font_matrix exch def
      cairo_store_point /cairo_font where { pop cairo_selectfont } if } bind def
/g { setgray } bind def
/rg { setrgbcolor } bind def
/d1 { setcachedevice } bind def
%%EndProlog
%%BeginSetup
%%EndSetup
%%Page: 1 1
%%BeginPageSetup
%%PageBoundingBox: 0 1 487 486
%%EndPageSetup
q 0 1 487 485 rectclip q
0.643137 0.788235 1 rg
338.41 372.766 m 335.098 372.766 332.414 375.449 332.414 378.766 c 332.414
 446.734 l 332.414 450.047 335.098 452.73 338.41 452.73 c 341.723 452.73
 344.406 450.047 344.406 446.734 c 344.406 378.766 l 344.406 375.449 341.723
 372.766 338.41 372.766 c h
338.41 372.766 m f
0.976471 0.654902 0.654902 rg
284.262 121.328 m 330.82 150.844 l 333.543 152.57 334.348 156.18 332.625
 158.906 c 332.051 159.809 l 330.32 162.535 326.711 163.344 323.984 161.617
 c 270.914 127.969 l 273.613 123.715 l 275.895 120.113 280.66 119.047 284.262
 121.328 c h
284.262 121.328 m f
0.976471 0.811765 0.811765 rg
165.402 435.949 m 184.117 435.949 199.289 420.781 199.289 402.066 c 199.289
 382.176 l 200.934 382.176 l 203.844 382.176 206.199 379.824 206.199 376.918
 c 206.199 374.008 203.84 371.656 200.934 371.656 c 198.367 371.656 l 195.449
 359.113 185.605 349.23 173.055 346.328 c 173.055 341.672 l 170.227 342.633
 167.203 343.172 164.051 343.172 c 146.965 343.172 l 145.75 343.172 144.559
 343.051 143.391 342.867 c 143.391 353.594 l 136.129 359.805 131.52 369.031
 131.52 379.34 c 131.52 402.07 l 131.516 420.781 146.688 435.949 165.402
 435.949 c h
165.402 435.949 m f
0.976471 0.654902 0.654902 rg
78.203 340.223 m 116.359 340.223 l 120.719 340.223 124.254 336.688 124.254
 332.328 c 124.254 271.023 l 119.23 267.152 114.664 262.719 110.668 257.797
 c 110.668 326.637 l 78.203 326.637 l 74.453 326.637 71.41 329.672 71.41
 333.426 c 71.41 337.18 74.453 340.223 78.203 340.223 c h
78.203 340.223 m f
0.215686 0.384314 0.8 rg
110.664 253.805 m 110.215 253.805 109.762 253.879 109.324 254.031 c 107.73
 254.602 106.664 256.109 106.664 257.801 c 106.664 322.637 l 78.203 322.637
 l 72.254 322.637 67.41 327.48 67.41 333.426 c 67.41 339.375 72.254 344.219
 78.203 344.219 c 116.359 344.219 l 122.914 344.219 128.25 338.883 128.25
 332.328 c 128.25 271.023 l 128.25 269.785 127.676 268.613 126.691 267.855
 c 121.902 264.168 117.555 259.934 113.766 255.277 c 112.992 254.324 111.84
 253.805 110.664 253.805 c h
78.203 336.227 m 76.66 336.227 75.406 334.973 75.406 333.43 c 75.406 331.887
 76.66 330.633 78.203 330.633 c 110.664 330.633 l 112.871 330.633 114.66
 328.84 114.66 326.637 c 114.66 268.035 l 116.453 269.754 118.32 271.402
 120.25 272.965 c 120.25 332.328 l 120.25 334.477 118.508 336.223 116.359
 336.223 c 78.203 336.223 l h
124.25 271.023 m 124.27 271.023 l h
124.25 271.023 m f
186.898 381.898 m 188.625 381.898 190.023 383.301 190.023 385.027 c 190.023
 390.23 l 190.023 391.957 188.625 393.359 186.898 393.359 c 185.172 393.359
 183.773 391.957 183.773 390.23 c 183.773 385.027 l 183.773 383.301 185.172
 381.898 186.898 381.898 c h
186.898 381.898 m f
0.643137 0.788235 1 rg
293.238 171.688 m 314.793 175.359 l 316.699 175.688 318.637 174.969 319.93
 173.457 c 323.656 169.105 l 324.586 168.016 325.109 166.594 325.109 165.125
 c 325.109 163.027 324.055 161.082 322.344 160.004 c 288.812 138.984 l 286.922
 137.797 284.676 137.383 282.508 137.816 c 279.887 138.348 277.629 140.07
 276.34 142.523 c 272.559 149.719 l 271.422 151.879 271.965 154.594 273.836
 156.098 c h
293.238 171.688 m f
0.215686 0.384314 0.8 rg
284.215 133.648 m 283.383 133.648 282.551 133.73 281.719 133.898 c 277.906
 134.664 274.652 137.133 272.801 140.664 c 269.023 147.859 l 266.988 151.727
 267.961 156.504 271.328 159.215 c 290.73 174.805 l 291.262 175.23 291.895
 175.516 292.566 175.633 c 314.121 179.301 l 317.438 179.855 320.746 178.652
 322.969 176.059 c 326.691 171.707 l 328.25 169.887 329.109 167.551 329.109
 165.125 c 329.109 161.672 327.328 158.414 324.465 156.621 c 290.938 135.594
 l 288.891 134.312 286.57 133.648 284.215 133.648 c h
294.934 167.926 m 276.344 152.98 l 275.965 152.68 275.855 152.047 276.102
 151.574 c 279.879 144.383 l 280.605 142.992 281.855 142.027 283.301 141.734
 c 284.469 141.504 285.668 141.727 286.691 142.371 c 320.219 163.391 l 320.766
 163.738 321.113 164.398 321.113 165.121 c 321.113 165.641 320.938 166.133
 320.617 166.508 c 316.891 170.855 l 316.512 171.297 315.977 171.508 315.461
 171.418 c h
294.934 167.926 m f
0.27451 0.443137 0.776471 rg
229.836 256.047 m 236.715 256.047 243.465 253.98 249.352 250.074 c 254.797
 246.461 259.324 241.391 262.504 235.344 c 262.504 235.34 l 296.934 174.961
 l 297.617 173.754 297.355 172.172 296.332 171.305 c 274.488 152.887 l 273.336
 151.914 271.68 152.211 270.867 153.535 c 242.039 200.508 l 238.922 205.242
 l 237.504 207.395 235.23 208.672 232.809 208.672 c 145.898 208.672 l 133.945
 208.672 124.25 219.309 124.25 232.43 c 124.25 256.043 l 229.836 256.043
 l h
229.836 256.047 m f
0.215686 0.384314 0.8 rg
272.953 148.32 m 272.617 148.32 272.285 148.348 271.953 148.398 c 270.105
 148.699 268.469 149.809 267.465 151.441 c 238.633 198.418 l 235.586 203.047
 l 234.918 204.062 233.879 204.672 232.812 204.672 c 145.898 204.672 l 131.754
 204.672 120.25 217.125 120.25 232.43 c 120.25 256.051 l 120.25 258.254 
122.043 260.047 124.25 260.047 c 229.836 260.047 l 237.5 260.047 245.012
 257.75 251.562 253.41 c 257.547 249.434 262.555 243.832 266.039 237.207
 c 300.402 176.945 l 302.031 174.086 301.391 170.348 298.906 168.254 c 277.062
 149.836 l 275.898 148.852 274.438 148.32 272.953 148.32 c h
128.25 252.051 m 128.25 232.434 l 128.25 221.535 136.168 212.672 145.898
 212.672 c 232.809 212.672 l 236.574 212.672 240.105 210.719 242.266 207.445
 c 245.379 202.711 l 273.344 157.152 l 293.023 173.75 l 259.035 233.363 
l 256.105 238.926 252.016 243.508 247.141 246.746 c 241.914 250.211 235.926
 252.047 229.836 252.047 c 128.25 252.047 l h
293.461 172.984 m 293.48 172.984 l h
293.461 172.984 m f
0.419608 0.866667 0.866667 rg
145.656 208.676 m 192.188 208.676 l 192.188 315.816 l 192.188 330.922 179.945
 343.172 164.832 343.172 c 146.324 343.172 l 134.133 343.172 124.25 333.289
 124.25 321.094 c 124.25 230.082 l 124.25 218.258 133.832 208.676 145.656
 208.676 c h
145.656 208.676 m f
0.215686 0.384314 0.8 rg
192.191 204.676 m 145.656 204.676 l 131.648 204.676 120.25 216.07 120.25
 230.082 c 120.25 321.094 l 120.25 335.477 131.949 347.168 146.324 347.168
 c 164.832 347.168 l 182.117 347.168 196.188 333.105 196.188 315.816 c 196.188
 208.672 l 196.191 206.465 194.398 204.676 192.191 204.676 c h
146.328 339.172 m 136.359 339.172 128.25 331.062 128.25 321.098 c 128.25
 230.082 l 128.25 220.484 136.059 212.672 145.656 212.672 c 188.195 212.672
 l 188.195 315.816 l 188.195 328.695 177.715 339.172 164.836 339.172 c h
146.328 339.172 m f
1 0.917647 0.572549 rg
250.172 201.016 m 250.172 155.969 213.652 119.449 168.605 119.449 c 123.555
 119.449 87.035 155.969 87.035 201.016 c 87.035 246.062 123.555 282.582 
168.605 282.582 c 213.652 282.582 250.172 246.062 250.172 201.016 c h
250.172 201.016 m f
0.215686 0.384314 0.8 rg
168.605 115.449 m 121.422 115.449 83.039 153.832 83.039 201.016 c 83.039
 248.191 121.422 286.578 168.605 286.578 c 215.785 286.578 254.168 248.191
 254.168 201.016 c 254.168 153.832 215.785 115.449 168.605 115.449 c h
168.605 278.586 m 125.832 278.586 91.035 243.789 91.035 201.016 c 91.035
 158.246 125.832 123.449 168.605 123.449 c 211.375 123.449 246.172 158.246
 246.172 201.016 c 246.172 243.785 211.375 278.586 168.605 278.586 c h
168.605 278.586 m f
0.643137 0.788235 1 rg
231.852 201.016 m 231.852 166.086 203.535 137.77 168.605 137.77 c 133.676
 137.77 105.355 166.086 105.355 201.016 c 105.355 235.945 133.676 264.262
 168.605 264.262 c 203.535 264.262 231.852 235.945 231.852 201.016 c h
231.852 201.016 m f
0.976471 0.811765 0.811765 rg
172.129 381.191 m 172.129 374.566 166.758 369.195 160.133 369.195 c 153.508
 369.195 148.133 374.566 148.133 381.191 c 148.133 387.82 153.508 393.188
 160.133 393.188 c 166.758 393.188 172.129 387.82 172.129 381.191 c h
172.129 381.191 m f
0.215686 0.384314 0.8 rg
173.051 337.672 m 172.625 337.672 172.195 337.742 171.777 337.883 c 169.242
 338.738 166.641 339.172 164.047 339.172 c 146.965 339.172 l 146.086 339.172
 145.121 339.09 144.016 338.914 c 142.852 338.73 141.68 339.062 140.793 
339.82 c 139.902 340.582 139.391 341.695 139.391 342.863 c 139.391 351.809
 l 131.824 358.961 127.52 368.887 127.52 379.34 c 127.52 402.066 l 127.52
 422.957 144.516 439.949 165.402 439.949 c 186.293 439.949 203.285 422.957
 203.285 402.066 c 203.285 385.875 l 207.262 384.832 210.195 381.207 210.195
 376.918 c 210.195 371.965 206.293 367.91 201.402 367.668 c 197.668 356.172
 188.523 347.02 177.055 343.297 c 177.055 341.672 l 177.055 340.383 176.434
 339.176 175.387 338.422 c 174.695 337.93 173.879 337.672 173.051 337.672
 c h
147.387 347.168 m 164.047 347.168 l 165.727 347.168 167.41 347.035 169.078
 346.766 c 169.262 348.441 170.484 349.844 172.156 350.227 c 183.145 352.77
 191.902 361.535 194.469 372.559 c 194.887 374.371 196.504 375.652 198.363
 375.652 c 200.934 375.652 l 201.633 375.652 202.199 376.219 202.199 376.918
 c 202.199 377.613 201.629 378.18 200.934 378.18 c 199.289 378.18 l 197.082
 378.18 195.289 379.973 195.289 382.176 c 195.289 402.066 l 195.289 418.543
 181.879 431.953 165.402 431.953 c 148.922 431.953 135.516 418.543 135.516
 402.066 c 135.516 379.34 l 135.516 370.602 139.332 362.324 145.988 356.625
 c 146.875 355.867 147.387 354.758 147.387 353.59 c h
147.387 347.168 m f
0.27451 0.443137 0.776471 rg
125.441 425.352 m 125.445 425.348 l 131.488 434.578 142.293 440.738 154.617
 440.738 c 157.238 440.738 159.363 438.727 159.363 436.242 c 159.363 435.301
 l 159.363 436.41 159.703 437.441 160.285 438.301 c 160.285 438.301 160.449
 438.633 160.93 439.086 c 161.566 439.73 162.363 440.223 163.258 440.496
 c 164.512 441 166.27 441.414 168.688 441.516 c 168.688 441.52 l 168.699
 441.52 l 171.211 441.621 174.434 441.391 178.57 440.551 c 181.582 440.223
 184.453 439.453 187.129 438.312 c 187.137 438.309 187.148 438.309 187.156
 438.305 c 187.156 438.301 l 188.676 437.652 190.125 436.875 191.496 436
 c 192.094 435.637 192.395 435.406 192.395 435.406 c 200.113 430.082 205.168
 421.273 205.168 411.297 c 205.168 400.508 l 205.168 400.008 204.754 399.602
 204.246 399.602 c 159.363 399.602 l 159.363 367.387 l 153.953 356.34 l 
153.801 356.027 153.477 355.828 153.125 355.828 c 139.062 355.828 l 137.641
 355.828 136.246 356.031 134.91 356.414 c 134.871 356.434 133.445 357.035
 132.863 357.961 c 131.496 360.145 128.285 365.297 125.355 370.004 c 121.012
 376.984 118.551 384.957 118.355 393.141 c 117.82 415.559 125.441 425.352
 125.441 425.352 c h
125.441 425.352 m f
0.215686 0.384314 0.8 rg
153.121 351.828 m 139.059 351.828 l 137.285 351.828 135.516 352.078 133.805
 352.57 c 133.668 352.609 133.539 352.656 133.406 352.707 c 132.785 352.961
 130.664 353.93 129.469 355.836 c 128.105 358.027 124.887 363.184 121.957
 367.887 c 117.191 375.551 114.562 384.254 114.352 393.043 c 113.812 415.703
 121.316 426.504 122.211 427.707 c 129.273 438.375 141.371 444.734 154.613
 444.734 c 156.484 444.734 158.223 444.16 159.648 443.184 c 160.34 443.633
 161.109 444.004 161.918 444.266 c 163.777 444.988 165.992 445.406 168.512
 445.512 c 168.535 445.512 168.555 445.516 168.578 445.516 c 171.648 445.641
 175.207 445.301 179.188 444.504 c 182.449 444.129 185.633 443.289 188.645
 442.012 c 188.691 441.996 188.738 441.977 188.785 441.953 c 190.453 441.238
 192.086 440.367 193.645 439.371 c 194.215 439.023 194.586 438.758 194.727
 438.656 c 203.766 432.391 209.16 422.168 209.16 411.297 c 209.16 400.508
 l 209.16 397.805 206.953 395.605 204.242 395.605 c 163.363 395.605 l 163.363
 367.387 l 163.363 366.777 163.223 366.176 162.953 365.629 c 157.539 354.582
 l 156.723 352.91 154.988 351.828 153.121 351.828 c h
136.312 360.176 m 137.211 359.941 138.133 359.824 139.059 359.824 c 151.203
 359.824 l 155.359 368.312 l 155.359 399.598 l 155.359 401.805 157.152 403.598
 159.359 403.598 c 201.16 403.598 l 201.16 411.297 l 201.16 419.562 197.035
 427.344 190.125 432.113 c 190.082 432.145 190.039 432.176 189.996 432.203
 c 189.969 432.227 189.777 432.367 189.414 432.586 c 188.133 433.402 186.867
 434.074 185.578 434.621 c 185.562 434.629 185.543 434.637 185.523 434.648
 c 183.172 435.648 180.688 436.293 178.133 436.574 c 178.012 436.586 177.891
 436.605 177.773 436.629 c 174.336 437.324 171.355 437.621 168.863 437.52
 c 168.797 437.516 168.73 437.512 168.66 437.516 c 166.746 437.43 165.453
 437.07 164.738 436.781 c 164.633 436.738 164.527 436.699 164.414 436.668
 c 164.172 436.594 163.953 436.457 163.77 436.27 c 163.641 436.145 163.727
 436.242 163.871 436.535 c 163.789 436.371 163.699 436.219 163.598 436.066
 c 163.441 435.832 163.359 435.574 163.359 435.301 c 163.359 433.094 161.566
 431.305 159.359 431.305 c 157.152 431.305 155.359 433.094 155.359 435.301
 c 155.359 436.242 l 155.359 436.449 155.078 436.738 154.613 436.738 c 144.008
 436.738 134.355 431.66 128.785 423.156 c 128.715 423.047 128.641 422.945
 128.562 422.844 c 127.906 421.898 121.887 412.656 122.348 393.23 c 122.523
 385.867 124.738 378.562 128.75 372.113 c 131.582 367.555 134.688 362.586
 136.125 360.289 c 136.176 360.254 136.242 360.211 136.312 360.176 c h
136.312 360.176 m f
0.976471 0.811765 0.811765 rg
172.129 381.191 m 172.129 374.566 166.758 369.195 160.133 369.195 c 153.508
 369.195 148.133 374.566 148.133 381.191 c 148.133 387.82 153.508 393.188
 160.133 393.188 c 166.758 393.188 172.129 387.82 172.129 381.191 c h
172.129 381.191 m f
0.215686 0.384314 0.8 rg
280.148 116.133 m 276.266 116.133 272.465 118.055 270.238 121.57 c 267.539
 125.824 l 266.973 126.723 266.781 127.809 267.012 128.84 c 267.242 129.875
 267.879 130.777 268.773 131.344 c 321.848 164.992 l 324.062 166.402 326.703
 166.859 329.266 166.285 c 331.832 165.711 334.016 164.172 335.422 161.953
 c 336 161.043 l 338.906 156.465 337.543 150.375 332.957 147.465 c 286.406
 117.949 l 284.465 116.719 282.289 116.133 280.148 116.133 c h
284.262 121.328 m 284.281 121.328 l h
276.434 126.73 m 276.992 125.855 l 278.09 124.121 280.383 123.609 282.121
 124.703 c 328.676 154.219 l 329.535 154.766 329.793 155.906 329.246 156.766
 c 328.672 157.676 l 328.129 158.531 326.988 158.785 326.129 158.242 c h
276.434 126.73 m f
168.605 133.77 m 131.523 133.77 101.359 163.938 101.359 201.016 c 101.359
 238.098 131.523 268.262 168.605 268.262 c 205.684 268.262 235.848 238.098
 235.848 201.016 c 235.848 163.938 205.684 133.77 168.605 133.77 c h
168.605 260.262 m 135.934 260.262 109.355 233.684 109.355 201.016 c 109.355
 168.344 135.934 141.766 168.605 141.766 c 201.273 141.766 227.852 168.344
 227.852 201.016 c 227.852 233.684 201.273 260.262 168.605 260.262 c h
168.605 260.262 m f
0.878431 0.921569 0.988235 rg
168.605 171.027 m 152.07 171.027 138.613 184.48 138.613 201.016 c 138.613
 217.551 152.066 231.004 168.605 231.004 c 185.141 231.004 198.594 217.551
 198.594 201.016 c 198.594 184.48 185.137 171.027 168.605 171.027 c h
168.605 171.027 m f
0.976471 0.811765 0.811765 rg
87.734 215.121 m 93.523 230.254 l 117.094 301.773 l 117.094 301.77 117.094
 301.77 117.098 301.77 c 139.637 281.871 l 139.75 281.77 139.875 281.684
 140 281.605 c 113.492 224.277 l 112.914 206.98 l 112.895 206.363 112.777
 205.75 112.574 205.168 c 111.035 200.824 l 110.031 197.984 107.094 196.316
 104.145 196.918 c 92.223 199.332 l 89.438 199.891 87.426 202.316 87.379
 205.148 c 87.258 212.422 l 87.242 213.34 87.406 214.258 87.734 215.121 
c h
87.734 215.121 m f
0.215686 0.384314 0.8 rg
105.32 192.801 m 104.668 192.801 104.008 192.863 103.348 193 c 91.43 195.41
 l 86.844 196.34 83.461 200.41 83.387 205.082 c 83.266 212.355 l 83.242 
213.789 83.488 215.203 84.004 216.547 c 89.793 231.684 l 113.297 303.027
 l 113.801 304.566 115.188 305.645 116.805 305.762 c 117.922 305.836 119.016
 305.445 119.812 304.707 c 142.184 284.953 l 143.793 283.852 144.453 281.707
 143.633 279.93 c 117.465 223.336 l 116.914 206.848 l 116.883 205.824 116.688
 204.809 116.348 203.84 c 114.805 199.488 l 113.371 195.434 109.496 192.801
 105.32 192.801 c h
118.992 294.762 m 97.32 229.008 l 91.473 213.691 l 91.324 213.301 91.25
 212.898 91.258 212.484 c 91.379 205.211 l 91.395 204.262 92.086 203.438
 93.016 203.25 c 104.938 200.836 l 105.934 200.633 106.93 201.199 107.27
 202.156 c 108.809 206.5 l 108.879 206.699 108.918 206.906 108.926 207.113
 c 109.504 224.41 l 109.52 224.945 109.645 225.469 109.871 225.953 c 135.109
 280.535 l h
87.734 215.121 m 87.754 215.121 l h
87.734 215.121 m f
0.419608 0.866667 0.866667 rg
117.098 301.77 m 139.637 281.871 l 140.727 280.906 142.391 281.012 143.352
 282.102 c 171.355 313.812 l 177.812 321.129 177.117 332.293 169.805 338.75
 c 162.488 345.211 151.324 344.516 144.867 337.199 c 116.867 305.484 l 115.902
 304.395 116.008 302.73 117.098 301.77 c h
117.098 301.77 m f
0.215686 0.384314 0.8 rg
141.371 277.211 m 139.754 277.211 138.215 277.793 136.996 278.871 c 114.453
 298.773 l 111.711 301.191 111.453 305.391 113.871 308.133 c 141.871 339.844
 l 145.703 344.184 150.992 346.77 156.77 347.129 c 162.535 347.488 168.113
 345.574 172.453 341.746 c 181.406 333.84 182.258 320.121 174.352 311.164
 c 146.355 279.453 l 145.184 278.125 143.562 277.332 141.797 277.223 c 141.652
 277.215 141.512 277.211 141.371 277.211 c h
120.766 303.863 m 141.258 285.77 l 168.355 316.461 l 173.344 322.109 172.809
 330.766 167.156 335.754 c 161.508 340.738 152.852 340.203 147.863 334.555
 c h
120.766 303.863 m f
0.878431 0.921569 0.988235 rg
270.914 127.969 m 281.676 134.789 l 248.812 186.25 l 247.781 180.605 246.176
 175.164 244.043 169.988 c 272.777 124.996 l 272.789 125.004 l h
270.914 127.969 m f
0.215686 0.384314 0.8 rg
272.777 121.004 m 272.516 121.004 272.254 121.031 271.996 121.082 c 270.93
 121.297 269.996 121.93 269.41 122.848 c 240.676 167.84 l 239.973 168.934
 239.852 170.305 240.348 171.512 c 242.383 176.453 243.91 181.652 244.879
 186.969 c 245.176 188.59 246.43 189.859 248.043 190.176 c 249.656 190.492
 251.297 189.789 252.184 188.402 c 285.047 136.945 l 285.617 136.051 285.812
 134.961 285.582 133.922 c 285.352 132.887 284.719 131.988 283.82 131.418
 c 276.41 126.715 l 277.238 124.969 276.695 122.848 275.07 121.719 c 274.395
 121.25 273.59 121.004 272.777 121.004 c h
248.516 170.418 m 272.113 133.461 l 276.148 136.02 l 250.492 176.195 l 
249.902 174.242 249.242 172.312 248.516 170.418 c h
248.516 170.418 m f
0.917647 0.662745 0.490196 rg
416.375 301.145 m 416.375 258.082 381.469 223.176 338.41 223.176 c 295.352
 223.176 260.445 258.082 260.445 301.145 c 260.445 344.203 295.352 379.109
 338.41 379.109 c 381.469 379.109 416.375 344.203 416.375 301.145 c h
416.375 301.145 m f
1 0.917647 0.572549 rg
397.426 325.586 m 383.93 358.172 346.566 373.645 313.984 360.148 c 281.395
 346.648 265.918 309.293 279.414 276.703 c 292.918 244.117 330.277 228.645
 362.863 242.141 c 395.449 255.641 410.926 292.996 397.426 325.586 c h
397.426 325.586 m f
0.27451 0.443137 0.776471 rg
333.227 259.309 m 321.824 261.031 313.559 268.094 312.625 279.641 c 312.523
 280.84 313.5 281.867 314.711 281.867 c 323.734 281.867 l 324.762 281.867
 325.617 281.105 325.789 280.09 c 326.473 276.074 328.484 272.938 331.98
 271.277 c 333.371 270.613 334.988 271.609 334.988 273.156 c 334.988 294.953
 l 334.988 295.887 334.367 296.707 333.465 296.961 c 323.215 299.863 312.535
 303.648 312.535 319.664 c 312.535 332.43 320.934 341.379 333.242 343.297
 c 334.25 343.453 334.988 344.328 334.988 345.348 c 334.988 351.211 l 334.988
 352.363 335.922 353.297 337.074 353.297 c 339.855 353.297 l 341.008 353.297
 341.938 352.363 341.938 351.211 c 341.938 345.473 l 341.938 344.457 342.672
 343.574 343.68 343.422 c 354.301 341.816 361.645 335.203 363.285 323.824
 c 363.465 322.574 362.477 321.453 361.215 321.453 c 352.273 321.453 l 351.273
 321.453 350.445 322.168 350.23 323.145 c 349.562 326.145 347.852 328.859
 345.203 330.594 c 343.801 331.516 341.938 330.543 341.938 328.867 c 341.938
 307.906 l 341.938 306.965 342.57 306.141 343.477 305.895 c 353.719 303.105
 364.285 299.422 364.285 283.414 c 364.285 272.32 357.008 261.559 343.676
 259.43 c 342.672 259.27 341.934 258.398 341.934 257.383 c 341.934 251.516
 l 341.934 250.363 341.004 249.43 339.852 249.43 c 337.07 249.43 l 335.918
 249.43 334.984 250.363 334.984 251.516 c 334.984 257.254 l 334.984 258.277
 334.242 259.156 333.227 259.309 c h
334.984 311.453 m 334.984 329.785 l 334.984 331.195 333.598 332.242 332.27
 331.773 c 327.863 330.227 324.934 326.477 324.934 320.383 c 324.934 314.742
 327.781 311.637 331.965 309.59 c 333.355 308.902 334.984 309.902 334.984
 311.453 c h
341.938 291.402 m 341.938 273.094 l 341.938 271.582 343.496 270.586 344.887
 271.188 c 349.457 273.176 351.988 277.52 351.988 282.699 c 351.988 288.25
 349.141 291.258 344.949 293.273 c 343.555 293.945 341.938 292.945 341.938
 291.402 c h
341.938 291.402 m f
0.215686 0.384314 0.8 rg
338.41 219.18 m 293.219 219.18 256.445 255.949 256.445 301.145 c 256.445
 346.336 293.219 383.105 338.41 383.105 c 383.605 383.105 420.375 346.336
 420.375 301.145 c 420.375 255.949 383.605 219.18 338.41 219.18 c h
338.41 375.109 m 297.625 375.109 264.441 341.93 264.441 301.145 c 264.441
 260.355 297.625 227.176 338.41 227.176 c 379.195 227.176 412.379 260.355
 412.379 301.145 c 412.379 341.93 379.195 375.109 338.41 375.109 c h
338.41 375.109 m f
0.643137 0.788235 1 rg
310.422 387.688 m 307.109 387.688 304.426 390.371 304.426 393.684 c 304.426
 479.789 l 304.426 483.102 307.109 485.789 310.422 485.789 c 313.738 485.789
 316.418 483.102 316.418 479.789 c 316.418 393.684 l 316.418 390.371 313.738
 387.688 310.422 387.688 c h
310.422 387.688 m f
366.398 387.688 m 363.086 387.688 360.398 390.371 360.398 393.684 c 360.398
 479.789 l 360.398 483.102 363.086 485.789 366.398 485.789 c 369.711 485.789
 372.395 483.102 372.395 479.789 c 372.395 393.684 l 372.395 390.371 369.711
 387.688 366.398 387.688 c h
366.398 387.688 m f
0.976471 0.811765 0.811765 rg
481.426 114.465 m 471.129 132.156 448.316 138.219 430.473 128 c 345.59 
79.398 l 339.609 75.969 332.613 74.754 325.824 75.969 c 215.082 95.742 l
 199.688 97.5 l 290.57 97.5 l 311 97.5 327.562 114.066 327.562 134.492 c
 327.562 140.918 322.359 146.121 315.938 146.121 c 210.867 146.121 l 203.504
 146.121 196.223 144.523 189.539 141.441 c 120.605 109.629 l 109.836 104.66
 98.109 102.086 86.246 102.086 c 18.055 102.086 l 18.055 101.727 l 4 101.727
 l 4 5.168 l 18.059 5.168 l 18.059 5 l 105.984 5 l 335.992 25.195 l 336.156
 25.207 336.324 25.223 336.492 25.234 c 343.18 25.781 l 348.656 26.336 353.949
 28.039 358.727 30.773 c 477.137 98.578 l 482.746 101.793 484.66 108.898
 481.426 114.465 c h
481.426 114.465 m f
0.215686 0.384314 0.8 rg
105.984 1 m 18.059 1 l 17.66 1 17.277 1.055 16.914 1.164 c 4 1.164 l 1.793
 1.164 0 2.957 0 5.164 c 0 101.723 l 0 103.93 1.793 105.723 4 105.723 c 
16.395 105.723 l 16.902 105.953 17.465 106.078 18.059 106.078 c 86.246 106.078
 l 97.453 106.078 108.758 108.562 118.934 113.258 c 187.863 145.062 l 195.023
 148.371 202.98 150.121 210.867 150.121 c 315.934 150.121 l 324.551 150.121
 331.562 143.109 331.562 134.492 c 331.562 111.891 313.172 93.504 290.57
 93.504 c 250.355 93.504 l 326.527 79.902 l 332.387 78.855 338.445 79.906
 343.605 82.863 c 428.492 131.469 l 448.195 142.754 473.496 136.027 484.879
 116.473 c 486.98 112.863 487.543 108.656 486.465 104.629 c 485.379 100.582
 482.773 97.199 479.121 95.109 c 360.707 27.301 l 355.414 24.273 349.656
 22.422 343.582 21.801 c 336.336 21.211 l 106.332 1.016 l 106.215 1.004 
106.098 1 105.984 1 c h
19.199 8.996 m 105.809 8.996 l 336.211 29.219 l 342.855 29.762 l 347.723
 30.262 352.418 31.773 356.738 34.246 c 475.148 102.051 l 476.938 103.074
 478.215 104.727 478.742 106.699 c 479.266 108.652 478.992 110.699 477.969
 112.453 c 468.785 128.223 448.371 133.645 432.461 124.531 c 347.578 75.926
 l 340.797 72.039 332.816 70.656 325.121 72.031 c 214.504 91.781 l 199.234
 93.531 l 197.129 93.77 195.574 95.613 195.699 97.73 c 195.816 99.848 197.57
 101.5 199.688 101.5 c 290.574 101.5 l 308.766 101.5 323.57 116.301 323.57
 134.492 c 323.57 138.703 320.148 142.121 315.938 142.121 c 210.867 142.121
 l 204.129 142.121 197.332 140.633 191.207 137.805 c 122.281 106 l 111.062
 100.82 98.602 98.082 86.246 98.082 c 19.719 98.082 l 19.211 97.852 18.648
 97.723 18.055 97.723 c 7.996 97.723 l 7.996 9.164 l 18.059 9.164 l 18.453
 9.16 18.84 9.102 19.199 8.996 c h
19.199 8.996 m f
Q Q
showpage
%%Trailer
end restore
%%EOF
