%!PS-Adobe-3.0 EPSF-3.0
%%Creator: cairo 1.14.8 (http://cairographics.org)
%%CreationDate: Wed Mar 20 09:06:38 2019
%%Pages: 1
%%DocumentData: Clean7Bit
%%LanguageLevel: 2
%%BoundingBox: 10 0 478 488
%%EndComments
%%BeginProlog
save
50 dict begin
/q { gsave } bind def
/Q { grestore } bind def
/cm { 6 array astore concat } bind def
/w { setlinewidth } bind def
/J { setlinecap } bind def
/j { setlinejoin } bind def
/M { setmiterlimit } bind def
/d { setdash } bind def
/m { moveto } bind def
/l { lineto } bind def
/c { curveto } bind def
/h { closepath } bind def
/re { exch dup neg 3 1 roll 5 3 roll moveto 0 rlineto
      0 exch rlineto 0 rlineto closepath } bind def
/S { stroke } bind def
/f { fill } bind def
/f* { eofill } bind def
/n { newpath } bind def
/W { clip } bind def
/W* { eoclip } bind def
/BT { } bind def
/ET { } bind def
/pdfmark where { pop globaldict /?pdfmark /exec load put }
    { globaldict begin /?pdfmark /pop load def /pdfmark
    /cleartomark load def end } ifelse
/BDC { mark 3 1 roll /BDC pdfmark } bind def
/EMC { mark /EMC pdfmark } bind def
/cairo_store_point { /cairo_point_y exch def /cairo_point_x exch def } def
/Tj { show currentpoint cairo_store_point } bind def
/TJ {
  {
    dup
    type /stringtype eq
    { show } { -0.001 mul 0 cairo_font_matrix dtransform rmoveto } ifelse
  } forall
  currentpoint cairo_store_point
} bind def
/cairo_selectfont { cairo_font_matrix aload pop pop pop 0 0 6 array astore
    cairo_font exch selectfont cairo_point_x cairo_point_y moveto } bind def
/Tf { pop /cairo_font exch def /cairo_font_matrix where
      { pop cairo_selectfont } if } bind def
/Td { matrix translate cairo_font_matrix matrix concatmatrix dup
      /cairo_font_matrix exch def dup 4 get exch 5 get cairo_store_point
      /cairo_font where { pop cairo_selectfont } if } bind def
/Tm { 2 copy 8 2 roll 6 array astore /cairo_font_matrix exch def
      cairo_store_point /cairo_font where { pop cairo_selectfont } if } bind def
/g { setgray } bind def
/rg { setrgbcolor } bind def
/d1 { setcachedevice } bind def
%%EndProlog
%%BeginSetup
%%EndSetup
%%Page: 1 1
%%BeginPageSetup
%%PageBoundingBox: 10 0 478 488
%%EndPageSetup
q 10 0 468 488 rectclip q
0.976471 0.654902 0.654902 rg
331.395 6.785 m 400.625 50.68 l 404.684 53.25 405.883 58.617 403.312 62.672
 c 402.461 64.02 l 399.891 68.07 394.523 69.277 390.469 66.707 c 311.543
 16.664 l 315.555 10.336 l 318.953 4.98 326.039 3.395 331.395 6.785 c h
331.395 6.785 m f
0.976471 0.811765 0.811765 rg
154.629 474.684 m 182.461 474.684 205.023 452.121 205.023 424.293 c 205.023
 394.715 l 207.473 394.715 l 211.797 394.715 215.297 391.211 215.297 386.887
 c 215.297 382.566 211.797 379.062 207.473 379.062 c 203.645 379.062 l 199.309
 360.41 184.676 345.715 166.012 341.402 c 166.012 334.477 l 161.801 335.902
 157.305 336.707 152.613 336.707 c 127.207 336.707 l 125.395 336.707 123.625
 336.523 121.891 336.246 c 121.891 352.199 l 111.09 361.441 104.238 375.164
 104.238 390.492 c 104.238 424.293 l 104.238 452.121 126.801 474.684 154.629
 474.684 c h
154.629 474.684 m f
0.976471 0.654902 0.654902 rg
24.949 332.316 m 81.691 332.316 l 88.172 332.316 93.43 327.062 93.43 320.582
 c 93.43 229.41 l 85.957 223.656 79.168 217.059 73.223 209.742 c 73.223 
312.109 l 24.949 312.109 l 19.371 312.109 14.848 316.633 14.848 322.215 
c 14.848 327.793 19.371 332.316 24.949 332.316 c h
24.949 332.316 m f
0.215686 0.384314 0.8 rg
73.223 205.75 m 72.773 205.75 72.328 205.824 71.887 205.98 c 70.293 206.547
 69.23 208.051 69.23 209.742 c 69.23 308.117 l 24.949 308.117 l 17.176 308.117
 10.855 314.438 10.855 322.215 c 10.855 329.988 17.176 336.309 24.949 336.309
 c 81.691 336.309 l 90.367 336.309 97.422 329.254 97.422 320.582 c 97.422
 229.41 l 97.422 228.172 96.848 227.004 95.871 226.25 c 88.625 220.668 82.047
 214.266 76.324 207.223 c 75.551 206.273 74.402 205.75 73.223 205.75 c h
24.949 328.324 m 21.582 328.324 18.84 325.582 18.84 322.215 c 18.84 318.844
 21.582 316.105 24.949 316.105 c 73.223 316.105 l 75.426 316.105 77.215 
314.312 77.215 312.109 c 77.215 220.258 l 81.035 224.211 85.121 227.922 
89.438 231.355 c 89.438 320.582 l 89.438 324.852 85.961 328.324 81.688 328.324
 c h
93.43 229.41 m 93.453 229.41 l h
93.43 229.41 m f
186.594 394.305 m 189.164 394.305 191.242 396.387 191.242 398.953 c 191.242
 406.699 l 191.242 409.266 189.164 411.348 186.594 411.348 c 184.027 411.348
 181.949 409.266 181.949 406.699 c 181.949 398.953 l 181.949 396.387 184.027
 394.305 186.594 394.305 c h
186.594 394.305 m f
0.643137 0.788235 1 rg
344.742 81.684 m 376.797 87.141 l 379.637 87.621 382.52 86.562 384.441 
84.316 c 389.977 77.844 l 391.375 76.211 392.141 74.102 392.141 71.918 c
 392.141 68.797 390.578 65.906 388.027 64.309 c 338.164 33.043 l 335.348
 31.277 332.012 30.66 328.789 31.309 c 324.891 32.098 321.527 34.66 319.609
 38.309 c 313.996 49.008 l 312.305 52.227 313.109 56.258 315.891 58.492 
c h
344.742 81.684 m f
0.215686 0.384314 0.8 rg
331.32 27.062 m 330.215 27.062 329.105 27.176 328 27.398 c 322.906 28.426
 318.559 31.727 316.078 36.453 c 310.461 47.152 l 307.867 52.078 309.098
 58.16 313.391 61.609 c 342.238 84.789 l 342.773 85.215 343.402 85.5 344.07
 85.617 c 376.129 91.078 l 380.391 91.801 384.621 90.242 387.473 86.906 
c 393.016 80.434 l 395.027 78.086 396.133 75.059 396.133 71.914 c 396.133
 67.449 393.84 63.234 390.145 60.918 c 340.285 29.66 l 337.555 27.949 334.461
 27.062 331.32 27.062 c h
346.434 77.922 m 318.391 55.383 l 317.094 54.34 316.723 52.395 317.523 
50.867 c 323.145 40.168 l 324.504 37.578 326.848 35.777 329.578 35.223 c
 331.789 34.777 334.09 35.203 336.039 36.43 c 385.902 67.691 l 387.285 68.559
 388.145 70.18 388.145 71.918 c 388.145 73.16 387.719 74.34 386.945 75.25
 c 381.402 81.719 l 380.395 82.902 378.91 83.457 377.469 83.207 c h
346.434 77.922 m f
0.27451 0.443137 0.776471 rg
250.453 207.133 m 260.684 207.133 270.723 204.066 279.477 198.258 c 287.574
 192.883 294.305 185.344 299.039 176.352 c 299.039 176.348 l 350.234 86.555
 l 351.258 84.758 350.871 82.41 349.344 81.117 c 316.855 53.727 l 315.145
 52.281 312.684 52.723 311.477 54.684 c 268.602 124.543 l 263.965 131.586
 l 261.855 134.789 258.469 136.688 254.871 136.688 c 125.621 136.688 l 107.844
 136.688 93.43 152.504 93.43 172.02 c 93.43 207.133 l h
250.453 207.133 m f
0.215686 0.384314 0.8 rg
314.574 48.883 m 314.184 48.883 313.789 48.914 313.402 48.977 c 311.215
 49.328 309.27 50.648 308.074 52.594 c 265.195 122.453 l 260.629 129.387
 l 259.266 131.457 257.113 132.695 254.871 132.695 c 125.621 132.695 l 105.672
 132.695 89.438 150.332 89.438 172.023 c 89.438 207.133 l 89.438 209.34 
91.227 211.129 93.43 211.129 c 250.453 211.129 l 261.477 211.129 272.273
 207.828 281.684 201.582 c 290.316 195.859 297.539 187.77 302.57 178.211
 c 353.703 88.531 l 355.668 85.082 354.902 80.582 351.918 78.07 c 319.43
 50.672 l 318.051 49.508 316.328 48.883 314.574 48.883 c h
97.422 203.141 m 97.422 172.023 l 97.422 154.738 110.074 140.68 125.621
 140.68 c 254.871 140.68 l 259.812 140.68 264.457 138.102 267.301 133.781
 c 271.938 126.742 l 314.676 57.109 l 346.77 84.176 l 346.809 84.227 346.844
 84.441 346.766 84.582 c 295.566 174.371 l 291.09 182.879 284.785 189.941
 277.266 194.934 c 269.164 200.309 259.898 203.145 250.453 203.145 c 97.422
 203.145 l h
97.422 203.141 m f
0.419608 0.866667 0.866667 rg
125.262 136.688 m 194.473 136.688 l 194.473 296.027 l 194.473 318.496 176.258
 336.703 153.789 336.703 c 126.262 336.703 l 108.129 336.703 93.43 322.008
 93.43 303.875 c 93.43 168.516 l 93.43 150.938 107.68 136.688 125.262 136.688
 c h
125.262 136.688 m f
0.215686 0.384314 0.8 rg
194.469 132.695 m 125.262 132.695 l 105.508 132.695 89.438 148.762 89.438
 168.516 c 89.438 303.875 l 89.438 324.18 105.957 340.699 126.262 340.699
 c 153.789 340.699 l 178.422 340.699 198.461 320.66 198.461 296.027 c 198.461
 136.688 l 198.461 134.484 196.676 132.695 194.469 132.695 c h
126.262 332.715 m 110.359 332.715 97.422 319.777 97.422 303.875 c 97.422
 168.516 l 97.422 153.168 109.914 140.68 125.262 140.68 c 190.473 140.68
 l 190.473 296.027 l 190.473 316.258 174.02 332.715 153.789 332.715 c h
126.262 332.715 m f
1 0.917647 0.572549 rg
280.691 125.297 m 280.691 58.305 226.383 3.992 159.391 3.992 c 92.395 3.992
 38.086 58.305 38.086 125.297 c 38.086 192.289 92.395 246.598 159.391 246.598
 c 226.383 246.598 280.691 192.289 280.691 125.297 c h
280.691 125.297 m f
0.215686 0.384314 0.8 rg
159.391 0 m 90.305 0 34.094 56.211 34.094 125.297 c 34.094 194.383 90.301
 250.594 159.391 250.594 c 228.48 250.594 284.688 194.383 284.688 125.297
 c 284.688 56.211 228.477 0 159.391 0 c h
159.391 242.605 m 94.707 242.605 42.078 189.98 42.078 125.297 c 42.078 
60.613 94.703 7.988 159.391 7.988 c 224.078 7.988 276.703 60.613 276.703
 125.297 c 276.703 189.98 224.074 242.605 159.391 242.605 c h
159.391 242.605 m f
0.643137 0.788235 1 rg
253.449 125.297 m 253.449 73.352 211.336 31.238 159.391 31.238 c 107.441
 31.238 65.332 73.352 65.332 125.297 c 65.332 177.242 107.441 219.355 159.391
 219.355 c 211.336 219.355 253.449 177.242 253.449 125.297 c h
253.449 125.297 m f
0.976471 0.811765 0.811765 rg
164.629 393.246 m 164.629 383.398 156.645 375.41 146.789 375.41 c 136.938
 375.41 128.953 383.398 128.953 393.246 c 128.953 403.102 136.938 411.09
 146.789 411.09 c 156.645 411.09 164.629 403.102 164.629 393.246 c h
164.629 393.246 m f
0.215686 0.384314 0.8 rg
166.012 330.484 m 165.578 330.484 165.148 330.555 164.73 330.691 c 160.77
 332.031 156.691 332.711 152.613 332.711 c 127.207 332.711 l 125.785 332.711
 124.254 332.578 122.516 332.301 c 121.359 332.117 120.188 332.449 119.297
 333.211 c 118.406 333.965 117.898 335.078 117.898 336.242 c 117.898 350.398
 l 106.656 360.699 100.242 375.211 100.242 390.488 c 100.242 424.293 l 100.242
 454.281 124.645 478.676 154.629 478.676 c 184.613 478.676 209.012 454.281
 209.012 424.293 c 209.012 398.609 l 214.801 397.852 219.285 392.887 219.285
 386.887 c 219.285 380.371 213.988 375.07 207.469 375.07 c 206.715 375.07
 l 201.504 357.488 187.539 343.508 170 338.324 c 170 334.477 l 170 333.188
 169.375 331.98 168.336 331.234 c 167.648 330.738 166.832 330.484 166.012
 330.484 c h
127.207 340.699 m 152.613 340.699 l 155.762 340.699 158.91 340.367 162.02
 339.707 c 162.02 341.406 l 162.02 343.266 163.301 344.875 165.109 345.297
 c 182.176 349.234 195.777 362.848 199.758 379.969 c 200.18 381.781 201.789
 383.059 203.645 383.059 c 207.473 383.059 l 209.586 383.059 211.305 384.777
 211.305 386.891 c 211.305 389.004 209.586 390.723 207.473 390.723 c 205.02
 390.723 l 202.816 390.723 201.027 392.516 201.027 394.719 c 201.027 424.293
 l 201.027 449.875 180.211 470.691 154.629 470.691 c 129.047 470.691 108.23
 449.875 108.23 424.293 c 108.23 390.492 l 108.23 376.926 114.156 364.074
 124.492 355.23 c 125.371 354.473 125.887 353.367 125.887 352.195 c 125.887
 340.668 l 126.332 340.688 126.773 340.699 127.207 340.699 c h
127.207 340.699 m f
0.27451 0.443137 0.776471 rg
95.203 458.918 m 95.203 458.91 l 104.195 472.648 120.258 481.801 138.586
 481.801 c 142.484 481.801 145.645 478.809 145.645 475.121 c 145.645 473.723
 l 145.645 475.371 146.152 476.902 147.012 478.18 c 147.012 478.18 147.254
 478.676 147.973 479.352 c 148.918 480.309 150.102 481.039 151.434 481.445
 c 153.297 482.195 155.91 482.809 159.508 482.961 c 159.527 482.961 l 163.258
 483.117 168.051 482.766 174.203 481.523 c 178.68 481.031 182.957 479.891
 186.93 478.191 c 186.945 478.188 186.961 478.184 186.977 478.176 c 186.973
 478.172 l 189.23 477.207 191.387 476.055 193.434 474.754 c 194.32 474.207
 194.77 473.867 194.77 473.867 c 206.246 465.949 213.758 452.848 213.758
 438.016 c 213.758 421.969 l 213.758 421.227 213.145 420.621 212.383 420.621
 c 145.645 420.621 l 145.645 372.715 l 137.598 356.285 l 137.371 355.82 
136.887 355.523 136.363 355.523 c 115.457 355.523 l 113.344 355.523 111.266
 355.824 109.285 356.391 c 109.223 356.418 107.102 357.312 106.238 358.691
 c 104.211 361.941 99.426 369.602 95.074 376.598 c 88.617 386.98 84.949 
398.844 84.66 411.012 c 83.867 444.355 95.203 458.918 95.203 458.918 c h
95.203 458.918 m f
0.215686 0.384314 0.8 rg
136.359 351.531 m 115.457 351.531 l 113 351.531 110.547 351.875 108.18 
352.559 c 108.043 352.602 107.906 352.645 107.777 352.699 c 107.223 352.926
 104.352 354.184 102.855 356.578 c 100.816 359.832 96.039 367.492 91.684
 374.496 c 84.777 385.598 80.973 398.191 80.668 410.922 c 79.871 444.379
 90.941 459.902 91.988 461.289 c 102.125 476.637 119.527 485.793 138.582
 485.793 c 141.457 485.793 144.074 484.73 146.039 482.992 c 147.195 483.953
 148.602 484.723 150.102 485.207 c 152.664 486.211 155.754 486.797 159.293
 486.945 c 159.332 486.949 159.363 486.949 159.402 486.949 c 163.824 487.137
 169.016 486.637 174.824 485.469 c 179.535 484.934 184.129 483.727 188.469
 481.879 c 188.496 481.871 188.52 481.859 188.547 481.848 c 190.957 480.812
 193.324 479.562 195.578 478.125 c 196.406 477.617 196.926 477.242 197.09
 477.117 c 210.027 468.164 217.75 453.555 217.75 438.02 c 217.75 421.969
 l 217.75 419.027 215.344 416.633 212.383 416.633 c 149.637 416.633 l 149.637
 372.715 l 149.637 372.102 149.5 371.5 149.23 370.957 c 141.18 354.527 l
 140.289 352.711 138.395 351.531 136.359 351.531 c h
110.652 360.16 m 112.219 359.738 113.84 359.52 115.457 359.52 c 134.73 
359.52 l 141.652 373.641 l 141.652 420.625 l 141.652 422.828 143.441 424.617
 145.645 424.617 c 209.766 424.617 l 209.766 438.016 l 209.766 450.949 203.312
 463.121 192.504 470.582 c 192.465 470.609 192.422 470.641 192.383 470.668
 c 192.328 470.711 191.984 470.961 191.348 471.348 c 189.395 472.594 187.414
 473.641 185.402 474.5 c 185.395 474.504 185.383 474.512 185.371 474.516
 c 185.367 474.516 185.367 474.516 185.363 474.516 c 181.68 476.086 177.777
 477.109 173.77 477.551 c 173.648 477.562 173.531 477.582 173.41 477.605
 c 168.148 478.668 163.535 479.129 159.691 478.969 c 159.625 478.965 159.555
 478.965 159.488 478.965 c 156.941 478.852 154.676 478.434 152.918 477.73
 c 152.809 477.691 152.703 477.648 152.594 477.617 c 151.922 477.414 151.305
 477.039 150.809 476.535 c 150.684 476.41 150.598 476.324 150.539 476.266
 c 150.484 476.109 150.492 476.199 150.32 475.949 c 149.871 475.281 149.633
 474.504 149.633 473.715 c 149.633 471.508 147.844 469.719 145.641 469.719
 c 143.438 469.719 141.648 471.508 141.648 473.715 c 141.648 475.117 l 141.648
 476.594 140.27 477.805 138.578 477.805 c 122.152 477.805 107.18 469.918
 98.543 456.719 c 98.461 456.598 98.379 456.484 98.289 456.375 c 97.348 
455.043 87.934 440.926 88.645 411.105 c 88.914 399.801 92.305 388.598 98.461
 378.707 c 102.809 371.711 107.586 364.055 109.617 360.805 c 109.734 360.688
 110.223 360.367 110.652 360.16 c h
110.652 360.16 m f
0.976471 0.811765 0.811765 rg
164.629 393.246 m 164.629 383.398 156.645 375.41 146.789 375.41 c 136.938
 375.41 128.953 383.398 128.953 393.246 c 128.953 403.102 136.938 411.09
 146.789 411.09 c 156.645 411.09 164.629 403.102 164.629 393.246 c h
164.629 393.246 m f
0.215686 0.384314 0.8 rg
325.273 1.016 m 320.145 1.016 315.125 3.555 312.18 8.195 c 308.168 14.527
 l 306.988 16.391 307.539 18.855 309.402 20.035 c 388.332 70.074 l 391.195
 71.887 394.586 72.48 397.891 71.738 c 401.195 71.004 404.016 69.02 405.828
 66.156 c 406.684 64.812 l 410.43 58.902 408.672 51.059 402.766 47.312 c
 333.531 3.418 l 333.527 3.418 l 330.969 1.789 328.105 1.016 325.273 1.016
 c h
331.395 6.785 m 331.414 6.785 l h
317.055 15.43 m 318.926 12.473 l 321.137 8.984 325.77 7.953 329.254 10.16
 c 398.488 54.055 l 400.676 55.438 401.328 58.348 399.941 60.535 c 399.086
 61.879 l 398.414 62.938 397.371 63.672 396.148 63.949 c 394.918 64.223 
393.668 64 392.609 63.328 c h
317.055 15.43 m f
159.391 27.246 m 105.324 27.246 61.344 71.23 61.344 125.297 c 61.344 179.359
 105.324 223.348 159.391 223.348 c 213.457 223.348 257.441 179.359 257.441
 125.297 c 257.441 71.23 213.457 27.246 159.391 27.246 c h
159.391 215.363 m 109.727 215.363 69.328 174.957 69.328 125.297 c 69.328
 75.637 109.727 35.23 159.391 35.23 c 209.055 35.23 249.457 75.637 249.457
 125.297 c 249.457 174.957 209.055 215.363 159.391 215.363 c h
159.391 215.363 m f
0.878431 0.921569 0.988235 rg
209.527 125.297 m 209.527 97.609 187.082 75.16 159.391 75.16 c 131.699 
75.16 109.258 97.609 109.258 125.297 c 109.258 152.984 131.699 175.434 159.391
 175.434 c 187.082 175.434 209.527 152.984 209.527 125.297 c h
209.527 125.297 m f
0.976471 0.811765 0.811765 rg
39.129 146.273 m 47.734 168.785 l 82.785 275.141 l 82.785 275.141 82.789
 275.137 82.793 275.137 c 116.312 245.539 l 116.484 245.387 116.668 245.262
 116.855 245.148 c 77.434 159.895 l 76.574 134.172 l 76.543 133.25 76.371
 132.344 76.066 131.477 c 73.777 125.008 l 72.285 120.789 67.914 118.312
 63.527 119.199 c 45.793 122.789 l 41.66 123.625 38.664 127.227 38.594 131.441
 c 38.414 142.254 l 38.395 143.629 38.637 144.992 39.129 146.273 c h
39.129 146.273 m f
0.215686 0.384314 0.8 rg
65.281 115.031 m 64.438 115.031 63.59 115.113 62.738 115.281 c 45.004 118.871
 l 39.078 120.07 34.707 125.328 34.605 131.371 c 34.426 142.188 l 34.395
 144.074 34.723 145.93 35.395 147.699 c 44.004 170.207 l 78.992 276.391 
l 79.426 277.707 80.512 278.703 81.859 279.027 c 83.16 279.332 84.531 278.973
 85.504 278.066 c 118.957 248.531 l 120.668 247.465 121.328 245.301 120.484
 243.473 c 81.398 158.953 l 80.57 134.035 l 80.523 132.707 80.277 131.398
 79.832 130.145 c 77.543 123.676 l 75.688 118.434 70.676 115.031 65.281 
115.031 c h
84.684 268.141 m 51.527 167.535 l 42.855 144.848 l 42.855 144.844 l 42.547
 144.035 42.398 143.188 42.41 142.32 c 42.59 131.508 l 42.629 129.184 44.309
 127.16 46.586 126.699 c 64.32 123.113 l 66.746 122.621 69.191 124.012 70.016
 126.336 c 72.305 132.805 l 72.469 133.285 72.566 133.789 72.586 134.305
 c 73.445 160.023 l 73.465 160.559 73.59 161.082 73.816 161.562 c 111.953
 244.059 l h
39.129 146.273 m 39.148 146.273 l h
39.129 146.273 m f
0.419608 0.866667 0.866667 rg
82.793 275.137 m 116.312 245.539 l 117.934 244.109 120.41 244.258 121.84
 245.883 c 163.48 293.043 l 173.082 303.918 172.055 320.523 161.176 330.129
 c 150.297 339.734 133.691 338.699 124.09 327.82 c 82.445 280.66 l 81.02
 279.039 81.168 276.566 82.793 275.137 c h
82.793 275.137 m f
0.215686 0.384314 0.8 rg
118.895 240.562 m 116.965 240.562 115.129 241.258 113.672 242.543 c 80.148
 272.145 l 78.566 273.539 77.617 275.469 77.488 277.578 c 77.359 279.684
 78.059 281.719 79.453 283.305 c 121.094 330.465 l 126.445 336.527 133.836
 340.141 141.906 340.641 c 149.969 341.145 157.754 338.473 163.82 333.121
 c 169.879 327.77 173.492 320.379 173.992 312.309 c 174.496 304.238 171.824
 296.461 166.473 290.398 c 124.832 243.238 l 123.434 241.656 121.504 240.711
 119.395 240.578 c 119.227 240.566 119.059 240.562 118.895 240.562 c h
85.496 278.074 m 118.957 248.531 l 160.488 295.684 l 168.617 304.895 167.742
 319 158.531 327.137 c 149.324 335.262 135.219 334.387 127.082 325.176 c
 h
85.496 278.074 m f
0.878431 0.921569 0.988235 rg
311.543 16.664 m 327.547 26.809 l 278.672 103.34 l 277.137 94.945 274.75
 86.848 271.582 79.156 c 314.316 12.246 l 314.336 12.258 l h
311.543 16.664 m f
0.215686 0.384314 0.8 rg
314.32 8.258 m 314.039 8.258 313.758 8.289 313.48 8.344 c 312.441 8.57 
311.523 9.199 310.949 10.094 c 268.223 77.004 l 267.52 78.102 267.398 79.469
 267.895 80.672 c 270.969 88.148 273.273 96.012 274.746 104.055 c 275.043
 105.668 276.293 106.938 277.902 107.254 c 279.512 107.578 281.156 106.867
 282.039 105.484 c 330.91 28.957 l 331.48 28.059 331.672 26.977 331.445 
25.938 c 331.215 24.902 330.578 24.004 329.688 23.438 c 317.055 15.422 l
 317.707 14.395 l 318.883 12.543 318.344 10.098 316.512 8.906 c 315.855 
8.484 315.09 8.258 314.32 8.258 c h
276.055 79.574 m 312.734 22.145 l 322.023 28.035 l 280.473 93.098 l 279.258
 88.5 277.781 83.977 276.055 79.574 c h
276.055 79.574 m f
1 0.917647 0.572549 rg
440.992 291.535 m 323.93 291.535 l 260.102 267.082 l 256.859 265.844 253.684
 269.02 254.922 272.262 c 280.598 339.289 l 280.598 451.93 l 280.598 469.645
 294.961 484.008 312.68 484.008 c 440.992 484.008 l 458.711 484.008 473.07
 469.645 473.07 451.93 c 473.07 323.613 l 473.07 305.895 458.711 291.535
 440.992 291.535 c h
440.992 291.535 m f
0.215686 0.384314 0.8 rg
258.625 262.809 m 256.559 262.809 254.551 263.625 253.012 265.168 c 250.746
 267.434 250.047 270.699 251.199 273.691 c 276.609 340.027 l 276.609 451.93
 l 276.609 471.816 292.793 488 312.68 488 c 440.992 488 l 460.883 488 477.062
 471.816 477.062 451.93 c 477.062 323.613 l 477.062 303.723 460.883 287.547
 440.992 287.547 c 324.672 287.547 l 261.531 263.355 l 260.574 262.992 259.594
 262.809 258.625 262.809 c h
312.68 480.016 m 297.191 480.016 284.59 467.414 284.59 451.93 c 284.59 
339.289 l 284.59 338.797 284.5 338.312 284.328 337.863 c 258.652 270.832
 l 322.504 295.266 l 322.961 295.438 323.449 295.527 323.93 295.527 c 440.992
 295.527 l 456.48 295.527 469.078 308.125 469.078 323.613 c 469.078 451.93
 l 469.078 467.414 456.477 480.016 440.992 480.016 c h
312.68 480.016 m f
0.643137 0.788235 1 rg
368.613 453.547 m 368.914 454.059 369.34 454.52 369.82 454.867 c 380.406
 462.488 391.691 455.445 391.691 445.234 c 391.691 438.023 386.062 432.391
 379.027 432.391 c 369.188 432.391 362.297 442.863 368.613 453.547 c h
373.211 419.547 m 384.484 419.547 l 386.91 419.547 388.875 417.582 388.875
 415.156 c 388.875 327 l 388.875 324.574 386.91 322.609 384.484 322.609 
c 373.211 322.609 l 370.785 322.609 368.82 324.574 368.82 327 c 368.82 415.156
 l 368.82 417.582 370.785 419.547 373.211 419.547 c h
373.211 419.547 m f
Q Q
showpage
%%Trailer
end restore
%%EOF
