%!PS-Adobe-3.0 EPSF-3.0
%%Creator: cairo 1.14.8 (http://cairographics.org)
%%CreationDate: Wed Mar 20 09:06:38 2019
%%Pages: 1
%%DocumentData: Clean7Bit
%%LanguageLevel: 2
%%BoundingBox: 1 0 485 485
%%EndComments
%%BeginProlog
save
50 dict begin
/q { gsave } bind def
/Q { grestore } bind def
/cm { 6 array astore concat } bind def
/w { setlinewidth } bind def
/J { setlinecap } bind def
/j { setlinejoin } bind def
/M { setmiterlimit } bind def
/d { setdash } bind def
/m { moveto } bind def
/l { lineto } bind def
/c { curveto } bind def
/h { closepath } bind def
/re { exch dup neg 3 1 roll 5 3 roll moveto 0 rlineto
      0 exch rlineto 0 rlineto closepath } bind def
/S { stroke } bind def
/f { fill } bind def
/f* { eofill } bind def
/n { newpath } bind def
/W { clip } bind def
/W* { eoclip } bind def
/BT { } bind def
/ET { } bind def
/pdfmark where { pop globaldict /?pdfmark /exec load put }
    { globaldict begin /?pdfmark /pop load def /pdfmark
    /cleartomark load def end } ifelse
/BDC { mark 3 1 roll /BDC pdfmark } bind def
/EMC { mark /EMC pdfmark } bind def
/cairo_store_point { /cairo_point_y exch def /cairo_point_x exch def } def
/Tj { show currentpoint cairo_store_point } bind def
/TJ {
  {
    dup
    type /stringtype eq
    { show } { -0.001 mul 0 cairo_font_matrix dtransform rmoveto } ifelse
  } forall
  currentpoint cairo_store_point
} bind def
/cairo_selectfont { cairo_font_matrix aload pop pop pop 0 0 6 array astore
    cairo_font exch selectfont cairo_point_x cairo_point_y moveto } bind def
/Tf { pop /cairo_font exch def /cairo_font_matrix where
      { pop cairo_selectfont } if } bind def
/Td { matrix translate cairo_font_matrix matrix concatmatrix dup
      /cairo_font_matrix exch def dup 4 get exch 5 get cairo_store_point
      /cairo_font where { pop cairo_selectfont } if } bind def
/Tm { 2 copy 8 2 roll 6 array astore /cairo_font_matrix exch def
      cairo_store_point /cairo_font where { pop cairo_selectfont } if } bind def
/g { setgray } bind def
/rg { setrgbcolor } bind def
/d1 { setcachedevice } bind def
%%EndProlog
%%BeginSetup
%%EndSetup
%%Page: 1 1
%%BeginPageSetup
%%PageBoundingBox: 1 0 485 485
%%EndPageSetup
q 1 0 484 485 rectclip q
0.27451 0.443137 0.776471 rg
326.625 304.484 m 318.5 296.359 l 315.59 293.453 310.879 293.453 307.969
 296.359 c 246.027 358.305 l 243.117 361.211 243.117 365.926 246.027 368.832
 c 254.152 376.957 l 257.059 379.867 261.773 379.867 264.68 376.957 c 326.625
 315.016 l 329.531 312.109 329.531 307.395 326.625 304.484 c h
326.625 304.484 m f
0.976471 0.654902 0.654902 rg
259.016 6.23 m 314.422 41.355 l 317.668 43.41 318.625 47.711 316.57 50.953
 c 315.883 52.027 l 313.832 55.273 309.535 56.234 306.293 54.176 c 243.125
 14.133 l 246.34 9.066 l 249.055 4.781 254.73 3.512 259.016 6.23 c h
259.016 6.23 m f
0.976471 0.811765 0.811765 rg
117.555 380.684 m 139.828 380.684 157.883 362.629 157.883 340.355 c 157.883
 316.684 l 159.84 316.684 l 163.301 316.684 166.105 313.883 166.105 310.422
 c 166.105 306.961 163.301 304.156 159.84 304.156 c 156.777 304.156 l 153.312
 289.23 141.598 277.473 126.656 274.02 c 126.656 268.473 l 123.293 269.613
 119.691 270.258 115.938 270.258 c 95.609 270.258 l 94.156 270.258 92.742
 270.109 91.352 269.895 c 91.352 282.656 l 82.707 290.055 77.223 301.031
 77.223 313.301 c 77.223 340.355 l 77.223 362.629 95.277 380.684 117.555
 380.684 c h
117.555 380.684 m f
0.976471 0.654902 0.654902 rg
13.773 266.75 m 59.18 266.75 l 64.367 266.75 68.574 262.539 68.574 257.352
 c 68.574 184.395 l 62.598 179.785 57.164 174.504 52.402 168.652 c 52.402
 250.574 l 13.773 250.574 l 9.305 250.574 5.684 254.195 5.684 258.664 c 
5.684 263.129 9.305 266.75 13.773 266.75 c h
13.773 266.75 m f
0.215686 0.384314 0.8 rg
52.402 164.66 m 51.957 164.66 51.504 164.734 51.066 164.891 c 49.477 165.453
 48.41 166.961 48.41 168.656 c 48.41 246.582 l 13.773 246.582 l 7.109 246.582
 1.691 252.004 1.691 258.664 c 1.691 265.324 7.109 270.742 13.773 270.742
 c 59.18 270.742 l 66.559 270.742 72.566 264.738 72.566 257.355 c 72.566
 184.395 l 72.566 183.156 71.992 181.988 71.016 181.23 c 65.266 176.805 
60.047 171.723 55.5 166.133 c 54.734 165.184 53.582 164.66 52.402 164.66
 c h
13.773 262.754 m 11.512 262.754 9.68 260.918 9.68 258.664 c 9.68 256.402
 11.512 254.57 13.773 254.57 c 52.402 254.57 l 54.613 254.57 56.398 252.781
 56.398 250.578 c 56.398 179.016 l 58.988 181.598 61.723 184.039 64.582 
186.332 c 64.582 257.355 l 64.582 260.332 62.16 262.754 59.184 262.754 c
 h
68.574 184.395 m 68.598 184.395 l h
68.574 184.395 m f
143.133 316.355 m 145.191 316.355 146.852 318.02 146.852 320.074 c 146.852
 326.273 l 146.852 328.328 145.188 329.992 143.133 329.992 c 141.078 329.992
 139.418 328.324 139.418 326.273 c 139.418 320.074 l 139.418 318.02 141.082
 316.355 143.133 316.355 c h
143.133 316.355 m f
0.643137 0.788235 1 rg
269.695 66.164 m 295.352 70.535 l 297.621 70.922 299.926 70.07 301.461 
68.273 c 305.898 63.09 l 307.012 61.793 307.629 60.102 307.629 58.352 c 
307.629 55.855 306.379 53.543 304.336 52.258 c 264.434 27.238 l 262.18 25.828
 259.508 25.332 256.93 25.855 c 253.809 26.48 251.117 28.535 249.586 31.453
 c 245.09 40.016 l 243.734 42.594 244.379 45.816 246.609 47.609 c h
269.695 66.164 m f
0.215686 0.384314 0.8 rg
258.953 21.656 m 258.016 21.656 257.078 21.75 256.137 21.938 c 251.828 
22.809 248.148 25.602 246.051 29.598 c 241.551 38.156 l 239.301 42.445 240.375
 47.727 244.102 50.727 c 267.191 69.281 l 267.727 69.707 268.355 69.988 
269.023 70.105 c 294.68 74.473 l 298.371 75.098 302.031 73.75 304.5 70.871
 c 308.934 65.691 l 310.668 63.664 311.625 61.059 311.625 58.352 c 311.625
 54.508 309.645 50.879 306.461 48.879 c 266.555 23.855 l 264.242 22.406 
261.613 21.656 258.953 21.656 c h
271.387 62.402 m 249.109 44.5 l 248.375 43.91 248.164 42.758 248.625 41.875
 c 253.121 33.316 l 254.102 31.457 255.773 30.164 257.719 29.773 c 259.297
 29.457 260.922 29.758 262.312 30.629 c 302.215 55.648 l 303.094 56.199 
303.637 57.234 303.637 58.355 c 303.637 59.156 303.363 59.914 302.867 60.496
 c 298.434 65.676 l 297.805 66.406 296.898 66.75 296.016 66.602 c h
271.387 62.402 m f
0.27451 0.443137 0.776471 rg
194.242 166.566 m 202.43 166.566 210.457 164.105 217.465 159.461 c 223.949
 155.156 229.332 149.129 233.117 141.93 c 233.117 141.926 l 274.09 70.066
 l 274.91 68.633 274.598 66.75 273.379 65.719 c 247.379 43.793 l 246.016
 42.645 244.039 42.992 243.074 44.566 c 208.762 100.469 l 205.051 106.105
 l 203.363 108.668 200.656 110.188 197.773 110.188 c 94.336 110.188 l 80.109
 110.188 68.578 122.848 68.578 138.465 c 68.578 166.566 l h
194.242 166.566 m f
0.215686 0.384314 0.8 rg
245.551 39.117 m 245.195 39.117 244.84 39.148 244.48 39.203 c 242.504 39.523
 240.746 40.715 239.668 42.477 c 205.359 98.375 l 201.715 103.906 l 200.773
 105.34 199.301 106.188 197.773 106.188 c 94.336 106.188 l 77.93 106.188
 64.582 120.668 64.582 138.465 c 64.582 166.562 l 64.582 168.77 66.371 170.559
 68.578 170.559 c 194.242 170.559 l 203.215 170.559 212.012 167.871 219.672
 162.785 c 226.695 158.125 232.566 151.555 236.652 143.785 c 277.562 72.043
 l 279.324 68.949 278.633 64.914 275.953 62.66 c 249.953 40.738 l 248.707
 39.688 247.141 39.117 245.551 39.117 c h
72.566 162.574 m 72.566 138.465 l 72.566 125.074 82.336 114.18 94.336 114.18
 c 197.773 114.18 l 201.996 114.18 205.961 111.98 208.387 108.305 c 212.094
 102.668 l 245.828 47.715 l 270.418 68.445 l 229.648 139.949 l 226.117 146.66
 221.164 152.215 215.254 156.133 c 208.902 160.348 201.637 162.574 194.242
 162.574 c h
270.621 68.086 m 270.641 68.086 l h
270.621 68.086 m f
0.419608 0.866667 0.866667 rg
94.047 110.188 m 149.434 110.188 l 149.434 237.703 l 149.434 255.688 134.855
 270.258 116.879 270.258 c 94.848 270.258 l 80.336 270.258 68.574 258.5 
68.574 243.988 c 68.574 135.66 l 68.574 121.59 79.977 110.188 94.047 110.188
 c h
94.047 110.188 m f
0.215686 0.384314 0.8 rg
149.434 106.191 m 94.047 106.191 l 77.797 106.191 64.578 119.414 64.578
 135.66 c 64.578 243.988 l 64.578 260.676 78.16 274.254 94.848 274.254 c
 116.879 274.254 l 137.031 274.254 153.43 257.859 153.43 237.703 c 153.43
 110.188 l 153.43 107.98 151.641 106.191 149.434 106.191 c h
94.848 266.266 m 82.562 266.266 72.566 256.273 72.566 243.988 c 72.566 
135.66 l 72.566 123.816 82.203 114.18 94.047 114.18 c 145.438 114.18 l 145.438
 237.703 l 145.438 253.457 132.625 266.266 116.879 266.266 c h
94.848 266.266 m f
1 0.917647 0.572549 rg
218.438 101.07 m 218.438 47.457 174.977 3.996 121.359 3.996 c 67.746 3.996
 24.285 47.457 24.285 101.07 c 24.285 154.688 67.746 198.148 121.359 198.148
 c 174.977 198.148 218.438 154.688 218.438 101.07 c h
218.438 101.07 m f
0.215686 0.384314 0.8 rg
121.363 0 m 65.633 0 20.289 45.344 20.289 101.07 c 20.289 156.805 65.633
 202.141 121.363 202.141 c 177.094 202.141 222.43 156.805 222.43 101.07 
c 222.43 45.344 177.094 0 121.363 0 c h
121.363 194.152 m 70.035 194.152 28.277 152.398 28.277 101.07 c 28.277 
49.746 70.035 7.988 121.363 7.988 c 172.691 7.988 214.441 49.746 214.441
 101.07 c 214.441 152.398 172.691 194.152 121.363 194.152 c h
121.363 194.152 m f
0.643137 0.788235 1 rg
196.637 101.07 m 196.637 59.496 162.934 25.797 121.359 25.797 c 79.785 
25.797 46.086 59.496 46.086 101.07 c 46.086 142.645 79.785 176.348 121.359
 176.348 c 162.934 176.348 196.637 142.645 196.637 101.07 c h
196.637 101.07 m f
0.976471 0.811765 0.811765 rg
125.559 315.512 m 125.559 307.625 119.164 301.23 111.281 301.23 c 103.395
 301.23 97 307.625 97 315.512 c 97 323.395 103.395 329.789 111.281 329.789
 c 119.164 329.789 125.559 323.395 125.559 315.512 c h
125.559 315.512 m f
0.215686 0.384314 0.8 rg
126.656 264.48 m 126.227 264.48 125.797 264.551 125.379 264.688 c 122.289
 265.734 119.113 266.266 115.934 266.266 c 95.609 266.266 l 94.516 266.266
 93.324 266.16 91.977 265.945 c 90.82 265.766 89.648 266.094 88.758 266.855
 c 87.867 267.609 87.359 268.723 87.359 269.895 c 87.359 280.871 l 78.355
 289.25 73.23 300.965 73.23 313.301 c 73.23 340.355 l 73.23 364.793 93.113
 384.68 117.555 384.68 c 141.992 384.68 161.871 364.793 161.871 340.355 
c 161.871 320.477 l 166.559 319.527 170.094 315.383 170.094 310.422 c 170.094
 304.766 165.496 300.164 159.84 300.164 c 159.832 300.164 l 155.512 286.297
 144.488 275.262 130.652 270.965 c 130.652 268.477 l 130.652 267.191 130.031
 265.98 128.984 265.23 c 128.297 264.734 127.48 264.48 126.656 264.48 c 
h
95.609 274.254 m 115.938 274.254 l 118.188 274.254 120.441 274.047 122.664
 273.637 c 122.664 274.02 l 122.664 275.879 123.945 277.496 125.762 277.914
 c 139.125 281 149.773 291.656 152.891 305.062 c 153.312 306.871 154.926
 308.152 156.777 308.152 c 159.84 308.152 l 161.09 308.152 162.105 309.172
 162.105 310.422 c 162.105 311.672 161.09 312.691 159.84 312.691 c 157.879
 312.691 l 155.676 312.691 153.883 314.477 153.883 316.684 c 153.883 340.355
 l 153.883 360.391 137.586 376.691 117.555 376.691 c 97.52 376.691 81.219
 360.391 81.219 340.355 c 81.219 313.305 l 81.219 302.684 85.859 292.617
 93.949 285.695 c 94.836 284.934 95.348 283.824 95.348 282.66 c 95.348 274.254
 l h
95.609 274.254 m f
0.27451 0.443137 0.776471 rg
69.992 368.066 m 69.992 368.062 l 77.188 379.055 90.043 386.379 104.711
 386.379 c 107.832 386.379 110.363 383.984 110.363 381.031 c 110.363 379.91
 l 110.363 381.23 110.766 382.457 111.457 383.48 c 111.457 383.484 l 111.457
 383.484 111.652 383.879 112.227 384.418 c 112.984 385.18 113.93 385.766
 114.996 386.09 c 116.488 386.691 118.578 387.188 121.453 387.305 c 121.469
 387.305 l 124.457 387.43 128.297 387.152 133.219 386.152 c 136.801 385.762
 140.219 384.848 143.402 383.492 c 143.414 383.488 143.426 383.484 143.438
 383.48 c 143.438 383.477 l 145.246 382.703 146.973 381.785 148.605 380.742
 c 149.316 380.305 149.676 380.031 149.676 380.031 c 158.863 373.695 164.871
 363.211 164.871 351.34 c 164.871 338.5 l 164.871 337.906 164.383 337.422
 163.777 337.422 c 110.363 337.422 l 110.363 299.078 l 103.922 285.934 l
 103.738 285.562 103.355 285.324 102.934 285.324 c 86.203 285.324 l 84.512
 285.324 82.848 285.566 81.262 286.023 c 81.211 286.043 79.516 286.758 78.828
 287.859 c 77.199 290.465 73.375 296.594 69.891 302.195 c 64.723 310.504
 61.789 319.996 61.559 329.734 c 60.918 356.41 69.992 368.066 69.992 368.066
 c h
69.992 368.066 m f
0.215686 0.384314 0.8 rg
102.93 281.324 m 86.199 281.324 l 84.164 281.324 82.129 281.613 80.16 282.18
 c 80.004 282.223 79.852 282.277 79.703 282.34 c 78.832 282.711 76.664 283.781
 75.438 285.742 c 73.812 288.344 69.98 294.48 66.496 300.082 c 60.895 309.086
 57.805 319.305 57.562 329.633 c 56.922 356.461 65.785 369.109 66.762 370.422
 c 75.027 382.918 89.195 390.375 104.707 390.375 c 106.969 390.375 109.047
 389.617 110.688 388.355 c 111.566 388.992 112.578 389.512 113.656 389.859
 c 115.789 390.684 118.344 391.168 121.258 391.293 c 121.301 391.293 l 124.918
 391.453 129.125 391.043 133.832 390.105 c 137.629 389.672 141.332 388.699
 144.832 387.227 c 144.895 387.203 144.953 387.18 145.016 387.152 c 146.984
 386.301 148.914 385.277 150.75 384.109 c 151.344 383.742 151.734 383.473
 152 383.273 c 162.559 375.965 168.863 364.027 168.863 351.336 c 168.863
 338.496 l 168.863 335.699 166.578 333.422 163.77 333.422 c 114.359 333.422
 l 114.359 299.074 l 114.359 298.465 114.219 297.863 113.949 297.32 c 107.504
 284.172 l 106.656 282.441 104.859 281.324 102.93 281.324 c h
82.648 289.773 m 83.812 289.469 85.008 289.312 86.199 289.312 c 101.133
 289.312 l 106.371 300.004 l 106.371 337.418 l 106.371 339.621 108.156 341.41
 110.363 341.41 c 160.879 341.41 l 160.879 351.336 l 160.879 361.426 155.844
 370.926 147.41 376.742 c 147.359 376.777 147.312 376.812 147.262 376.848
 c 147.184 376.902 146.934 377.078 146.516 377.332 c 144.988 378.309 143.445
 379.125 141.883 379.793 c 141.867 379.801 141.852 379.805 141.84 379.812
 c 138.965 381.043 135.918 381.84 132.785 382.184 c 132.664 382.199 132.547
 382.215 132.43 382.242 c 128.281 383.078 124.66 383.434 121.641 383.316
 c 121.574 383.312 121.508 383.312 121.438 383.309 c 119.559 383.223 117.789
 382.902 116.48 382.379 c 116.375 382.336 116.27 382.301 116.16 382.27 c
 115.75 382.145 115.375 381.918 115.074 381.609 c 115.074 381.609 114.938
 381.473 114.879 381.414 c 114.844 381.359 114.809 381.301 114.773 381.25
 c 114.496 380.84 114.359 380.387 114.359 379.906 c 114.359 377.703 112.566
 375.914 110.363 375.914 c 108.16 375.914 106.371 377.703 106.371 379.906
 c 106.371 381.031 l 106.371 381.766 105.609 382.379 104.715 382.379 c 91.836
 382.379 80.105 376.211 73.34 365.875 c 73.266 365.762 73.188 365.656 73.105
 365.551 c 72.359 364.484 64.992 353.336 65.551 329.824 c 65.766 320.918
 68.441 312.09 73.285 304.297 c 76.711 298.789 80.465 292.77 82.137 290.102
 c 82.246 290.008 82.453 289.879 82.648 289.773 c h
115.039 381.703 m 115.035 381.703 115.035 381.703 115.035 381.703 c h
115.043 381.715 m 115.039 381.711 115.039 381.711 115.039 381.707 c 115.039
 381.711 115.039 381.711 115.043 381.715 c h
115.051 381.73 m 115.047 381.723 115.043 381.719 115.043 381.715 c 115.043
 381.719 115.047 381.723 115.051 381.73 c h
115.051 381.73 m f
0.976471 0.811765 0.811765 rg
125.559 315.512 m 125.559 307.625 119.164 301.23 111.281 301.23 c 103.395
 301.23 97 307.625 97 315.512 c 97 323.395 103.395 329.789 111.281 329.789
 c 119.164 329.789 125.559 323.395 125.559 315.512 c h
125.559 315.512 m f
0.215686 0.384314 0.8 rg
254.117 0.812 m 249.746 0.812 245.473 2.977 242.965 6.93 c 239.754 11.996
 l 238.57 13.859 239.125 16.324 240.988 17.508 c 304.148 57.555 l 306.625
 59.121 309.555 59.629 312.406 58.992 c 315.258 58.352 317.695 56.641 319.262
 54.168 c 319.945 53.094 l 323.18 47.996 321.656 41.219 316.562 37.984 c
 261.156 2.859 l 261.152 2.859 l 258.969 1.473 256.531 0.812 254.117 0.812
 c h
259.016 6.23 m 259.035 6.23 l h
248.641 12.895 m 249.711 11.207 l 251.246 8.789 254.457 8.07 256.875 9.605
 c 312.281 44.73 l 313.66 45.602 314.07 47.434 313.195 48.812 c 312.508 
49.891 l 312.09 50.562 311.43 51.023 310.66 51.191 c 309.887 51.367 309.098
 51.227 308.43 50.809 c h
248.641 12.895 m f
121.363 21.801 m 77.652 21.801 42.094 57.363 42.094 101.07 c 42.094 144.777
 77.656 180.336 121.363 180.336 c 165.07 180.336 200.629 144.777 200.629
 101.07 c 200.629 57.363 165.07 21.801 121.363 21.801 c h
121.363 172.348 m 82.059 172.348 50.082 140.375 50.082 101.07 c 50.082 
61.77 82.059 29.789 121.363 29.789 c 160.668 29.789 192.641 61.77 192.641
 101.07 c 192.641 140.375 160.668 172.348 121.363 172.348 c h
121.363 172.348 m f
0.976471 0.811765 0.811765 rg
25.113 117.859 m 32.008 135.875 l 60.059 220.988 l 60.059 220.988 60.059
 220.984 60.062 220.984 c 86.891 197.297 l 87.027 197.176 87.176 197.078
 87.324 196.984 c 55.773 128.754 l 55.086 108.172 l 55.062 107.434 54.926
 106.703 54.68 106.012 c 52.848 100.836 l 51.656 97.461 48.156 95.477 44.645
 96.188 c 30.453 99.062 l 27.148 99.73 24.75 102.613 24.695 105.984 c 24.555
 114.641 l 24.531 115.742 24.723 116.832 25.113 117.859 c h
25.113 117.859 m f
0.215686 0.384314 0.8 rg
46.047 92.059 m 45.32 92.059 44.586 92.125 43.852 92.273 c 29.664 95.148
 l 24.551 96.184 20.781 100.715 20.699 105.922 c 20.555 114.574 l 20.531
 116.195 20.809 117.777 21.387 119.285 c 28.273 137.297 l 56.262 222.238
 l 56.684 223.516 57.719 224.488 59.016 224.84 c 60.312 225.188 61.695 224.867
 62.707 223.977 c 89.535 200.289 l 91.242 199.219 91.793 197.133 90.949 
195.309 c 59.738 127.812 l 59.078 108.039 l 59.039 106.887 58.824 105.758
 58.441 104.68 c 56.613 99.508 l 55.012 94.988 50.695 92.059 46.047 92.059
 c h
28.848 116.434 m 28.637 115.883 28.535 115.301 28.543 114.707 c 28.688 
106.055 l 28.711 104.566 29.789 103.27 31.246 102.98 c 45.434 100.105 l 
46.996 99.789 48.555 100.68 49.082 102.172 c 50.91 107.344 l 51.02 107.652
 51.082 107.977 51.094 108.309 c 51.785 128.891 l 51.801 129.422 51.926 
129.949 52.152 130.434 c 82.422 195.91 l 61.953 213.984 l 35.801 134.621
 l h
28.848 116.434 m f
0.419608 0.866667 0.866667 rg
60.062 220.984 m 86.891 197.297 l 88.184 196.152 90.168 196.273 91.309 
197.57 c 124.633 235.316 l 132.316 244.023 131.496 257.309 122.789 264.996
 c 114.082 272.684 100.797 271.855 93.109 263.152 c 59.785 225.406 l 58.641
 224.109 58.766 222.133 60.062 220.984 c h
60.062 220.984 m f
0.215686 0.384314 0.8 rg
88.957 192.523 m 87.281 192.523 85.594 193.109 84.246 194.301 c 57.414 
217.996 l 55.988 219.25 55.137 220.988 55.02 222.891 c 54.902 224.793 55.531
 226.625 56.793 228.051 c 90.117 265.793 l 94.539 270.801 100.652 273.789
 107.32 274.203 c 113.996 274.625 120.426 272.414 125.434 267.988 c 135.773
 258.859 136.762 243.016 127.629 232.672 c 94.305 194.93 l 92.898 193.34
 90.93 192.523 88.957 192.523 c h
63.348 223.41 m 88.883 200.863 l 121.641 237.961 l 127.855 245 127.184 
255.785 120.145 262 c 116.734 265.012 112.352 266.508 107.812 266.234 c 
103.273 265.949 99.113 263.918 96.102 260.508 c h
62.707 223.98 m 62.707 223.977 l 62.707 223.977 62.707 223.977 62.707 223.98
 c h
62.707 223.98 m f
0.878431 0.921569 0.988235 rg
243.129 14.133 m 255.934 22.254 l 216.82 83.5 l 215.594 76.781 213.688 
70.301 211.148 64.148 c 245.348 10.598 l 245.363 10.609 l h
243.129 14.133 m f
0.215686 0.384314 0.8 rg
245.355 6.613 m 244.031 6.613 242.742 7.254 241.98 8.449 c 207.785 61.996
 l 207.086 63.09 206.961 64.465 207.457 65.664 c 209.898 71.594 211.727 
77.836 212.895 84.215 c 213.191 85.836 214.441 87.102 216.059 87.418 c 217.668
 87.742 219.305 87.031 220.188 85.648 c 259.301 24.402 l 259.875 23.512 
260.066 22.422 259.836 21.383 c 259.605 20.352 258.969 19.449 258.074 18.879
 c 248.641 12.895 l 248.738 12.742 l 249.309 11.848 249.492 10.754 249.262
 9.723 c 249.023 8.684 248.383 7.781 247.477 7.223 c 246.816 6.809 246.086
 6.613 245.355 6.613 c h
215.621 64.57 m 244.32 19.621 l 250.414 23.484 l 218.562 73.359 l 217.715
 70.375 216.73 67.441 215.621 64.57 c h
215.621 64.57 m f
0.27451 0.443137 0.776471 rg
356.977 247.66 m 355.035 249.359 352.539 250.301 349.957 250.301 c 207.402
 250.301 l 204.82 250.301 202.324 249.359 200.375 247.66 c 191.223 239.641
 l 190.062 238.625 189.402 237.168 189.402 235.629 c 189.402 221.73 l 367.953
 221.73 l 367.953 235.629 l 367.953 237.164 367.289 238.625 366.137 239.641
 c h
356.977 247.66 m f
0.878431 0.921569 0.988235 rg
350.637 250.152 m 206.727 250.152 l 201.578 250.152 197.398 254.328 197.398
 259.477 c 197.398 264.629 201.578 268.805 206.727 268.805 c 350.637 268.805
 l 355.785 268.805 359.961 264.629 359.961 259.477 c 359.961 254.328 355.785
 250.152 350.637 250.152 c h
350.637 250.152 m f
0.215686 0.384314 0.8 rg
367.953 217.742 m 189.402 217.742 l 187.199 217.742 185.41 219.527 185.41
 221.734 c 185.41 235.629 l 185.41 238.316 186.57 240.875 188.594 242.645
 c 197.75 250.664 l 200.422 253.008 203.852 254.293 207.406 254.293 c 349.957
 254.293 l 353.504 254.293 356.938 253.008 359.609 250.668 c 368.77 242.648
 l 370.789 240.879 371.949 238.32 371.949 235.633 c 371.949 221.734 l 371.949
 219.527 370.16 217.742 367.953 217.742 c h
193.398 225.73 m 363.961 225.73 l 363.961 235.629 l 363.961 236.016 363.793
 236.383 363.504 236.633 c 354.348 244.652 l 353.133 245.719 351.566 246.305
 349.957 246.305 c 207.402 246.305 l 205.785 246.305 204.227 245.719 203.008
 244.652 c 193.855 236.633 l 193.562 236.379 193.398 236.012 193.398 235.629
 c h
193.398 225.73 m f
350.637 246.156 m 206.727 246.156 l 199.383 246.156 193.406 252.133 193.406
 259.477 c 193.406 266.828 199.383 272.801 206.727 272.801 c 350.637 272.801
 l 357.98 272.801 363.957 266.828 363.957 259.477 c 363.957 252.133 357.977
 246.156 350.637 246.156 c h
206.727 264.809 m 203.785 264.809 201.395 262.418 201.395 259.477 c 201.395
 256.539 203.785 254.145 206.727 254.145 c 350.637 254.145 l 353.574 254.145
 355.969 256.539 355.969 259.477 c 355.969 262.422 353.574 264.809 350.637
 264.809 c h
206.727 264.809 m f
0.643137 0.788235 1 rg
353.695 344.621 m 450.793 247.527 l 454.539 243.781 460.98 244.148 465.188
 248.352 c 476.602 259.77 l 480.805 263.973 481.176 270.414 477.43 274.164
 c 380.336 371.262 l h
353.695 344.621 m f
0.215686 0.384314 0.8 rg
457.23 240.957 m 453.805 240.957 450.473 242.199 447.969 244.703 c 350.871
 341.797 l 350.125 342.547 349.703 343.562 349.703 344.621 c 349.703 345.68
 350.125 346.695 350.871 347.441 c 377.512 374.086 l 379.07 375.641 381.598
 375.641 383.16 374.086 c 480.254 276.988 l 482.879 274.359 484.207 270.781
 483.984 266.91 c 483.773 263.211 482.148 259.672 479.426 256.945 c 468.008
 245.527 l 464.977 242.496 461.043 240.957 457.23 240.957 c h
359.344 344.617 m 453.613 250.352 l 455.801 248.168 459.723 248.535 462.363
 251.176 c 473.781 262.59 l 476.418 265.23 476.785 269.156 474.605 271.336
 c 380.336 365.605 l h
359.344 344.617 m f
0.419608 0.866667 0.866667 rg
268.289 373.562 m 351.387 456.66 l 408.906 399.141 l 325.809 316.043 l 
h
268.289 373.562 m f
0.215686 0.384314 0.8 rg
313.234 290.188 m 310.301 290.188 307.375 291.305 305.145 293.535 c 243.199
 355.48 l 241.039 357.645 239.848 360.512 239.848 363.566 c 239.848 366.625
 241.039 369.496 243.199 371.656 c 251.328 379.781 l 253.484 381.945 256.359
 383.133 259.414 383.133 c 262.469 383.133 265.344 381.945 267.504 379.781
 c 329.449 317.836 l 333.91 313.375 333.91 306.117 329.449 301.66 c 321.324
 293.535 l 319.094 291.309 316.164 290.188 313.234 290.188 c h
259.418 375.148 m 258.492 375.148 257.625 374.789 256.977 374.137 c 248.852
 366.012 l 248.199 365.359 247.84 364.492 247.84 363.57 c 247.84 362.648
 248.199 361.781 248.852 361.129 c 310.793 299.188 l 312.145 297.836 314.332
 297.84 315.676 299.188 c 323.801 307.312 l 325.148 308.656 325.148 310.848
 323.797 312.191 c 261.855 374.133 l 261.203 374.785 260.336 375.148 259.418
 375.148 c h
326.625 304.488 m 326.645 304.488 l h
326.625 304.488 m f
0.27451 0.443137 0.776471 rg
347.891 470.699 m 356.016 478.824 l 358.922 481.73 363.637 481.73 366.543
 478.824 c 428.488 416.879 l 431.395 413.973 431.395 409.258 428.488 406.352
 c 420.363 398.227 l 417.453 395.316 412.742 395.316 409.832 398.227 c 347.891
 460.168 l 344.98 463.074 344.98 467.789 347.891 470.699 c h
347.891 470.699 m f
0.878431 0.921569 0.988235 rg
399.473 361.238 m 363.715 325.48 l 361.676 323.441 358.371 323.441 356.324
 325.48 c 349.48 332.332 l 347.441 334.367 347.441 337.676 349.48 339.719
 c 385.238 375.473 l 387.273 377.512 390.582 377.512 392.625 375.473 c 399.473
 368.629 l 401.512 366.582 401.512 363.277 399.473 361.238 c h
399.473 361.238 m f
0.215686 0.384314 0.8 rg
325.812 312.051 m 324.785 312.051 323.766 312.441 322.988 313.223 c 265.465
 370.738 l 264.715 371.484 264.293 372.504 264.293 373.562 c 264.293 374.621
 264.715 375.637 265.465 376.387 c 348.566 459.488 l 349.316 460.238 350.332
 460.66 351.391 460.66 c 352.449 460.66 353.465 460.238 354.215 459.488 
c 411.73 401.969 l 413.293 400.41 413.293 397.883 411.73 396.32 c 328.637
 313.223 l 327.852 312.441 326.832 312.051 325.812 312.051 c h
273.938 373.562 m 325.812 321.695 l 403.258 399.145 l 351.391 451.012 l
 h
273.938 373.562 m f
415.098 392.047 m 412.043 392.047 409.168 393.238 407.008 395.402 c 345.062
 457.344 l 340.602 461.801 340.602 469.062 345.062 473.523 c 353.191 481.648
 l 355.352 483.809 358.223 485 361.277 485 c 364.336 485 367.203 483.809
 369.367 481.648 c 431.312 419.703 l 435.77 415.238 435.77 407.984 431.312
 403.527 c 423.188 395.402 l 421.027 393.242 418.152 392.047 415.098 392.047
 c h
350.711 467.875 m 349.367 466.531 349.367 464.34 350.711 462.992 c 412.66
 401.051 l 413.961 399.742 416.238 399.742 417.539 401.051 c 425.664 409.176
 l 427.012 410.52 427.012 412.707 425.664 414.055 c 363.719 476 l 362.418
 477.305 360.141 477.305 358.84 476 c h
350.711 467.875 m f
360.023 319.961 m 357.66 319.961 355.305 320.859 353.5 322.656 c 346.656
 329.508 l 344.914 331.246 343.953 333.559 343.953 336.02 c 343.953 338.488
 344.914 340.801 346.656 342.543 c 382.414 378.297 l 384.156 380.039 386.469
 381 388.934 381 c 391.398 381 393.715 380.039 395.453 378.297 c 402.301
 371.449 l 405.891 367.855 405.891 362.008 402.305 358.414 c 402.301 358.414
 l 366.539 322.656 l 364.742 320.859 362.379 319.961 360.023 319.961 c h
388.934 373.012 m 388.699 373.012 388.359 372.949 388.062 372.648 c 352.305
 336.895 l 352.008 336.594 351.941 336.254 351.941 336.02 c 351.941 335.789
 352.004 335.453 352.305 335.156 c 359.148 328.301 l 359.629 327.828 360.41
 327.82 360.891 328.301 c 396.648 364.059 l 397.129 364.539 397.129 365.32
 396.648 365.801 c 389.797 372.645 l 389.5 372.949 389.164 373.012 388.934
 373.012 c h
399.477 361.238 m 399.496 361.238 l h
399.477 361.238 m f
Q Q
showpage
%%Trailer
end restore
%%EOF
