%!PS-Adobe-3.0 EPSF-3.0
%%Creator: cairo 1.14.8 (http://cairographics.org)
%%CreationDate: Wed Mar 20 09:06:38 2019
%%Pages: 1
%%DocumentData: Clean7Bit
%%LanguageLevel: 2
%%BoundingBox: 8 0 477 484
%%EndComments
%%BeginProlog
save
50 dict begin
/q { gsave } bind def
/Q { grestore } bind def
/cm { 6 array astore concat } bind def
/w { setlinewidth } bind def
/J { setlinecap } bind def
/j { setlinejoin } bind def
/M { setmiterlimit } bind def
/d { setdash } bind def
/m { moveto } bind def
/l { lineto } bind def
/c { curveto } bind def
/h { closepath } bind def
/re { exch dup neg 3 1 roll 5 3 roll moveto 0 rlineto
      0 exch rlineto 0 rlineto closepath } bind def
/S { stroke } bind def
/f { fill } bind def
/f* { eofill } bind def
/n { newpath } bind def
/W { clip } bind def
/W* { eoclip } bind def
/BT { } bind def
/ET { } bind def
/pdfmark where { pop globaldict /?pdfmark /exec load put }
    { globaldict begin /?pdfmark /pop load def /pdfmark
    /cleartomark load def end } ifelse
/BDC { mark 3 1 roll /BDC pdfmark } bind def
/EMC { mark /EMC pdfmark } bind def
/cairo_store_point { /cairo_point_y exch def /cairo_point_x exch def } def
/Tj { show currentpoint cairo_store_point } bind def
/TJ {
  {
    dup
    type /stringtype eq
    { show } { -0.001 mul 0 cairo_font_matrix dtransform rmoveto } ifelse
  } forall
  currentpoint cairo_store_point
} bind def
/cairo_selectfont { cairo_font_matrix aload pop pop pop 0 0 6 array astore
    cairo_font exch selectfont cairo_point_x cairo_point_y moveto } bind def
/Tf { pop /cairo_font exch def /cairo_font_matrix where
      { pop cairo_selectfont } if } bind def
/Td { matrix translate cairo_font_matrix matrix concatmatrix dup
      /cairo_font_matrix exch def dup 4 get exch 5 get cairo_store_point
      /cairo_font where { pop cairo_selectfont } if } bind def
/Tm { 2 copy 8 2 roll 6 array astore /cairo_font_matrix exch def
      cairo_store_point /cairo_font where { pop cairo_selectfont } if } bind def
/g { setgray } bind def
/rg { setrgbcolor } bind def
/d1 { setcachedevice } bind def
%%EndProlog
%%BeginSetup
%%EndSetup
%%Page: 1 1
%%BeginPageSetup
%%PageBoundingBox: 8 0 477 484
%%EndPageSetup
q 8 0 469 484 rectclip q
0.419608 0.866667 0.866667 rg
181.273 338.664 m 190.117 380.414 170.883 431.754 133.488 460.43 c 96.098
 489.102 53.004 485.547 30.195 454.508 c h
181.273 338.664 m f
0.215686 0.384314 0.8 rg
181.273 334.676 m 180.41 334.676 179.551 334.957 178.844 335.5 c 27.766
 451.34 l 26.043 452.66 25.691 455.121 26.977 456.871 c 37.812 471.617 52.965
 480.754 70.793 483.297 c 92.238 486.348 115.371 479.355 135.918 463.594
 c 173.75 434.59 194.469 381.703 185.184 337.84 c 184.898 336.5 183.945 
335.395 182.66 334.922 c 182.211 334.758 181.742 334.676 181.273 334.676
 c h
35.828 455.227 m 178.477 345.844 l 184.016 385.504 164.758 431.418 131.059
 457.262 c 112.223 471.703 91.227 478.141 71.922 475.395 c 57.543 473.34
 45.141 466.395 35.828 455.227 c h
35.828 455.227 m f
0.419608 0.866667 0.866667 rg
228.219 460.43 m 265.609 489.102 308.707 485.547 331.512 454.508 c 296.492
 427.656 l 270.547 450.324 l 274.863 411.074 l 180.434 338.664 l 171.59 
380.414 190.824 431.758 228.219 460.43 c h
228.219 460.43 m f
0.215686 0.384314 0.8 rg
180.434 334.676 m 179.969 334.676 179.496 334.758 179.047 334.922 c 177.762
 335.398 176.809 336.5 176.523 337.844 c 167.238 381.703 187.957 434.594
 225.789 463.594 c 246.34 479.359 269.477 486.359 290.914 483.297 c 308.742
 480.754 323.898 471.617 334.727 456.871 c 336.016 455.121 335.664 452.664
 333.941 451.344 c 298.922 424.492 l 297.418 423.332 295.305 423.402 293.867
 424.656 c 275.637 440.578 l 278.836 411.512 l 278.988 410.125 278.402 408.758
 277.293 407.91 c 182.863 335.5 l 182.156 334.957 181.297 334.676 180.434
 334.676 c h
280.934 476.008 m 264.188 476.008 246.637 469.52 230.648 457.258 c 196.949
 431.418 177.688 385.504 183.227 345.84 c 270.648 412.875 l 266.582 449.887
 l 266.402 451.523 267.242 453.102 268.699 453.867 c 270.156 454.625 271.938
 454.414 273.176 453.332 c 296.66 432.816 l 325.879 455.227 l 316.57 466.395
 304.164 473.34 289.785 475.391 c 286.867 475.805 283.914 476.008 280.934
 476.008 c h
280.934 476.008 m f
0.976471 0.811765 0.811765 rg
164.039 22.621 m 198.504 22.621 l 203.457 22.621 207.422 26.734 207.262
 31.707 c 197.043 348.273 l 165.508 348.273 l 155.285 31.707 l 155.125 26.734
 159.09 22.621 164.039 22.621 c h
164.039 22.621 m f
0.917647 0.662745 0.490196 rg
207.262 31.707 m 205.684 80.613 l 156.863 80.613 l 155.285 31.707 l 155.125
 26.734 159.09 22.621 164.039 22.621 c 198.504 22.621 l 203.457 22.621 207.422
 26.734 207.262 31.707 c h
207.262 31.707 m f
0.419608 0.866667 0.866667 rg
181.273 338.664 m 197.25 376.488 238.188 394.73 279.891 379.887 c 321.598
 365.047 350.184 322.062 349.777 278.699 c h
181.273 338.664 m f
82.656 379.891 m 40.953 365.047 12.363 322.066 12.77 278.703 c 51.82 292.602
 l 58.102 332.996 l 75.945 301.188 l 181.27 338.668 l 165.297 376.488 124.363
 394.73 82.656 379.891 c h
82.656 379.891 m f
0.917647 0.662745 0.490196 rg
158.305 125.223 m 204.242 125.223 l 202.371 183.215 l 160.176 183.215 l
 h
158.305 125.223 m f
161.617 227.828 m 200.93 227.828 l 199.059 285.816 l 163.492 285.816 l 
h
161.617 227.828 m f
0.215686 0.384314 0.8 rg
198.504 18.629 m 164.039 18.629 l 160.566 18.629 157.312 20.004 154.891
 22.504 c 152.457 25.02 151.184 28.328 151.297 31.836 c 161.512 348.402 
l 161.582 350.555 163.352 352.27 165.508 352.27 c 197.043 352.27 l 199.199
 352.27 200.965 350.555 201.035 348.402 c 211.254 31.836 l 211.367 28.328
 210.09 25.02 207.652 22.504 c 205.23 20.004 201.984 18.629 198.504 18.629
 c h
169.371 344.281 m 159.277 31.578 l 159.234 30.258 159.715 29.008 160.633
 28.062 c 161.535 27.129 162.75 26.613 164.039 26.613 c 198.504 26.613 l
 199.801 26.613 201.012 27.129 201.918 28.062 c 202.828 29.008 203.312 30.258
 203.27 31.574 c 193.176 344.281 l h
169.371 344.281 m f
349.777 274.711 m 349.324 274.711 348.879 274.785 348.441 274.941 c 179.938
 334.902 l 178.898 335.273 178.066 336.055 177.621 337.059 c 177.176 338.066
 177.168 339.207 177.598 340.223 c 194.688 380.676 238.273 398.938 281.234
 383.652 c 323.688 368.543 354.195 324.387 353.777 278.664 c 353.766 277.375
 353.129 276.168 352.066 275.43 c 351.391 274.953 350.586 274.711 349.777
 274.711 c h
186.711 340.969 m 345.668 284.402 l 343.637 324.762 316.148 362.746 278.555
 376.129 c 241.102 389.457 203.176 374.688 186.711 340.969 c h
186.711 340.969 m f
12.77 274.711 m 11.965 274.711 11.164 274.957 10.48 275.43 c 9.426 276.168
 8.789 277.375 8.777 278.664 c 8.352 324.387 38.855 368.543 81.32 383.652
 c 124.277 398.941 167.867 380.676 184.957 340.223 c 185.383 339.207 185.375
 338.066 184.93 337.059 c 184.488 336.055 183.648 335.273 182.613 334.902
 c 77.285 297.426 l 75.453 296.77 73.418 297.535 72.469 299.234 c 60.277
 320.965 l 55.77 291.988 l 55.547 290.535 54.543 289.332 53.164 288.84 c
 14.109 274.941 l 13.676 274.785 13.219 274.711 12.77 274.711 c h
83.996 376.129 m 46.395 362.746 18.914 324.762 16.879 284.402 c 48.246 
295.562 l 54.156 333.609 l 54.422 335.289 55.719 336.621 57.395 336.922 
c 59.07 337.23 60.754 336.43 61.586 334.945 c 77.781 306.078 l 175.844 340.969
 l 159.371 374.688 121.441 389.453 83.996 376.129 c h
82.656 379.891 m 82.676 379.891 l h
82.656 379.891 m f
0.72549 0.745098 0.988235 rg
198.922 286.77 m 184.57 286.77 172.93 298.406 172.93 312.762 c 172.93 314.309
 l 172.93 328.664 184.566 340.301 198.922 340.301 c 213.277 340.301 224.918
 328.664 224.918 314.309 c 224.918 312.762 l 224.918 298.406 213.281 286.77
 198.922 286.77 c h
198.922 286.77 m f
0.215686 0.384314 0.8 rg
198.926 282.777 m 182.391 282.777 168.938 296.227 168.938 312.762 c 168.938
 314.309 l 168.938 330.844 182.391 344.293 198.926 344.293 c 215.461 344.293
 228.91 330.844 228.91 314.309 c 228.91 312.762 l 228.91 296.227 215.457
 282.777 198.926 282.777 c h
198.926 336.305 m 186.797 336.305 176.926 326.441 176.926 314.309 c 176.926
 312.758 l 176.926 300.629 186.793 290.758 198.926 290.758 c 211.055 290.758
 220.926 300.625 220.926 312.758 c 220.926 314.309 l 220.926 326.441 211.055
 336.305 198.926 336.305 c h
198.926 336.305 m f
0.72549 0.745098 0.988235 rg
168.391 307.996 m 151.641 307.996 138.062 321.574 138.062 338.32 c 138.062
 340.125 l 138.062 356.875 151.645 370.449 168.391 370.449 c 185.141 370.449
 198.715 356.871 198.715 340.125 c 198.715 338.324 l 198.715 321.574 185.141
 307.996 168.391 307.996 c h
168.391 307.996 m f
0.215686 0.384314 0.8 rg
168.391 304.004 m 149.465 304.004 134.07 319.395 134.07 338.324 c 134.07
 340.125 l 134.07 359.051 149.465 374.445 168.391 374.445 c 187.312 374.445
 202.707 359.051 202.707 340.125 c 202.707 338.324 l 202.707 319.395 187.312
 304.004 168.391 304.004 c h
168.391 366.457 m 153.871 366.457 142.059 354.645 142.059 340.125 c 142.059
 338.324 l 142.059 323.805 153.871 311.992 168.391 311.992 c 182.91 311.992
 194.723 323.805 194.723 338.324 c 194.723 340.125 l 194.723 354.645 182.91
 366.457 168.391 366.457 c h
168.391 366.457 m f
0.976471 0.811765 0.811765 rg
463.016 51.988 m 459.414 56.195 l 458.164 57.652 456.293 58.348 454.449
 58.031 c 433.949 54.543 l 408.367 106.895 l 399.48 99.141 l 383.184 83.781
 l 384.137 82.344 l 387.863 76.262 l 413.633 33.25 l 417.285 26.297 l 418.531
 23.926 420.715 22.262 423.25 21.746 c 425.344 21.324 427.512 21.727 429.34
 22.875 c 461.746 43.191 l 463.406 44.234 464.422 46.109 464.422 48.141 
c 464.422 49.562 463.922 50.93 463.016 51.988 c h
463.016 51.988 m f
0.215686 0.384314 0.8 rg
424.895 17.59 m 424.082 17.59 423.27 17.668 422.457 17.832 c 418.734 18.586
 415.559 20.992 413.75 24.438 c 410.148 31.293 l 379.852 81.582 l 378.781
 83.207 379.035 85.355 380.441 86.684 c 396.738 102.043 l 405.742 109.902
 l 406.68 110.715 407.941 111.051 409.156 110.805 c 410.375 110.559 411.41
 109.762 411.953 108.645 c 436.223 58.98 l 453.777 61.969 l 457.031 62.523
 460.27 61.332 462.445 58.789 c 466.047 54.586 l 466.047 54.582 l 467.574
 52.797 468.414 50.508 468.414 48.137 c 468.414 44.758 466.672 41.566 463.867
 39.809 c 431.457 19.488 l 429.465 18.238 427.195 17.59 424.895 17.59 c 
h
388.324 83.141 m 391.27 78.348 l 417.059 35.301 l 417.098 35.238 417.133
 35.176 417.168 35.105 c 420.824 28.152 l 421.508 26.844 422.684 25.934 
424.039 25.66 c 425.129 25.445 426.258 25.656 427.223 26.254 c 459.625 46.574
 l 460.121 46.887 460.43 47.484 460.43 48.137 c 460.43 48.605 460.27 49.055
 459.98 49.391 c 456.383 53.594 l 456.047 53.984 455.57 54.176 455.117 54.094
 c 434.621 50.602 l 432.887 50.305 431.141 51.191 430.363 52.785 c 407.066
 100.457 l 402.102 96.125 l h
388.324 83.141 m f
0.27451 0.443137 0.776471 rg
389.988 130.859 m 386.312 133.016 381.004 135.312 374.398 135.941 c 373.711
 135.98 373.027 136.02 372.34 136.02 c 273.707 136.02 l 272.285 136 271.133
 135.984 270.285 135.977 c 270.285 113.191 l 270.285 100.512 279.652 90.23
 291.211 90.23 c 375.211 90.23 l 377.551 90.23 379.75 88.996 381.117 86.918
 c 383.184 83.777 l 399.477 99.141 l 413.059 110.984 l 397.758 124.672 l
 396.961 125.527 396.125 126.34 395.254 127.109 c 394.824 127.488 394.125
 128.074 393.191 128.762 c h
389.988 130.859 m f
0.215686 0.384314 0.8 rg
383.184 79.785 m 383.027 79.785 382.875 79.793 382.719 79.812 c 381.551
 79.949 380.496 80.602 379.852 81.582 c 377.785 84.719 l 377.16 85.676 376.195
 86.238 375.211 86.238 c 291.211 86.238 l 277.469 86.238 266.293 98.332 
266.293 113.195 c 266.293 135.977 l 266.293 138.164 268.047 139.941 270.234
 139.969 c 273.66 140.012 l 372.34 140.012 l 373.105 140.012 373.879 139.973
 374.648 139.93 c 380.836 139.344 386.637 137.457 392.012 134.305 c 392.07
 134.27 392.129 134.234 392.18 134.199 c 395.379 132.098 l 395.441 132.059
 395.496 132.02 395.555 131.977 c 396.711 131.129 397.52 130.438 397.898
 130.105 c 398.816 129.289 399.703 128.43 400.547 127.535 c 415.723 113.965
 l 416.574 113.199 417.059 112.105 417.051 110.961 c 417.043 109.816 416.547
 108.73 415.684 107.977 c 402.098 96.129 l 385.922 80.879 l 385.176 80.172
 384.199 79.785 383.184 79.785 c h
274.281 132.023 m 274.281 113.191 l 274.281 102.738 281.875 94.223 291.211
 94.223 c 375.211 94.223 l 378.57 94.223 381.746 92.633 383.875 89.918 c
 396.738 102.043 l 407.027 111.02 l 395.094 121.699 l 395.008 121.777 394.922
 121.859 394.844 121.945 c 394.137 122.699 393.379 123.438 392.602 124.125
 c 392.254 124.438 391.676 124.914 390.91 125.48 c 387.887 127.461 l 383.551
 129.988 378.887 131.508 374.023 131.961 c 373.547 131.988 372.945 132.023
 372.34 132.023 c h
274.281 132.023 m f
0.419608 0.866667 0.866667 rg
290.977 90.23 m 335.953 90.23 l 335.953 193.789 l 335.953 208.391 324.117
 220.227 309.516 220.227 c 291.621 220.227 l 279.84 220.227 270.285 210.676
 270.285 198.895 c 270.285 110.918 l 270.285 99.492 279.547 90.23 290.977
 90.23 c h
290.977 90.23 m f
0.976471 0.654902 0.654902 rg
424.941 5.809 m 469.938 34.336 l 472.57 36.004 473.352 39.496 471.68 42.129
 c 471.129 43.004 l 469.457 45.637 465.969 46.418 463.336 44.75 c 412.039
 12.227 l 414.648 8.113 l 416.852 4.633 421.461 3.602 424.941 5.809 c h
424.941 5.809 m f
0.976471 0.811765 0.811765 rg
310.062 309.898 m 328.148 309.898 342.812 295.238 342.812 277.148 c 342.812
 257.926 l 344.402 257.926 l 347.215 257.926 349.488 255.648 349.488 252.84
 c 349.488 250.027 347.215 247.754 344.402 247.754 c 341.918 247.754 l 339.102
 235.629 329.59 226.078 317.457 223.277 c 317.457 218.777 l 314.719 219.703
 311.797 220.227 308.75 220.227 c 292.238 220.227 l 291.062 220.227 289.91
 220.109 288.785 219.93 c 288.785 230.297 l 281.762 236.301 277.309 245.219
 277.309 255.18 c 277.309 277.148 l 277.309 295.238 291.973 309.898 310.062
 309.898 c h
310.062 309.898 m f
0.976471 0.654902 0.654902 rg
225.781 217.375 m 262.656 217.375 l 266.871 217.375 270.285 213.957 270.285
 209.742 c 270.285 150.496 l 265.43 146.75 261.02 142.465 257.156 137.711
 c 257.156 204.238 l 225.781 204.238 l 222.156 204.238 219.211 207.18 219.211
 210.809 c 219.211 214.434 222.152 217.375 225.781 217.375 c h
225.781 217.375 m f
0.215686 0.384314 0.8 rg
257.152 133.719 m 256.707 133.719 256.254 133.793 255.816 133.949 c 254.223
 134.512 253.156 136.02 253.156 137.711 c 253.156 200.246 l 225.781 200.246
 l 219.957 200.246 215.219 204.984 215.219 210.809 c 215.219 216.629 219.957
 221.367 225.781 221.367 c 262.656 221.367 l 269.066 221.367 274.281 216.152
 274.281 209.746 c 274.281 150.496 l 274.281 149.254 273.703 148.09 272.723
 147.332 c 268.105 143.773 263.91 139.691 260.25 135.195 c 259.48 134.238
 258.332 133.719 257.152 133.719 c h
225.781 213.383 m 224.363 213.383 223.207 212.227 223.207 210.809 c 223.207
 209.387 224.359 208.234 225.781 208.234 c 257.156 208.234 l 259.359 208.234
 261.148 206.441 261.148 204.238 c 261.148 147.906 l 262.797 149.48 264.52
 150.988 266.293 152.43 c 266.293 209.742 l 266.293 211.746 264.664 213.383
 262.656 213.383 c h
270.285 150.496 m 270.305 150.496 l h
270.285 150.496 m f
335.953 86.234 m 290.977 86.234 l 277.363 86.234 266.293 97.309 266.293
 110.918 c 266.293 198.891 l 266.293 212.855 277.656 224.219 291.625 224.219
 c 309.516 224.219 l 326.297 224.219 339.949 210.566 339.949 193.789 c 339.949
 90.23 l 339.945 88.027 338.16 86.234 335.953 86.234 c h
291.621 216.23 m 282.059 216.23 274.281 208.453 274.281 198.891 c 274.281
 110.918 l 274.281 101.711 281.766 94.223 290.973 94.223 c 331.957 94.223
 l 331.957 193.789 l 331.957 206.164 321.891 216.23 309.512 216.23 c h
291.621 216.23 m f
1 0.917647 0.572549 rg
391.992 82.832 m 391.992 39.289 356.691 3.996 313.152 3.996 c 269.617 3.996
 234.316 39.289 234.316 82.832 c 234.316 126.371 269.617 161.664 313.152
 161.664 c 356.691 161.664 391.992 126.371 391.992 82.832 c h
391.992 82.832 m f
0.215686 0.384314 0.8 rg
313.156 0 m 267.484 0 230.328 37.16 230.328 82.832 c 230.328 128.5 267.484
 165.656 313.156 165.656 c 358.824 165.656 395.984 128.5 395.984 82.832 
c 395.984 37.16 358.824 0 313.156 0 c h
313.156 157.672 m 271.891 157.672 238.316 124.102 238.316 82.832 c 238.316
 41.559 271.887 7.988 313.156 7.988 c 354.426 7.988 387.996 41.559 387.996
 82.832 c 387.996 124.102 354.422 157.672 313.156 157.672 c h
313.156 157.672 m f
0.643137 0.788235 1 rg
374.281 82.832 m 374.281 49.07 346.914 21.699 313.152 21.699 c 279.391 
21.699 252.027 49.07 252.027 82.832 c 252.027 116.59 279.391 143.957 313.152
 143.957 c 346.914 143.957 374.281 116.59 374.281 82.832 c h
374.281 82.832 m f
0.976471 0.811765 0.811765 rg
316.562 256.973 m 316.562 250.57 311.371 245.375 304.969 245.375 c 298.562
 245.375 293.375 250.57 293.375 256.973 c 293.375 263.379 298.562 268.57
 304.969 268.57 c 311.371 268.57 316.562 263.379 316.562 256.973 c h
316.562 256.973 m f
0.215686 0.384314 0.8 rg
317.457 214.785 m 317.027 214.785 316.594 214.852 316.176 214.992 c 313.746
 215.816 311.246 216.23 308.75 216.23 c 292.238 216.23 l 291.387 216.23 
290.465 216.148 289.41 215.98 c 288.258 215.801 287.078 216.129 286.191 
216.887 c 285.305 217.648 284.789 218.754 284.789 219.926 c 284.789 228.516
 l 277.477 235.445 273.316 245.059 273.316 255.18 c 273.316 277.148 l 273.316
 297.41 289.801 313.895 310.059 313.895 c 330.32 313.895 346.801 297.41 
346.801 277.148 c 346.801 261.594 l 350.648 260.543 353.484 257.012 353.484
 252.84 c 353.484 248.016 349.699 244.059 344.949 243.777 c 341.316 232.699
 332.5 223.871 321.449 220.25 c 321.449 218.777 l 321.449 217.488 320.828
 216.281 319.785 215.535 c 319.098 215.039 318.281 214.785 317.457 214.785
 c h
292.777 224.219 m 308.75 224.219 l 310.34 224.219 311.93 224.094 313.504
 223.844 c 313.734 225.461 314.934 226.793 316.559 227.168 c 327.137 229.613
 335.562 238.047 338.027 248.656 c 338.449 250.465 340.059 251.746 341.914
 251.746 c 344.402 251.746 l 345.004 251.746 345.496 252.234 345.496 252.836
 c 345.496 253.438 345.004 253.93 344.402 253.93 c 342.809 253.93 l 340.605
 253.93 338.816 255.719 338.816 257.922 c 338.816 277.145 l 338.816 293 
325.918 305.902 310.059 305.902 c 294.203 305.902 281.305 293 281.305 277.145
 c 281.305 255.176 l 281.305 246.77 284.977 238.805 291.379 233.32 c 292.266
 232.566 292.777 231.457 292.777 230.289 c h
292.777 224.219 m f
0.878431 0.921569 0.988235 rg
271.438 299.652 m 271.441 299.648 l 277.281 308.574 287.723 314.52 299.633
 314.52 c 302.168 314.52 304.223 312.578 304.223 310.18 c 304.223 309.27
 l 304.223 310.34 304.551 311.34 305.113 312.168 c 305.113 312.168 305.27
 312.488 305.734 312.926 c 306.352 313.551 307.121 314.023 307.988 314.289
 c 309.199 314.77 310.895 315.176 313.23 315.273 c 313.246 315.273 l 315.672
 315.379 318.785 315.148 322.785 314.344 c 325.695 314.023 328.473 313.281
 331.059 312.176 c 331.066 312.172 331.074 312.172 331.086 312.168 c 331.082
 312.164 l 332.551 311.543 333.953 310.793 335.277 309.941 c 335.855 309.594
 336.148 309.371 336.148 309.367 c 343.609 304.223 348.488 295.707 348.488
 286.066 c 348.488 275.641 l 348.488 275.156 348.09 274.762 347.598 274.762
 c 304.219 274.762 l 304.219 243.629 l 298.988 232.953 l 298.84 232.652 
298.527 232.461 298.188 232.461 c 284.598 232.461 l 283.227 232.461 281.875
 232.656 280.586 233.023 c 280.547 233.039 279.172 233.625 278.609 234.52
 c 277.289 236.633 274.184 241.609 271.355 246.16 c 267.16 252.906 264.773
 260.613 264.586 268.523 c 264.074 290.188 271.438 299.652 271.438 299.652
 c h
271.438 299.652 m f
0.215686 0.384314 0.8 rg
420.969 0.66 m 417.172 0.66 413.457 2.539 411.277 5.977 c 408.668 10.09
 l 407.484 11.953 408.039 14.418 409.902 15.602 c 461.199 48.121 l 463.371
 49.504 465.953 49.953 468.465 49.391 c 470.977 48.824 473.121 47.32 474.5
 45.145 c 475.055 44.27 l 477.902 39.777 476.562 33.809 472.078 30.961 c
 427.082 2.434 l 425.184 1.234 423.062 0.66 420.969 0.66 c h
424.941 5.809 m 424.961 5.809 l h
417.551 10.996 m 418.02 10.254 l 419.039 8.641 421.184 8.16 422.801 9.18
 c 467.797 37.711 l 468.566 38.195 468.797 39.219 468.309 39.992 c 467.754
 40.863 l 467.434 41.367 466.965 41.539 466.719 41.594 c 466.465 41.652 
465.973 41.695 465.473 41.379 c h
417.551 10.996 m f
313.156 17.707 m 277.246 17.707 248.031 46.922 248.031 82.828 c 248.031
 118.734 277.246 147.949 313.156 147.949 c 349.062 147.949 378.277 118.734
 378.277 82.828 c 378.277 46.922 349.062 17.707 313.156 17.707 c h
313.156 139.965 m 281.652 139.965 256.02 114.336 256.02 82.832 c 256.02
 51.324 281.652 25.695 313.156 25.695 c 344.66 25.695 370.293 51.324 370.293
 82.832 c 370.293 114.336 344.656 139.965 313.156 139.965 c h
313.156 139.965 m f
0.878431 0.921569 0.988235 rg
344.332 82.832 m 344.332 65.609 330.375 51.652 313.156 51.652 c 295.938
 51.652 281.977 65.609 281.977 82.832 c 281.977 100.051 295.938 114.008 
313.156 114.008 c 330.375 114.008 344.332 100.051 344.332 82.832 c h
344.332 82.832 m f
0.976471 0.811765 0.811765 rg
382.805 138.539 m 367.867 143.25 l 297.5 161.84 l 297.504 161.84 297.504
 161.84 297.504 161.844 c 315.398 184.746 l 315.488 184.859 315.562 184.984
 315.629 185.109 c 372.477 162.859 l 389.199 163.305 l 389.797 163.32 390.391
 163.242 390.969 163.078 c 395.25 161.848 l 398.047 161.043 399.824 158.305
 399.422 155.426 c 397.781 143.777 l 397.398 141.07 395.18 138.98 392.449
 138.773 c 385.441 138.234 l 384.551 138.172 383.656 138.273 382.805 138.539
 c h
382.805 138.539 m f
0.215686 0.384314 0.8 rg
384.902 134.219 m 383.781 134.219 382.676 134.391 381.605 134.73 c 366.668
 139.438 l 296.48 157.98 l 295.008 158.367 293.887 159.562 293.59 161.055
 c 293.352 162.234 293.664 163.438 294.395 164.352 c 312.172 187.098 l 313.172
 188.762 315.277 189.539 317.09 188.832 c 373.176 166.875 l 389.094 167.301
 l 390.102 167.32 391.105 167.199 392.074 166.918 c 396.355 165.684 l 401.035
 164.34 404.051 159.691 403.375 154.867 c 401.738 143.223 l 401.102 138.691
 397.32 135.141 392.75 134.789 c 385.746 134.254 l 385.461 134.23 385.18
 134.219 384.902 134.219 c h
304.379 164.152 m 368.887 147.105 l 384.008 142.348 l 384.371 142.234 384.75
 142.191 385.133 142.219 c 392.145 142.758 l 392.996 142.824 393.707 143.488
 393.828 144.336 c 395.465 155.98 l 395.59 156.887 395.023 157.758 394.148
 158.012 c 389.863 159.242 l 389.68 159.297 389.492 159.32 389.305 159.316
 c 372.586 158.867 l 372.051 158.848 371.52 158.949 371.02 159.145 c 316.992
 180.293 l h
304.379 164.152 m f
0.878431 0.921569 0.988235 rg
412.039 12.227 m 422.441 18.82 l 390.676 68.562 l 389.68 63.105 388.129
 57.844 386.07 52.844 c 413.844 9.355 l 413.855 9.367 l h
412.039 12.227 m f
0.215686 0.384314 0.8 rg
413.848 5.367 m 413.57 5.367 413.301 5.395 413.027 5.449 c 411.977 5.672
 411.055 6.305 410.477 7.203 c 382.703 50.688 l 382.008 51.785 381.887 53.156
 382.383 54.359 c 384.344 59.129 385.812 64.148 386.75 69.273 c 387.047 
70.891 388.297 72.156 389.906 72.477 c 391.52 72.793 393.156 72.09 394.047
 70.707 c 425.812 20.973 l 426.379 20.074 426.57 18.988 426.34 17.953 c 
426.109 16.914 425.48 16.016 424.582 15.449 c 417.516 10.969 l 418.285 9.219
 417.707 7.129 416.074 6.039 c 415.41 5.598 414.629 5.367 413.848 5.367 
c h
390.535 53.27 m 413.242 17.719 l 416.918 20.051 l 392.34 58.531 l 391.801
 56.758 391.199 55 390.535 53.27 c h
390.535 53.27 m f
319.531 233.551 m 318.688 233.551 317.902 234.09 317.633 234.938 c 315.508
 241.48 322.016 248.516 322.293 248.812 c 323.043 249.613 324.309 249.652
 325.109 248.902 c 325.914 248.148 325.957 246.887 325.203 246.082 c 323.762
 244.535 320.27 239.738 321.43 236.168 c 321.77 235.121 321.195 233.992 
320.145 233.648 c 319.941 233.586 319.734 233.551 319.531 233.551 c h
319.531 233.551 m f
298.191 228.461 m 284.602 228.461 l 282.875 228.461 281.152 228.707 279.484
 229.188 c 279.336 229.227 279.199 229.277 279.062 229.332 c 278.453 229.586
 276.379 230.551 275.227 232.398 c 273.906 234.516 270.793 239.496 267.965
 244.047 c 263.348 251.473 260.797 259.902 260.594 268.426 c 260.074 290.223
 267.254 300.707 268.195 301.988 c 275.047 312.34 286.789 318.516 299.633
 318.516 c 301.438 318.516 303.121 317.973 304.5 317.043 c 305.16 317.461
 305.883 317.809 306.648 318.055 c 308.438 318.75 310.57 319.156 312.996
 319.266 c 313.035 319.266 313.078 319.27 313.117 319.27 c 316.098 319.387
 319.551 319.059 323.402 318.293 c 326.551 317.926 329.613 317.125 332.512
 315.898 c 332.566 315.879 332.613 315.859 332.664 315.84 c 334.301 315.133
 335.902 314.289 337.426 313.312 c 337.922 313.008 338.258 312.777 338.488
 312.605 c 347.254 306.527 352.484 296.613 352.484 286.066 c 352.484 275.641
 l 352.484 272.957 350.293 270.773 347.602 270.773 c 308.215 270.773 l 308.215
 243.629 l 308.215 243.02 308.078 242.418 307.809 241.871 c 302.578 231.195
 l 301.762 229.535 300.043 228.461 298.191 228.461 c h
281.992 236.781 m 282.848 236.562 283.727 236.449 284.602 236.449 c 296.258
 236.449 l 300.23 244.555 l 300.23 274.762 l 300.23 276.969 302.02 278.754
 304.223 278.754 c 344.496 278.754 l 344.496 286.066 l 344.496 294.016 340.531
 301.5 333.883 306.082 c 333.836 306.113 333.789 306.148 333.742 306.184
 c 333.676 306.23 333.492 306.359 333.195 306.539 c 331.973 307.32 330.75
 307.965 329.516 308.496 c 329.504 308.5 329.5 308.504 329.492 308.508 c
 327.227 309.477 324.824 310.102 322.352 310.371 c 322.234 310.387 322.113
 310.402 321.996 310.426 c 318.684 311.098 315.801 311.383 313.41 311.289
 c 313.348 311.285 313.277 311.281 313.215 311.285 c 311.383 311.199 310.156
 310.855 309.473 310.582 c 309.367 310.543 309.258 310.504 309.148 310.469
 c 308.934 310.402 308.734 310.281 308.57 310.117 c 308.449 309.992 308.539
 310.098 308.68 310.379 c 308.602 310.227 308.516 310.082 308.422 309.938
 c 308.285 309.734 308.215 309.512 308.215 309.27 c 308.215 307.066 306.426
 305.273 304.223 305.273 c 302.02 305.273 300.23 307.066 300.23 309.27 c
 300.23 310.18 l 300.23 310.305 300.004 310.527 299.633 310.527 c 289.43
 310.527 280.137 305.645 274.777 297.461 c 274.711 297.359 274.641 297.262
 274.566 297.168 c 273.996 296.344 268.129 287.441 268.582 268.617 c 268.75
 261.52 270.879 254.477 274.746 248.266 c 277.473 243.879 280.465 239.094
 281.852 236.867 c 281.895 236.836 281.941 236.805 281.992 236.781 c h
308.684 310.387 m 308.684 310.387 308.68 310.383 308.68 310.383 c 308.68
 310.383 308.684 310.387 308.684 310.387 c h
308.688 310.395 m 308.688 310.391 308.684 310.391 308.684 310.387 c 308.684
 310.391 308.688 310.391 308.688 310.395 c h
308.691 310.402 m 308.691 310.398 308.688 310.398 308.688 310.395 c 308.688
 310.398 308.691 310.398 308.691 310.402 c h
308.695 310.41 m 308.695 310.406 308.691 310.406 308.691 310.402 c 308.691
 310.406 308.695 310.406 308.695 310.41 c h
308.695 310.41 m f
0.976471 0.811765 0.811765 rg
316.562 256.973 m 316.562 250.57 311.371 245.375 304.969 245.375 c 298.562
 245.375 293.375 250.57 293.375 256.973 c 293.375 263.379 298.562 268.57
 304.969 268.57 c 311.371 268.57 316.562 263.379 316.562 256.973 c h
316.562 256.973 m f
0.419608 0.866667 0.866667 rg
329.84 182.484 m 297.801 158.734 l 275.297 189.086 l 268.742 197.934 270.594
 210.422 279.441 216.98 c 288.293 223.539 300.785 221.688 307.344 212.836
 c h
329.84 182.484 m f
0.215686 0.384314 0.8 rg
297.805 154.742 m 296.578 154.742 295.375 155.301 294.59 156.355 c 272.09
 186.707 l 264.23 197.309 266.465 212.332 277.066 220.191 c 287.668 228.051
 302.691 225.816 310.547 215.219 c 333.051 184.863 l 334.367 183.094 333.996
 180.59 332.219 179.277 c 300.18 155.527 l 299.461 154.996 298.629 154.742
 297.805 154.742 c h
291.297 216.906 m 288 216.906 284.668 215.887 281.82 213.773 c 274.754 
208.539 273.27 198.531 278.508 191.465 c 298.625 164.32 l 324.254 183.316
 l 304.129 210.461 l 301.004 214.676 296.184 216.906 291.297 216.906 c h
291.297 216.906 m f
333.613 259.305 m 332.512 259.305 331.617 260.199 331.617 261.305 c 331.617
 263.551 329.785 265.379 327.539 265.379 c 325.293 265.379 323.465 263.551
 323.465 261.305 c 323.465 260.199 322.57 259.305 321.469 259.305 c 320.367
 259.305 319.473 260.199 319.473 261.305 c 319.473 265.75 323.094 269.371
 327.539 269.371 c 331.992 269.371 335.609 265.75 335.609 261.305 c 335.609
 260.199 334.715 259.305 333.613 259.305 c h
333.613 259.305 m f
336.789 234.137 m 331.633 234.137 327.434 237.754 327.434 242.207 c 327.434
 243.305 328.328 244.203 329.434 244.203 c 330.531 244.203 331.43 243.305
 331.43 242.207 c 331.43 239.957 333.832 238.129 336.789 238.129 c 337.887
 238.129 338.785 237.234 338.785 236.133 c 338.785 235.031 337.887 234.137
 336.789 234.137 c h
336.789 234.137 m f
Q Q
showpage
%%Trailer
end restore
%%EOF
