%!PS-Adobe-3.0 EPSF-3.0
%%Creator: cairo 1.14.8 (http://cairographics.org)
%%CreationDate: Wed Mar 20 09:06:38 2019
%%Pages: 1
%%DocumentData: Clean7Bit
%%LanguageLevel: 2
%%BoundingBox: 19 0 464 483
%%EndComments
%%BeginProlog
save
50 dict begin
/q { gsave } bind def
/Q { grestore } bind def
/cm { 6 array astore concat } bind def
/w { setlinewidth } bind def
/J { setlinecap } bind def
/j { setlinejoin } bind def
/M { setmiterlimit } bind def
/d { setdash } bind def
/m { moveto } bind def
/l { lineto } bind def
/c { curveto } bind def
/h { closepath } bind def
/re { exch dup neg 3 1 roll 5 3 roll moveto 0 rlineto
      0 exch rlineto 0 rlineto closepath } bind def
/S { stroke } bind def
/f { fill } bind def
/f* { eofill } bind def
/n { newpath } bind def
/W { clip } bind def
/W* { eoclip } bind def
/BT { } bind def
/ET { } bind def
/pdfmark where { pop globaldict /?pdfmark /exec load put }
    { globaldict begin /?pdfmark /pop load def /pdfmark
    /cleartomark load def end } ifelse
/BDC { mark 3 1 roll /BDC pdfmark } bind def
/EMC { mark /EMC pdfmark } bind def
/cairo_store_point { /cairo_point_y exch def /cairo_point_x exch def } def
/Tj { show currentpoint cairo_store_point } bind def
/TJ {
  {
    dup
    type /stringtype eq
    { show } { -0.001 mul 0 cairo_font_matrix dtransform rmoveto } ifelse
  } forall
  currentpoint cairo_store_point
} bind def
/cairo_selectfont { cairo_font_matrix aload pop pop pop 0 0 6 array astore
    cairo_font exch selectfont cairo_point_x cairo_point_y moveto } bind def
/Tf { pop /cairo_font exch def /cairo_font_matrix where
      { pop cairo_selectfont } if } bind def
/Td { matrix translate cairo_font_matrix matrix concatmatrix dup
      /cairo_font_matrix exch def dup 4 get exch 5 get cairo_store_point
      /cairo_font where { pop cairo_selectfont } if } bind def
/Tm { 2 copy 8 2 roll 6 array astore /cairo_font_matrix exch def
      cairo_store_point /cairo_font where { pop cairo_selectfont } if } bind def
/g { setgray } bind def
/rg { setrgbcolor } bind def
/d1 { setcachedevice } bind def
%%EndProlog
%%BeginSetup
%%EndSetup
%%Page: 1 1
%%BeginPageSetup
%%PageBoundingBox: 19 0 464 483
%%EndPageSetup
q 19 0 445 483 rectclip q
0.643137 0.788235 1 rg
272.887 191.996 m 77.609 191.996 l 77.609 354.238 l 77.609 371.012 91.207
 384.617 107.988 384.617 c 242.508 384.617 l 259.281 384.617 272.887 371.012
 272.887 354.238 c h
272.887 191.996 m f
0.878431 0.921569 0.988235 rg
68.164 103.762 m 79.34 103.762 l 80.578 103.762 81.73 103.434 82.754 102.898
 c 82.754 240.059 l 64.75 240.059 l 64.75 102.898 l 65.781 103.43 66.934
 103.762 68.164 103.762 c h
68.164 103.762 m f
0.215686 0.384314 0.8 rg
64.754 98.902 m 64.035 98.902 63.312 99.094 62.684 99.48 c 61.488 100.203
 60.758 101.5 60.758 102.898 c 60.758 240.059 l 60.758 242.266 62.551 244.055
 64.754 244.055 c 82.758 244.055 l 84.965 244.055 86.754 242.266 86.754 
240.059 c 86.754 102.898 l 86.754 101.5 86.027 100.207 84.832 99.48 c 83.637
 98.758 82.152 98.707 80.914 99.352 c 80.387 99.629 79.859 99.766 79.344
 99.766 c 68.164 99.766 l 67.648 99.766 67.125 99.629 66.602 99.355 c 66.02
 99.051 65.387 98.902 64.754 98.902 c h
68.75 107.758 m 78.762 107.758 l 78.762 236.062 l 68.75 236.062 l h
68.75 107.758 m f
0.878431 0.921569 0.988235 rg
271.172 103.762 m 282.344 103.762 l 283.582 103.762 284.734 103.434 285.758
 102.898 c 285.758 240.059 l 267.758 240.059 l 267.758 102.898 l 268.785
 103.43 269.938 103.762 271.172 103.762 c h
271.172 103.762 m f
0.215686 0.384314 0.8 rg
285.758 98.902 m 285.133 98.902 284.496 99.051 283.914 99.355 c 283.391
 99.629 282.859 99.766 282.344 99.766 c 271.172 99.766 l 270.656 99.766 
270.129 99.629 269.602 99.352 c 268.363 98.711 266.875 98.758 265.684 99.48
 c 264.488 100.207 263.762 101.5 263.762 102.898 c 263.762 240.059 l 263.762
 242.266 265.551 244.055 267.758 244.055 c 285.758 244.055 l 287.969 244.055
 289.754 242.266 289.754 240.059 c 289.754 102.898 l 289.754 101.5 289.027
 100.203 287.832 99.48 c 287.199 99.094 286.48 98.902 285.758 98.902 c h
271.754 107.758 m 281.766 107.758 l 281.766 236.062 l 271.754 236.062 l
 h
271.754 107.758 m f
272.887 188 m 77.609 188 l 75.398 188 73.613 189.785 73.613 191.996 c 73.613
 354.238 l 73.613 373.191 89.035 388.613 107.988 388.613 c 242.508 388.613
 l 261.461 388.613 276.879 373.191 276.879 354.238 c 276.879 191.996 l 276.883
 189.785 275.09 188 272.887 188 c h
81.605 195.992 m 268.887 195.992 l 268.887 354.238 l 268.887 368.781 257.051
 380.621 242.508 380.621 c 107.988 380.621 l 93.441 380.621 81.605 368.781
 81.605 354.238 c h
81.605 195.992 m f
0.643137 0.788235 1 rg
263.656 144.379 m 85.793 144.379 l 80.984 144.379 77.086 148.277 77.086
 153.086 c 77.086 183.285 l 77.086 188.094 80.984 191.992 85.793 191.992
 c 263.656 191.992 l 268.465 191.992 272.363 188.094 272.363 183.285 c 272.363
 153.086 l 272.363 148.277 268.465 144.379 263.656 144.379 c h
263.656 144.379 m f
0.27451 0.443137 0.776471 rg
96.105 240.059 m 51.406 240.059 l 49.348 240.059 47.684 241.73 47.684 243.785
 c 47.684 266.137 l 47.684 268.191 49.348 269.859 51.406 269.859 c 96.105
 269.859 l 98.16 269.859 99.828 268.191 99.828 266.137 c 99.828 243.785 
l 99.828 241.727 98.16 240.059 96.105 240.059 c h
96.105 240.059 m f
299.109 240.059 m 254.414 240.059 l 252.352 240.059 250.688 241.73 250.688
 243.785 c 250.688 266.137 l 250.688 268.191 252.355 269.859 254.414 269.859
 c 299.109 269.859 l 301.164 269.859 302.832 268.191 302.832 266.137 c 302.832
 243.785 l 302.832 241.727 301.164 240.059 299.109 240.059 c h
299.109 240.059 m f
0.878431 0.921569 0.988235 rg
86.789 63.719 176.934 -18.625 re f
1 0.917647 0.572549 rg
79.34 5.055 m 68.164 5.055 l 64.051 5.055 60.715 8.387 60.715 12.504 c 
60.715 96.312 l 60.715 100.426 64.051 103.762 68.164 103.762 c 79.34 103.762
 l 83.453 103.762 86.789 100.43 86.789 96.312 c 86.789 12.504 l 86.789 8.387
 83.453 5.055 79.34 5.055 c h
79.34 5.055 m f
282.344 5.055 m 271.172 5.055 l 267.059 5.055 263.719 8.387 263.719 12.504
 c 263.719 96.312 l 263.719 100.426 267.055 103.762 271.172 103.762 c 282.344
 103.762 l 286.461 103.762 289.797 100.43 289.797 96.312 c 289.797 12.504
 l 289.797 8.387 286.461 5.055 282.344 5.055 c h
282.344 5.055 m f
321.457 5.055 m 306.559 5.055 l 303.477 5.055 300.969 7.555 300.969 10.637
 c 300.969 213.176 l 300.969 216.266 303.473 218.766 306.559 218.766 c 321.457
 218.766 l 324.543 218.766 327.047 216.266 327.047 213.176 c 327.047 10.637
 l 327.047 7.555 324.543 5.055 321.457 5.055 c h
321.457 5.055 m f
43.957 5.055 m 29.055 5.055 l 25.973 5.055 23.469 7.555 23.469 10.637 c
 23.469 213.176 l 23.469 216.266 25.973 218.766 29.055 218.766 c 43.957 
218.766 l 47.043 218.766 49.543 216.266 49.543 213.176 c 49.543 10.637 l
 49.543 7.555 47.043 5.055 43.957 5.055 c h
43.957 5.055 m f
0.878431 0.921569 0.988235 rg
285.758 122.387 15.211 -18.625 re f
49.543 122.387 15.207 -18.625 re f
0.215686 0.384314 0.8 rg
263.652 140.383 m 85.793 140.383 l 78.785 140.383 73.09 146.082 73.09 153.086
 c 73.09 183.285 l 73.09 190.289 78.789 195.988 85.793 195.988 c 263.652
 195.988 l 270.656 195.988 276.355 190.285 276.355 183.285 c 276.355 153.086
 l 276.359 146.082 270.656 140.383 263.652 140.383 c h
85.793 188 m 83.191 188 81.082 185.883 81.082 183.285 c 81.082 153.09 l
 81.082 150.488 83.195 148.375 85.793 148.375 c 263.652 148.375 l 266.254
 148.375 268.363 150.492 268.363 153.09 c 268.363 183.285 l 268.363 185.887
 266.254 188 263.652 188 c h
85.793 188 m f
96.105 236.062 m 51.406 236.062 l 47.148 236.062 43.688 239.523 43.688 
243.781 c 43.688 266.137 l 43.688 270.391 47.148 273.855 51.406 273.855 
c 96.105 273.855 l 100.363 273.855 103.824 270.391 103.824 266.137 c 103.824
 243.781 l 103.824 239.527 100.363 236.062 96.105 236.062 c h
51.676 244.055 m 95.836 244.055 l 95.836 265.863 l 51.676 265.863 l h
51.676 244.055 m f
299.109 236.062 m 254.414 236.062 l 250.152 236.062 246.691 239.523 246.691
 243.781 c 246.691 266.137 l 246.691 270.391 250.152 273.855 254.414 273.855
 c 299.109 273.855 l 303.367 273.855 306.828 270.391 306.828 266.137 c 306.828
 243.781 l 306.828 239.527 303.367 236.062 299.109 236.062 c h
254.684 244.055 m 298.836 244.055 l 298.836 265.863 l 254.684 265.863 l
 h
254.684 244.055 m f
300.969 99.766 m 285.758 99.766 l 283.555 99.766 281.766 101.555 281.766
 103.762 c 281.766 122.387 l 281.766 124.59 283.555 126.383 285.758 126.383
 c 300.969 126.383 l 303.176 126.383 304.965 124.59 304.965 122.387 c 304.965
 103.762 l 304.965 101.551 303.18 99.766 300.969 99.766 c h
289.754 107.758 m 296.977 107.758 l 296.977 118.391 l 289.754 118.391 l
 h
289.754 107.758 m f
64.75 99.766 m 49.543 99.766 l 47.34 99.766 45.547 101.555 45.547 103.762
 c 45.547 122.387 l 45.547 124.59 47.34 126.383 49.543 126.383 c 64.75 126.383
 l 66.961 126.383 68.746 124.59 68.746 122.387 c 68.746 103.762 l 68.746
 101.551 66.961 99.766 64.75 99.766 c h
53.539 107.758 m 60.754 107.758 l 60.754 118.391 l 53.539 118.391 l h
53.539 107.758 m f
321.457 1.055 m 306.559 1.055 l 301.273 1.055 296.977 5.355 296.977 10.637
 c 296.977 213.176 l 296.977 218.465 301.273 222.762 306.559 222.762 c 321.457
 222.762 l 326.742 222.762 331.043 218.465 331.043 213.176 c 331.043 10.637
 l 331.043 5.359 326.742 1.055 321.457 1.055 c h
306.559 214.77 m 305.68 214.77 304.965 214.059 304.965 213.176 c 304.965
 10.637 l 304.965 9.762 305.68 9.047 306.559 9.047 c 321.457 9.047 l 322.332
 9.047 323.051 9.758 323.051 10.637 c 323.051 213.176 l 323.051 214.055 
322.336 214.77 321.457 214.77 c h
306.559 214.77 m f
43.957 1.055 m 29.055 1.055 l 23.77 1.055 19.473 5.355 19.473 10.637 c 
19.473 213.176 l 19.473 218.465 23.77 222.762 29.055 222.762 c 43.957 222.762
 l 49.238 222.762 53.539 218.465 53.539 213.176 c 53.539 10.637 l 53.539
 5.359 49.238 1.055 43.957 1.055 c h
29.055 214.77 m 28.18 214.77 27.465 214.059 27.465 213.176 c 27.465 10.637
 l 27.465 9.762 28.18 9.047 29.055 9.047 c 43.957 9.047 l 44.828 9.047 45.547
 9.758 45.547 10.637 c 45.547 213.176 l 45.547 214.055 44.832 214.77 43.957
 214.77 c h
29.055 214.77 m f
79.34 1.055 m 68.164 1.055 l 61.855 1.055 56.719 6.188 56.719 12.504 c 
56.719 96.309 l 56.719 102.621 61.852 107.758 68.164 107.758 c 79.34 107.758
 l 85.652 107.758 90.785 102.621 90.785 96.309 c 90.785 12.504 l 90.785 
6.191 85.656 1.055 79.34 1.055 c h
68.164 99.766 m 66.266 99.766 64.711 98.215 64.711 96.312 c 64.711 12.504
 l 64.711 10.598 66.262 9.051 68.164 9.051 c 79.344 9.051 l 81.25 9.051 
82.797 10.598 82.797 12.504 c 82.797 96.312 l 82.797 98.215 81.25 99.766
 79.344 99.766 c h
68.164 99.766 m f
282.344 1.055 m 271.172 1.055 l 264.859 1.055 259.723 6.188 259.723 12.504
 c 259.723 96.309 l 259.723 102.621 264.859 107.758 271.172 107.758 c 282.344
 107.758 l 288.66 107.758 293.793 102.621 293.793 96.309 c 293.793 12.504
 l 293.793 6.191 288.66 1.055 282.344 1.055 c h
271.172 99.766 m 269.27 99.766 267.715 98.215 267.715 96.312 c 267.715 
12.504 l 267.715 10.598 269.266 9.051 271.172 9.051 c 282.344 9.051 l 284.254
 9.051 285.801 10.598 285.801 12.504 c 285.801 96.312 l 285.801 98.215 284.254
 99.766 282.344 99.766 c h
271.172 99.766 m f
263.723 41.098 m 86.789 41.098 l 84.586 41.098 82.793 42.891 82.793 45.094
 c 82.793 63.715 l 82.793 65.922 84.586 67.711 86.789 67.711 c 263.723 67.711
 l 265.93 67.711 267.719 65.922 267.719 63.715 c 267.719 45.094 l 267.719
 42.891 265.93 41.098 263.723 41.098 c h
90.785 49.09 m 259.727 49.09 l 259.727 59.719 l 90.785 59.719 l h
90.785 49.09 m f
0.419608 0.866667 0.866667 rg
227.523 311.785 m 227.348 311.711 l 227.707 311.168 228.035 310.609 228.336
 310.031 c h
227.523 311.785 m f
243.016 278.516 m 229.199 308.184 l 230.148 305.84 230.695 303.309 230.695
 300.652 c 230.695 209.91 l 240.316 209.91 l 246.816 209.91 252.086 215.18
 252.086 221.676 c 252.086 238.406 l 252.086 252.062 249.02 265.629 243.016
 278.516 c h
243.016 278.516 m f
208.434 321.695 m 142.078 321.695 l 129.785 321.695 119.824 312.277 119.824
 300.656 c 119.824 183.848 l 230.695 183.848 l 230.695 300.656 l 230.695
 312.277 220.727 321.695 208.434 321.695 c h
208.434 321.695 m f
123.195 311.758 m 122.992 311.84 l 121.859 309.414 l 122.254 310.227 122.699
 311.004 123.195 311.758 c h
123.195 311.758 m f
119.82 300.652 m 119.82 303.441 120.406 306.09 121.445 308.523 c 107.5 
278.574 l 101.496 265.684 98.426 252.121 98.426 238.465 c 98.426 221.734
 l 98.426 215.238 103.695 209.969 110.195 209.969 c 119.82 209.969 l h
119.82 300.652 m f
0.215686 0.384314 0.8 rg
121.859 305.418 m 121.281 305.418 120.699 305.543 120.148 305.805 c 118.164
 306.746 117.312 309.109 118.238 311.102 c 119.367 313.527 l 120.27 315.473
 122.547 316.352 124.523 315.535 c 124.73 315.449 l 125.832 314.988 126.672
 314.066 127.02 312.926 c 127.371 311.785 127.191 310.551 126.535 309.551
 c 126.129 308.938 125.766 308.305 125.457 307.668 c 124.762 306.246 123.344
 305.418 121.859 305.418 c h
121.859 305.418 m f
119.82 205.973 m 110.195 205.973 l 101.508 205.973 94.43 213.047 94.43 
221.738 c 94.43 238.465 l 94.43 252.742 97.613 266.809 103.875 280.266 c
 117.82 310.215 l 118.742 312.191 121.078 313.059 123.074 312.18 c 125.062
 311.289 125.977 308.965 125.121 306.961 c 124.254 304.926 123.816 302.805
 123.816 300.656 c 123.816 209.969 l 123.816 207.762 122.027 205.973 119.82
 205.973 c h
115.824 286.988 m 111.121 276.891 l 105.352 264.496 102.422 251.57 102.422
 238.465 c 102.422 221.738 l 102.422 217.453 105.906 213.965 110.195 213.965
 c 115.824 213.965 l h
115.824 286.988 m f
228.34 306.035 m 226.906 306.035 225.523 306.812 224.805 308.164 c 224.559
 308.625 224.293 309.074 224.008 309.512 c 223.355 310.504 223.176 311.738
 223.527 312.875 c 223.875 314.016 224.707 314.941 225.809 315.398 c 227.785
 316.219 230.242 315.414 231.148 313.469 c 231.961 311.719 l 232.875 309.754
 232.059 307.418 230.117 306.453 c 229.547 306.168 228.938 306.035 228.34
 306.035 c h
228.34 306.035 m f
240.316 205.914 m 230.695 205.914 l 228.488 205.914 226.699 207.707 226.699
 209.91 c 226.699 300.652 l 226.699 302.691 226.297 304.715 225.496 306.68
 c 224.684 308.688 225.621 310.98 227.609 311.848 c 229.598 312.711 231.91
 311.836 232.824 309.871 c 246.641 280.203 l 252.902 266.75 256.082 252.688
 256.082 238.406 c 256.082 221.68 l 256.082 212.984 249.008 205.914 240.316
 205.914 c h
234.691 213.906 m 240.312 213.906 l 244.602 213.906 248.09 217.391 248.09
 221.68 c 248.09 238.406 l 248.09 251.512 245.16 264.438 239.395 276.828
 c 239.391 276.828 239.391 276.828 239.391 276.828 c 234.688 286.93 l 234.688
 213.906 l h
234.691 213.906 m f
230.695 179.848 m 119.82 179.848 l 117.613 179.848 115.824 181.641 115.824
 183.844 c 115.824 300.652 l 115.824 314.457 127.602 325.691 142.078 325.691
 c 208.438 325.691 l 222.914 325.691 234.691 314.457 234.691 300.652 c 234.691
 183.844 l 234.691 181.637 232.898 179.848 230.695 179.848 c h
123.816 187.84 m 226.699 187.84 l 226.699 300.652 l 226.699 310.051 218.504
 317.699 208.434 317.699 c 142.078 317.699 l 132.012 317.699 123.816 310.051
 123.816 300.652 c h
123.816 187.84 m f
0.976471 0.811765 0.811765 rg
229.746 399.223 m 229.633 399.223 229.52 399.207 229.406 399.203 c 229.406
 404.277 l 229.406 433.91 205.16 457.938 175.258 457.938 c 145.352 457.938
 121.105 433.91 121.105 404.277 c 121.105 399.203 l 120.992 399.207 120.883
 399.223 120.766 399.223 c 111.645 399.223 104.25 391.891 104.25 382.848
 c 104.25 373.809 111.645 366.477 120.766 366.477 c 121.363 366.477 121.957
 366.512 122.539 366.574 c 128.129 342.84 149.602 325.145 175.258 325.145
 c 200.918 325.145 222.391 342.84 227.977 366.574 c 228.559 366.512 229.148
 366.477 229.746 366.477 c 238.875 366.477 246.27 373.809 246.27 382.848
 c 246.27 391.891 238.875 399.223 229.746 399.223 c h
229.746 399.223 m f
0.215686 0.384314 0.8 rg
175.254 321.148 m 149.191 321.148 126.707 338.004 119.48 362.52 c 108.766
 363.18 100.25 372.047 100.25 382.848 c 100.25 392.844 107.535 401.176 117.109
 402.891 c 117.109 404.277 l 117.109 436.066 143.195 461.93 175.254 461.93
 c 207.316 461.93 233.402 436.066 233.402 404.277 c 233.402 402.895 l 242.98
 401.18 250.266 392.848 250.266 382.852 c 250.266 372.051 241.746 363.184
 231.035 362.52 c 223.809 338.004 201.32 321.148 175.254 321.148 c h
122.543 370.57 m 124.375 370.57 125.996 369.312 126.426 367.492 c 131.742
 344.914 151.816 329.141 175.254 329.141 c 198.688 329.141 218.766 344.914
 224.082 367.492 c 224.543 369.457 226.402 370.762 228.395 370.547 c 228.84
 370.5 229.289 370.473 229.746 370.473 c 236.648 370.473 242.27 376.023 
242.27 382.848 c 242.27 389.652 236.68 395.195 229.801 395.223 c 229.656
 395.215 229.469 395.207 229.402 395.207 c 228.355 395.207 227.355 395.621
 226.605 396.355 c 225.84 397.105 225.406 398.133 225.406 399.203 c 225.406
 404.277 l 225.406 431.66 202.91 453.941 175.254 453.941 c 147.598 453.941
 125.098 431.66 125.098 404.277 c 125.098 399.207 l 125.098 398.133 124.668
 397.105 123.906 396.359 c 123.141 395.605 122.07 395.223 121.031 395.211
 c 120.973 395.211 120.75 395.223 120.688 395.227 c 113.852 395.227 108.238
 389.672 108.238 382.852 c 108.238 376.027 113.855 370.477 120.758 370.477
 c 121.215 370.477 121.664 370.504 122.109 370.551 c 122.258 370.562 122.398
 370.57 122.543 370.57 c h
122.543 370.57 m f
0.27451 0.443137 0.776471 rg
214.102 412.285 m 242.078 412.285 l 244.117 412.285 245.77 413.941 245.77
 415.977 c 245.77 436.559 l 245.77 460 226.766 479.008 203.32 479.008 c 
201.59 479.008 l 195.477 479.008 190.516 474.047 190.516 467.934 c 190.516
 435.871 l 190.516 422.848 201.078 412.285 214.102 412.285 c h
214.102 412.285 m f
157.449 412.285 m 108.781 412.285 l 106.734 412.285 105.074 413.945 105.074
 415.992 c 105.074 432.926 l 105.074 458.375 125.703 479.008 151.156 479.008
 c 179.566 479.008 l 185.676 479.008 190.621 474.055 190.621 467.949 c 190.621
 445.469 l 190.621 427.145 175.77 412.285 157.449 412.285 c h
157.449 412.285 m f
0.215686 0.384314 0.8 rg
242.078 408.289 m 214.102 408.289 l 198.895 408.289 186.52 420.66 186.52
 435.871 c 186.52 467.93 l 186.52 476.238 193.285 483 201.59 483 c 203.32
 483 l 228.93 483 249.766 462.164 249.766 436.559 c 249.766 415.977 l 249.766
 411.738 246.32 408.289 242.078 408.289 c h
201.59 475.008 m 197.688 475.008 194.512 471.832 194.512 467.93 c 194.512
 435.871 l 194.512 425.07 203.301 416.281 214.102 416.281 c 241.777 416.281
 l 241.777 436.559 l 241.777 457.758 224.523 475.008 203.324 475.008 c h
201.59 475.008 m f
157.445 408.289 m 108.781 408.289 l 104.535 408.289 101.082 411.746 101.082
 415.992 c 101.082 432.926 l 101.082 460.539 123.543 483 151.156 483 c 179.566
 483 l 187.867 483 194.621 476.246 194.621 467.945 c 194.621 445.469 l 194.621
 424.965 177.945 408.289 157.445 408.289 c h
109.07 416.281 m 157.445 416.281 l 173.539 416.281 186.625 429.375 186.625
 445.465 c 186.625 467.945 l 186.625 471.84 183.457 475.008 179.566 475.008
 c 151.156 475.008 l 127.953 475.008 109.074 456.129 109.074 432.926 c 109.074
 416.281 l h
109.07 416.281 m f
0.27451 0.443137 0.776471 rg
228.793 412.285 m 229.188 409.672 229.406 407 229.406 404.277 c 229.406
 399.203 l 229.523 399.207 229.633 399.223 229.746 399.223 c 234.027 399.223
 237.91 397.594 240.848 394.953 c 240.848 412.285 l h
228.793 412.285 m f
0.215686 0.384314 0.8 rg
240.848 390.957 m 239.875 390.957 238.922 391.309 238.172 391.984 c 235.848
 394.074 232.859 395.227 229.746 395.227 c 229.723 395.219 229.539 395.211
 229.402 395.211 c 228.355 395.211 227.355 395.621 226.605 396.359 c 225.84
 397.105 225.406 398.133 225.406 399.207 c 225.406 404.277 l 225.406 406.707
 225.215 409.203 224.84 411.691 c 224.664 412.84 225 414.012 225.762 414.895
 c 226.523 415.777 227.629 416.281 228.793 416.281 c 240.848 416.281 l 243.055
 416.281 244.844 414.496 244.844 412.285 c 244.844 394.953 l 244.844 393.371
 243.91 391.945 242.473 391.301 c 241.949 391.066 241.398 390.957 240.848
 390.957 c h
233.402 402.891 m 234.578 402.68 235.734 402.363 236.852 401.949 c 236.852
 408.289 l 233.258 408.289 l 233.355 406.941 233.402 405.602 233.402 404.273
 c h
233.402 402.891 m f
0.27451 0.443137 0.776471 rg
109.996 412.285 m 109.996 395.246 l 112.891 397.719 116.648 399.223 120.762
 399.223 c 120.879 399.223 120.992 399.207 121.105 399.203 c 121.105 404.277
 l 121.105 407 121.324 409.672 121.719 412.285 c h
109.996 412.285 m f
0.215686 0.384314 0.8 rg
109.996 391.25 m 109.426 391.25 108.859 391.375 108.324 391.621 c 106.906
 392.273 106 393.688 106 395.246 c 106 412.285 l 106 414.492 107.789 416.281
 109.996 416.281 c 121.719 416.281 l 122.887 416.281 123.992 415.777 124.75
 414.891 c 125.508 414.012 125.844 412.84 125.672 411.688 c 125.297 409.199
 125.102 406.707 125.102 404.273 c 125.102 399.203 l 125.102 398.133 124.672
 397.105 123.91 396.355 c 123.145 395.602 122.074 395.219 121.035 395.207
 c 120.965 395.211 120.73 395.223 120.66 395.227 c 117.773 395.227 114.871
 394.152 112.594 392.207 c 111.855 391.578 110.93 391.25 109.996 391.25 
c h
113.992 408.289 m 113.992 402.066 l 115.008 402.426 116.051 402.699 117.109
 402.891 c 117.109 404.277 l 117.109 405.602 117.16 406.945 117.254 408.289
 c h
113.992 408.289 m f
187.09 348.762 m 185.438 348.762 184.094 350.105 184.094 351.758 c 184.094
 352.336 181.254 354.68 175.254 354.68 c 169.262 354.68 166.422 352.336 
166.422 351.758 c 166.422 350.105 165.074 348.762 163.422 348.762 c 161.77
 348.762 160.426 350.105 160.426 351.758 c 160.426 356.844 166.797 360.676
 175.254 360.676 c 183.711 360.676 190.086 356.844 190.086 351.758 c 190.086
 350.105 188.746 348.762 187.09 348.762 c h
187.09 348.762 m f
150.266 377.035 m 146.949 377.035 144.246 379.73 144.246 383.047 c 144.246
 393.07 l 144.246 396.391 146.949 399.09 150.266 399.09 c 153.582 399.09
 156.277 396.391 156.277 393.07 c 156.277 383.047 l 156.281 379.734 153.582
 377.035 150.266 377.035 c h
150.266 377.035 m f
200.25 377.035 m 196.934 377.035 194.234 379.73 194.234 383.047 c 194.234
 393.07 l 194.234 396.391 196.934 399.09 200.25 399.09 c 203.566 399.09 
206.262 396.391 206.262 393.07 c 206.262 383.047 l 206.262 379.734 203.566
 377.035 200.25 377.035 c h
200.25 377.035 m f
0.27451 0.443137 0.776471 rg
167.023 91.469 m 113.113 91.469 l 111.598 91.469 110.371 92.699 110.371
 94.211 c 110.371 211.84 l 110.371 220.93 117.742 228.301 126.836 228.301
 c 153.305 228.301 l 162.398 228.301 169.77 220.93 169.77 211.84 c 169.77
 94.211 l 169.77 92.699 168.539 91.469 167.023 91.469 c h
167.023 91.469 m f
0.643137 0.788235 1 rg
157.793 91.469 m 118.633 91.469 l 112.508 79.777 l 111.375 77.617 110.77
 75.098 110.77 72.523 c 110.77 66.773 l 110.77 65.254 111.77 64.027 113 
64.027 c 163.43 64.027 l 164.656 64.027 165.656 65.258 165.656 66.773 c 
165.656 72.523 l 165.656 75.098 165.051 77.617 163.918 79.777 c h
157.793 91.469 m f
0.27451 0.443137 0.776471 rg
237.398 91.469 m 183.488 91.469 l 181.973 91.469 180.746 92.699 180.746
 94.211 c 180.746 211.84 l 180.746 220.93 188.117 228.301 197.211 228.301
 c 223.68 228.301 l 232.77 228.301 240.141 220.93 240.141 211.84 c 240.141
 94.211 l 240.141 92.699 238.914 91.469 237.398 91.469 c h
237.398 91.469 m f
0.643137 0.788235 1 rg
228.164 91.469 m 189.008 91.469 l 182.879 79.777 l 181.75 77.617 181.148
 75.098 181.148 72.523 c 181.148 66.773 l 181.148 65.254 182.141 64.027 
183.371 64.027 c 233.805 64.027 l 235.035 64.027 236.027 65.258 236.027 
66.773 c 236.027 72.523 l 236.027 75.098 235.43 77.617 234.293 79.777 c 
h
228.164 91.469 m f
0.27451 0.443137 0.776471 rg
118.316 235.98 56.938 -52.137 re f
175.258 235.98 56.938 -52.137 re f
0.976471 0.811765 0.811765 rg
175.258 325.145 m 167.902 325.145 160.918 326.641 154.527 329.273 c 154.527
 316.266 l 154.527 313.82 156.621 311.844 159.203 311.844 c 191.309 311.844
 l 193.895 311.844 195.988 313.82 195.988 316.266 c 195.988 329.273 l 189.598
 326.641 182.609 325.145 175.258 325.145 c h
175.258 325.145 m f
0.215686 0.384314 0.8 rg
191.309 307.848 m 159.203 307.848 l 154.422 307.848 150.531 311.625 150.531
 316.266 c 150.531 329.273 l 150.531 330.605 151.195 331.852 152.301 332.594
 c 153.41 333.336 154.816 333.473 156.047 332.969 c 168.367 327.891 182.141
 327.887 194.465 332.969 c 195.699 333.473 197.102 333.336 198.207 332.594
 c 199.32 331.848 199.984 330.605 199.984 329.273 c 199.984 316.266 l 199.984
 311.625 196.094 307.848 191.309 307.848 c h
158.523 323.617 m 158.523 316.266 l 158.523 316.094 158.789 315.84 159.203
 315.84 c 191.309 315.84 l 191.727 315.84 191.992 316.094 191.992 316.266
 c 191.992 323.617 l 181.113 320.34 169.398 320.34 158.523 323.617 c h
158.523 323.617 m f
142.629 394.684 m 138.359 394.684 134.387 395.824 132.895 398.512 c 132.355
 399.477 132.707 400.691 133.672 401.227 c 134.645 401.762 135.855 401.41
 136.391 400.449 c 137.164 399.055 141.926 397.898 147.637 399.27 c 151.629
 400.227 154.012 401.938 154.539 403.129 c 154.684 403.461 154.609 403.59
 154.555 403.688 c 154.02 404.648 154.371 405.867 155.332 406.402 c 156.301
 406.938 157.516 406.59 158.051 405.621 c 158.754 404.359 158.805 402.898
 158.195 401.512 c 157.012 398.828 153.41 396.539 148.566 395.383 c 146.672
 394.934 144.613 394.684 142.629 394.684 c h
142.629 394.684 m f
207.887 394.684 m 205.898 394.684 203.844 394.934 201.945 395.387 c 197.102
 396.543 193.504 398.836 192.32 401.516 c 191.707 402.898 191.762 404.359
 192.461 405.625 c 193 406.594 194.211 406.938 195.176 406.406 c 196.141
 405.871 196.492 404.652 195.957 403.691 c 195.906 403.598 195.832 403.465
 195.977 403.133 c 196.504 401.941 198.883 400.23 202.875 399.273 c 208.582
 397.902 213.348 399.059 214.121 400.453 c 214.656 401.414 215.875 401.762
 216.836 401.23 c 217.801 400.691 218.152 399.48 217.617 398.516 c 216.129
 395.824 212.156 394.684 207.887 394.684 c h
207.887 394.684 m f
0.878431 0.921569 0.988235 rg
138.078 371.465 m 137.293 370.246 136.828 368.793 136.809 367.219 c 136.75
 363.078 139.898 359.539 143.848 359.324 c 148.141 359.086 151.691 362.664
 151.691 367.105 c 151.691 368.723 151.227 370.219 150.422 371.465 c 150.422
 371.469 l 144.871 380.23 l 144.574 380.695 143.922 380.695 143.633 380.23
 c 138.078 371.469 l h
138.078 371.465 m f
0.215686 0.384314 0.8 rg
167.023 87.473 m 113.113 87.473 l 109.398 87.473 106.375 90.496 106.375
 94.211 c 106.375 211.84 l 106.375 223.121 115.555 232.297 126.836 232.297
 c 153.305 232.297 l 164.586 232.297 173.766 223.121 173.766 211.84 c 173.766
 94.211 l 173.766 90.496 170.738 87.473 167.023 87.473 c h
114.367 95.465 m 165.773 95.465 l 165.773 211.84 l 165.773 218.715 160.18
 224.305 153.305 224.305 c 126.836 224.305 l 119.965 224.305 114.367 218.715
 114.367 211.84 c h
114.367 95.465 m f
163.426 60.031 m 113 60.031 l 109.566 60.031 106.777 63.059 106.777 66.773
 c 106.777 72.523 l 106.777 75.75 107.535 78.898 108.973 81.637 c 115.094
 93.328 l 115.785 94.641 117.145 95.465 118.633 95.465 c 157.793 95.465 
l 159.277 95.465 160.641 94.641 161.328 93.328 c 167.453 81.637 l 168.891
 78.895 169.648 75.746 169.648 72.523 c 169.648 66.773 l 169.648 63.059 
166.855 60.031 163.426 60.031 c h
114.77 68.023 m 161.656 68.023 l 161.656 72.523 l 161.656 74.461 161.215
 76.328 160.379 77.93 c 155.371 87.473 l 121.051 87.473 l 116.047 77.926
 l 115.207 76.328 114.766 74.465 114.766 72.523 c 114.766 68.023 l h
114.77 68.023 m f
233.801 60.031 m 183.371 60.031 l 179.941 60.031 177.152 63.059 177.152
 66.773 c 177.152 72.523 l 177.152 75.75 177.914 78.895 179.344 81.637 c
 185.469 93.328 l 186.156 94.641 187.52 95.465 189.008 95.465 c 228.164 
95.465 l 229.652 95.465 231.016 94.641 231.707 93.328 c 237.828 81.637 l
 239.266 78.898 240.023 75.75 240.023 72.523 c 240.023 66.773 l 240.023 
63.059 237.23 60.031 233.801 60.031 c h
185.145 68.023 m 232.031 68.023 l 232.031 72.523 l 232.031 74.465 231.59
 76.328 230.754 77.926 c 225.746 87.473 l 191.426 87.473 l 186.422 77.93
 l 185.586 76.328 185.145 74.465 185.145 72.523 c h
185.145 68.023 m f
237.398 87.473 m 183.488 87.473 l 179.773 87.473 176.75 90.496 176.75 94.211
 c 176.75 211.84 l 176.75 223.121 185.926 232.297 197.207 232.297 c 223.68
 232.297 l 234.961 232.297 244.137 223.121 244.137 211.84 c 244.137 94.211
 l 244.137 90.496 241.117 87.473 237.398 87.473 c h
184.742 95.465 m 236.145 95.465 l 236.145 211.84 l 236.145 218.715 230.551
 224.305 223.68 224.305 c 197.207 224.305 l 190.332 224.305 184.742 218.715
 184.742 211.84 c h
184.742 95.465 m f
0.976471 0.811765 0.811765 rg
158.016 249.422 m 156.551 251.996 153.816 253.59 150.855 253.59 c 129.285
 253.59 l 126.32 253.59 123.59 251.996 122.125 249.422 c 119.391 244.602
 l 118.688 243.359 118.316 241.961 118.316 240.535 c 118.316 234.113 l 118.316
 229.262 122.25 225.332 127.098 225.332 c 153.039 225.332 l 157.891 225.332
 161.82 229.266 161.82 234.113 c 161.82 240.535 l 161.82 241.961 161.453
 243.359 160.746 244.602 c h
158.016 249.422 m f
228.387 249.422 m 226.926 251.996 224.195 253.59 221.227 253.59 c 199.66
 253.59 l 196.695 253.59 193.961 251.996 192.5 249.422 c 189.762 244.602
 l 189.062 243.359 188.691 241.961 188.691 240.535 c 188.691 234.113 l 188.691
 229.262 192.625 225.332 197.473 225.332 c 223.414 225.332 l 228.266 225.332
 232.195 229.266 232.195 234.113 c 232.195 240.535 l 232.195 241.961 231.828
 243.359 231.125 244.602 c h
228.387 249.422 m f
0.215686 0.384314 0.8 rg
153.039 221.336 m 127.102 221.336 l 120.059 221.336 114.32 227.07 114.32
 234.117 c 114.32 240.539 l 114.32 242.648 114.871 244.734 115.914 246.578
 c 118.652 251.391 l 120.812 255.211 124.891 257.586 129.285 257.586 c 150.855
 257.586 l 155.242 257.586 159.316 255.211 161.488 251.391 c 164.219 246.578
 l 165.262 244.742 165.816 242.656 165.816 240.539 c 165.816 234.117 l 165.816
 227.07 160.086 221.336 153.039 221.336 c h
129.285 249.594 m 127.762 249.594 126.352 248.77 125.602 247.449 c 122.863
 242.633 l 122.504 241.996 122.312 241.27 122.312 240.539 c 122.312 234.117
 l 122.312 231.477 124.461 229.328 127.102 229.328 c 153.039 229.328 l 155.676
 229.328 157.824 231.477 157.824 234.117 c 157.824 240.539 l 157.824 241.273
 157.633 241.996 157.277 242.629 c 154.543 247.445 l 153.789 248.77 152.375
 249.594 150.855 249.594 c h
129.285 249.594 m f
223.414 221.336 m 197.473 221.336 l 190.43 221.336 184.699 227.07 184.699
 234.117 c 184.699 240.539 l 184.699 242.652 185.25 244.738 186.285 246.578
 c 189.027 251.391 l 191.191 255.211 195.266 257.586 199.66 257.586 c 221.227
 257.586 l 225.621 257.586 229.695 255.211 231.863 251.391 c 234.598 246.578
 l 235.641 244.734 236.191 242.648 236.191 240.539 c 236.191 234.117 l 236.191
 227.07 230.461 221.336 223.414 221.336 c h
199.66 249.594 m 198.137 249.594 196.727 248.77 195.977 247.445 c 193.242
 242.633 l 192.879 242 192.691 241.273 192.691 240.539 c 192.691 234.117
 l 192.691 231.477 194.836 229.328 197.473 229.328 c 223.414 229.328 l 226.055
 229.328 228.199 231.477 228.199 234.117 c 228.199 240.539 l 228.199 241.27
 228.012 241.996 227.648 242.633 c 224.914 247.445 l 224.164 248.77 222.754
 249.594 221.23 249.594 c h
199.66 249.594 m f
0.976471 0.654902 0.654902 rg
459.496 227.695 m 455.059 229.168 450.672 230.738 450.16 230.926 c 450.16
 230.926 450.16 230.926 450.156 230.926 c 437.242 236.984 428.199 245.047
 428.199 245.047 c 428.207 245.047 l 414.758 256.18 404.961 271.555 400.828
 289.109 c 400.809 289.109 l 399.348 292.891 395.77 290.578 395.77 290.578
 c 390.906 286.156 387.961 284.344 387.961 284.344 c 374.641 275.004 358.41
 269.551 340.902 269.645 c 319.621 269.754 300.309 278.043 285.859 291.492
 c 285.855 291.469 l 280.672 293.688 279.727 288.793 279.727 288.793 c 279.715
 288.793 l 272.715 258.078 248.398 234.031 217.609 227.387 c 217.621 227.379
 l 213.664 224.211 217.047 220.699 217.047 220.699 c 217.031 220.691 l 230.223
 206.133 238.246 186.816 238.141 165.629 c 238.055 148.082 232.402 131.891
 222.902 118.652 c 222.914 118.641 l 222.914 118.641 221.137 115.762 216.547
 110.855 c 216.555 110.852 l 216.555 110.852 214.453 106.691 218.637 104.551
 c 218.613 104.52 l 244.695 98.699 266.035 80.426 276.066 56.25 c 277.125
 53.492 278.02 50.66 278.777 47.766 c 278.789 47.77 l 278.789 47.77 280.438
 43.293 285.246 45.141 c 285.555 45.414 285.859 45.688 286.18 45.965 c 286.188
 45.98 286.191 46 286.199 46.016 c 286.371 46.16 286.555 46.289 286.727 
46.43 c 287.969 47.496 289.238 48.512 290.375 49.309 c 290.375 49.305 l 
293.074 51.344 294.914 52.449 294.914 52.449 c 294.918 52.449 l 297.16 53.887
 300.164 53.055 301.344 50.664 c 318.531 15.977 l 357.719 15.977 l 375.492
 50.969 l 376.723 53.383 379.766 54.234 382.059 52.789 c 384.883 51.02 387.566
 49.055 390.145 46.965 c 390.145 46.965 390.16 46.98 390.16 46.98 c 390.16
 46.98 398.973 41.348 402.414 50.398 c 410.195 75.246 429.57 94.91 454.168
 103.18 c 454.164 103.203 l 463.695 107.086 457.324 117.188 457.324 117.188
 c 447.57 130.691 441.848 147.277 441.934 165.203 c 442.035 185.539 449.59
 204.09 461.984 218.297 c 464.727 221.453 463.465 226.371 459.496 227.695
 c h
459.496 227.695 m f
0.976471 0.811765 0.811765 rg
422.461 193.105 m 415.082 194.023 408.289 188.867 406.484 181.656 c 398.066
 147.961 l 397.531 145.82 395.609 144.316 393.398 144.316 c 390.465 144.316
 388.215 146.922 388.641 149.824 c 398.867 220.059 l 400.113 228.598 393.66
 236.48 384.758 236.695 c 377.324 236.871 371.078 231.059 370.004 223.703
 c 359.051 148.477 l 358.699 146.09 356.652 144.316 354.238 144.316 c 351.551
 144.316 349.375 146.496 349.375 149.18 c 349.375 237.48 l 349.375 246.113
 341.855 252.988 333.012 251.91 c 325.629 251.012 320.289 244.363 320.289
 236.926 c 320.289 149.082 l 320.289 146.453 318.156 144.316 315.527 144.316
 c 313.156 144.316 311.148 146.055 310.809 148.395 c 300.66 218.098 l 299.398
 226.746 290.766 232.5 282.059 229.926 c 275.066 227.863 270.891 220.668
 271.941 213.453 c 282.086 143.816 l 282.086 119.156 l 282.086 116.801 279.285
 115.57 277.555 117.16 c 258.812 134.363 l 250.785 144.531 236.121 146.105
 226.176 137.828 c 223.406 135.523 223.098 131.367 225.332 128.535 c 237.57
 113.039 l 289.297 35.395 l 289.516 35.055 289.738 34.711 289.969 34.379
 c 290.043 34.266 l 290.047 34.27 l 293.398 29.496 297.668 25.41 302.609
 22.285 c 301.707 3.996 l 388.992 3.996 l 388.152 21.016 l 400.414 27.859
 409.047 40.387 410.516 55.039 c 410.52 55.039 l 427.195 144.535 l 434.84
 175.137 l 436.93 183.512 431.305 192.004 422.461 193.105 c h
422.461 193.105 m f
0.215686 0.384314 0.8 rg
388.992 0 m 301.707 0 l 300.613 0 299.566 0.449 298.812 1.242 c 298.059
 2.031 297.66 3.102 297.715 4.195 c 298.504 20.219 l 294 23.391 290.098 
27.277 286.891 31.812 c 286.84 31.883 286.785 31.949 286.738 32.023 c 286.5
 32.371 286.312 32.648 286.129 32.93 c 285.957 33.188 l 234.336 110.688 
l 222.199 126.059 l 218.609 130.602 219.246 137.254 223.621 140.895 c 229.25
 145.582 236.348 147.746 243.582 146.992 c 250.75 146.242 257.184 142.73
 261.746 137.094 c 278.09 122.09 l 278.09 143.531 l 267.988 212.879 l 266.629
 222.199 272.195 231.176 280.93 233.758 c 286.141 235.297 291.73 234.52 
296.262 231.617 c 300.797 228.715 303.84 223.996 304.617 218.672 c 314.77
 148.969 l 314.824 148.594 315.148 148.309 315.531 148.309 c 315.957 148.309
 316.297 148.656 316.297 149.082 c 316.297 236.926 l 316.297 246.609 323.281
 254.754 332.535 255.875 c 337.852 256.52 343.156 254.871 347.125 251.355
 c 351.098 247.836 353.379 242.781 353.379 237.477 c 353.379 149.18 l 353.379
 148.699 353.766 148.309 354.246 148.309 c 354.68 148.309 355.039 148.621
 355.105 149.055 c 366.062 224.273 l 367.434 233.707 375.289 240.691 384.43
 240.691 c 384.57 240.691 384.715 240.691 384.859 240.688 c 390.199 240.559
 395.227 238.164 398.645 234.113 c 402.066 230.059 403.594 224.723 402.828
 219.48 c 392.602 149.246 l 392.555 148.941 392.676 148.723 392.793 148.594
 c 392.902 148.465 393.098 148.309 393.406 148.309 c 393.781 148.309 394.109
 148.562 394.199 148.93 c 402.617 182.617 l 404.965 192.012 413.703 198.238
 422.961 197.07 c 428.266 196.41 433.027 193.52 436.023 189.148 c 439.02
 184.773 440.004 179.312 438.723 174.168 c 431.105 143.68 l 414.469 54.391
 l 412.926 39.738 404.699 26.625 392.27 18.809 c 392.984 4.191 l 393.039
 3.098 392.645 2.031 391.891 1.238 c 391.129 0.449 390.082 0 388.992 0 c
 h
305.902 7.992 m 384.793 7.992 l 384.16 20.824 l 384.086 22.34 384.879 23.77
 386.203 24.508 c 397.637 30.887 405.234 42.445 406.535 55.43 c 406.555 
55.621 406.586 55.805 406.633 55.98 c 423.266 145.266 l 423.281 145.348 
423.297 145.422 423.316 145.5 c 430.961 176.105 l 431.688 179.031 431.133
 182.141 429.422 184.629 c 427.691 187.156 425.043 188.758 421.965 189.145
 c 416.812 189.781 411.711 186.07 410.363 180.684 c 401.945 146.996 l 400.961
 143.066 397.449 140.32 393.398 140.32 c 390.84 140.32 388.414 141.434 386.738
 143.367 c 385.066 145.301 384.316 147.863 384.684 150.398 c 394.91 220.629
 l 395.348 223.617 394.48 226.652 392.535 228.957 c 390.559 231.301 387.762
 232.625 384.664 232.699 c 384.59 232.703 384.512 232.703 384.441 232.703
 c 379.328 232.703 374.75 228.539 373.965 223.129 c 363.008 147.902 l 362.379
 143.582 358.605 140.32 354.242 140.32 c 349.359 140.32 345.383 144.293 
345.383 149.18 c 345.383 237.48 l 345.383 240.496 344.086 243.371 341.828
 245.379 c 339.535 247.406 336.578 248.312 333.496 247.941 c 328.332 247.316
 324.289 242.48 324.289 236.926 c 324.289 149.082 l 324.289 144.25 320.359
 140.316 315.531 140.316 c 311.207 140.316 307.48 143.547 306.859 147.82
 c 296.707 217.52 l 296.262 220.547 294.531 223.234 291.953 224.883 c 289.336
 226.559 286.223 226.988 283.191 226.09 c 278.242 224.629 275.109 219.445
 275.898 214.031 c 286.043 144.391 l 286.07 144.199 286.082 144.008 286.082
 143.816 c 286.082 119.156 l 286.082 116.5 284.512 114.09 282.078 113.02
 c 279.648 111.953 276.809 112.422 274.852 114.219 c 256.113 131.418 l 255.957
 131.562 255.809 131.719 255.68 131.887 c 252.457 135.965 247.863 138.508
 242.758 139.043 c 237.672 139.582 232.691 138.051 228.73 134.754 c 227.66
 133.863 227.543 132.18 228.465 131.012 c 240.707 115.516 l 240.773 115.43
 240.836 115.344 240.895 115.254 c 292.812 37.312 l 292.953 37.098 293.094
 36.879 293.242 36.668 c 293.27 36.633 293.289 36.598 293.316 36.562 c 296.398
 32.18 300.242 28.512 304.746 25.656 c 305.961 24.887 306.672 23.523 306.602
 22.086 c h
305.902 7.992 m f
Q Q
showpage
%%Trailer
end restore
%%EOF
