%!PS-Adobe-3.0 EPSF-3.0
%%Creator: cairo 1.14.8 (http://cairographics.org)
%%CreationDate: Wed Mar 20 09:06:38 2019
%%Pages: 1
%%DocumentData: Clean7Bit
%%LanguageLevel: 2
%%BoundingBox: 8 0 480 488
%%EndComments
%%BeginProlog
save
50 dict begin
/q { gsave } bind def
/Q { grestore } bind def
/cm { 6 array astore concat } bind def
/w { setlinewidth } bind def
/J { setlinecap } bind def
/j { setlinejoin } bind def
/M { setmiterlimit } bind def
/d { setdash } bind def
/m { moveto } bind def
/l { lineto } bind def
/c { curveto } bind def
/h { closepath } bind def
/re { exch dup neg 3 1 roll 5 3 roll moveto 0 rlineto
      0 exch rlineto 0 rlineto closepath } bind def
/S { stroke } bind def
/f { fill } bind def
/f* { eofill } bind def
/n { newpath } bind def
/W { clip } bind def
/W* { eoclip } bind def
/BT { } bind def
/ET { } bind def
/pdfmark where { pop globaldict /?pdfmark /exec load put }
    { globaldict begin /?pdfmark /pop load def /pdfmark
    /cleartomark load def end } ifelse
/BDC { mark 3 1 roll /BDC pdfmark } bind def
/EMC { mark /EMC pdfmark } bind def
/cairo_store_point { /cairo_point_y exch def /cairo_point_x exch def } def
/Tj { show currentpoint cairo_store_point } bind def
/TJ {
  {
    dup
    type /stringtype eq
    { show } { -0.001 mul 0 cairo_font_matrix dtransform rmoveto } ifelse
  } forall
  currentpoint cairo_store_point
} bind def
/cairo_selectfont { cairo_font_matrix aload pop pop pop 0 0 6 array astore
    cairo_font exch selectfont cairo_point_x cairo_point_y moveto } bind def
/Tf { pop /cairo_font exch def /cairo_font_matrix where
      { pop cairo_selectfont } if } bind def
/Td { matrix translate cairo_font_matrix matrix concatmatrix dup
      /cairo_font_matrix exch def dup 4 get exch 5 get cairo_store_point
      /cairo_font where { pop cairo_selectfont } if } bind def
/Tm { 2 copy 8 2 roll 6 array astore /cairo_font_matrix exch def
      cairo_store_point /cairo_font where { pop cairo_selectfont } if } bind def
/g { setgray } bind def
/rg { setrgbcolor } bind def
/d1 { setcachedevice } bind def
%%EndProlog
%%BeginSetup
%%EndSetup
%%Page: 1 1
%%BeginPageSetup
%%PageBoundingBox: 8 0 480 488
%%EndPageSetup
q 8 0 472 488 rectclip q
0.976471 0.654902 0.654902 rg
475.812 345.934 m 475.812 269.688 414 207.871 337.746 207.871 c 261.496
 207.871 199.684 269.688 199.684 345.934 c 199.684 422.184 261.496 484 337.746
 484 c 414 484 475.812 422.184 475.812 345.934 c h
475.812 345.934 m f
0.419608 0.866667 0.866667 rg
448.461 345.605 m 448.461 283.535 398.145 233.223 336.078 233.223 c 274.016
 233.223 223.699 283.535 223.699 345.605 c 223.699 407.668 274.016 457.98
 336.078 457.98 c 398.145 457.98 448.461 407.668 448.461 345.605 c h
448.461 345.605 m f
0.976471 0.654902 0.654902 rg
337.746 207.867 m 332.172 207.867 326.688 208.234 321.289 208.879 c 321.289
 3.996 l 357.266 3.996 l 357.266 209.266 l 350.887 208.367 344.375 207.867
 337.746 207.867 c h
337.746 207.867 m f
0.215686 0.384314 0.8 rg
357.266 0 m 321.289 0 l 319.082 0 317.289 1.793 317.289 3.996 c 317.289
 208.879 l 317.289 210.023 317.777 211.113 318.633 211.871 c 319.488 212.625
 320.625 212.992 321.762 212.848 c 327.328 212.188 332.559 211.871 337.746
 211.871 c 343.957 211.871 350.336 212.324 356.707 213.227 c 357.844 213.391
 359.012 213.047 359.887 212.285 c 360.762 211.531 361.262 210.426 361.262
 209.27 c 361.262 4 l 361.262 1.793 359.473 0 357.266 0 c h
325.285 7.996 m 353.266 7.996 l 353.266 204.738 l 348.047 204.16 342.844
 203.871 337.746 203.871 c 333.652 203.871 329.539 204.059 325.285 204.445
 c h
325.285 7.996 m f
337.746 203.871 m 259.41 203.871 195.68 267.602 195.68 345.934 c 195.68
 424.27 259.41 488 337.746 488 c 416.078 488 479.809 424.27 479.809 345.934
 c 479.809 267.602 416.078 203.871 337.746 203.871 c h
337.746 480.004 m 263.824 480.004 203.676 419.863 203.676 345.934 c 203.676
 272.008 263.824 211.867 337.746 211.867 c 411.672 211.867 471.816 272.008
 471.816 345.934 c 471.816 419.863 411.672 480.004 337.746 480.004 c h
337.746 480.004 m f
337.746 229.555 m 273.574 229.555 221.367 281.762 221.367 345.934 c 221.367
 410.105 273.574 462.312 337.746 462.312 c 401.918 462.312 454.125 410.105
 454.125 345.934 c 454.125 281.762 401.918 229.555 337.746 229.555 c h
337.746 454.316 m 277.984 454.316 229.363 405.695 229.363 345.934 c 229.363
 286.172 277.98 237.551 337.746 237.551 c 397.512 237.551 446.129 286.172
 446.129 345.934 c 446.129 405.695 397.512 454.316 337.746 454.316 c h
337.746 454.316 m f
0.27451 0.443137 0.776471 rg
85.699 4.336 m 77.84 4.336 l 66.164 4.336 56.695 13.801 56.695 25.48 c 
56.695 99.059 l 106.848 99.059 l 106.848 25.48 l 106.844 13.805 97.375 4.336
 85.699 4.336 c h
85.699 4.336 m f
277.93 4.336 m 270.074 4.336 l 258.395 4.336 248.93 13.801 248.93 25.48
 c 248.93 99.059 l 299.078 99.059 l 299.078 25.48 l 299.078 13.805 289.605
 4.336 277.93 4.336 c h
277.93 4.336 m f
0.215686 0.384314 0.8 rg
85.898 0.336 m 78.043 0.336 l 64.176 0.336 52.898 11.613 52.898 25.477 
c 52.898 99.055 l 52.898 101.262 54.691 103.051 56.895 103.051 c 107.043
 103.051 l 109.246 103.051 111.039 101.262 111.039 99.055 c 111.039 25.477
 l 111.039 11.613 99.762 0.336 85.898 0.336 c h
60.895 95.059 m 60.895 25.477 l 60.895 16.023 68.586 8.332 78.043 8.332
 c 85.898 8.332 l 95.355 8.332 103.043 16.023 103.043 25.477 c 103.043 95.059
 l h
60.895 95.059 m f
278.129 0.336 m 270.27 0.336 l 256.406 0.336 245.129 11.613 245.129 25.477
 c 245.129 99.055 l 245.129 101.262 246.918 103.051 249.125 103.051 c 299.273
 103.051 l 301.48 103.051 303.273 101.262 303.273 99.055 c 303.273 25.477
 l 303.273 11.613 291.996 0.336 278.129 0.336 c h
253.121 95.059 m 253.121 25.477 l 253.121 16.023 260.816 8.332 270.27 8.332
 c 278.129 8.332 l 287.586 8.332 295.277 16.023 295.277 25.477 c 295.277
 95.059 l h
253.121 95.059 m f
0.27451 0.443137 0.776471 rg
301.859 138.059 m 51.121 138.059 l 80.598 216.664 l 85.492 229.711 97.965
 238.355 111.902 238.355 c 241.082 238.355 l 255.02 238.355 267.492 229.711
 272.383 216.664 c h
301.859 138.059 m f
316.359 60.059 m 36.629 60.059 l 27.707 60.059 20.477 67.285 20.477 76.207
 c 20.477 121.914 l 20.477 130.832 27.707 138.062 36.629 138.062 c 316.359
 138.062 l 325.273 138.062 332.508 130.832 332.508 121.914 c 332.508 76.207
 l 332.508 67.285 325.273 60.059 316.359 60.059 c h
316.359 60.059 m f
1 0.917647 0.572549 rg
104.055 109.234 m 104.055 96.926 94.078 86.949 81.77 86.949 c 69.461 86.949
 59.484 96.926 59.484 109.234 c 59.484 121.543 69.461 131.52 81.77 131.52
 c 94.078 131.52 104.055 121.543 104.055 109.234 c h
104.055 109.234 m f
296.285 109.234 m 296.285 96.926 286.309 86.949 274 86.949 c 261.691 86.949
 251.715 96.926 251.715 109.234 c 251.715 121.543 261.691 131.52 274 131.52
 c 286.309 131.52 296.285 121.543 296.285 109.234 c h
296.285 109.234 m f
0.866667 0.627451 0.45098 rg
227.184 95.309 m 128.59 95.309 l 123.504 95.309 119.379 99.43 119.379 104.516
 c 119.379 113.957 l 119.379 119.043 123.504 123.168 128.59 123.168 c 227.184
 123.168 l 232.27 123.168 236.391 119.043 236.391 113.957 c 236.391 104.516
 l 236.391 99.43 232.27 95.309 227.184 95.309 c h
227.184 95.309 m f
0.878431 0.921569 0.988235 rg
75.246 154.777 m 96.25 210.797 l 98.684 217.285 104.973 221.641 111.902
 221.641 c 241.082 221.641 l 248.012 221.641 254.301 217.285 256.734 210.797
 c 277.738 154.777 l h
75.246 154.777 m f
0.215686 0.384314 0.8 rg
302.062 134.059 m 51.324 134.059 l 50.012 134.059 48.785 134.703 48.039
 135.781 c 47.289 136.855 47.121 138.23 47.582 139.461 c 77.059 218.062 
l 82.504 232.59 96.586 242.348 112.105 242.348 c 241.281 242.348 l 256.797
 242.348 270.879 232.59 276.328 218.062 c 305.805 139.461 l 306.262 138.23
 306.094 136.855 305.344 135.781 c 304.602 134.703 303.371 134.059 302.062
 134.059 c h
57.09 142.055 m 296.293 142.055 l 268.844 215.254 l 264.555 226.68 253.48
 234.355 241.281 234.355 c 112.105 234.355 l 99.902 234.355 88.828 226.68
 84.539 215.254 c h
57.09 142.055 m f
316.559 56.051 m 36.828 56.051 l 25.719 56.051 16.68 65.09 16.68 76.199
 c 16.68 121.906 l 16.68 133.016 25.719 142.055 36.828 142.055 c 316.559
 142.055 l 327.668 142.055 336.703 133.02 336.703 121.906 c 336.703 76.199
 l 336.703 65.09 327.668 56.051 316.559 56.051 c h
36.828 134.059 m 30.125 134.059 24.676 128.609 24.676 121.906 c 24.676 
76.199 l 24.676 69.496 30.129 64.047 36.828 64.047 c 316.559 64.047 l 323.258
 64.047 328.707 69.5 328.707 76.199 c 328.707 121.906 l 328.707 128.609 
323.254 134.059 316.559 134.059 c h
36.828 134.059 m f
0.976471 0.811765 0.811765 rg
332.508 44.73 m 20.477 44.73 l 15.859 44.73 12.121 48.477 12.121 53.09 
c 12.121 69.809 l 12.121 74.422 15.859 78.168 20.477 78.168 c 332.508 78.168
 l 337.125 78.168 340.863 74.422 340.863 69.809 c 340.863 53.09 l 340.863
 48.477 337.121 44.73 332.508 44.73 c h
332.508 44.73 m f
0.215686 0.384314 0.8 rg
332.707 40.73 m 20.676 40.73 l 13.867 40.73 8.324 46.273 8.324 53.086 c
 8.324 69.801 l 8.324 76.617 13.867 82.156 20.676 82.156 c 332.707 82.156
 l 339.523 82.156 345.062 76.617 345.062 69.801 c 345.062 53.086 l 345.062
 46.273 339.523 40.73 332.707 40.73 c h
20.676 74.16 m 18.273 74.16 16.316 72.207 16.316 69.801 c 16.316 53.086
 l 16.316 50.68 18.273 48.727 20.676 48.727 c 332.707 48.727 l 335.109 48.727
 337.066 50.68 337.066 53.086 c 337.066 69.801 l 337.066 72.207 335.109 
74.16 332.707 74.16 c h
20.676 74.16 m f
0.643137 0.788235 1 rg
201.566 189.176 m 156.992 189.176 l 153.914 189.176 151.418 191.672 151.418
 194.746 c 151.418 205.895 l 151.418 208.973 153.914 211.469 156.992 211.469
 c 201.566 211.469 l 204.645 211.469 207.137 208.973 207.137 205.895 c 207.137
 194.746 l 207.137 191.672 204.645 189.176 201.566 189.176 c h
201.566 189.176 m f
0.27451 0.443137 0.776471 rg
179.277 200.32 m 176.199 200.32 173.703 202.816 173.703 205.895 c 173.703
 222.613 l 184.848 222.613 l 184.848 205.895 l 184.848 202.816 182.355 200.32
 179.277 200.32 c h
179.277 200.32 m f
1 0.917647 0.572549 rg
272.457 389.41 m 294.141 389.41 l 296.617 389.41 298.625 387.398 298.625
 384.926 c 298.625 350.086 l 295.77 347.883 293.18 345.367 290.902 342.566
 c 290.902 381.688 l 272.453 381.688 l 270.32 381.688 268.594 383.418 268.594
 385.551 c 268.598 387.68 270.324 389.41 272.457 389.41 c h
272.457 389.41 m f
0.27451 0.443137 0.776471 rg
394.66 297.633 m 406.91 299.715 l 407.996 299.898 409.098 299.492 409.828
 298.637 c 411.945 296.164 l 412.477 295.539 412.773 294.734 412.773 293.898
 c 412.773 292.707 412.176 291.602 411.199 290.992 c 392.148 279.043 l 391.074
 278.367 389.797 278.133 388.562 278.383 c 387.074 278.684 385.793 279.664
 385.059 281.059 c 382.914 285.145 l 382.266 286.375 382.574 287.914 383.637
 288.77 c h
394.66 297.633 m f
358.625 345.57 m 362.539 345.57 366.371 344.398 369.715 342.176 c 372.812
 340.121 375.383 337.242 377.191 333.809 c 396.758 299.492 l 397.148 298.809
 397.004 297.91 396.418 297.418 c 384.004 286.949 l 383.348 286.398 382.406
 286.566 381.945 287.316 c 365.562 314.008 l 363.789 316.699 l 362.988 317.922
 361.695 318.648 360.316 318.648 c 310.922 318.648 l 304.133 318.648 298.625
 324.691 298.625 332.148 c 298.625 345.57 l h
358.625 345.57 m f
310.793 318.648 m 337.234 318.648 l 337.234 379.539 l 337.234 388.121 330.277
 395.082 321.691 395.082 c 311.168 395.082 l 304.242 395.082 298.625 389.465
 298.625 382.535 c 298.625 330.812 l 298.625 324.094 304.07 318.648 310.793
 318.648 c h
310.793 318.648 m f
1 0.917647 0.572549 rg
417.039 294.359 m 416.711 294.875 l 415.73 296.426 413.68 296.887 412.129
 295.902 c 381.969 276.781 l 383.504 274.363 l 384.801 272.316 387.512 271.711
 389.555 273.008 c 416.012 289.781 l 417.562 290.766 418.02 292.816 417.039
 294.359 c h
417.039 294.359 m f
369.41 309.906 m 368.824 306.695 367.914 303.605 366.703 300.66 c 383.031
 275.094 l 383.039 275.098 l 381.973 276.777 l 388.09 280.66 l h
369.41 309.906 m f
370.184 314.297 m 370.184 288.695 349.43 267.945 323.828 267.945 c 298.23
 267.945 277.477 288.695 277.477 314.297 c 277.477 339.895 298.23 360.648
 323.828 360.648 c 349.43 360.648 370.184 339.895 370.184 314.297 c h
370.184 314.297 m f
0.27451 0.443137 0.776471 rg
359.773 314.297 m 359.773 294.445 343.68 278.355 323.828 278.355 c 303.98
 278.355 287.887 294.445 287.887 314.297 c 287.887 334.145 303.98 350.238
 323.828 350.238 c 343.68 350.238 359.773 334.145 359.773 314.297 c h
359.773 314.297 m f
1 0.917647 0.572549 rg
323.828 294.344 m 312.828 294.344 303.879 303.297 303.879 314.297 c 303.879
 325.301 312.828 334.246 323.828 334.246 c 334.828 334.246 343.785 325.297
 343.785 314.297 c 343.785 303.297 334.832 294.344 323.828 294.344 c h
323.828 294.344 m f
0.27451 0.443137 0.776471 rg
317.75 391.602 m 307.816 391.602 299.762 399.652 299.762 409.586 c 299.762
 420.383 l 299.762 430.316 307.816 438.371 317.75 438.371 c 327.688 438.371
 335.738 430.316 335.738 420.383 c 335.738 409.586 l 335.738 399.652 327.684
 391.602 317.75 391.602 c h
317.75 391.602 m f
Q Q
showpage
%%Trailer
end restore
%%EOF
