%!PS-Adobe-3.0 EPSF-3.0
%%Creator: cairo 1.14.8 (http://cairographics.org)
%%CreationDate: Wed Mar 20 09:06:38 2019
%%Pages: 1
%%DocumentData: Clean7Bit
%%LanguageLevel: 2
%%BoundingBox: 0 0 488 488
%%EndComments
%%BeginProlog
save
50 dict begin
/q { gsave } bind def
/Q { grestore } bind def
/cm { 6 array astore concat } bind def
/w { setlinewidth } bind def
/J { setlinecap } bind def
/j { setlinejoin } bind def
/M { setmiterlimit } bind def
/d { setdash } bind def
/m { moveto } bind def
/l { lineto } bind def
/c { curveto } bind def
/h { closepath } bind def
/re { exch dup neg 3 1 roll 5 3 roll moveto 0 rlineto
      0 exch rlineto 0 rlineto closepath } bind def
/S { stroke } bind def
/f { fill } bind def
/f* { eofill } bind def
/n { newpath } bind def
/W { clip } bind def
/W* { eoclip } bind def
/BT { } bind def
/ET { } bind def
/pdfmark where { pop globaldict /?pdfmark /exec load put }
    { globaldict begin /?pdfmark /pop load def /pdfmark
    /cleartomark load def end } ifelse
/BDC { mark 3 1 roll /BDC pdfmark } bind def
/EMC { mark /EMC pdfmark } bind def
/cairo_store_point { /cairo_point_y exch def /cairo_point_x exch def } def
/Tj { show currentpoint cairo_store_point } bind def
/TJ {
  {
    dup
    type /stringtype eq
    { show } { -0.001 mul 0 cairo_font_matrix dtransform rmoveto } ifelse
  } forall
  currentpoint cairo_store_point
} bind def
/cairo_selectfont { cairo_font_matrix aload pop pop pop 0 0 6 array astore
    cairo_font exch selectfont cairo_point_x cairo_point_y moveto } bind def
/Tf { pop /cairo_font exch def /cairo_font_matrix where
      { pop cairo_selectfont } if } bind def
/Td { matrix translate cairo_font_matrix matrix concatmatrix dup
      /cairo_font_matrix exch def dup 4 get exch 5 get cairo_store_point
      /cairo_font where { pop cairo_selectfont } if } bind def
/Tm { 2 copy 8 2 roll 6 array astore /cairo_font_matrix exch def
      cairo_store_point /cairo_font where { pop cairo_selectfont } if } bind def
/g { setgray } bind def
/rg { setrgbcolor } bind def
/d1 { setcachedevice } bind def
%%EndProlog
%%BeginSetup
%%EndSetup
%%Page: 1 1
%%BeginPageSetup
%%PageBoundingBox: 0 0 488 488
%%EndPageSetup
q 0 0 488 488 rectclip q
0.419608 0.866667 0.866667 rg
287 278.305 m 391.5 278.305 l 394.812 278.305 397.5 275.617 397.5 272.305
 c 397.5 258.305 l 281 258.305 l 281 272.305 l 281 275.617 283.688 278.305
 287 278.305 c h
287 278.305 m f
0.215686 0.384314 0.8 rg
397.5 254.305 m 281 254.305 l 278.793 254.305 277 256.094 277 258.305 c
 277 272.305 l 277 277.816 281.484 282.305 287 282.305 c 391.5 282.305 l
 397.016 282.305 401.5 277.816 401.5 272.305 c 401.5 258.305 l 401.5 256.094
 399.707 254.305 397.5 254.305 c h
285 262.305 m 393.5 262.305 l 393.5 272.305 l 393.5 273.406 392.605 274.305
 391.5 274.305 c 287 274.305 l 285.895 274.305 285 273.406 285 272.305 c
 h
285 262.305 m f
0.878431 0.921569 0.988235 rg
114.613 137.074 m 183.945 137.074 l 183.945 296.699 l 183.945 319.207 165.699
 337.453 143.191 337.453 c 115.613 337.453 l 97.449 337.453 82.723 322.727
 82.723 304.562 c 82.723 168.961 l 82.727 151.352 97.004 137.074 114.613
 137.074 c h
114.613 137.074 m f
0.215686 0.384314 0.8 rg
183.945 133.074 m 114.613 133.074 l 94.824 133.074 78.727 149.176 78.727
 168.961 c 78.727 304.566 l 78.727 324.906 95.273 341.453 115.613 341.453
 c 143.191 341.453 l 167.871 341.453 187.945 321.375 187.945 296.699 c 187.945
 137.074 l 187.945 134.867 186.152 133.074 183.945 133.074 c h
115.613 333.453 m 99.688 333.453 86.727 320.492 86.727 304.566 c 86.727
 168.961 l 86.727 153.586 99.234 141.074 114.613 141.074 c 179.945 141.074
 l 179.945 296.699 l 179.945 316.965 163.457 333.453 143.191 333.453 c h
115.613 333.453 m f
0.976471 0.654902 0.654902 rg
192.539 275.43 m 191.852 288.371 189.184 301.152 184.609 313.406 c 182.707
 327.938 l 182.367 330.512 180.047 332.484 177.223 332.59 c 164.832 333.055
 l 164.832 324.238 l 173.18 313.406 l 174.398 229.844 l 174.434 227.727 
175.391 225.707 177.062 224.246 c 189.109 213.719 l 189.832 213.09 190.789
 212.738 191.785 212.738 c 194.004 212.738 195.77 214.441 195.66 216.477
 c h
192.539 275.43 m f
0.215686 0.384314 0.8 rg
191.785 208.742 m 189.816 208.742 187.934 209.441 186.477 210.711 c 174.43
 221.238 l 171.918 223.434 170.449 226.551 170.398 229.789 c 169.199 312.02
 l 161.664 321.801 l 161.125 322.5 160.832 323.359 160.832 324.242 c 160.832
 333.059 l 160.832 334.148 161.273 335.184 162.059 335.938 c 162.84 336.691
 163.902 337.086 164.98 337.059 c 177.375 336.59 l 182.172 336.406 186.078
 332.988 186.672 328.461 c 188.516 314.379 l 193.137 301.871 195.832 288.844
 196.531 275.648 c 199.656 216.691 l 199.766 214.66 199.039 212.719 197.613
 211.215 c 196.125 209.641 194 208.742 191.785 208.742 c h
168.836 325.602 m 176.352 315.848 l 176.875 315.164 177.168 314.328 177.184
 313.469 c 178.402 229.906 l 178.418 228.918 178.879 227.98 179.699 227.262
 c 191.641 216.828 l 188.547 275.223 l 187.883 287.758 185.297 300.133 180.867
 312.012 c 180.762 312.297 180.688 312.59 180.648 312.891 c 178.742 327.422
 l 178.66 328.047 177.93 328.562 177.074 328.594 c 168.836 328.906 l h
168.836 325.602 m f
0.976471 0.654902 0.654902 rg
321.113 6.941 m 390.473 50.918 l 394.531 53.492 395.734 58.867 393.16 62.926
 c 392.305 64.281 l 389.73 68.34 384.355 69.543 380.297 66.969 c 301.227
 16.84 l 305.246 10.5 l 308.648 5.137 315.75 3.543 321.113 6.941 c h
321.113 6.941 m f
0.976471 0.811765 0.811765 rg
144.035 475.676 m 171.914 475.676 194.516 453.074 194.516 425.195 c 194.516
 395.566 l 196.973 395.566 l 201.301 395.566 204.812 392.055 204.812 387.727
 c 204.812 383.395 201.301 379.887 196.973 379.887 c 193.141 379.887 l 188.797
 361.199 174.133 346.477 155.434 342.16 c 155.434 335.219 l 151.215 336.645
 146.711 337.453 142.012 337.453 c 116.562 337.453 l 114.746 337.453 112.977
 337.27 111.234 336.992 c 111.234 352.973 l 100.414 362.23 93.551 375.977
 93.551 391.332 c 93.551 425.195 l 93.551 453.074 116.152 475.676 144.035
 475.676 c h
144.035 475.676 m f
0.976471 0.654902 0.654902 rg
14.121 333.059 m 70.965 333.059 l 77.461 333.059 82.727 327.793 82.727 
321.297 c 82.727 229.969 l 75.238 224.199 68.441 217.59 62.48 210.262 c 
62.48 312.812 l 14.121 312.812 l 8.531 312.812 4 317.344 4 322.934 c 4 328.523
 8.531 333.059 14.121 333.059 c h
14.121 333.059 m f
0.215686 0.384314 0.8 rg
62.48 206.262 m 62.031 206.262 61.578 206.336 61.141 206.492 c 59.547 207.059
 58.48 208.57 58.48 210.262 c 58.48 308.812 l 14.121 308.812 l 6.336 308.812
 0 315.148 0 322.934 c 0 330.723 6.336 337.059 14.121 337.059 c 70.965 337.059
 l 79.656 337.059 86.727 329.988 86.727 321.301 c 86.727 229.969 l 86.727
 228.727 86.148 227.555 85.164 226.797 c 77.91 221.211 71.324 214.801 65.586
 207.742 c 64.809 206.785 63.66 206.262 62.48 206.262 c h
14.121 329.059 m 10.746 329.059 8 326.312 8 322.934 c 8 319.559 10.746 
316.812 14.121 316.812 c 62.48 316.812 l 64.691 316.812 66.48 315.02 66.48
 312.812 c 66.48 220.793 l 70.309 224.754 74.402 228.473 78.727 231.914 
c 78.727 321.297 l 78.727 325.578 75.242 329.059 70.965 329.059 c h
82.727 229.965 m 82.746 229.965 l h
82.727 229.965 m f
176.059 395.152 m 178.629 395.152 180.715 397.238 180.715 399.809 c 180.715
 407.57 l 180.715 410.141 178.629 412.227 176.059 412.227 c 173.484 412.227
 171.402 410.141 171.402 407.57 c 171.402 399.809 l 171.402 397.238 173.484
 395.152 176.059 395.152 c h
176.059 395.152 m f
0.643137 0.788235 1 rg
334.484 81.973 m 366.598 87.438 l 369.445 87.922 372.328 86.855 374.254
 84.605 c 379.805 78.125 l 381.199 76.492 381.969 74.379 381.969 72.188 
c 381.969 69.062 380.402 66.168 377.848 64.566 c 327.895 33.246 l 325.074
 31.477 321.73 30.859 318.504 31.508 c 314.598 32.297 311.23 34.867 309.312
 38.52 c 303.684 49.238 l 301.988 52.465 302.797 56.504 305.586 58.742 c
 h
334.484 81.973 m f
0.215686 0.384314 0.8 rg
321.039 27.258 m 319.934 27.258 318.82 27.367 317.715 27.59 c 312.609 28.621
 308.258 31.926 305.77 36.66 c 300.141 47.379 l 297.547 52.316 298.781 58.41
 303.078 61.863 c 331.98 85.086 l 332.512 85.516 333.141 85.797 333.812 
85.914 c 365.93 91.383 l 370.188 92.105 374.438 90.547 377.293 87.207 c 
382.844 80.723 l 384.863 78.363 385.969 75.332 385.969 72.188 c 385.969 
67.715 383.672 63.492 379.973 61.172 c 330.02 29.855 l 327.289 28.145 324.188
 27.258 321.039 27.258 c h
336.18 78.203 m 308.09 55.629 l 306.789 54.582 306.414 52.637 307.223 51.098
 c 312.852 40.383 l 314.215 37.789 316.562 35.984 319.297 35.43 c 321.516
 34.984 323.816 35.41 325.77 36.637 c 375.719 67.953 l 377.105 68.824 377.969
 70.445 377.969 72.188 c 377.969 73.43 377.539 74.613 376.762 75.523 c 371.211
 82.004 l 370.203 83.188 368.723 83.738 367.27 83.496 c h
336.18 78.203 m f
0.27451 0.443137 0.776471 rg
240.031 207.652 m 250.277 207.652 260.332 204.574 269.105 198.754 c 277.219
 193.371 283.961 185.82 288.699 176.809 c 339.988 86.852 l 341.012 85.055
 340.625 82.699 339.094 81.41 c 306.551 53.965 l 304.836 52.52 302.367 52.961
 301.16 54.93 c 258.207 124.91 l 253.562 131.965 l 251.449 135.176 248.062
 137.074 244.453 137.074 c 114.973 137.074 l 97.164 137.074 82.727 152.922
 82.727 172.473 c 82.727 207.652 l h
240.031 207.652 m f
0.215686 0.384314 0.8 rg
304.266 49.117 m 303.875 49.117 303.48 49.148 303.094 49.211 c 300.898 
49.562 298.953 50.883 297.754 52.836 c 254.801 122.82 l 250.223 129.766 
l 248.859 131.84 246.703 133.074 244.453 133.074 c 114.973 133.074 l 94.984
 133.074 78.727 150.75 78.727 172.473 c 78.727 207.652 l 78.727 209.859 
80.52 211.652 82.727 211.652 c 240.031 211.652 l 251.066 211.652 261.883
 208.344 271.312 202.09 c 279.965 196.348 287.199 188.25 292.238 178.672
 c 343.465 88.832 l 345.434 85.375 344.664 80.871 341.672 78.348 c 309.129
 50.906 l 307.746 49.742 306.023 49.117 304.266 49.117 c h
86.727 203.652 m 86.727 172.473 l 86.727 155.16 99.398 141.074 114.973 
141.074 c 244.457 141.074 l 249.402 141.074 254.059 138.492 256.906 134.164
 c 261.551 127.113 l 304.367 57.355 l 336.516 84.469 l 336.555 84.52 336.59
 84.734 336.516 84.871 c 285.223 174.828 l 280.742 183.344 274.426 190.426
 266.891 195.426 c 258.773 200.809 249.484 203.652 240.027 203.652 c h
86.727 203.652 m f
1 0.917647 0.572549 rg
270.32 125.664 m 270.32 58.551 215.914 4.145 148.801 4.145 c 81.688 4.145
 27.281 58.551 27.281 125.664 c 27.281 192.777 81.688 247.184 148.801 247.184
 c 215.914 247.184 270.32 192.777 270.32 125.664 c h
270.32 125.664 m f
0.215686 0.384314 0.8 rg
148.801 0.145 m 79.59 0.145 23.281 56.453 23.281 125.664 c 23.281 194.879
 79.59 251.184 148.801 251.184 c 218.016 251.184 274.32 194.879 274.32 125.664
 c 274.32 56.453 218.016 0.145 148.801 0.145 c h
148.801 243.184 m 84.004 243.184 31.281 190.469 31.281 125.664 c 31.281
 60.863 84.004 8.145 148.801 8.145 c 213.602 8.145 266.32 60.863 266.32 
125.664 c 266.32 190.469 213.605 243.184 148.801 243.184 c h
148.801 243.184 m f
0.643137 0.788235 1 rg
243.027 125.664 m 243.027 73.625 200.84 31.438 148.801 31.438 c 96.762 
31.438 54.574 73.625 54.574 125.664 c 54.574 177.703 96.762 219.891 148.801
 219.891 c 200.84 219.891 243.027 177.703 243.027 125.664 c h
243.027 125.664 m f
0.976471 0.811765 0.811765 rg
154.051 394.094 m 154.051 384.227 146.051 376.223 136.18 376.223 c 126.309
 376.223 118.309 384.227 118.309 394.094 c 118.309 403.965 126.309 411.969
 136.18 411.969 c 146.051 411.969 154.051 403.965 154.051 394.094 c h
154.051 394.094 m f
0.215686 0.384314 0.8 rg
155.434 331.219 m 155.004 331.219 154.57 331.289 154.152 331.43 c 150.184
 332.77 146.102 333.453 142.012 333.453 c 116.562 333.453 l 115.141 333.453
 113.605 333.316 111.859 333.043 c 110.707 332.855 109.527 333.191 108.637
 333.953 c 107.746 334.711 107.234 335.824 107.234 336.992 c 107.234 351.172
 l 95.973 361.492 89.551 376.023 89.551 391.332 c 89.551 425.199 l 89.551
 455.238 113.992 479.676 144.035 479.676 c 174.074 479.676 198.516 455.238
 198.516 425.199 c 198.516 399.469 l 204.316 398.707 208.812 393.734 208.812
 387.727 c 208.812 381.199 203.5 375.887 196.973 375.887 c 196.219 375.887
 l 191 358.273 177.008 344.27 159.438 339.078 c 159.438 335.223 l 159.438
 333.93 158.812 332.723 157.77 331.973 c 157.078 331.477 156.262 331.219
 155.434 331.219 c h
116.562 341.453 m 142.012 341.453 l 145.172 341.453 148.32 341.117 151.434
 340.457 c 151.434 342.16 l 151.434 344.023 152.719 345.637 154.535 346.055
 c 171.633 350.004 185.258 363.641 189.242 380.793 c 189.664 382.602 191.277
 383.887 193.137 383.887 c 196.969 383.887 l 199.09 383.887 200.809 385.605
 200.809 387.727 c 200.809 389.844 199.09 391.566 196.969 391.566 c 194.516
 391.566 l 192.305 391.566 190.516 393.355 190.516 395.566 c 190.516 425.199
 l 190.516 450.824 169.66 471.676 144.031 471.676 c 118.402 471.676 97.551
 450.824 97.551 425.199 c 97.551 391.332 l 97.551 377.742 103.484 364.871
 113.836 356.012 c 114.723 355.25 115.234 354.141 115.234 352.973 c 115.234
 341.426 l 115.688 341.441 116.129 341.453 116.562 341.453 c h
116.562 341.453 m f
0.27451 0.443137 0.776471 rg
84.5 459.883 m 84.504 459.875 l 93.508 473.637 109.602 482.805 127.961 
482.805 c 131.867 482.805 135.031 479.809 135.031 476.113 c 135.031 474.711
 l 135.031 476.363 135.539 477.898 136.402 479.18 c 136.398 479.18 l 136.398
 479.18 136.645 479.676 137.363 480.348 c 138.312 481.309 139.496 482.043
 140.828 482.449 c 142.699 483.199 145.312 483.816 148.914 483.969 c 148.938
 483.969 l 152.676 484.125 157.477 483.773 163.641 482.527 c 168.125 482.039
 172.41 480.895 176.391 479.191 c 176.438 479.18 l 176.434 479.172 l 178.695
 478.207 180.855 477.055 182.902 475.746 c 183.793 475.203 184.238 474.863
 184.242 474.859 c 195.742 466.926 203.266 453.805 203.266 438.941 c 203.266
 422.867 l 203.266 422.121 202.648 421.516 201.891 421.516 c 135.035 421.516
 l 135.035 373.523 l 126.969 357.066 l 126.742 356.602 126.262 356.305 125.734
 356.305 c 104.789 356.305 l 102.672 356.305 100.59 356.605 98.605 357.176
 c 98.543 357.203 96.418 358.098 95.555 359.477 c 93.523 362.734 88.73 370.406
 84.371 377.418 c 77.902 387.82 74.227 399.703 73.938 411.891 c 73.145 445.293
 84.5 459.883 84.5 459.883 c h
84.5 459.883 m f
0.215686 0.384314 0.8 rg
125.734 352.305 m 104.793 352.305 l 102.332 352.305 99.879 352.652 97.504
 353.336 c 97.359 353.379 97.219 353.426 97.078 353.48 c 96.52 353.711 93.648
 354.988 92.164 357.359 c 90.129 360.621 85.336 368.293 80.977 375.309 c
 74.062 386.426 70.246 399.047 69.941 411.797 c 69.145 445.344 80.254 460.895
 81.285 462.258 c 91.445 477.637 108.875 486.805 127.961 486.805 c 130.84
 486.805 133.461 485.738 135.43 483.996 c 136.59 484.957 137.992 485.734
 139.5 486.215 c 142.062 487.219 145.152 487.805 148.684 487.957 c 148.77
 487.965 148.855 487.965 148.941 487.965 c 153.234 488.141 158.438 487.648
 164.266 486.48 c 168.949 485.949 173.512 484.754 177.824 482.93 c 177.832
 482.926 177.84 482.926 177.844 482.922 c 177.965 482.879 178.078 482.828
 178.191 482.773 c 180.555 481.746 182.863 480.52 185.059 479.117 c 185.66
 478.746 186.156 478.418 186.531 478.145 c 199.516 469.18 207.27 454.527
 207.27 438.941 c 207.27 422.867 l 207.27 419.918 204.859 417.516 201.895
 417.516 c 139.035 417.516 l 139.035 373.523 l 139.035 372.914 138.895 372.312
 138.625 371.762 c 130.562 355.309 l 129.668 353.484 127.773 352.305 125.734
 352.305 c h
99.977 360.949 m 101.551 360.52 103.172 360.305 104.789 360.305 c 124.102
 360.305 l 131.031 374.453 l 131.031 421.52 l 131.031 423.727 132.824 425.52
 135.031 425.52 c 199.27 425.52 l 199.27 438.945 l 199.27 451.902 192.805
 464.098 181.973 471.57 c 181.926 471.605 181.875 471.641 181.824 471.676
 c 181.734 471.742 181.398 471.984 180.82 472.336 c 178.871 473.582 176.895
 474.629 174.871 475.496 c 174.859 475.504 174.844 475.508 174.828 475.516
 c 171.137 477.09 167.23 478.113 163.211 478.555 c 163.09 478.566 162.973
 478.586 162.855 478.609 c 157.59 479.676 152.961 480.133 149.105 479.977
 c 146.363 479.859 144.086 479.441 142.324 478.734 c 142.215 478.691 142.105
 478.652 141.992 478.621 c 141.324 478.414 140.707 478.043 140.211 477.539
 c 140.086 477.418 140.004 477.332 139.945 477.273 c 139.891 477.113 139.895
 477.207 139.719 476.945 c 139.27 476.281 139.031 475.504 139.031 474.711
 c 139.031 472.504 137.238 470.711 135.031 470.711 c 132.824 470.711 131.031
 472.504 131.031 474.711 c 131.031 476.113 l 131.031 477.598 129.652 478.809
 127.961 478.809 c 111.5 478.809 96.504 470.914 87.848 457.684 c 87.77 457.566
 87.684 457.449 87.594 457.34 c 86.645 455.996 77.227 441.848 77.938 411.988
 c 78.207 400.664 81.605 389.438 87.77 379.531 c 92.125 372.523 96.914 364.852
 98.949 361.598 c 99.059 361.477 99.547 361.16 99.977 360.949 c h
99.977 360.949 m f
0.976471 0.811765 0.811765 rg
154.051 394.094 m 154.051 384.227 146.051 376.223 136.18 376.223 c 126.309
 376.223 118.309 384.227 118.309 394.094 c 118.309 403.965 126.309 411.969
 136.18 411.969 c 146.051 411.969 154.051 403.965 154.051 394.094 c h
154.051 394.094 m f
0.215686 0.384314 0.8 rg
314.98 1.16 m 309.848 1.16 304.812 3.707 301.867 8.355 c 297.848 14.695
 l 297.277 15.59 297.09 16.676 297.32 17.715 c 297.551 18.75 298.188 19.648
 299.082 20.219 c 378.152 70.348 l 381.02 72.16 384.418 72.758 387.73 72.012
 c 391.039 71.273 393.863 69.285 395.684 66.418 c 396.539 65.07 l 400.289
 59.152 398.527 51.289 392.613 47.539 c 323.254 3.562 l 320.688 1.938 317.816
 1.16 314.98 1.16 c h
321.113 6.941 m 321.133 6.941 l h
306.746 15.602 m 308.625 12.641 l 310.84 9.148 315.484 8.113 318.973 10.324
 c 388.328 54.297 l 390.52 55.684 391.172 58.594 389.785 60.785 c 388.93
 62.137 l 387.539 64.328 384.625 64.98 382.438 63.59 c h
306.746 15.602 m f
148.801 27.438 m 94.641 27.438 50.574 71.504 50.574 125.664 c 50.574 179.828
 94.641 223.891 148.801 223.891 c 202.965 223.891 247.027 179.828 247.027
 125.664 c 247.027 71.504 202.965 27.438 148.801 27.438 c h
148.801 215.891 m 99.051 215.891 58.574 175.418 58.574 125.664 c 58.574
 75.914 99.051 35.438 148.801 35.438 c 198.551 35.438 239.027 75.914 239.027
 125.664 c 239.027 175.418 198.555 215.891 148.801 215.891 c h
148.801 215.891 m f
0.878431 0.921569 0.988235 rg
148.801 75.438 m 121.105 75.438 98.574 97.969 98.574 125.664 c 98.574 153.363
 121.109 175.891 148.801 175.891 c 176.496 175.891 199.027 153.359 199.027
 125.664 c 199.027 97.973 176.496 75.438 148.801 75.438 c h
148.801 75.438 m f
301.227 16.836 m 317.262 27.004 l 268.297 103.668 l 266.762 95.258 264.371
 87.152 261.199 79.441 c 304.008 12.414 l 304.027 12.426 l h
301.227 16.836 m f
0.215686 0.384314 0.8 rg
304.008 8.418 m 303.75 8.418 303.492 8.445 303.234 8.496 c 302.168 8.707
 301.219 9.34 300.633 10.258 c 257.828 77.293 l 257.125 78.391 257.004 79.758
 257.5 80.965 c 260.578 88.453 262.887 96.332 264.363 104.391 c 264.66 106.008
 265.914 107.277 267.531 107.594 c 269.152 107.918 270.785 107.211 271.672
 105.82 c 320.629 29.156 l 321.203 28.262 321.395 27.176 321.164 26.137 
c 320.934 25.098 320.297 24.195 319.402 23.625 c 306.746 15.602 l 307.402
 14.566 l 308.547 12.762 308.07 10.375 306.316 9.148 c 305.637 8.672 304.828
 8.418 304.008 8.418 c h
265.68 79.863 m 302.418 22.328 l 311.727 28.23 l 270.102 93.41 l 268.883
 88.801 267.402 84.27 265.68 79.863 c h
265.68 79.863 m f
0.419608 0.866667 0.866667 rg
433.5 301.152 m 419.5 301.152 l 415.082 301.152 411.5 304.734 411.5 309.152
 c 411.5 473.152 l 411.5 477.57 415.082 481.152 419.5 481.152 c 433.5 481.152
 l 437.918 481.152 441.5 477.57 441.5 473.152 c 441.5 309.152 l 441.5 304.734
 437.918 301.152 433.5 301.152 c h
433.5 301.152 m f
0.878431 0.921569 0.988235 rg
484 258.535 m 442 258.535 l 437.582 258.535 434 262.117 434 266.535 c 434
 270.953 437.582 274.535 442 274.535 c 484 274.535 l h
484 258.535 m f
129.242 344.422 m 125.551 345.188 121.793 345.574 118.023 345.574 c 101.199
 345.574 l 98.68 345.574 96.426 343.996 95.562 341.629 c 90.5 327.738 l 
93.125 324.855 l 95.418 322.34 98.66 320.906 102.066 320.906 c 163.086 320.906
 l 165.402 320.906 167.512 322.238 168.504 324.332 c 172.543 332.844 l 173.117
 334.051 172.406 335.477 171.098 335.75 c h
129.242 344.422 m f
0.976471 0.811765 0.811765 rg
312.336 269.242 m 288.277 267.242 l 177.035 252.703 l 177.035 252.707 177.039
 252.711 177.039 252.711 c 189.207 295.828 l 189.27 296.047 189.297 296.266
 189.32 296.488 c 283.406 297.914 l 307.004 308.309 l 307.848 308.68 308.742
 308.918 309.656 309.02 c 316.488 309.762 l 320.945 310.246 325.078 307.375
 326.184 303.031 c 330.641 285.465 l 331.684 281.367 329.73 277.102 325.953
 275.207 c 316.27 270.352 l 315.043 269.734 313.707 269.355 312.336 269.242
 c h
312.336 269.242 m f
0.215686 0.384314 0.8 rg
163.086 316.906 m 102.066 316.906 l 97.547 316.906 93.211 318.824 90.172
 322.164 c 87.543 325.047 l 86.543 326.148 86.234 327.715 86.742 329.109
 c 91.805 342.996 l 93.238 346.93 97.016 349.57 101.203 349.57 c 118.027
 349.57 l 122.062 349.57 126.109 349.156 130.059 348.336 c 171.91 339.664
 l 173.742 339.289 175.273 338.105 176.109 336.43 c 176.941 334.754 176.961
 332.82 176.156 331.133 c 172.121 322.621 l 170.473 319.148 166.926 316.906
 163.086 316.906 c h
95.086 328.645 m 96.086 327.551 l 97.613 325.871 99.793 324.906 102.066
 324.906 c 163.086 324.906 l 163.852 324.906 164.562 325.355 164.891 326.051
 c 167.871 332.332 l 128.434 340.508 l 125.02 341.215 121.516 341.574 118.023
 341.574 c 101.199 341.574 l 100.363 341.574 99.609 341.043 99.32 340.258
 c h
170.285 331.836 m 170.305 331.836 l h
170.285 331.836 m f
177.035 248.703 m 175.902 248.703 174.812 249.184 174.051 250.043 c 173.172
 251.031 172.836 252.391 173.156 253.672 c 173.176 253.746 173.195 253.82
 173.219 253.895 c 185.359 296.914 l 185.57 298.926 187.242 300.457 189.266
 300.484 c 282.539 301.898 l 305.395 311.969 l 306.621 312.508 307.914 312.852
 309.238 312.992 c 316.062 313.734 l 322.438 314.422 328.48 310.25 330.062
 304.012 c 334.523 286.445 l 336.012 280.57 333.16 274.34 327.746 271.629
 c 318.066 266.773 l 316.375 265.926 314.559 265.414 312.676 265.254 c 312.672
 265.254 312.672 265.254 312.672 265.254 c 288.609 263.254 l 177.559 248.734
 l 177.379 248.715 177.207 248.703 177.035 248.703 c h
192.434 292.535 m 182.535 257.457 l 287.758 271.211 l 312 273.23 l 312.867
 273.301 313.703 273.535 314.477 273.926 c 324.16 278.785 l 326.242 279.824
 327.34 282.223 326.766 284.48 c 322.309 302.047 l 321.699 304.449 319.383
 306.043 316.926 305.785 c 310.094 305.043 l 309.582 304.988 309.09 304.855
 308.617 304.648 c 285.023 294.258 l 284.531 294.043 284.004 293.926 283.469
 293.918 c h
312.336 269.242 m 312.355 269.242 l h
312.336 269.242 m f
0.878431 0.921569 0.988235 rg
287.133 267.613 m 283.133 297.203 l 282.867 299.188 281.172 300.668 279.172
 300.668 c 195.094 300.668 l 189.391 300.668 183.711 301.453 178.223 303
 c 119.68 319.52 l 105.203 323.605 93.359 314.641 93.359 299.598 c 93.359
 284.559 105.203 268.91 119.68 264.824 c 172.199 250.004 l 172.777 249.844
 173.355 249.828 173.91 249.922 c 175.559 249.844 l 181.578 249.555 187.613
 249.824 193.586 250.648 c 283.715 263.117 l 285.898 263.414 287.43 265.426
 287.133 267.613 c h
287.133 267.613 m f
0.215686 0.384314 0.8 rg
180.227 245.73 m 178.602 245.73 176.98 245.77 175.367 245.848 c 174.074
 245.91 l 173.07 245.801 172.074 245.883 171.117 246.152 c 118.594 260.977
 l 102.473 265.52 89.359 282.852 89.359 299.602 c 89.359 308.156 92.664 
315.375 98.676 319.922 c 104.688 324.469 112.531 325.699 120.766 323.375
 c 179.309 306.852 l 184.441 305.402 189.754 304.668 195.094 304.668 c 279.168
 304.668 l 283.156 304.668 286.562 301.688 287.098 297.738 c 291.098 268.145
 l 291.684 263.785 288.617 259.75 284.262 259.152 c 194.133 246.684 l 189.531
 246.051 184.871 245.73 180.227 245.73 c h
173.961 253.918 m 174.102 253.918 l 175.746 253.84 l 181.496 253.562 187.312
 253.82 193.039 254.613 c 283.164 267.078 l 279.168 296.668 l 195.094 296.668
 l 189.02 296.668 182.977 297.504 177.137 299.152 c 118.594 315.672 l 112.828
 317.301 107.469 316.547 103.508 313.547 c 99.543 310.547 97.359 305.594
 97.359 299.602 c 97.359 286.418 108.078 272.254 120.766 268.676 c 173.289
 253.855 l 173.52 253.895 173.734 253.918 173.961 253.918 c h
173.961 253.918 m f
0.419608 0.866667 0.866667 rg
480.711 278.535 m 470.93 340.211 l 470.32 344.059 468.754 347.691 466.375
 350.777 c 441.5 383.074 l 441.5 352.305 l 448.484 278.535 l h
480.711 278.535 m f
0.215686 0.384314 0.8 rg
433.5 297.152 m 419.5 297.152 l 412.883 297.152 407.5 302.535 407.5 309.152
 c 407.5 473.152 l 407.5 479.77 412.883 485.152 419.5 485.152 c 433.5 485.152
 l 440.117 485.152 445.5 479.77 445.5 473.152 c 445.5 309.152 l 445.5 302.535
 440.117 297.152 433.5 297.152 c h
419.5 477.152 m 417.293 477.152 415.5 475.359 415.5 473.152 c 415.5 309.152
 l 415.5 306.949 417.293 305.152 419.5 305.152 c 433.5 305.152 l 435.707
 305.152 437.5 306.949 437.5 309.152 c 437.5 473.152 l 437.5 475.359 435.707
 477.152 433.5 477.152 c h
419.5 477.152 m f
0.419608 0.866667 0.866667 rg
484 258.535 m 442.891 258.535 l 437.98 258.535 434 262.516 434 267.426 
c 434 269.41 l 434 274.32 437.98 278.301 442.891 278.301 c 484 278.301 l
 h
484 258.535 m f
0.215686 0.384314 0.8 rg
480.711 274.535 m 448.484 274.535 l 446.422 274.535 444.695 276.102 444.504
 278.156 c 437.52 351.93 l 437.508 352.055 437.5 352.18 437.5 352.305 c 
437.5 383.074 l 437.5 384.785 438.59 386.309 440.211 386.863 c 441.824 387.406
 443.621 386.875 444.668 385.516 c 469.543 353.219 l 472.324 349.613 474.172
 345.328 474.879 340.836 c 484.66 279.164 l 484.848 278.008 484.516 276.828
 483.754 275.938 c 482.992 275.047 481.879 274.535 480.711 274.535 c h
452.125 282.535 m 476.027 282.535 l 466.98 339.578 l 466.477 342.758 465.176
 345.785 463.211 348.332 c 445.504 371.324 l 445.504 352.492 l h
452.125 282.535 m f
0.643137 0.788235 1 rg
483.246 218.535 m 261.246 218.535 l 256.828 218.535 253.246 222.117 253.246
 226.535 c 253.246 250.535 l 253.246 254.953 256.828 258.535 261.246 258.535
 c 483.246 258.535 l h
483.246 218.535 m f
0.215686 0.384314 0.8 rg
483.246 214.531 m 261.246 214.531 l 254.629 214.531 249.246 219.914 249.246
 226.531 c 249.246 250.531 l 249.246 257.148 254.629 262.531 261.246 262.531
 c 483.246 262.531 l 485.457 262.531 487.246 260.738 487.246 258.531 c 487.246
 218.531 l 487.246 216.324 485.457 214.531 483.246 214.531 c h
261.246 254.531 m 259.043 254.531 257.246 252.738 257.246 250.531 c 257.246
 226.531 l 257.246 224.324 259.043 222.531 261.246 222.531 c 479.246 222.531
 l 479.246 254.531 l h
261.246 254.531 m f
0.878431 0.921569 0.988235 rg
484 4.074 m 423.5 4.074 l 416.871 4.074 411.5 9.445 411.5 16.074 c 411.5
 218.535 l 484 218.535 l h
484 4.074 m f
0.215686 0.384314 0.8 rg
484 254.531 m 442.891 254.531 l 435.781 254.531 430 260.316 430 267.426
 c 430 269.41 l 430 276.52 435.785 282.301 442.891 282.301 c 484 282.301
 l 486.207 282.301 488 280.508 488 278.301 c 488 258.531 l 488 256.324 486.207
 254.531 484 254.531 c h
442.891 274.305 m 440.195 274.305 438 272.105 438 269.41 c 438 267.426 
l 438 264.727 440.195 262.535 442.891 262.535 c 480 262.535 l 480 274.305
 l h
442.891 274.305 m f
484 0.074 m 423.5 0.074 l 414.68 0.074 407.5 7.25 407.5 16.074 c 407.5 
218.531 l 407.5 220.738 409.293 222.531 411.5 222.531 c 484 222.531 l 486.207
 222.531 488 220.738 488 218.531 c 488 4.074 l 488 1.867 486.207 0.074 484
 0.074 c h
415.5 214.531 m 415.5 16.074 l 415.5 11.66 419.09 8.074 423.5 8.074 c 480
 8.074 l 480 214.531 l h
415.5 214.531 m f
Q Q
showpage
%%Trailer
end restore
%%EOF
