%!PS-Adobe-3.0 EPSF-3.0
%%Creator: cairo 1.14.8 (http://cairographics.org)
%%CreationDate: Wed Mar 20 09:06:38 2019
%%Pages: 1
%%DocumentData: Clean7Bit
%%LanguageLevel: 2
%%BoundingBox: 9 0 479 487
%%EndComments
%%BeginProlog
save
50 dict begin
/q { gsave } bind def
/Q { grestore } bind def
/cm { 6 array astore concat } bind def
/w { setlinewidth } bind def
/J { setlinecap } bind def
/j { setlinejoin } bind def
/M { setmiterlimit } bind def
/d { setdash } bind def
/m { moveto } bind def
/l { lineto } bind def
/c { curveto } bind def
/h { closepath } bind def
/re { exch dup neg 3 1 roll 5 3 roll moveto 0 rlineto
      0 exch rlineto 0 rlineto closepath } bind def
/S { stroke } bind def
/f { fill } bind def
/f* { eofill } bind def
/n { newpath } bind def
/W { clip } bind def
/W* { eoclip } bind def
/BT { } bind def
/ET { } bind def
/pdfmark where { pop globaldict /?pdfmark /exec load put }
    { globaldict begin /?pdfmark /pop load def /pdfmark
    /cleartomark load def end } ifelse
/BDC { mark 3 1 roll /BDC pdfmark } bind def
/EMC { mark /EMC pdfmark } bind def
/cairo_store_point { /cairo_point_y exch def /cairo_point_x exch def } def
/Tj { show currentpoint cairo_store_point } bind def
/TJ {
  {
    dup
    type /stringtype eq
    { show } { -0.001 mul 0 cairo_font_matrix dtransform rmoveto } ifelse
  } forall
  currentpoint cairo_store_point
} bind def
/cairo_selectfont { cairo_font_matrix aload pop pop pop 0 0 6 array astore
    cairo_font exch selectfont cairo_point_x cairo_point_y moveto } bind def
/Tf { pop /cairo_font exch def /cairo_font_matrix where
      { pop cairo_selectfont } if } bind def
/Td { matrix translate cairo_font_matrix matrix concatmatrix dup
      /cairo_font_matrix exch def dup 4 get exch 5 get cairo_store_point
      /cairo_font where { pop cairo_selectfont } if } bind def
/Tm { 2 copy 8 2 roll 6 array astore /cairo_font_matrix exch def
      cairo_store_point /cairo_font where { pop cairo_selectfont } if } bind def
/g { setgray } bind def
/rg { setrgbcolor } bind def
/d1 { setcachedevice } bind def
%%EndProlog
%%BeginSetup
%%EndSetup
%%Page: 1 1
%%BeginPageSetup
%%PageBoundingBox: 9 0 479 487
%%EndPageSetup
q 9 0 470 487 rectclip q
0.976471 0.811765 0.811765 rg
268.457 429.402 m 242.977 463.16 203.133 483.004 160.836 483.004 c 134.062
 483.004 l 107.555 483.004 81.727 476.492 58.641 464.414 c 49.578 459.285
 40.422 451.016 40.336 450.938 c 30.074 439.906 23.5 426.68 23.305 426.289
 c 17.941 412.906 13.504 394.066 13.504 368.273 c 13.504 109.754 l 13.504
 94.441 16.629 79.293 22.684 65.234 c 32.051 43.492 53.453 29.41 77.125 
29.41 c 105.406 29.41 l 159.328 29.41 208.426 60.484 231.5 109.219 c 251.445
 151.344 l 280.574 212.867 295.684 280.09 295.684 348.156 c 295.684 377.477
 286.125 406 268.457 429.402 c h
268.457 429.402 m f
0.976471 0.654902 0.654902 rg
227.652 396.734 m 213.84 414.426 191.902 424.988 168.969 424.988 c 142.121
 424.988 l 129.5 424.824 120.68 421.078 118.125 419.855 c 109.195 415.477
 85.387 401.363 82.926 374.387 c 82.926 122.672 l 82.934 117.098 86.785 
112.191 92.309 110.297 c 102.746 106.719 121.555 102.688 142.027 109.871
 c 160.188 116.828 175.461 130.207 184.066 147.777 c 204.07 188.621 l 229.211
 239.953 242.496 297.109 242.496 353.906 c 242.496 369.262 237.227 384.473
 227.652 396.734 c h
227.652 396.734 m f
0.215686 0.384314 0.8 rg
83.297 261.469 m 83.051 261.469 82.801 261.492 82.555 261.539 c 80.387 
261.945 78.957 264.031 79.363 266.199 c 79.875 268.918 92.254 332.883 127.477
 344.695 c 143.273 349.984 160.816 344.012 179.605 326.914 c 181.238 325.43
 181.355 322.898 179.871 321.27 c 178.383 319.641 175.855 319.52 174.227
 321 c 157.742 336 142.879 341.422 130.023 337.117 c 99.234 326.805 87.336
 265.348 87.219 264.727 c 86.855 262.805 85.18 261.469 83.297 261.469 c 
h
83.297 261.469 m f
105.406 25.414 m 77.125 25.414 l 51.832 25.414 29.023 40.426 19.016 63.66
 c 12.707 78.301 9.512 93.809 9.512 109.754 c 9.512 368.27 l 9.512 391.051
 12.902 411.074 19.598 427.773 c 19.637 427.867 19.68 427.961 19.723 428.051
 c 20.008 428.625 26.746 442.191 37.41 453.656 c 37.492 453.742 37.578 453.828
 37.664 453.906 c 38.059 454.262 47.402 462.637 56.672 467.887 c 80.605 
480.414 107.324 487 134.062 487 c 160.836 487 l 204.137 487 245.559 466.371
 271.648 431.812 c 289.723 407.871 299.68 378.16 299.68 348.156 c 299.68
 279.938 284.25 211.289 255.055 149.637 c 235.113 107.516 l 211.5 57.641
 160.586 25.414 105.406 25.414 c h
26.953 424.645 m 20.68 408.926 17.5 389.965 17.5 368.27 c 17.5 109.754 
l 17.5 94.898 20.477 80.457 26.352 66.82 c 35.098 46.52 55.027 33.406 77.125
 33.406 c 105.406 33.406 l 157.516 33.406 205.59 63.836 227.887 110.934 
c 247.832 153.055 l 276.52 213.648 291.684 281.113 291.684 348.156 c 291.684
 376.43 282.301 404.434 265.27 426.996 c 240.684 459.562 201.641 479.008
 160.836 479.008 c 134.062 479.008 l 108.609 479.008 83.168 472.738 60.492
 460.871 c 52.531 456.359 44.297 449.113 43.141 448.086 c 33.852 438.055
 27.641 426.008 26.953 424.645 c h
26.953 424.645 m f
0.27451 0.443137 0.776471 rg
450.66 164.824 m 334.246 164.824 l 334.246 336.641 l 450.66 336.641 l 463.605
 336.641 474.098 326.148 474.098 313.207 c 474.098 188.262 l 474.098 175.316
 463.605 164.824 450.66 164.824 c h
450.66 164.824 m f
0.878431 0.921569 0.988235 rg
277.078 182.961 m 265.551 182.961 l 259.082 182.961 253.832 188.207 253.832
 194.68 c 253.832 301.059 l 253.832 307.531 259.082 312.777 265.551 312.777
 c 277.078 312.777 l 283.551 312.777 288.797 307.531 288.797 301.059 c 288.797
 194.68 l 288.797 188.207 283.551 182.961 277.078 182.961 c h
277.078 182.961 m f
0.419608 0.866667 0.866667 rg
216.23 267.348 m 106.367 267.348 l 102.301 267.348 98.996 263.074 98.996
 257.805 c 98.996 237.938 l 98.996 232.664 102.301 228.391 106.367 228.391
 c 216.227 228.391 l 253.832 199.188 l 253.832 296.551 l h
216.23 267.348 m f
0.878431 0.921569 0.988235 rg
474.098 57.938 m 334.246 57.938 l 334.246 85.91 l 334.246 96.945 343.191
 105.887 354.227 105.887 c 454.117 105.887 l 465.152 105.887 474.098 96.945
 474.098 85.91 c h
474.098 57.938 m f
0.27451 0.443137 0.776471 rg
334.246 57.938 139.852 -53.941 re f
0.419608 0.866667 0.866667 rg
368.211 164.824 71.922 -58.938 re f
0.643137 0.788235 1 rg
288.781 301.363 m 288.781 301.262 288.797 301.164 288.797 301.062 c 288.797
 200.09 l 334.246 164.824 l 334.246 336.641 l h
288.781 301.363 m f
0.215686 0.384314 0.8 rg
450.66 160.828 m 334.246 160.828 l 332.043 160.828 330.25 162.621 330.25
 164.824 c 330.25 336.641 l 330.25 338.844 332.043 340.637 334.246 340.637
 c 450.66 340.637 l 465.789 340.637 478.094 328.328 478.094 313.207 c 478.094
 188.262 l 478.094 173.133 465.785 160.828 450.66 160.828 c h
338.242 168.82 m 450.66 168.82 l 461.379 168.82 470.102 177.543 470.102
 188.262 c 470.102 313.207 l 470.102 323.926 461.379 332.645 450.66 332.645
 c 338.242 332.645 l h
338.242 168.82 m f
277.078 178.965 m 265.551 178.965 l 256.883 178.965 249.836 186.012 249.836
 194.68 c 249.836 301.059 l 249.836 309.723 256.883 316.773 265.551 316.773
 c 277.078 316.773 l 285.742 316.773 292.793 309.723 292.793 301.059 c 292.793
 194.68 l 292.793 186.012 285.742 178.965 277.078 178.965 c h
265.551 308.785 m 261.293 308.785 257.828 305.32 257.828 301.062 c 257.828
 194.68 l 257.828 190.422 261.293 186.957 265.551 186.957 c 277.078 186.957
 l 281.336 186.957 284.801 190.422 284.801 194.68 c 284.801 301.059 l 284.801
 305.316 281.336 308.781 277.078 308.781 c 265.551 308.781 l h
265.551 308.785 m f
253.832 195.191 m 252.957 195.191 252.098 195.477 251.383 196.031 c 214.859
 224.395 l 106.367 224.395 l 100.102 224.395 95.004 230.469 95.004 237.934
 c 95.004 257.801 l 95.004 265.27 100.102 271.34 106.367 271.34 c 214.859
 271.34 l 251.383 299.703 l 252.59 300.637 254.215 300.809 255.59 300.137
 c 256.957 299.465 257.828 298.074 257.828 296.547 c 257.828 199.188 l 257.828
 197.66 256.957 196.266 255.59 195.602 c 255.031 195.328 254.43 195.191 
253.832 195.191 c h
106.367 263.352 m 104.777 263.352 102.992 260.977 102.992 257.805 c 102.992
 237.938 l 102.992 234.758 104.777 232.387 106.367 232.387 c 216.227 232.387
 l 217.117 232.387 217.98 232.094 218.68 231.547 c 249.836 207.348 l 249.836
 288.387 l 218.68 264.195 l 217.98 263.648 217.117 263.352 216.227 263.352
 c h
106.367 263.352 m f
334.246 160.828 m 333.375 160.828 332.512 161.113 331.797 161.668 c 286.344
 196.934 l 285.371 197.691 284.801 198.855 284.801 200.09 c 284.785 301.246
 l 284.746 302.52 285.324 303.734 286.328 304.52 c 331.797 339.797 l 333.004
 340.73 334.633 340.898 336.004 340.227 c 337.371 339.555 338.242 338.168
 338.242 336.641 c 338.242 164.824 l 338.242 163.297 337.371 161.906 336.004
 161.234 c 335.449 160.961 334.848 160.828 334.246 160.828 c h
292.793 202.047 m 330.25 172.98 l 330.25 328.48 l 292.793 299.414 l h
288.781 301.363 m 288.801 301.363 l h
288.781 301.363 m f
474.098 53.941 m 334.246 53.941 l 332.043 53.941 330.25 55.734 330.25 57.938
 c 330.25 85.91 l 330.25 99.129 341.004 109.883 354.227 109.883 c 454.117
 109.883 l 467.34 109.883 478.094 99.129 478.094 85.91 c 478.094 57.938 
l 478.094 55.734 476.301 53.941 474.098 53.941 c h
338.242 61.934 m 470.102 61.934 l 470.102 85.91 l 470.102 94.719 462.93
 101.891 454.117 101.891 c 354.227 101.891 l 345.414 101.891 338.242 94.719
 338.242 85.91 c h
338.242 61.934 m f
474.098 0 m 334.246 0 l 332.043 0 330.25 1.793 330.25 3.996 c 330.25 57.938
 l 330.25 60.145 332.043 61.934 334.246 61.934 c 474.098 61.934 l 476.301
 61.934 478.094 60.145 478.094 57.938 c 478.094 3.996 l 478.094 1.793 476.301
 0 474.098 0 c h
338.242 7.992 m 470.102 7.992 l 470.102 53.941 l 338.242 53.941 l h
338.242 7.992 m f
440.133 101.891 m 368.211 101.891 l 366.008 101.891 364.215 103.684 364.215
 105.887 c 364.215 164.824 l 364.215 167.027 366.008 168.82 368.211 168.82
 c 440.133 168.82 l 442.34 168.82 444.129 167.027 444.129 164.824 c 444.129
 105.887 l 444.129 103.684 442.34 101.891 440.133 101.891 c h
372.207 109.883 m 436.137 109.883 l 436.137 160.828 l 372.207 160.828 l
 h
372.207 109.883 m f
108.473 99.27 m 82.668 99.27 l 80.465 99.27 78.672 101.055 78.672 103.266
 c 78.672 105.469 80.465 107.262 82.668 107.262 c 108.477 107.262 l 145.121
 107.262 174.934 133.422 174.934 165.578 c 174.934 197.738 145.121 223.898
 108.477 223.898 c 92.816 223.898 l 85.02 223.898 78.672 230.09 78.672 237.707
 c 78.672 366.266 l 78.672 400.633 107.148 428.766 142.152 428.98 c 168.586
 428.984 l 192.859 428.984 216.086 417.785 230.727 399.035 c 240.895 386.012
 246.492 369.844 246.492 353.508 c 246.492 335.543 245.125 317.324 242.414
 299.359 c 242.086 297.18 240.055 295.664 237.871 296.004 c 235.688 296.332
 234.188 298.371 234.512 300.551 c 237.16 318.121 238.5 335.938 238.5 353.508
 c 238.5 368.07 233.504 382.492 224.43 394.113 c 211.297 410.945 190.422
 420.988 168.59 420.988 c 142.215 420.984 l 111.578 420.797 86.664 396.25
 86.664 366.266 c 86.664 237.707 l 86.664 234.5 89.426 231.891 92.816 231.891
 c 108.477 231.891 l 149.527 231.891 182.926 202.141 182.926 165.578 c 182.922
 129.016 149.527 99.27 108.473 99.27 c h
108.473 99.27 m f
Q Q
showpage
%%Trailer
end restore
%%EOF
