%!PS-Adobe-3.0 EPSF-3.0
%%Creator: cairo 1.14.8 (http://cairographics.org)
%%CreationDate: Wed Mar 20 09:06:38 2019
%%Pages: 1
%%DocumentData: Clean7Bit
%%LanguageLevel: 2
%%BoundingBox: 1 0 488 489
%%EndComments
%%BeginProlog
save
50 dict begin
/q { gsave } bind def
/Q { grestore } bind def
/cm { 6 array astore concat } bind def
/w { setlinewidth } bind def
/J { setlinecap } bind def
/j { setlinejoin } bind def
/M { setmiterlimit } bind def
/d { setdash } bind def
/m { moveto } bind def
/l { lineto } bind def
/c { curveto } bind def
/h { closepath } bind def
/re { exch dup neg 3 1 roll 5 3 roll moveto 0 rlineto
      0 exch rlineto 0 rlineto closepath } bind def
/S { stroke } bind def
/f { fill } bind def
/f* { eofill } bind def
/n { newpath } bind def
/W { clip } bind def
/W* { eoclip } bind def
/BT { } bind def
/ET { } bind def
/pdfmark where { pop globaldict /?pdfmark /exec load put }
    { globaldict begin /?pdfmark /pop load def /pdfmark
    /cleartomark load def end } ifelse
/BDC { mark 3 1 roll /BDC pdfmark } bind def
/EMC { mark /EMC pdfmark } bind def
/cairo_store_point { /cairo_point_y exch def /cairo_point_x exch def } def
/Tj { show currentpoint cairo_store_point } bind def
/TJ {
  {
    dup
    type /stringtype eq
    { show } { -0.001 mul 0 cairo_font_matrix dtransform rmoveto } ifelse
  } forall
  currentpoint cairo_store_point
} bind def
/cairo_selectfont { cairo_font_matrix aload pop pop pop 0 0 6 array astore
    cairo_font exch selectfont cairo_point_x cairo_point_y moveto } bind def
/Tf { pop /cairo_font exch def /cairo_font_matrix where
      { pop cairo_selectfont } if } bind def
/Td { matrix translate cairo_font_matrix matrix concatmatrix dup
      /cairo_font_matrix exch def dup 4 get exch 5 get cairo_store_point
      /cairo_font where { pop cairo_selectfont } if } bind def
/Tm { 2 copy 8 2 roll 6 array astore /cairo_font_matrix exch def
      cairo_store_point /cairo_font where { pop cairo_selectfont } if } bind def
/g { setgray } bind def
/rg { setrgbcolor } bind def
/d1 { setcachedevice } bind def
%%EndProlog
%%BeginSetup
%%EndSetup
%%Page: 1 1
%%BeginPageSetup
%%PageBoundingBox: 1 0 488 489
%%EndPageSetup
q 1 0 487 489 rectclip q
0.419608 0.866667 0.866667 rg
195.434 192.691 m 179.418 192.691 l 179.387 192.691 179.352 192.699 179.316
 192.699 c 179.309 192.691 l 73.98 192.691 l 46.152 192.691 23.594 170.133
 23.594 142.305 c 23.594 109.855 l 245.816 109.855 l 245.816 142.305 l 245.816
 170.133 223.262 192.691 195.434 192.691 c h
195.434 192.691 m f
0.976471 0.811765 0.811765 rg
134.703 204.281 m 118.559 204.281 103.328 208.125 89.875 214.934 c 89.875
 194.57 l 89.875 193.863 89.977 193.164 90.121 192.48 c 90.137 192.48 l 
90.281 191.797 90.5 191.133 90.781 190.496 c 90.82 190.414 90.852 190.328
 90.895 190.246 c 91.016 189.984 91.152 189.73 91.297 189.48 c 91.441 189.238
 91.598 189.004 91.762 188.777 c 91.852 188.652 91.93 188.52 92.02 188.398
 c 98.391 180.301 l 104.734 172.242 113.523 166.398 123.48 164.07 c 124.816
 163.762 126.199 163.488 127.637 163.277 c 143.801 160.852 159.965 167.734
 170.016 180.699 c 179.297 192.676 l 179.426 193.316 179.508 193.969 179.508
 194.629 c 179.508 214.918 l 166.066 208.121 150.84 204.281 134.703 204.281
 c h
134.703 204.281 m f
234.125 339.434 m 233.914 339.434 233.711 339.406 233.5 339.402 c 233.5
 348.656 l 233.5 402.73 189.27 446.559 134.703 446.559 c 80.141 446.559 
35.91 402.73 35.91 348.656 c 35.91 339.402 l 35.699 339.406 35.496 339.434
 35.285 339.434 c 18.637 339.434 5.141 326.062 5.141 309.57 c 5.141 293.07
 18.637 279.699 35.285 279.699 c 36.379 279.699 37.457 279.762 38.52 279.875
 c 48.711 236.562 87.891 204.285 134.703 204.285 c 181.516 204.285 220.695
 236.562 230.891 279.875 c 231.957 279.766 233.035 279.699 234.125 279.699
 c 250.773 279.699 264.27 293.074 264.27 309.57 c 264.27 326.062 250.773
 339.434 234.125 339.434 c h
234.125 339.434 m f
0.215686 0.384314 0.8 rg
134.703 200.285 m 87.816 200.285 47.48 231.121 35.449 275.695 c 35.395 
275.695 35.34 275.695 35.285 275.695 c 16.457 275.695 1.141 290.891 1.141
 309.566 c 1.141 327.109 14.66 341.582 31.91 343.27 c 31.91 348.656 l 31.91
 404.844 78.023 450.559 134.703 450.559 c 191.387 450.559 237.5 404.84 237.5
 348.656 c 237.5 343.27 l 254.746 341.582 268.266 327.109 268.266 309.566
 c 268.266 290.891 252.949 275.695 234.129 275.695 c 234.074 275.695 234.02
 275.695 233.965 275.695 c 221.934 231.125 181.594 200.285 134.703 200.285
 c h
38.523 283.871 m 40.355 283.871 41.98 282.613 42.41 280.789 c 52.457 238.098
 90.414 208.281 134.703 208.281 c 178.996 208.281 216.949 238.098 226.996
 280.789 c 227.461 282.75 229.301 284.066 231.312 283.848 c 232.301 283.746
 233.223 283.691 234.125 283.691 c 248.539 283.691 260.27 295.301 260.27
 309.566 c 260.27 323.82 248.559 335.422 234.152 335.438 c 233.902 335.418
 233.746 335.41 233.594 335.406 c 232.516 335.383 231.473 335.789 230.703
 336.539 c 229.934 337.297 229.496 338.324 229.496 339.402 c 229.496 348.656
 l 229.496 400.438 186.973 442.562 134.699 442.562 c 82.426 442.562 39.906
 400.438 39.906 348.656 c 39.906 339.402 l 39.906 338.324 39.473 337.297
 38.703 336.539 c 37.934 335.789 36.887 335.383 35.816 335.406 c 35.66 335.41
 35.504 335.422 35.348 335.43 c 35.344 335.43 35.34 335.43 35.336 335.43
 c 20.863 335.43 9.141 323.824 9.141 309.566 c 9.141 295.301 20.871 283.691
 35.285 283.691 c 36.188 283.691 37.105 283.742 38.098 283.848 c 38.242 
283.863 38.383 283.871 38.523 283.871 c h
38.523 283.871 m f
0.27451 0.443137 0.776471 rg
205.578 363.273 m 256.621 363.273 l 260.34 363.273 263.355 366.293 263.355
 370.012 c 263.355 407.555 l 263.355 450.328 228.68 485 185.906 485 c 182.75
 485 l 171.59 485 162.547 475.957 162.547 464.797 c 162.547 406.305 l 162.547
 382.543 181.812 363.273 205.578 363.273 c h
205.578 363.273 m f
102.211 363.273 m 13.414 363.273 l 9.684 363.273 6.656 366.305 6.656 370.039
 c 6.656 400.93 l 6.656 447.359 44.293 485.004 90.73 485.004 c 142.57 485.004
 l 153.715 485.004 162.746 475.969 162.746 464.824 c 162.746 423.812 l 162.742
 390.379 135.641 363.273 102.211 363.273 c h
102.211 363.273 m f
0.215686 0.384314 0.8 rg
256.621 359.277 m 205.578 359.277 l 179.648 359.277 158.551 380.375 158.551
 406.305 c 158.551 464.801 l 158.551 478.145 169.41 489 182.754 489 c 185.91
 489 l 230.82 489 267.355 452.465 267.355 407.555 c 267.355 370.012 l 267.355
 364.09 262.543 359.277 256.621 359.277 c h
182.754 481.004 m 173.816 481.004 166.551 473.73 166.551 464.801 c 166.551
 406.309 l 166.551 384.789 184.059 367.277 205.578 367.277 c 256.621 367.277
 l 258.129 367.277 259.359 368.504 259.359 370.012 c 259.359 407.555 l 259.359
 448.055 226.406 481.004 185.906 481.004 c h
182.754 481.004 m f
102.211 359.277 m 13.414 359.277 l 7.48 359.277 2.656 364.102 2.656 370.039
 c 2.656 400.93 l 2.656 449.492 42.164 489 90.73 489 c 142.566 489 l 155.898
 489 166.742 478.156 166.742 464.824 c 166.742 423.809 l 166.742 388.227
 137.793 359.277 102.211 359.277 c h
90.73 481.004 m 46.578 481.004 10.656 445.078 10.656 400.93 c 10.656 370.039
 l 10.656 368.516 11.895 367.273 13.414 367.273 c 102.215 367.273 l 133.383
 367.273 158.746 392.637 158.746 423.809 c 158.746 464.824 l 158.746 473.742
 151.488 481.004 142.57 481.004 c h
90.73 481.004 m f
245.816 105.855 m 23.594 105.855 l 21.387 105.855 19.594 107.648 19.594
 109.855 c 19.594 142.305 l 19.594 172.293 43.992 196.691 73.98 196.691 
c 85.875 196.691 l 85.875 214.934 l 85.875 216.324 86.598 217.609 87.781
 218.34 c 88.969 219.066 90.441 219.129 91.684 218.5 c 105.082 211.723 119.555
 208.285 134.707 208.285 c 149.848 208.285 164.316 211.719 177.707 218.484
 c 178.945 219.117 180.422 219.051 181.609 218.324 c 182.793 217.598 183.512
 216.309 183.512 214.922 c 183.512 196.691 l 195.434 196.691 l 225.418 196.691
 249.816 172.293 249.816 142.305 c 249.816 109.855 l 249.816 107.648 248.027
 105.855 245.816 105.855 c h
27.59 113.852 m 241.816 113.852 l 241.816 142.305 l 241.816 167.883 221.012
 188.695 195.434 188.695 c 179.422 188.695 l 179.383 188.695 179.348 188.695
 179.312 188.695 c 178.113 188.695 176.977 189.23 176.215 190.152 c 175.457
 191.074 175.145 192.293 175.379 193.465 c 175.469 193.922 175.512 194.301
 175.512 194.629 c 175.512 208.633 l 162.645 203.094 148.949 200.285 134.703
 200.285 c 120.449 200.285 106.746 203.098 93.871 208.645 c 93.871 194.57
 l 93.871 194.281 93.914 193.934 94.008 193.473 c 94.242 192.301 93.938 
191.078 93.18 190.156 c 92.418 189.23 91.285 188.695 90.09 188.695 c 73.98
 188.695 l 48.402 188.695 27.59 167.883 27.59 142.305 c h
27.59 113.852 m f
0.27451 0.443137 0.776471 rg
232.383 363.273 m 233.105 358.504 233.5 353.625 233.5 348.656 c 233.5 339.402
 l 233.711 339.406 233.914 339.434 234.125 339.434 c 241.93 339.434 249.023
 336.465 254.371 331.645 c 254.371 363.273 l h
232.383 363.273 m f
0.215686 0.384314 0.8 rg
254.375 327.648 m 253.402 327.648 252.445 328 251.695 328.676 c 246.859
 333.035 240.617 335.438 234.125 335.438 c 233.91 335.422 233.734 335.41
 233.555 335.406 c 232.492 335.363 231.453 335.809 230.691 336.555 c 229.93
 337.305 229.5 338.332 229.5 339.402 c 229.5 348.656 l 229.5 353.258 229.137
 357.977 228.426 362.676 c 228.25 363.824 228.59 364.996 229.348 365.883
 c 230.109 366.766 231.215 367.273 232.383 367.273 c 254.375 367.273 l 256.582
 367.273 258.375 365.48 258.375 363.273 c 258.375 331.648 l 258.375 330.066
 257.445 328.637 256 327.992 c 255.477 327.762 254.926 327.648 254.375 327.648
 c h
237.5 343.27 m 242.027 342.82 246.398 341.477 250.379 339.328 c 250.379
 359.277 l 236.93 359.277 l 237.309 355.711 237.5 352.152 237.5 348.656 
c h
237.5 343.27 m f
0.27451 0.443137 0.776471 rg
15.633 363.273 m 15.633 332.184 l 20.914 336.688 27.77 339.434 35.285 339.434
 c 35.496 339.434 35.699 339.406 35.91 339.402 c 35.91 348.656 l 35.91 353.625
 36.305 358.504 37.027 363.273 c h
15.633 363.273 m f
0.215686 0.384314 0.8 rg
15.633 328.184 m 15.062 328.184 14.496 328.309 13.957 328.555 c 12.543 
329.207 11.637 330.625 11.637 332.184 c 11.637 363.273 l 11.637 365.48 13.426
 367.273 15.633 367.273 c 37.027 367.273 l 38.195 367.273 39.297 366.766
 40.059 365.883 c 40.82 364.996 41.156 363.828 40.98 362.676 c 40.266 357.973
 39.906 353.254 39.906 348.656 c 39.906 339.402 l 39.906 338.332 39.477 
337.309 38.715 336.555 c 37.953 335.809 36.969 335.367 35.852 335.406 c 
35.676 335.41 35.5 335.422 35.324 335.434 c 35.32 335.434 35.309 335.434
 35.301 335.434 c 29.023 335.434 22.977 333.195 18.23 329.145 c 17.496 328.512
 16.57 328.184 15.633 328.184 c h
19.633 359.277 m 19.633 339.645 l 23.453 341.605 27.617 342.84 31.91 343.266
 c 31.91 348.656 l 31.91 352.152 32.102 355.707 32.484 359.277 c h
19.633 359.277 m f
131.918 247.359 m 117.332 247.359 106.324 253.723 106.324 262.156 c 106.324
 264.363 108.117 266.156 110.324 266.156 c 112.531 266.156 114.324 264.363
 114.324 262.156 c 114.324 259.445 121.34 255.359 131.918 255.359 c 142.5
 255.359 149.512 259.449 149.512 262.156 c 149.512 264.363 151.305 266.156
 153.512 266.156 c 155.723 266.156 157.512 264.363 157.512 262.156 c 157.512
 253.723 146.508 247.359 131.918 247.359 c h
131.918 247.359 m f
86.324 291.523 m 80.27 291.523 75.348 296.445 75.348 302.496 c 75.348 320.785
 l 75.348 326.836 80.27 331.762 86.324 331.762 c 92.371 331.762 97.297 326.836
 97.297 320.785 c 97.297 302.496 l 97.297 296.445 92.371 291.523 86.324 
291.523 c h
86.324 291.523 m f
0.976471 0.654902 0.654902 rg
193.039 290.121 m 191.504 290.121 189.969 290.707 188.797 291.879 c 157.758
 322.922 l 155.414 325.262 155.414 329.059 157.758 331.402 c 160.098 333.746
 163.898 333.746 166.242 331.402 c 197.285 300.363 l 199.625 298.02 199.625
 294.223 197.285 291.879 c 196.113 290.707 194.574 290.121 193.039 290.121
 c h
193.039 290.121 m f
161.996 290.121 m 160.461 290.121 158.926 290.707 157.758 291.879 c 155.414
 294.223 155.414 298.02 157.758 300.363 c 188.797 331.402 l 191.137 333.746
 194.938 333.746 197.281 331.402 c 199.621 329.062 199.621 325.262 197.281
 322.922 c 166.238 291.879 l 165.07 290.707 163.535 290.121 161.996 290.121
 c h
161.996 290.121 m f
0.878431 0.921569 0.988235 rg
416.059 206.387 m 404.109 230.445 379.562 245.664 352.699 245.664 c 325.836
 245.664 301.289 230.445 289.34 206.387 c 228.891 84.688 l 224.242 75.332
 221.824 65.023 221.824 54.578 c 221.824 26.645 244.469 4 272.402 4 c 432.996
 4 l 460.93 4 483.574 26.645 483.574 54.578 c 483.574 65.027 481.152 75.332
 476.508 84.688 c h
416.059 206.387 m f
0.643137 0.788235 1 rg
426.773 105.691 m 426.773 64.781 393.613 31.613 352.699 31.613 c 311.785
 31.613 278.617 64.781 278.617 105.691 c 278.617 146.605 311.785 179.77 
352.699 179.77 c 393.613 179.77 426.773 146.605 426.773 105.691 c h
426.773 105.691 m f
0.27451 0.443137 0.776471 rg
392.586 105.691 m 392.586 83.664 374.727 65.805 352.699 65.805 c 330.672
 65.805 312.809 83.664 312.809 105.691 c 312.809 127.719 330.672 145.578
 352.699 145.578 c 374.727 145.578 392.586 127.719 392.586 105.691 c h
392.586 105.691 m f
0.878431 0.921569 0.988235 rg
406.102 133.082 m 406.102 119.867 395.387 109.152 382.168 109.152 c 368.949
 109.152 358.234 119.867 358.234 133.082 c 358.234 146.301 368.949 157.016
 382.168 157.016 c 395.387 157.016 406.102 146.301 406.102 133.082 c h
406.102 133.082 m f
0.643137 0.788235 1 rg
277.57 321.02 m 258.629 321.02 l 254.211 321.02 250.633 317.438 250.633
 313.02 c 250.633 308.605 254.211 305.023 258.629 305.023 c 277.57 305.023
 l 281.984 305.023 285.566 308.605 285.566 313.02 c 285.566 317.438 281.984
 321.02 277.57 321.02 c h
277.57 321.02 m f
318.605 321.02 m 299.668 321.02 l 295.25 321.02 291.668 317.438 291.668
 313.02 c 291.668 308.605 295.25 305.023 299.668 305.023 c 318.605 305.023
 l 323.023 305.023 326.605 308.605 326.605 313.02 c 326.605 317.438 323.023
 321.02 318.605 321.02 c h
318.605 321.02 m f
352.699 321.02 m 340.703 321.02 l 336.285 321.02 332.703 317.438 332.703
 313.02 c 332.703 308.605 336.285 305.023 340.703 305.023 c 344.699 305.023
 l 344.699 301.023 l 344.699 296.609 348.281 293.027 352.699 293.027 c 357.117
 293.027 360.695 296.609 360.695 301.023 c 360.695 313.02 l 360.695 317.438
 357.117 321.02 352.699 321.02 c h
352.699 321.02 m f
352.699 284.984 m 348.281 284.984 344.699 281.406 344.699 276.988 c 344.699
 264.992 l 344.699 260.574 348.281 256.992 352.699 256.992 c 357.117 256.992
 360.695 260.574 360.695 264.992 c 360.695 276.988 l 360.695 281.406 357.117
 284.984 352.699 284.984 c h
352.699 284.984 m f
246.832 343.441 m 243.27 346.055 238.262 345.281 235.652 341.719 c 218.086
 317.746 l 218.051 317.699 218.031 317.648 217.996 317.602 c 217.898 317.465
 217.82 317.316 217.734 317.176 c 217.57 316.906 217.414 316.633 217.285
 316.352 c 217.211 316.188 217.145 316.023 217.082 315.855 c 216.969 315.555
 216.875 315.25 216.797 314.941 c 216.762 314.781 216.715 314.629 216.688
 314.469 c 216.512 313.512 216.512 312.527 216.688 311.57 c 216.715 311.41
 216.762 311.258 216.797 311.098 c 216.875 310.789 216.969 310.484 217.082
 310.184 c 217.145 310.016 217.211 309.855 217.285 309.691 c 217.414 309.41
 217.57 309.137 217.734 308.867 c 217.82 308.727 217.898 308.578 217.996
 308.441 c 218.027 308.395 218.051 308.344 218.086 308.293 c 235.652 284.32
 l 237.223 282.184 239.648 281.051 242.109 281.051 c 243.75 281.051 245.406
 281.555 246.832 282.598 c 250.395 285.207 251.164 290.211 248.555 293.777
 c 239.793 305.734 l 242.578 306.984 244.531 309.77 244.531 313.02 c 244.531
 316.273 242.578 319.062 239.793 320.312 c 248.555 332.27 l 251.164 335.828
 250.398 340.832 246.832 343.441 c h
246.832 343.441 m f
0.215686 0.384314 0.8 rg
432.996 0 m 272.402 0 l 242.309 0 217.824 24.484 217.824 54.578 c 217.824
 65.586 220.414 76.609 225.309 86.469 c 285.758 208.168 l 298.469 233.762
 324.121 249.66 352.699 249.66 c 381.277 249.66 406.93 233.762 419.641 208.168
 c 480.086 86.469 l 484.984 76.609 487.574 65.582 487.574 54.578 c 487.574
 24.484 463.09 0 432.996 0 c h
352.699 241.668 m 327.18 241.668 304.27 227.465 292.918 204.609 c 232.473
 82.914 l 228.121 74.152 225.82 64.355 225.82 54.578 c 225.82 28.895 246.719
 7.996 272.402 7.996 c 432.996 7.996 l 458.68 7.996 479.574 28.895 479.574
 54.578 c 479.574 64.355 477.273 74.152 472.926 82.914 c 412.477 204.609
 l 401.125 227.465 378.219 241.668 352.699 241.668 c h
352.699 241.668 m f
Q Q
showpage
%%Trailer
end restore
%%EOF
