%!PS-Adobe-3.0 EPSF-3.0
%%Creator: cairo 1.14.8 (http://cairographics.org)
%%CreationDate: Wed Mar 20 09:06:38 2019
%%Pages: 1
%%DocumentData: Clean7Bit
%%LanguageLevel: 2
%%BoundingBox: 0 0 485 485
%%EndComments
%%BeginProlog
save
50 dict begin
/q { gsave } bind def
/Q { grestore } bind def
/cm { 6 array astore concat } bind def
/w { setlinewidth } bind def
/J { setlinecap } bind def
/j { setlinejoin } bind def
/M { setmiterlimit } bind def
/d { setdash } bind def
/m { moveto } bind def
/l { lineto } bind def
/c { curveto } bind def
/h { closepath } bind def
/re { exch dup neg 3 1 roll 5 3 roll moveto 0 rlineto
      0 exch rlineto 0 rlineto closepath } bind def
/S { stroke } bind def
/f { fill } bind def
/f* { eofill } bind def
/n { newpath } bind def
/W { clip } bind def
/W* { eoclip } bind def
/BT { } bind def
/ET { } bind def
/pdfmark where { pop globaldict /?pdfmark /exec load put }
    { globaldict begin /?pdfmark /pop load def /pdfmark
    /cleartomark load def end } ifelse
/BDC { mark 3 1 roll /BDC pdfmark } bind def
/EMC { mark /EMC pdfmark } bind def
/cairo_store_point { /cairo_point_y exch def /cairo_point_x exch def } def
/Tj { show currentpoint cairo_store_point } bind def
/TJ {
  {
    dup
    type /stringtype eq
    { show } { -0.001 mul 0 cairo_font_matrix dtransform rmoveto } ifelse
  } forall
  currentpoint cairo_store_point
} bind def
/cairo_selectfont { cairo_font_matrix aload pop pop pop 0 0 6 array astore
    cairo_font exch selectfont cairo_point_x cairo_point_y moveto } bind def
/Tf { pop /cairo_font exch def /cairo_font_matrix where
      { pop cairo_selectfont } if } bind def
/Td { matrix translate cairo_font_matrix matrix concatmatrix dup
      /cairo_font_matrix exch def dup 4 get exch 5 get cairo_store_point
      /cairo_font where { pop cairo_selectfont } if } bind def
/Tm { 2 copy 8 2 roll 6 array astore /cairo_font_matrix exch def
      cairo_store_point /cairo_font where { pop cairo_selectfont } if } bind def
/g { setgray } bind def
/rg { setrgbcolor } bind def
/d1 { setcachedevice } bind def
%%EndProlog
%%BeginSetup
%%EndSetup
%%Page: 1 1
%%BeginPageSetup
%%PageBoundingBox: 0 0 485 485
%%EndPageSetup
q 0 0 485 485 rectclip q
0.976471 0.811765 0.811765 rg
145.305 85.496 147.977 -81.496 re f
0.215686 0.384314 0.8 rg
293.281 0 m 145.305 0 l 143.098 0 141.305 1.789 141.305 4 c 141.305 85.496
 l 141.305 87.703 143.098 89.496 145.305 89.496 c 293.281 89.496 l 295.492
 89.496 297.281 87.703 297.281 85.496 c 297.281 4 l 297.281 1.789 295.492
 0 293.281 0 c h
149.305 8 m 289.281 8 l 289.281 81.496 l 149.305 81.496 l h
149.305 8 m f
0.976471 0.811765 0.811765 rg
195.621 31.566 m 196.527 31.566 l 281.855 31.566 351.031 100.742 351.031
 186.078 c 351.031 258.352 l 351.031 343.684 281.855 412.859 196.527 412.859
 c 195.621 412.859 l 110.293 412.859 41.117 343.684 41.117 258.352 c 41.117
 186.078 l 41.117 100.746 110.293 31.566 195.621 31.566 c h
195.621 31.566 m f
0.215686 0.384314 0.8 rg
70.359 187.57 m 78.465 187.57 85.039 194.137 85.039 202.246 c 85.039 231.598
 l 85.039 239.703 78.465 246.273 70.359 246.273 c 62.254 246.273 55.68 239.703
 55.68 231.598 c 55.68 202.246 l 55.68 194.137 62.254 187.57 70.359 187.57
 c h
70.359 187.57 m f
198.168 187.57 m 200.055 187.57 l 208.648 187.57 215.621 194.535 215.621
 203.137 c 215.621 230.707 l 215.621 239.305 208.652 246.273 200.055 246.273
 c 198.168 246.273 l 189.57 246.273 182.602 239.305 182.602 230.707 c 182.602
 203.137 l 182.602 194.535 189.566 187.57 198.168 187.57 c h
198.168 187.57 m f
0.419608 0.866667 0.866667 rg
286.887 231.648 m 369.754 231.648 l 369.754 249.531 l 369.754 253.586 366.469
 256.875 362.414 256.875 c 286.887 256.875 l h
286.887 231.648 m f
273.441 267.863 m 286.887 256.875 l 286.887 231.648 l 273.441 216.918 l
 h
273.441 267.863 m f
0.215686 0.384314 0.8 rg
129.016 112.449 m 118.137 112.449 104.445 114.402 98.629 119.871 c 96.309
 122.055 95.82 124.297 95.82 125.797 c 95.82 128.004 97.613 129.797 99.82
 129.797 c 101.953 129.797 103.699 128.125 103.816 126.02 c 103.863 125.953
 103.953 125.844 104.113 125.695 c 106.883 123.086 116.324 120.445 129.016
 120.445 c 144.734 120.445 153.152 124.301 154.219 126.008 c 154.328 128.117
 156.074 129.797 158.211 129.797 c 160.418 129.797 162.207 128.004 162.207
 125.797 c 162.207 116.578 145.539 112.449 129.016 112.449 c h
103.82 125.797 m 103.844 125.797 l h
103.82 125.797 m f
0.976471 0.654902 0.654902 rg
140.117 260.523 m 140.117 189.148 l 140.117 174.961 151.621 163.465 165.801
 163.465 c 232.766 163.465 l 246.953 163.465 258.449 174.965 258.449 189.148
 c 258.449 202.992 l 258.449 205.445 259.676 207.738 261.715 209.098 c 273.441
 216.918 l 273.441 267.863 l 251.723 267.863 l 251.723 267.801 l 251.52 
267.82 251.324 267.863 251.113 267.863 c 147.457 267.863 l 143.402 267.863
 140.117 264.578 140.117 260.523 c h
154.797 245.848 m 154.797 249.902 158.086 253.188 162.133 253.188 c 236.438
 253.188 l 240.492 253.188 243.777 249.902 243.777 245.848 c 243.777 189.148
 l 243.777 183.074 238.848 178.145 232.766 178.145 c 165.805 178.145 l 159.723
 178.145 154.797 183.074 154.797 189.148 c h
154.797 245.848 m f
0.215686 0.384314 0.8 rg
369.754 227.645 m 286.887 227.645 l 284.68 227.645 282.887 229.438 282.887
 231.645 c 282.887 256.871 l 282.887 259.078 284.68 260.867 286.887 260.867
 c 362.414 260.867 l 368.668 260.867 373.75 255.781 373.75 249.531 c 373.75
 231.645 l 373.75 229.438 371.961 227.645 369.754 227.645 c h
290.887 235.645 m 365.754 235.645 l 365.754 249.531 l 365.754 251.375 364.254
 252.871 362.414 252.871 c 290.887 252.871 l h
290.887 235.645 m f
273.441 212.918 m 272.957 212.918 272.465 213.008 271.996 213.191 c 270.453
 213.785 269.441 215.27 269.441 216.918 c 269.441 267.863 l 269.441 269.406
 270.332 270.816 271.73 271.48 c 273.121 272.141 274.777 271.938 275.973
 270.961 c 289.422 259.973 l 290.352 259.211 290.887 258.074 290.887 256.875
 c 290.887 231.648 l 290.887 230.648 290.516 229.688 289.844 228.949 c 276.395
 214.223 l 275.621 213.379 274.543 212.918 273.441 212.918 c h
277.441 259.43 m 277.441 227.23 l 282.887 233.195 l 282.887 254.977 l h
277.441 259.43 m f
232.766 159.469 m 165.805 159.469 l 149.438 159.469 136.117 172.781 136.117
 189.148 c 136.117 260.523 l 136.117 266.773 141.207 271.863 147.457 271.863
 c 251.113 271.863 l 251.227 271.863 251.336 271.859 251.445 271.852 c 251.535
 271.859 251.629 271.863 251.727 271.863 c 273.441 271.863 l 275.652 271.863
 277.441 270.07 277.441 267.863 c 277.441 216.918 l 277.441 215.582 276.773
 214.332 275.664 213.59 c 263.938 205.773 l 263.008 205.152 262.449 204.113
 262.449 202.996 c 262.449 189.148 l 262.449 172.781 249.137 159.469 232.766
 159.469 c h
147.457 263.863 m 145.617 263.863 144.117 262.363 144.117 260.523 c 144.117
 189.148 l 144.117 177.195 153.848 167.465 165.805 167.465 c 232.766 167.465
 l 244.723 167.465 254.449 177.191 254.449 189.148 c 254.449 202.996 l 254.449
 206.793 256.336 210.32 259.5 212.43 c 269.441 219.062 l 269.441 263.863
 l 252.379 263.863 l 252.055 263.809 251.719 263.797 251.383 263.816 c 251.25
 263.828 251.113 263.848 250.98 263.863 c h
232.766 174.141 m 165.805 174.141 l 157.531 174.141 150.797 180.871 150.797
 189.148 c 150.797 245.848 l 150.797 252.098 155.887 257.188 162.133 257.188
 c 236.438 257.188 l 242.688 257.188 247.773 252.098 247.773 245.848 c 247.773
 189.148 l 247.773 180.875 241.043 174.141 232.766 174.141 c h
162.133 249.188 m 160.293 249.188 158.797 247.688 158.797 245.848 c 158.797
 189.148 l 158.797 185.285 161.938 182.141 165.805 182.141 c 232.766 182.141
 l 236.629 182.141 239.773 185.285 239.773 189.148 c 239.773 245.848 l 239.773
 247.688 238.277 249.188 236.438 249.188 c h
162.133 249.188 m f
0.976471 0.811765 0.811765 rg
395.531 191.461 m 395.531 220.949 371.488 244.852 341.828 244.852 c 312.168
 244.852 288.121 220.949 288.121 191.461 c 288.121 161.98 312.168 138.078
 341.828 138.078 c 371.488 138.078 395.531 161.98 395.531 191.461 c h
395.531 191.461 m f
0.419608 0.866667 0.866667 rg
336.016 172.48 m 347.641 172.48 l 357.77 172.48 365.984 180.695 365.984
 190.824 c 365.984 200.957 357.77 209.176 347.641 209.176 c 336.016 209.176
 l 325.883 209.176 317.672 200.957 317.672 190.824 c 317.672 180.691 325.883
 172.48 336.016 172.48 c h
336.016 172.48 m f
0.215686 0.384314 0.8 rg
347.641 168.477 m 336.016 168.477 l 323.695 168.477 313.672 178.504 313.672
 190.824 c 313.672 203.148 323.695 213.168 336.016 213.168 c 347.641 213.168
 l 359.957 213.168 369.984 203.148 369.984 190.824 c 369.984 178.504 359.957
 168.477 347.641 168.477 c h
336.016 205.172 m 328.105 205.172 321.672 198.734 321.672 190.824 c 321.672
 182.914 328.105 176.477 336.016 176.477 c 347.641 176.477 l 355.547 176.477
 361.984 182.914 361.984 190.824 c 361.984 198.734 355.547 205.172 347.641
 205.172 c h
336.016 205.172 m f
196.078 27.57 m 108.43 27.57 37.121 98.473 37.121 185.625 c 37.121 258.805
 l 37.121 345.957 108.43 416.859 196.078 416.859 c 282.723 416.859 353.402
 347.566 355.008 261.777 c 362.414 261.777 l 368.668 261.777 373.75 256.715
 373.75 250.488 c 373.75 239.246 l 389.938 228.57 399.527 210.875 399.527
 191.465 c 399.527 161.199 376.422 136.594 346.422 134.27 c 324.363 70.336
 264.293 27.57 196.078 27.57 c h
196.078 408.859 m 112.832 408.859 45.117 341.543 45.117 258.805 c 45.117
 185.625 l 45.117 102.883 112.832 35.566 196.078 35.566 c 261.746 35.566
 319.461 77.273 339.688 139.355 c 340.211 140.961 341.684 142.062 343.371
 142.109 c 370.375 142.93 391.531 164.613 391.531 191.461 c 391.531 208.812
 382.613 224.57 367.68 233.629 c 366.484 234.352 365.754 235.648 365.754
 237.043 c 365.754 250.484 l 365.754 252.305 364.254 253.781 362.414 253.781
 c 351.031 253.781 l 348.828 253.781 347.035 255.574 347.035 257.781 c 347.035
 258.805 l 347.035 341.543 279.316 408.859 196.078 408.859 c h
196.078 408.859 m f
0.27451 0.443137 0.776471 rg
7.805 380.289 m 7.805 380.289 8.336 383.348 9.559 388.277 c 11.629 396.879
 13.961 404.043 15.973 409.441 c 17.145 413.461 18.777 417.281 20.809 420.848
 c 21.281 421.668 21.77 422.477 22.281 423.27 c 26.688 431.953 32.266 440.469
 39.219 447.207 c 44.246 452.074 49.992 456.016 56.547 458.406 c 74.418 
468.141 102.672 478.336 124.453 462.078 c 132.543 473.52 145.867 480.996
 160.945 480.996 c 249.879 480.996 l 273.199 480.996 295.277 475.664 314.957
 466.164 c 337.102 457.531 360.027 443.875 376.75 422.301 c 390.109 408.312
 398.633 389.68 399.617 369.059 c 399.648 368.871 399.688 368.695 399.719
 368.504 c 399.633 368.496 l 399.68 367.348 399.719 366.199 399.719 365.043
 c 399.719 292.582 l 399.719 287.516 395.613 283.414 390.551 283.414 c 160.797
 283.414 l 136.203 283.414 116.27 303.348 116.27 327.941 c 116.27 330.168
 l 116.27 304.348 95.336 283.414 69.512 283.414 c 19.195 283.414 l 15.957
 283.414 13.102 285.543 12.156 288.641 c 1.32 324.164 3.117 356.488 7.805
 380.289 c h
7.805 380.289 m f
0.215686 0.384314 0.8 rg
341.828 134.074 m 339.617 134.074 337.828 135.867 337.828 138.074 c 337.828
 140.281 339.617 142.07 341.828 142.07 c 369.234 142.07 391.527 164.23 391.527
 191.461 c 391.527 218.695 369.234 240.852 341.828 240.852 c 330.363 240.852
 319.598 237.086 310.691 229.969 c 308.969 228.59 306.449 228.863 305.07
 230.594 c 303.688 232.316 303.969 234.836 305.695 236.215 c 315.887 244.363
 328.719 248.852 341.828 248.852 c 373.641 248.852 399.523 223.109 399.523
 191.461 c 399.523 159.82 373.641 134.074 341.828 134.074 c h
341.828 134.074 m f
0.976471 0.654902 0.654902 rg
336.016 209.172 m 333.031 209.172 330.227 208.445 327.734 207.18 c 327.734
 256.875 l 342.414 256.875 l 342.414 209.172 l h
336.016 209.172 m f
0.215686 0.384314 0.8 rg
327.734 203.18 m 327.008 203.18 326.277 203.379 325.641 203.773 c 324.457
 204.5 323.738 205.789 323.738 207.18 c 323.738 256.875 l 323.738 259.082
 325.523 260.871 327.734 260.871 c 342.414 260.871 l 344.621 260.871 346.414
 259.082 346.414 256.875 c 346.414 209.172 l 346.414 206.965 344.621 205.172
 342.414 205.172 c 336.016 205.172 l 333.762 205.172 331.582 204.648 329.543
 203.613 c 328.977 203.324 328.352 203.18 327.734 203.18 c h
331.734 252.875 m 331.734 212.754 l 333.133 213.031 334.566 213.168 336.016
 213.168 c 338.414 213.168 l 338.414 252.875 l h
331.734 252.875 m f
0.976471 0.654902 0.654902 rg
25.199 213.957 m 25.199 196.488 l 25.199 178.25 39.984 163.465 58.223 163.465
 c 83.906 163.465 l 98.09 163.465 109.59 174.965 109.59 189.148 c 109.59
 260.523 l 109.59 264.578 106.305 267.863 102.25 267.863 c 32.539 267.863
 l 32.223 267.863 31.922 267.809 31.621 267.77 c 31.621 267.863 l 28.867
 267.863 l 26.84 267.863 25.199 266.219 25.199 264.191 c h
39.879 245.848 m 39.879 249.902 43.16 253.188 47.215 253.188 c 87.578 253.188
 l 91.629 253.188 94.914 249.902 94.914 245.848 c 94.914 189.148 l 94.914
 183.074 89.984 178.145 83.906 178.145 c 58.223 178.145 l 48.09 178.145 
39.879 186.359 39.879 196.488 c h
39.879 245.848 m f
0.215686 0.384314 0.8 rg
83.906 159.469 m 58.223 159.469 l 37.809 159.469 21.199 176.078 21.199 
196.488 c 21.199 264.191 l 21.199 268.422 24.641 271.863 28.867 271.863 
c 31.621 271.863 l 31.754 271.863 31.895 271.855 32.027 271.844 c 32.203
 271.855 32.367 271.863 32.539 271.863 c 102.25 271.863 l 108.504 271.863
 113.59 266.773 113.59 260.523 c 113.59 189.148 l 113.59 172.781 100.273
 159.469 83.906 159.469 c h
29.199 263.863 m 29.199 196.488 l 29.199 180.488 42.219 167.465 58.223 
167.465 c 83.906 167.465 l 95.863 167.465 105.594 177.191 105.594 189.148
 c 105.594 260.523 l 105.594 262.363 104.098 263.863 102.254 263.863 c 32.105
 263.801 l 31.652 263.75 31.203 263.77 30.77 263.863 c h
83.906 174.141 m 58.223 174.141 l 45.898 174.141 35.879 184.168 35.879 
196.488 c 35.879 245.848 l 35.879 252.098 40.965 257.188 47.215 257.188 
c 87.578 257.188 l 93.824 257.188 98.914 252.098 98.914 245.848 c 98.914
 189.148 l 98.914 180.875 92.184 174.141 83.906 174.141 c h
47.215 249.188 m 45.371 249.188 43.875 247.688 43.875 245.848 c 43.875 
196.488 l 43.875 188.578 50.312 182.141 58.223 182.141 c 83.906 182.141 
l 87.773 182.141 90.914 185.285 90.914 189.148 c 90.914 245.848 l 90.914
 247.688 89.414 249.188 87.578 249.188 c h
47.215 249.188 m f
0.419608 0.866667 0.866667 rg
101.219 211.238 m 137.906 211.238 l 142.973 211.238 147.082 215.34 147.082
 220.406 c 147.082 225.473 142.973 229.582 137.906 229.582 c 101.219 229.582
 l 96.152 229.582 92.043 225.473 92.043 220.406 c 92.043 215.34 96.152 211.238
 101.219 211.238 c h
101.219 211.238 m f
0.215686 0.384314 0.8 rg
137.91 207.238 m 101.219 207.238 l 93.953 207.238 88.047 213.145 88.047
 220.406 c 88.047 227.672 93.953 233.582 101.219 233.582 c 137.91 233.582
 l 145.176 233.582 151.086 227.672 151.086 220.406 c 151.086 213.145 145.176
 207.238 137.91 207.238 c h
101.219 225.582 m 98.363 225.582 96.043 223.262 96.043 220.406 c 96.043
 217.555 98.363 215.234 101.219 215.234 c 137.91 215.234 l 140.766 215.234
 143.086 217.555 143.086 220.406 c 143.086 223.262 140.766 225.582 137.91
 225.582 c h
101.219 225.582 m f
0.27451 0.443137 0.776471 rg
369.754 237.047 m 369.754 250.484 l 369.754 254.516 366.469 257.781 362.414
 257.781 c 351.031 257.781 l 351.031 258.805 l 351.031 267.18 350.332 275.398
 349.043 283.414 c 385.164 283.414 l 383.77 260.602 380.699 241.387 378.621
 230.293 c 375.91 232.832 372.949 235.109 369.754 237.047 c h
369.754 237.047 m f
0.215686 0.384314 0.8 rg
390.547 279.414 m 160.797 279.414 l 140.547 279.414 123.152 291.883 115.891
 309.547 c 107.973 291.809 90.164 279.414 69.516 279.414 c 19.195 279.414
 l 14.168 279.414 9.805 282.656 8.332 287.477 c -0.891 317.699 -2.391 349.176
 3.867 381.02 c 3.945 381.438 4.496 384.492 5.672 389.234 c 7.469 396.715
 9.66 403.941 12.172 410.699 c 13.414 414.918 15.148 418.996 17.336 422.824
 c 17.805 423.652 18.293 424.461 18.805 425.258 c 23.969 435.395 29.898 
443.746 36.43 450.074 c 42.117 455.582 48.324 459.613 54.887 462.055 c 74.164
 472.512 101.242 481.516 123.582 467.516 c 132.801 478.527 146.488 485 160.941
 485 c 249.875 485 l 273.23 485 295.66 479.895 316.555 469.836 c 343.52 
459.301 364.789 444.191 379.781 424.914 c 394.098 409.859 402.547 390.207
 403.598 369.52 c 403.66 369.172 l 403.734 368.723 403.734 368.266 403.656
 367.828 c 403.691 366.902 403.715 365.977 403.715 365.043 c 403.715 292.586
 l 403.715 285.32 397.805 279.414 390.547 279.414 c h
120.27 330.172 m 120.27 327.945 l 120.27 305.598 138.449 287.41 160.797
 287.41 c 390.547 287.41 l 393.402 287.41 395.723 289.73 395.723 292.586
 c 395.723 365.043 l 395.723 366.148 395.68 367.242 395.637 368.332 c 395.633
 368.453 395.633 368.566 395.637 368.68 c 395.633 368.742 395.625 368.809
 395.621 368.867 c 394.723 387.797 386.988 405.789 373.852 419.539 c 373.758
 419.637 373.668 419.742 373.582 419.852 c 359.457 438.074 339.242 452.402
 313.504 462.438 c 313.406 462.477 313.312 462.52 313.215 462.562 c 293.375
 472.145 272.066 477 249.875 477 c 160.941 477 l 147.766 477 135.344 470.562
 127.715 459.773 c 127.094 458.891 126.141 458.301 125.074 458.129 c 124.02
 457.957 122.926 458.23 122.059 458.875 c 102.434 473.527 76.641 464.797
 58.461 454.895 c 58.285 454.801 58.102 454.719 57.918 454.648 c 52.312 
452.605 46.957 449.137 41.996 444.336 c 36.066 438.586 30.633 430.887 25.848
 421.465 c 25.789 421.34 25.719 421.223 25.645 421.109 c 25.172 420.375 
24.715 419.629 24.281 418.863 c 22.383 415.539 20.875 411.988 19.809 408.324
 c 19.781 408.23 19.75 408.137 19.715 408.047 c 17.301 401.555 15.188 394.586
 13.445 387.34 c 12.27 382.609 11.746 379.633 11.738 379.602 c 11.734 379.574
 11.73 379.547 11.723 379.52 c 5.711 348.965 7.141 318.781 15.98 289.816
 c 16.414 288.402 17.73 287.414 19.191 287.414 c 69.508 287.414 l 93.086
 287.414 112.27 306.598 112.27 330.176 c 112.27 332.379 114.059 334.172 
116.266 334.172 c 118.473 334.172 120.27 332.375 120.27 330.172 c h
7.801 380.285 m 7.82 380.285 l h
7.801 380.285 m f
378.625 226.293 m 377.625 226.293 376.645 226.668 375.895 227.371 c 373.328
 229.773 370.566 231.879 367.68 233.633 c 366.484 234.355 365.754 235.652
 365.754 237.047 c 365.754 250.488 l 365.754 252.305 364.258 253.781 362.414
 253.781 c 351.035 253.781 l 348.832 253.781 347.039 255.574 347.039 257.781
 c 347.039 258.805 l 347.039 266.738 346.387 274.805 345.098 282.777 c 344.91
 283.93 345.242 285.113 346 286.004 c 346.762 286.898 347.875 287.41 349.043
 287.41 c 385.164 287.41 l 386.27 287.41 387.324 286.957 388.078 286.152
 c 388.836 285.348 389.227 284.27 389.156 283.172 c 387.781 260.625 384.809
 241.57 382.555 229.555 c 382.285 228.117 381.258 226.945 379.867 226.492
 c 379.465 226.355 379.043 226.293 378.625 226.293 c h
373.75 239.242 m 374.473 238.762 375.188 238.262 375.891 237.746 c 377.711
 248.484 379.715 262.887 380.891 279.414 c 353.668 279.414 l 354.441 273.539
 354.891 267.633 355.004 261.777 c 362.414 261.777 l 368.664 261.777 373.75
 256.715 373.75 250.488 c h
373.75 239.242 m f
1 0.917647 0.572549 rg
409.152 243.27 m 407.125 244.594 404.547 244.973 402.07 244.312 c 399.395
 243.594 397.254 241.812 396.191 239.422 c 394.68 236.035 395.828 232.207
 398.973 230.117 c 402.688 227.648 405.25 224.156 406.379 220.023 c 407.508
 215.891 407.074 211.582 405.129 207.57 c 403.477 204.168 404.438 200.289
 407.461 198.137 c 409.566 196.637 412.285 196.184 414.926 196.891 c 417.434
 197.562 419.496 199.207 420.578 201.41 c 424.203 208.754 425.059 216.973
 422.988 224.559 c 420.914 232.141 416.004 238.781 409.152 243.27 c h
409.152 243.27 m f
420.195 270.473 m 418.297 271.391 416.078 271.582 413.953 271.012 c 411.293
 270.301 409.152 268.523 408.09 266.137 c 406.41 262.371 408.027 258.137
 411.848 256.285 c 424.012 250.398 432.562 240.383 435.918 228.086 c 439.277
 215.785 437 202.82 429.516 191.566 c 427.16 188.031 427.922 183.562 431.289
 181.168 c 433.387 179.676 436.094 179.223 438.727 179.926 c 440.883 180.504
 442.723 181.805 443.91 183.59 c 453.98 198.668 457.039 216.078 452.523 
232.617 c 448.012 249.152 436.531 262.594 420.195 270.473 c h
420.195 270.473 m f
431.609 297.059 m 429.801 297.836 427.711 297.977 425.734 297.445 c 423.105
 296.742 420.91 294.918 419.863 292.559 c 419.031 290.695 418.973 288.652
 419.688 286.812 c 420.418 284.938 421.891 283.449 423.828 282.617 c 444.668
 273.645 459.848 256.707 465.461 236.148 c 471.07 215.586 466.609 193.289
 453.215 174.973 c 451.969 173.27 451.461 171.238 451.781 169.25 c 452.098
 167.301 453.188 165.574 454.855 164.391 c 456.957 162.895 459.672 162.441
 462.305 163.148 c 462.309 163.148 l 464.316 163.684 466.074 164.871 467.254
 166.484 c 483.48 188.688 488.879 215.727 482.066 240.676 c 475.258 265.633
 456.863 286.176 431.609 297.059 c h
431.609 297.059 m f
Q Q
showpage
%%Trailer
end restore
%%EOF
