%!PS-Adobe-3.0 EPSF-3.0
%%Creator: cairo 1.14.8 (http://cairographics.org)
%%CreationDate: Wed Mar 20 09:06:38 2019
%%Pages: 1
%%DocumentData: Clean7Bit
%%LanguageLevel: 2
%%BoundingBox: 15 0 471 485
%%EndComments
%%BeginProlog
save
50 dict begin
/q { gsave } bind def
/Q { grestore } bind def
/cm { 6 array astore concat } bind def
/w { setlinewidth } bind def
/J { setlinecap } bind def
/j { setlinejoin } bind def
/M { setmiterlimit } bind def
/d { setdash } bind def
/m { moveto } bind def
/l { lineto } bind def
/c { curveto } bind def
/h { closepath } bind def
/re { exch dup neg 3 1 roll 5 3 roll moveto 0 rlineto
      0 exch rlineto 0 rlineto closepath } bind def
/S { stroke } bind def
/f { fill } bind def
/f* { eofill } bind def
/n { newpath } bind def
/W { clip } bind def
/W* { eoclip } bind def
/BT { } bind def
/ET { } bind def
/pdfmark where { pop globaldict /?pdfmark /exec load put }
    { globaldict begin /?pdfmark /pop load def /pdfmark
    /cleartomark load def end } ifelse
/BDC { mark 3 1 roll /BDC pdfmark } bind def
/EMC { mark /EMC pdfmark } bind def
/cairo_store_point { /cairo_point_y exch def /cairo_point_x exch def } def
/Tj { show currentpoint cairo_store_point } bind def
/TJ {
  {
    dup
    type /stringtype eq
    { show } { -0.001 mul 0 cairo_font_matrix dtransform rmoveto } ifelse
  } forall
  currentpoint cairo_store_point
} bind def
/cairo_selectfont { cairo_font_matrix aload pop pop pop 0 0 6 array astore
    cairo_font exch selectfont cairo_point_x cairo_point_y moveto } bind def
/Tf { pop /cairo_font exch def /cairo_font_matrix where
      { pop cairo_selectfont } if } bind def
/Td { matrix translate cairo_font_matrix matrix concatmatrix dup
      /cairo_font_matrix exch def dup 4 get exch 5 get cairo_store_point
      /cairo_font where { pop cairo_selectfont } if } bind def
/Tm { 2 copy 8 2 roll 6 array astore /cairo_font_matrix exch def
      cairo_store_point /cairo_font where { pop cairo_selectfont } if } bind def
/g { setgray } bind def
/rg { setrgbcolor } bind def
/d1 { setcachedevice } bind def
%%EndProlog
%%BeginSetup
%%EndSetup
%%Page: 1 1
%%BeginPageSetup
%%PageBoundingBox: 15 0 471 485
%%EndPageSetup
q 15 0 456 485 rectclip q
0.976471 0.811765 0.811765 rg
289.738 367.426 m 266.582 398.094 230.379 416.129 191.949 416.129 c 167.625
 416.129 l 134.871 416.129 103.215 405.246 77.465 385.469 c 77.465 385.461
 l 77.465 385.461 60.121 370.02 58.086 342.703 c 58.086 76.992 l 58.086 
63.086 60.926 49.32 66.43 36.547 c 74.938 16.793 94.387 3.992 115.895 3.992
 c 141.586 3.992 l 190.582 3.992 235.191 32.23 256.156 76.512 c 274.277 
114.781 l 300.742 170.68 314.473 231.758 314.473 293.602 c 314.473 320.242
 305.793 346.16 289.738 367.426 c h
289.738 367.426 m f
0.976471 0.654902 0.654902 rg
249.547 338.891 m 237.07 354.895 217.254 364.449 196.543 364.449 c 172.289
 364.449 l 160.895 364.301 152.926 360.91 150.621 359.809 c 142.555 355.848
 121.047 343.078 118.824 318.672 c 118.824 90.953 l 118.832 85.91 122.312
 81.473 127.305 79.758 c 136.73 76.52 153.719 72.875 172.207 79.371 c 188.605
 85.668 202.406 97.77 210.176 113.668 c 228.246 150.617 l 250.949 197.051
 262.957 248.758 262.957 300.145 c 262.961 314.039 258.191 327.797 249.547
 338.891 c h
249.547 338.891 m f
0.27451 0.443137 0.776471 rg
142.402 71.773 m 119.188 71.773 l 116.984 71.773 115.195 73.566 115.195
 75.77 c 115.195 77.977 116.984 79.762 119.188 79.762 c 142.402 79.762 l
 175.141 79.762 201.777 103.055 201.777 131.684 c 201.777 160.316 175.141
 183.605 142.402 183.605 c 128.316 183.605 l 121.078 183.605 115.195 189.348
 115.195 196.406 c 115.195 311.762 l 115.195 342.82 140.988 368.242 172.691
 368.441 c 196.473 368.441 l 218.426 368.441 239.438 358.34 252.68 341.418
 c 261.879 329.656 266.949 315.059 266.949 300.316 c 266.949 284.172 265.711
 267.801 263.277 251.664 c 262.953 249.48 260.918 247.977 258.73 248.309
 c 256.551 248.641 255.051 250.672 255.383 252.852 c 257.758 268.605 258.961
 284.57 258.961 300.316 c 258.961 313.285 254.496 326.133 246.391 336.496
 c 234.648 351.496 215.988 360.457 196.473 360.457 c 172.754 360.457 l 145.414
 360.289 123.18 338.441 123.18 311.762 c 123.18 196.406 l 123.18 193.754
 125.488 191.594 128.316 191.594 c 142.402 191.594 l 179.547 191.594 209.766
 164.719 209.766 131.684 c 209.766 98.648 179.547 71.773 142.402 71.773 
c h
142.402 71.773 m f
1 0.917647 0.572549 rg
362.137 407.457 m 359.121 408.75 355.578 408.652 352.422 407.176 c 349.016
 405.59 346.57 402.703 345.707 399.258 c 344.492 394.367 346.926 389.52 
351.629 387.461 c 357.18 385.031 361.43 380.969 363.914 375.711 c 366.395
 370.445 366.828 364.586 365.176 358.758 c 363.77 353.82 365.969 348.859
 370.52 346.691 c 373.688 345.188 377.434 345.223 380.797 346.793 c 383.992
 348.281 386.359 350.973 387.293 354.164 c 390.41 364.84 389.613 376.035
 385.055 385.691 c 380.5 395.344 372.359 403.078 362.137 407.457 c h
362.137 407.457 m f
370.496 446.441 m 367.734 447.223 364.723 446.957 362.02 445.691 c 358.629
 444.109 356.188 441.234 355.328 437.793 c 353.973 432.359 357.133 427.07
 362.68 425.5 c 380.34 420.496 394.133 409.117 401.52 393.461 c 408.91 377.805
 408.926 359.926 401.57 343.113 c 399.258 337.828 401.328 332.027 406.395
 329.617 c 409.551 328.117 413.281 328.152 416.637 329.715 c 419.379 330.996
 421.535 333.168 422.707 335.836 c 432.617 358.379 432.602 382.387 422.664
 403.438 c 412.727 424.488 394.199 439.762 370.496 446.441 c h
370.496 446.441 m f
379.488 484.688 m 376.883 485.305 374.059 485 371.539 483.824 c 368.195
 482.262 365.688 479.305 364.836 475.906 c 364.168 473.215 364.566 470.473
 365.961 468.184 c 367.383 465.852 369.703 464.203 372.488 463.543 c 402.484
 456.457 426.773 437.387 439.121 411.215 c 451.477 385.039 450.766 354.168
 437.172 326.516 c 435.91 323.941 435.707 321.105 436.605 318.523 c 437.488
 315.988 439.348 313.941 441.859 312.742 c 445.023 311.238 448.762 311.273
 452.117 312.836 c 452.117 312.84 l 454.676 314.035 456.746 316.035 457.945
 318.477 c 474.41 351.992 475.254 389.434 460.266 421.195 c 445.277 452.953
 415.832 476.098 379.488 484.688 c h
379.488 484.688 m f
0.643137 0.788235 1 rg
320.336 390.52 m 290.113 430.562 242.117 454.465 191.949 454.465 c 167.625
 454.465 l 130.562 454.465 94.984 443.543 64.664 423.375 c 49.062 412.309
 36.289 394.598 36.285 394.586 c 28.457 380.402 19.75 356.711 19.75 321.48
 c 19.75 222.039 l 19.75 203.516 34.77 188.496 53.297 188.496 c 58.086 188.496
 l 58.086 342.703 l 59.496 366.184 76.664 384.613 77.395 385.395 c 103.156
 405.215 134.84 416.125 167.625 416.125 c 191.953 416.125 l 227.832 416.125
 261.762 400.398 284.953 373.348 c 285.234 373.016 285.508 372.691 285.797
 372.34 c 286.34 371.695 286.852 371.02 287.379 370.367 c 297.238 357.812
 311.617 334.484 314.477 302.637 c 314.477 293.598 l 314.477 267.457 312.008
 241.453 307.168 215.922 c 305.398 206.574 309.121 196.797 317.094 191.621
 c 328.398 184.281 341.074 190.77 343.32 201.621 c 349.578 231.902 352.812
 262.789 352.812 293.598 c 352.809 328.359 341.277 362.781 320.336 390.52
 c h
320.336 390.52 m f
0.215686 0.384314 0.8 rg
141.59 0 m 115.895 0 l 92.77 0 71.914 13.723 62.766 34.969 c 57.012 48.32
 54.094 62.457 54.094 76.992 c 54.094 342.703 l 54.094 342.801 54.098 342.902
 54.109 343 c 56.133 370.262 72.43 386.234 74.602 388.246 c 74.734 388.387
 74.879 388.52 75.035 388.641 c 101.469 408.941 134.352 420.121 167.629 
420.121 c 191.953 420.121 l 231.414 420.121 269.156 401.32 292.93 369.828
 c 309.398 348.008 318.473 320.938 318.473 293.602 c 318.473 231.566 304.438
 169.141 277.891 113.074 c 259.77 74.801 l 238.254 29.359 191.867 0 141.59
 0 c h
62.082 342.555 m 62.082 76.992 l 62.082 63.551 64.781 50.473 70.098 38.125
 c 77.984 19.816 95.965 7.988 115.898 7.988 c 141.59 7.988 l 188.797 7.988
 232.352 35.555 252.551 78.219 c 270.668 116.492 l 296.719 171.496 310.484
 232.742 310.484 293.602 c 310.484 319.211 301.984 344.574 286.555 365.02
 c 264.285 394.52 228.922 412.133 191.953 412.133 c 167.625 412.133 l 136.184
 412.133 105.113 401.598 80.102 382.461 c 79.465 381.871 63.977 367.32 62.082
 342.555 c h
62.082 342.555 m f
58.086 184.504 m 53.297 184.504 l 32.602 184.504 15.762 201.344 15.762 
222.039 c 15.762 321.48 l 15.762 357.992 25.02 382.441 32.785 396.516 c 
32.863 396.66 32.957 396.805 33.051 396.934 c 33.598 397.68 46.531 415.41
 62.355 426.629 c 93.68 447.477 130.051 458.457 167.629 458.457 c 191.953
 458.457 l 243.367 458.457 292.551 433.957 323.527 392.926 c 344.992 364.496
 356.809 329.223 356.809 293.602 c 356.809 262.77 353.586 231.551 347.234
 200.82 c 345.863 194.203 341.316 188.691 335.062 186.082 c 328.582 183.371
 321.238 184.172 314.922 188.273 c 305.84 194.172 301.148 205.578 303.246
 216.668 c 308.047 242.004 310.484 267.887 310.484 293.602 c 310.484 302.461
 l 307.75 332.406 294.707 354.57 284.238 367.902 c 283.68 368.605 l 283.367
 368.996 283.059 369.391 282.738 369.773 c 282.43 370.152 282.172 370.457
 281.902 370.773 c 259.375 397.051 226.586 412.133 191.953 412.133 c 167.625
 412.133 l 136.184 412.133 105.113 401.59 80.098 382.438 c 78.078 380.223
 63.383 363.453 62.082 342.582 c 62.082 188.496 l 62.082 186.289 60.297 
184.504 58.086 184.504 c h
167.625 420.121 m 191.953 420.121 l 228.918 420.121 263.918 404.02 287.984
 375.949 c 288.297 375.578 288.59 375.238 288.891 374.867 c 289.23 374.465
 289.586 374.012 289.941 373.555 c 290.488 372.871 l 301.676 358.629 315.578
 334.98 318.453 302.996 c 318.465 302.883 318.469 302.762 318.469 302.641
 c 318.469 293.602 l 318.469 267.387 315.988 241.004 311.094 215.184 c 309.59
 207.246 312.879 199.129 319.27 194.973 c 323.398 192.293 327.918 191.758
 331.984 193.453 c 335.797 195.047 338.574 198.406 339.41 202.434 c 345.652
 232.637 348.82 263.312 348.82 293.602 c 348.82 327.496 337.574 361.062 
317.148 388.113 c 287.676 427.16 240.879 450.469 191.953 450.469 c 167.625
 450.469 l 131.629 450.469 96.785 439.953 66.875 420.051 c 52.875 410.117
 41.133 394.441 39.656 392.434 c 32.367 379.145 23.746 356.098 23.746 321.477
 c 23.746 222.039 l 23.746 205.742 37.004 192.484 53.297 192.484 c 54.094
 192.484 l 54.094 342.703 l 54.094 342.781 54.094 342.863 54.102 342.941
 c 55.59 367.797 73.719 387.32 74.488 388.133 c 74.637 388.289 74.793 388.434
 74.957 388.562 c 101.41 408.914 134.32 420.121 167.625 420.121 c h
167.625 420.121 m f
0.27451 0.443137 0.776471 rg
118.828 226.273 m 118.582 226.273 118.336 226.297 118.09 226.344 c 115.918
 226.754 114.492 228.84 114.898 231.004 c 115.41 233.723 127.785 297.652
 162.984 309.457 c 178.773 314.754 196.305 308.773 215.082 291.684 c 216.719
 290.199 216.836 287.676 215.352 286.039 c 213.871 284.414 211.344 284.289
 209.715 285.777 c 193.238 300.766 178.379 306.188 165.531 301.887 c 134.762
 291.574 122.871 230.156 122.754 229.535 c 122.391 227.613 120.711 226.273
 118.828 226.273 c h
118.828 226.273 m f
135.395 174.918 m 87.211 174.918 l 61.203 174.918 40.117 196 40.117 222.012
 c 40.117 248.016 61.203 269.105 87.211 269.105 c 135.395 269.105 l 161.406
 269.105 182.492 248.02 182.492 222.012 c 182.488 196 161.406 174.918 135.395
 174.918 c h
135.395 174.918 m f
0.215686 0.384314 0.8 rg
135.395 170.922 m 87.211 170.922 l 59.043 170.922 36.125 193.84 36.125 
222.008 c 36.125 250.176 59.043 273.094 87.211 273.094 c 135.395 273.094
 l 163.566 273.094 186.484 250.176 186.484 222.008 c 186.484 193.84 163.566
 170.922 135.395 170.922 c h
87.211 265.109 m 63.445 265.109 44.109 245.773 44.109 222.012 c 44.109 
198.246 63.445 178.914 87.211 178.914 c 135.395 178.914 l 159.164 178.914
 178.5 198.246 178.5 222.012 c 178.5 245.773 159.164 265.109 135.395 265.109
 c h
87.211 265.109 m f
Q Q
showpage
%%Trailer
end restore
%%EOF
