%!PS-Adobe-3.0 EPSF-3.0
%%Creator: cairo 1.14.8 (http://cairographics.org)
%%CreationDate: Wed Mar 20 09:06:38 2019
%%Pages: 1
%%DocumentData: Clean7Bit
%%LanguageLevel: 2
%%BoundingBox: 53 0 434 487
%%EndComments
%%BeginProlog
save
50 dict begin
/q { gsave } bind def
/Q { grestore } bind def
/cm { 6 array astore concat } bind def
/w { setlinewidth } bind def
/J { setlinecap } bind def
/j { setlinejoin } bind def
/M { setmiterlimit } bind def
/d { setdash } bind def
/m { moveto } bind def
/l { lineto } bind def
/c { curveto } bind def
/h { closepath } bind def
/re { exch dup neg 3 1 roll 5 3 roll moveto 0 rlineto
      0 exch rlineto 0 rlineto closepath } bind def
/S { stroke } bind def
/f { fill } bind def
/f* { eofill } bind def
/n { newpath } bind def
/W { clip } bind def
/W* { eoclip } bind def
/BT { } bind def
/ET { } bind def
/pdfmark where { pop globaldict /?pdfmark /exec load put }
    { globaldict begin /?pdfmark /pop load def /pdfmark
    /cleartomark load def end } ifelse
/BDC { mark 3 1 roll /BDC pdfmark } bind def
/EMC { mark /EMC pdfmark } bind def
/cairo_store_point { /cairo_point_y exch def /cairo_point_x exch def } def
/Tj { show currentpoint cairo_store_point } bind def
/TJ {
  {
    dup
    type /stringtype eq
    { show } { -0.001 mul 0 cairo_font_matrix dtransform rmoveto } ifelse
  } forall
  currentpoint cairo_store_point
} bind def
/cairo_selectfont { cairo_font_matrix aload pop pop pop 0 0 6 array astore
    cairo_font exch selectfont cairo_point_x cairo_point_y moveto } bind def
/Tf { pop /cairo_font exch def /cairo_font_matrix where
      { pop cairo_selectfont } if } bind def
/Td { matrix translate cairo_font_matrix matrix concatmatrix dup
      /cairo_font_matrix exch def dup 4 get exch 5 get cairo_store_point
      /cairo_font where { pop cairo_selectfont } if } bind def
/Tm { 2 copy 8 2 roll 6 array astore /cairo_font_matrix exch def
      cairo_store_point /cairo_font where { pop cairo_selectfont } if } bind def
/g { setgray } bind def
/rg { setrgbcolor } bind def
/d1 { setcachedevice } bind def
%%EndProlog
%%BeginSetup
%%EndSetup
%%Page: 1 1
%%BeginPageSetup
%%PageBoundingBox: 53 0 434 487
%%EndPageSetup
q 53 0 381 487 rectclip q
0.976471 0.811765 0.811765 rg
312.488 429.426 m 287.012 463.168 247.188 483.008 204.91 483.008 c 178.145
 483.008 l 151.652 483.008 125.836 476.496 102.754 464.426 c 93.699 459.297
 84.543 451.031 84.461 450.953 c 74.199 439.926 67.633 426.707 67.438 426.312
 c 62.074 412.938 57.641 394.105 57.641 368.324 c 57.641 109.914 l 57.641
 94.605 60.762 79.465 66.812 65.41 c 76.18 43.68 97.574 29.602 121.238 29.602
 c 149.5 29.602 l 203.402 29.602 252.48 60.66 275.547 109.379 c 295.48 151.484
 l 324.598 212.98 339.699 280.176 339.699 348.215 c 339.699 377.523 330.145
 406.035 312.488 429.426 c h
312.488 429.426 m f
0.976471 0.654902 0.654902 rg
271.695 396.77 m 257.891 414.457 235.961 425.016 213.039 425.016 c 186.199
 425.016 l 173.586 424.852 164.766 421.105 162.219 419.887 c 153.289 415.504
 129.488 401.402 127.027 374.434 c 127.027 122.824 l 127.039 117.254 130.887
 112.352 136.414 110.453 c 146.844 106.879 165.648 102.848 186.109 110.027
 c 204.258 116.984 219.523 130.355 228.129 147.918 c 248.121 188.746 l 273.254
 240.055 286.539 297.188 286.539 353.965 c 286.539 369.312 281.266 384.516
 271.695 396.77 c h
271.695 396.77 m f
0.27451 0.443137 0.776471 rg
152.57 99.434 m 126.773 99.434 l 124.57 99.434 122.781 101.219 122.781 
103.426 c 122.781 105.629 124.57 107.418 126.773 107.418 c 152.57 107.418
 l 189.199 107.418 218.996 133.57 218.996 165.711 c 218.996 197.859 189.199
 224.008 152.57 224.008 c 136.922 224.008 l 129.125 224.008 122.781 230.203
 122.781 237.812 c 122.781 366.316 l 122.781 400.668 151.246 428.789 186.23
 429.004 c 186.91 429.008 l 212.66 429.008 l 236.918 429.008 260.137 417.812
 274.773 399.07 c 284.934 386.047 290.535 369.891 290.535 353.566 c 290.535
 335.621 289.164 317.41 286.457 299.438 c 286.129 297.254 284.078 295.762
 281.91 296.086 c 279.73 296.414 278.23 298.445 278.559 300.629 c 281.207
 318.203 282.547 336.012 282.547 353.566 c 282.547 368.113 277.551 382.527
 268.477 394.152 c 255.344 410.977 234.477 421.02 212.66 421.02 c 186.293
 421.016 l 155.672 420.824 130.773 396.293 130.773 366.316 c 130.773 237.812
 l 130.773 234.605 133.531 231.996 136.922 231.996 c 152.574 231.996 l 193.605
 231.996 226.984 202.262 226.984 165.711 c 226.984 129.164 193.602 99.434
 152.57 99.434 c h
152.57 99.434 m f
127.398 261.566 m 127.156 261.566 126.906 261.59 126.656 261.637 c 124.488
 262.043 123.066 264.129 123.473 266.297 c 123.977 269.012 136.355 332.949
 171.559 344.754 c 187.352 350.059 204.887 344.07 223.672 326.984 c 225.301
 325.496 225.422 322.973 223.934 321.34 c 222.457 319.711 219.926 319.59
 218.297 321.074 c 201.82 336.066 186.965 341.484 174.109 337.184 c 143.336
 326.875 131.441 265.441 131.324 264.824 c 130.961 262.898 129.281 261.566
 127.398 261.566 c h
127.398 261.566 m f
0.215686 0.384314 0.8 rg
149.5 25.609 m 121.238 25.609 l 95.949 25.609 73.152 40.609 63.148 63.832
 c 56.84 78.469 53.645 93.973 53.645 109.91 c 53.645 368.32 l 53.645 391.094
 57.039 411.102 63.727 427.801 c 63.77 427.891 63.809 427.988 63.855 428.082
 c 64.141 428.656 70.949 442.289 81.535 453.672 c 81.605 453.75 81.68 453.82
 81.754 453.891 c 81.848 453.977 91.293 462.516 100.781 467.895 c 124.707
 480.418 151.418 487 178.145 487 c 204.91 487 l 248.188 487 289.594 466.379
 315.676 431.836 c 333.746 407.898 343.695 378.199 343.695 348.215 c 343.695
 280.027 328.27 211.41 299.09 149.777 c 279.152 107.672 l 255.547 57.816
 204.66 25.609 149.5 25.609 c h
71.082 424.676 m 64.812 408.961 61.633 390 61.633 368.32 c 61.633 109.91
 l 61.633 95.062 64.609 80.625 70.484 66.992 c 79.227 46.703 99.148 33.594
 121.238 33.594 c 149.5 33.594 l 201.586 33.594 249.645 64.012 271.934 111.086
 c 291.871 153.191 l 320.547 213.766 335.707 281.199 335.707 348.211 c 335.707
 376.473 326.324 404.461 309.297 427.016 c 284.719 459.57 245.695 479.008
 204.91 479.008 c 178.145 479.008 l 152.703 479.008 127.273 472.738 104.605
 460.883 c 96.578 456.332 88.332 449.051 87.262 448.102 c 77.949 438.047
 71.824 426.145 71.082 424.676 c h
71.082 424.676 m f
0.976471 0.654902 0.654902 rg
429.258 118.824 m 429.258 55.402 377.848 3.996 314.43 3.996 c 251.008 3.996
 199.602 55.402 199.602 118.824 c 199.602 182.242 251.008 233.652 314.43
 233.652 c 377.848 233.652 429.258 182.242 429.258 118.824 c h
429.258 118.824 m f
1 0.917647 0.572549 rg
374.328 178.727 m 341.137 211.922 287.406 212.008 254.324 178.922 c 221.238
 145.84 221.324 92.109 254.52 58.918 c 287.711 25.727 341.441 25.641 374.523
 58.723 c 407.609 91.805 407.523 145.535 374.328 178.727 c h
374.328 178.727 m f
0.215686 0.384314 0.8 rg
314.43 0 m 248.906 0 195.605 53.301 195.605 118.824 c 195.605 184.344 248.906
 237.648 314.43 237.648 c 379.949 237.648 433.254 184.344 433.254 118.824
 c 433.254 53.301 379.949 0 314.43 0 c h
314.43 229.66 m 253.312 229.66 203.594 179.938 203.594 118.824 c 203.594
 57.707 253.312 7.988 314.43 7.988 c 375.543 7.988 425.266 57.707 425.266
 118.824 c 425.266 179.938 375.543 229.66 314.43 229.66 c h
314.43 229.66 m f
0.976471 0.654902 0.654902 rg
333.883 117.145 m 359.961 143.223 l 362.344 145.605 364 148.695 364.297
 152.051 c 364.668 156.191 363.219 160.145 360.328 163.035 c 357.434 165.934
 353.473 167.379 349.336 167.012 c 345.98 166.715 342.891 165.055 340.508
 162.672 c 314.43 136.59 l 288.352 162.672 l 285.969 165.055 282.879 166.715
 279.523 167.012 c 275.387 167.379 271.426 165.934 268.531 163.035 c 265.645
 160.141 264.195 156.191 264.562 152.051 c 264.859 148.699 266.52 145.605
 268.902 143.223 c 294.98 117.145 l 268.902 91.066 l 266.523 88.688 264.863
 85.594 264.562 82.242 c 264.191 78.102 265.641 74.141 268.531 71.246 c 
271.426 68.348 275.387 66.906 279.523 67.273 c 282.879 67.57 285.969 69.23
 288.352 71.609 c 314.43 97.691 l 340.508 71.609 l 342.891 69.23 345.98 
67.57 349.336 67.273 c 353.477 66.906 357.434 68.348 360.328 71.246 c 363.219
 74.141 364.668 78.102 364.297 82.242 c 364 85.594 362.34 88.688 359.957
 91.066 c h
333.883 117.145 m f
Q Q
showpage
%%Trailer
end restore
%%EOF
