%!PS-Adobe-3.0 EPSF-3.0
%%Creator: cairo 1.14.8 (http://cairographics.org)
%%CreationDate: Wed Mar 20 09:06:38 2019
%%Pages: 1
%%DocumentData: Clean7Bit
%%LanguageLevel: 2
%%BoundingBox: 1 0 473 473
%%EndComments
%%BeginProlog
save
50 dict begin
/q { gsave } bind def
/Q { grestore } bind def
/cm { 6 array astore concat } bind def
/w { setlinewidth } bind def
/J { setlinecap } bind def
/j { setlinejoin } bind def
/M { setmiterlimit } bind def
/d { setdash } bind def
/m { moveto } bind def
/l { lineto } bind def
/c { curveto } bind def
/h { closepath } bind def
/re { exch dup neg 3 1 roll 5 3 roll moveto 0 rlineto
      0 exch rlineto 0 rlineto closepath } bind def
/S { stroke } bind def
/f { fill } bind def
/f* { eofill } bind def
/n { newpath } bind def
/W { clip } bind def
/W* { eoclip } bind def
/BT { } bind def
/ET { } bind def
/pdfmark where { pop globaldict /?pdfmark /exec load put }
    { globaldict begin /?pdfmark /pop load def /pdfmark
    /cleartomark load def end } ifelse
/BDC { mark 3 1 roll /BDC pdfmark } bind def
/EMC { mark /EMC pdfmark } bind def
/cairo_store_point { /cairo_point_y exch def /cairo_point_x exch def } def
/Tj { show currentpoint cairo_store_point } bind def
/TJ {
  {
    dup
    type /stringtype eq
    { show } { -0.001 mul 0 cairo_font_matrix dtransform rmoveto } ifelse
  } forall
  currentpoint cairo_store_point
} bind def
/cairo_selectfont { cairo_font_matrix aload pop pop pop 0 0 6 array astore
    cairo_font exch selectfont cairo_point_x cairo_point_y moveto } bind def
/Tf { pop /cairo_font exch def /cairo_font_matrix where
      { pop cairo_selectfont } if } bind def
/Td { matrix translate cairo_font_matrix matrix concatmatrix dup
      /cairo_font_matrix exch def dup 4 get exch 5 get cairo_store_point
      /cairo_font where { pop cairo_selectfont } if } bind def
/Tm { 2 copy 8 2 roll 6 array astore /cairo_font_matrix exch def
      cairo_store_point /cairo_font where { pop cairo_selectfont } if } bind def
/g { setgray } bind def
/rg { setrgbcolor } bind def
/d1 { setcachedevice } bind def
%%EndProlog
%%BeginSetup
%%EndSetup
%%Page: 1 1
%%BeginPageSetup
%%PageBoundingBox: 1 0 473 473
%%EndPageSetup
q 1 0 472 473 rectclip q
0.72549 0.745098 0.988235 rg
465.992 309.828 m 291.816 466.938 l 288.773 469.684 284.152 469.684 281.109
 466.938 c 106.84 309.828 l 101.402 304.926 104.871 295.895 112.191 295.895
 c 138.699 295.895 l 138.699 94.656 l 138.699 88.035 144.07 82.668 150.691
 82.668 c 430.484 82.668 l 437.109 82.668 442.477 88.035 442.477 94.656 
c 442.477 295.891 l 460.637 295.891 l 467.953 295.891 471.426 304.922 465.992
 309.828 c h
465.992 309.828 m f
0.215686 0.384314 0.8 rg
430.484 78.668 m 150.691 78.668 l 141.879 78.668 134.703 85.84 134.703 
94.656 c 134.703 291.895 l 112.191 291.895 l 107.188 291.895 102.797 294.918
 101 299.59 c 99.207 304.262 100.449 309.445 104.164 312.793 c 278.43 469.906
 l 283.008 474.035 289.914 474.031 294.492 469.906 c 468.664 312.789 l 472.383
 309.441 473.621 304.258 471.832 299.59 c 470.035 294.918 465.641 291.895
 460.637 291.895 c 446.477 291.895 l 446.477 94.656 l 446.473 85.84 439.305
 78.668 430.484 78.668 c h
286.465 465.004 m 285.504 465.004 284.547 464.66 283.785 463.973 c 109.52
 306.859 l 107.625 305.156 108.23 303.059 108.465 302.453 c 108.695 301.852
 109.648 299.895 112.195 299.895 c 138.703 299.895 l 140.91 299.895 142.703
 298.102 142.703 295.895 c 142.703 94.656 l 142.703 90.25 146.285 86.664
 150.695 86.664 c 430.488 86.664 l 434.898 86.664 438.484 90.25 438.484 
94.656 c 438.484 295.891 l 438.484 298.102 440.277 299.891 442.48 299.891
 c 460.637 299.891 l 463.184 299.891 464.133 301.852 464.367 302.453 c 464.598
 303.055 465.203 305.152 463.312 306.852 c 289.141 463.969 l 288.375 464.66
 287.418 465.004 286.465 465.004 c h
286.465 465.004 m f
1 0.917647 0.572549 rg
194.996 116.172 m 180.035 116.172 l 177.965 116.172 176.289 117.848 176.289
 119.918 c 176.289 232.152 l 176.289 234.219 177.965 235.895 180.035 235.895
 c 194.996 235.895 l 197.062 235.895 198.738 234.219 198.738 232.152 c 198.738
 119.918 l 198.738 117.852 197.062 116.172 194.996 116.172 c h
194.996 116.172 m f
198.734 179.773 172.102 -22.441 re f
389.539 116.172 m 374.578 116.172 l 372.508 116.172 370.836 117.848 370.836
 119.918 c 370.836 183.52 l 370.836 185.582 372.508 187.258 374.578 187.258
 c 389.539 187.258 l 391.609 187.258 393.281 185.582 393.281 183.52 c 393.281
 119.918 l 393.281 117.852 391.609 116.172 389.539 116.172 c h
389.539 116.172 m f
0.27451 0.443137 0.776471 rg
390.973 145.637 m 263.211 145.637 l 258.902 145.637 255.402 149.133 255.402
 153.445 c 255.402 231.363 l 255.402 235.676 258.902 239.168 263.211 239.168
 c 390.973 239.168 l 395.281 239.168 398.777 235.676 398.777 231.363 c 398.777
 153.445 l 398.773 149.133 395.281 145.637 390.973 145.637 c h
390.973 145.637 m f
240.301 179.773 m 198.738 179.773 l 198.738 187.258 l 198.738 191.391 202.086
 194.738 206.223 194.738 c 232.82 194.738 l 236.953 194.738 240.301 191.391
 240.301 187.258 c h
240.301 179.773 m f
353.785 331.449 m 353.785 294.246 323.625 264.078 286.418 264.078 c 249.211
 264.078 219.047 294.246 219.047 331.449 c 219.047 368.656 249.211 398.816
 286.418 398.816 c 323.625 398.816 353.785 368.656 353.785 331.449 c h
353.785 331.449 m f
1 0.917647 0.572549 rg
317.422 365.273 m 298.332 365.273 l 298.332 336.266 l 274.496 336.266 l
 274.496 365.273 l 255.402 365.273 l 255.402 289.633 l 274.496 289.633 l
 274.496 319.223 l 298.332 319.223 l 298.332 289.633 l 317.422 289.633 l
 h
317.422 365.273 m f
0.976471 0.654902 0.654902 rg
219.832 5.891 m 266.746 35.629 l 269.492 37.371 270.309 41.008 268.566 
43.754 c 267.984 44.668 l 266.242 47.41 262.605 48.227 259.863 46.484 c 
206.383 12.578 l 209.102 8.293 l 211.398 4.664 216.207 3.59 219.832 5.891
 c h
219.832 5.891 m f
0.976471 0.811765 0.811765 rg
100.059 322.93 m 118.918 322.93 134.203 307.645 134.203 288.785 c 134.203
 268.746 l 135.863 268.746 l 138.789 268.746 141.168 266.371 141.168 263.445
 c 141.168 260.516 138.789 258.141 135.863 258.141 c 133.27 258.141 l 130.336
 245.5 120.418 235.543 107.77 232.621 c 107.77 227.926 l 104.914 228.895
 101.867 229.438 98.691 229.438 c 81.48 229.438 l 80.25 229.438 79.055 229.316
 77.879 229.129 c 77.879 239.934 l 70.559 246.199 65.914 255.492 65.914 
265.883 c 65.914 288.789 l 65.914 307.645 81.199 322.93 100.059 322.93 c
 h
100.059 322.93 m f
0.976471 0.654902 0.654902 rg
12.188 226.465 m 50.637 226.465 l 55.027 226.465 58.594 222.902 58.594 
218.512 c 58.594 156.738 l 53.527 152.836 48.926 148.367 44.898 143.41 c
 44.898 212.773 l 12.188 212.773 l 8.41 212.773 5.344 215.84 5.344 219.621
 c 5.344 223.398 8.41 226.465 12.188 226.465 c h
12.188 226.465 m f
0.215686 0.384314 0.8 rg
44.898 139.41 m 44.449 139.41 44 139.484 43.562 139.641 c 41.969 140.207
 40.902 141.715 40.902 143.406 c 40.902 208.773 l 12.188 208.773 l 6.207
 208.773 1.348 213.641 1.348 219.617 c 1.348 225.598 6.211 230.465 12.188
 230.465 c 50.637 230.465 l 57.227 230.465 62.59 225.102 62.59 218.512 c
 62.59 156.738 l 62.59 155.5 62.012 154.328 61.031 153.57 c 56.203 149.855
 51.82 145.586 48.004 140.891 c 47.23 139.938 46.078 139.41 44.898 139.41
 c h
12.188 222.469 m 10.621 222.469 9.344 221.188 9.344 219.617 c 9.344 218.047
 10.621 216.766 12.188 216.766 c 44.898 216.766 l 47.105 216.766 48.895 
214.98 48.895 212.77 c 48.895 153.645 l 50.719 155.402 52.621 157.082 54.594
 158.676 c 54.594 218.508 l 54.594 220.691 52.82 222.465 50.637 222.465 
c 12.188 222.465 l h
58.594 156.738 m 58.613 156.738 l h
58.594 156.738 m f
121.719 268.469 m 123.457 268.469 124.867 269.875 124.867 271.617 c 124.867
 276.863 l 124.867 278.605 123.457 280.012 121.719 280.012 c 119.98 280.012
 118.566 278.605 118.566 276.863 c 118.566 271.617 l 118.566 269.875 119.98
 268.469 121.719 268.469 c h
121.719 268.469 m f
0.643137 0.788235 1 rg
228.875 56.637 m 250.594 60.336 l 252.52 60.664 254.473 59.941 255.773 
58.418 c 259.527 54.035 l 260.469 52.93 260.992 51.5 260.992 50.023 c 260.992
 47.906 259.934 45.949 258.203 44.867 c 224.418 23.68 l 222.512 22.484 220.25
 22.066 218.062 22.508 c 215.426 23.043 213.145 24.781 211.852 27.25 c 208.039
 34.5 l 206.898 36.68 207.441 39.414 209.324 40.926 c h
228.875 56.637 m f
0.215686 0.384314 0.8 rg
219.785 18.336 m 218.949 18.336 218.105 18.418 217.277 18.59 c 213.441 
19.363 210.172 21.84 208.309 25.387 c 204.5 32.637 l 202.461 36.523 203.438
 41.316 206.824 44.039 c 226.371 59.75 l 226.902 60.18 227.535 60.461 228.207
 60.578 c 249.922 64.273 l 253.262 64.84 256.578 63.621 258.812 61.016 c
 262.566 56.633 l 264.129 54.805 264.992 52.453 264.992 50.02 c 264.992 
46.551 263.203 43.277 260.332 41.473 c 226.543 20.289 l 224.484 19.004 222.152
 18.336 219.785 18.336 c h
230.57 52.871 m 211.832 37.812 l 211.438 37.496 211.324 36.844 211.582 
36.355 c 215.387 29.109 l 216.129 27.699 217.395 26.719 218.855 26.422 c
 220.039 26.18 221.258 26.414 222.297 27.062 c 256.082 48.246 l 256.645 
48.602 256.996 49.281 256.996 50.023 c 256.996 50.555 256.816 51.055 256.492
 51.438 c 252.738 55.82 l 252.352 56.273 251.801 56.484 251.27 56.395 c 
h
230.57 52.871 m f
0.27451 0.443137 0.776471 rg
164.984 141.641 m 171.918 141.641 178.719 139.562 184.652 135.625 c 190.141
 131.98 194.703 126.875 197.906 120.781 c 197.906 120.777 l 232.598 59.934
 l 233.293 58.719 233.031 57.125 231.996 56.254 c 209.98 37.691 l 208.82
 36.711 207.152 37.012 206.336 38.344 c 177.285 85.676 l 174.145 90.445 
l 172.715 92.617 170.422 93.906 167.984 93.906 c 80.402 93.906 l 68.355 
93.906 58.594 104.621 58.594 117.844 c 58.594 141.637 l 164.984 141.637 
l h
164.984 141.641 m f
0.215686 0.384314 0.8 rg
208.434 33.121 m 208.102 33.121 207.77 33.148 207.434 33.203 c 205.582 
33.5 203.938 34.613 202.93 36.25 c 173.879 83.59 l 170.805 88.254 l 170.121
 89.289 169.066 89.91 167.98 89.91 c 80.402 89.91 l 66.172 89.91 54.594 
102.441 54.594 117.848 c 54.594 141.641 l 54.594 143.848 56.387 145.641 
58.594 145.641 c 164.984 145.641 l 172.707 145.641 180.273 143.328 186.863
 138.957 c 192.891 134.957 197.934 129.312 201.445 122.641 c 236.07 61.918
 l 237.703 59.043 237.059 55.297 234.57 53.199 c 212.559 34.637 l 211.391
 33.652 209.926 33.121 208.434 33.121 c h
62.59 137.645 m 62.59 117.848 l 62.59 106.852 70.578 97.906 80.402 97.906
 c 167.98 97.906 l 171.762 97.906 175.312 95.941 177.48 92.652 c 180.625
 87.879 l 208.816 41.941 l 228.695 58.707 l 194.434 118.805 l 191.477 124.414
 187.355 129.035 182.441 132.297 c 177.164 135.801 171.129 137.648 164.984
 137.648 c 62.59 137.648 l h
229.121 57.961 m 229.141 57.961 l h
229.121 57.961 m f
0.419608 0.866667 0.866667 rg
80.156 93.91 m 127.055 93.91 l 127.055 201.871 l 127.055 217.094 114.711
 229.438 99.488 229.438 c 80.836 229.438 l 68.555 229.438 58.594 219.48 
58.594 207.191 c 58.594 115.473 l 58.594 103.566 68.25 93.91 80.156 93.91
 c h
80.156 93.91 m f
0.215686 0.384314 0.8 rg
127.055 89.91 m 80.156 89.91 l 66.062 89.91 54.594 101.375 54.594 115.473
 c 54.594 207.191 l 54.594 221.66 66.367 233.434 80.832 233.434 c 99.488
 233.434 l 116.891 233.434 131.047 219.277 131.047 201.871 c 131.047 93.91
 l 131.051 91.699 129.258 89.91 127.055 89.91 c h
80.832 225.441 m 70.77 225.441 62.59 217.254 62.59 207.191 c 62.59 115.473
 l 62.59 105.781 70.469 97.902 80.156 97.902 c 123.055 97.902 l 123.055 
201.867 l 123.055 214.867 112.48 225.438 99.488 225.438 c 80.832 225.438
 l h
80.832 225.441 m f
1 0.917647 0.572549 rg
185.48 86.188 m 185.48 40.797 148.68 3.992 103.285 3.992 c 57.891 3.992
 21.094 40.797 21.094 86.188 c 21.094 131.582 57.891 168.379 103.285 168.379
 c 148.68 168.379 185.48 131.582 185.48 86.188 c h
185.48 86.188 m f
0.215686 0.384314 0.8 rg
103.285 0 m 55.758 0 17.094 38.664 17.094 86.191 c 17.094 133.715 55.758
 172.383 103.285 172.383 c 150.809 172.383 189.477 133.715 189.477 86.191
 c 189.477 38.664 150.809 0 103.285 0 c h
103.285 164.387 m 60.164 164.387 25.09 129.309 25.09 86.191 c 25.09 43.074
 60.164 7.996 103.285 7.996 c 146.402 7.996 181.48 43.074 181.48 86.191 
c 181.48 129.309 146.402 164.387 103.285 164.387 c h
103.285 164.387 m f
0.643137 0.788235 1 rg
167.016 86.188 m 167.016 50.992 138.48 22.457 103.285 22.457 c 68.086 22.457
 39.551 50.992 39.551 86.188 c 39.551 121.387 68.086 149.922 103.285 149.922
 c 138.48 149.922 167.016 121.387 167.016 86.188 c h
167.016 86.188 m f
0.976471 0.811765 0.811765 rg
106.836 267.75 m 106.836 261.074 101.422 255.66 94.746 255.66 c 88.07 255.66
 82.656 261.074 82.656 267.75 c 82.656 274.426 88.07 279.84 94.746 279.84
 c 101.422 279.84 106.836 274.426 106.836 267.75 c h
106.836 267.75 m f
0.215686 0.384314 0.8 rg
107.77 223.93 m 107.34 223.93 106.906 224 106.492 224.141 c 103.938 225.004
 101.312 225.441 98.691 225.441 c 81.477 225.441 l 80.586 225.441 79.613
 225.355 78.504 225.176 c 77.34 224.996 76.168 225.328 75.277 226.086 c 
74.391 226.84 73.879 227.957 73.879 229.125 c 73.879 238.152 l 66.25 245.352
 61.914 255.352 61.914 265.879 c 61.914 288.785 l 61.914 309.816 79.027 
326.926 100.059 326.926 c 121.09 326.926 138.199 309.816 138.199 288.785
 c 138.199 272.445 l 142.199 271.402 145.16 267.762 145.16 263.441 c 145.16
 258.461 141.23 254.383 136.305 254.148 c 132.547 242.559 123.324 233.328
 111.766 229.582 c 111.766 227.926 l 111.766 226.637 111.141 225.43 110.098
 224.68 c 109.41 224.184 108.594 223.93 107.77 223.93 c h
81.871 233.434 m 98.691 233.434 l 100.398 233.434 102.102 233.297 103.793
 233.02 c 103.961 234.711 105.188 236.129 106.867 236.516 c 117.957 239.074
 126.797 247.918 129.379 259.039 c 129.801 260.852 131.414 262.133 133.27
 262.133 c 135.863 262.133 l 136.582 262.133 137.172 262.723 137.172 263.441
 c 137.172 264.156 136.586 264.742 135.863 264.742 c 134.199 264.742 l 131.996
 264.742 130.203 266.535 130.203 268.742 c 130.203 288.781 l 130.203 305.406
 116.684 318.93 100.059 318.93 c 83.434 318.93 69.91 305.406 69.91 288.781
 c 69.91 265.875 l 69.91 257.062 73.762 248.711 80.473 242.965 c 81.359 
242.211 81.871 241.098 81.871 239.93 c h
81.871 233.434 m f
0.27451 0.443137 0.776471 rg
59.789 312.246 m 59.793 312.242 l 65.883 321.551 76.766 327.75 89.188 327.75
 c 91.828 327.75 93.973 325.727 93.973 323.223 c 93.973 322.273 l 93.973
 323.395 94.312 324.43 94.898 325.301 c 94.898 325.301 95.062 325.637 95.551
 326.09 c 96.191 326.738 96.992 327.23 97.895 327.504 c 99.16 328.012 100.934
 328.43 103.367 328.535 c 103.379 328.535 l 105.91 328.645 109.156 328.406
 113.324 327.562 c 116.363 327.23 119.258 326.457 121.953 325.309 c 121.961
 325.305 121.973 325.305 121.98 325.301 c 121.98 325.293 l 123.508 324.641
 124.969 323.859 126.355 322.977 c 126.957 322.605 127.262 322.375 127.262
 322.371 c 135.039 317.008 140.125 308.133 140.125 298.082 c 140.125 287.207
 l 140.125 286.703 139.711 286.293 139.195 286.293 c 93.973 286.293 l 93.973
 253.832 l 88.52 242.703 l 88.363 242.387 88.039 242.188 87.68 242.188 c
 73.516 242.188 l 72.082 242.188 70.676 242.391 69.332 242.777 c 69.293 
242.793 67.852 243.398 67.27 244.332 c 65.891 246.539 62.652 251.727 59.703
 256.469 c 55.328 263.504 52.844 271.539 52.648 279.785 c 52.113 302.379
 59.789 312.246 59.789 312.246 c h
59.789 312.246 m f
0.215686 0.384314 0.8 rg
87.68 238.191 m 73.516 238.191 l 71.727 238.191 69.945 238.441 68.23 238.938
 c 68.07 238.98 67.914 239.039 67.762 239.102 c 66.973 239.441 65.004 240.422
 63.887 242.219 c 62.508 244.422 59.262 249.613 56.312 254.359 c 51.516 
262.078 48.863 270.84 48.652 279.691 c 48.117 302.387 55.586 313.273 56.551
 314.582 c 63.664 325.336 75.848 331.75 89.191 331.75 c 91.074 331.75 92.828
 331.168 94.262 330.18 c 94.961 330.637 95.742 331.012 96.559 331.281 c 
98.43 332.004 100.66 332.426 103.195 332.527 c 106.32 332.66 109.922 332.32
 113.941 331.516 c 117.195 331.141 120.359 330.312 123.355 329.051 c 123.48
 329.004 123.609 328.949 123.73 328.895 c 125.355 328.184 126.961 327.332
 128.5 326.355 c 129.074 326.004 129.445 325.73 129.586 325.633 c 138.688
 319.324 144.117 309.031 144.117 298.09 c 144.117 287.215 l 144.117 284.512
 141.914 282.305 139.195 282.305 c 97.969 282.305 l 97.969 253.84 l 97.969
 253.23 97.828 252.633 97.559 252.082 c 92.105 240.953 l 91.289 239.273 
89.555 238.191 87.68 238.191 c h
84.93 244.465 m 84.93 244.465 84.926 244.461 84.926 244.457 c h
70.734 246.539 m 71.645 246.309 72.578 246.188 73.516 246.188 c 85.77 246.188
 l 89.977 254.762 l 89.977 286.297 l 89.977 288.504 91.766 290.293 93.973
 290.293 c 136.125 290.293 l 136.125 298.082 l 136.125 306.422 131.965 314.273
 124.984 319.086 c 124.945 319.113 124.902 319.145 124.859 319.176 c 124.828
 319.199 124.625 319.344 124.262 319.57 c 122.977 320.387 121.707 321.062
 120.426 321.609 c 120.41 321.617 120.395 321.625 120.379 321.629 c 118 
322.645 115.48 323.305 112.883 323.586 c 112.766 323.602 112.645 323.617
 112.527 323.645 c 109.066 324.344 106.039 324.648 103.543 324.539 c 101.414
 324.449 100.105 324.082 99.375 323.793 c 99.273 323.75 99.164 323.715 99.059
 323.68 c 98.809 323.605 98.578 323.465 98.391 323.277 c 98.391 323.277 
98.32 323.207 98.277 323.164 c 98.254 323.129 98.234 323.098 98.211 323.062
 c 98.047 322.82 97.965 322.551 97.965 322.27 c 97.965 320.066 96.172 318.273
 93.969 318.273 c 91.758 318.273 89.973 320.066 89.973 322.27 c 89.973 323.223
 l 89.973 323.473 89.637 323.75 89.184 323.75 c 78.488 323.75 68.75 318.629
 63.133 310.051 c 63.066 309.949 62.996 309.852 62.918 309.758 c 62.324 
308.906 56.172 299.594 56.641 279.883 c 56.816 272.457 59.047 265.09 63.094
 258.582 c 65.953 253.984 69.086 248.969 70.52 246.668 c 70.586 246.629 
70.66 246.582 70.734 246.539 c h
98.461 323.488 m 98.461 323.484 l 98.461 323.488 98.461 323.488 98.461 
323.488 c h
98.465 323.496 m 98.465 323.492 l h
98.473 323.512 m 98.473 323.508 98.469 323.504 98.469 323.5 c 98.469 323.504
 98.473 323.508 98.473 323.512 c h
98.477 323.52 m 98.477 323.512 l 98.477 323.516 98.477 323.52 98.477 323.52
 c h
98.48 323.527 m 98.48 323.523 98.48 323.52 98.477 323.52 c 98.48 323.523
 98.48 323.523 98.48 323.527 c h
98.48 323.527 m f
0.976471 0.811765 0.811765 rg
106.836 267.75 m 106.836 261.074 101.422 255.66 94.746 255.66 c 88.07 255.66
 82.656 261.074 82.656 267.75 c 82.656 274.426 88.07 279.84 94.746 279.84
 c 101.422 279.84 106.836 274.426 106.836 267.75 c h
106.836 267.75 m f
0.215686 0.384314 0.8 rg
215.691 0.68 m 214.824 0.68 213.957 0.773 213.094 0.969 c 210.027 1.656
 207.406 3.5 205.723 6.152 c 203 10.441 l 201.824 12.309 202.375 14.777 
204.238 15.961 c 257.719 49.867 l 262.324 52.781 268.441 51.414 271.355 
46.809 c 271.938 45.898 l 274.855 41.293 273.484 35.176 268.887 32.258 c
 221.973 2.516 l 220.062 1.305 217.898 0.68 215.691 0.68 c h
211.898 11.344 m 212.477 10.43 l 213.016 9.578 213.855 8.988 214.844 8.77
 c 215.824 8.547 216.84 8.727 217.691 9.262 c 264.605 39.008 l 265.484 39.562
 265.742 40.734 265.188 41.613 c 264.609 42.527 l 264.051 43.406 262.879
 43.668 262 43.113 c h
211.898 11.344 m f
103.285 18.461 m 65.938 18.461 35.555 48.844 35.555 86.191 c 35.555 123.539
 65.938 153.918 103.285 153.918 c 140.629 153.918 171.012 123.539 171.012
 86.191 c 171.012 48.844 140.629 18.461 103.285 18.461 c h
103.285 145.926 m 70.344 145.926 43.547 119.129 43.547 86.188 c 43.547 
53.25 70.344 26.453 103.285 26.453 c 136.223 26.453 163.02 53.25 163.02 
86.188 c 163.02 119.129 136.223 145.926 103.285 145.926 c h
103.285 145.926 m f
0.878431 0.921569 0.988235 rg
137.258 86.188 m 137.258 67.422 122.047 52.215 103.285 52.215 c 84.523 
52.215 69.312 67.422 69.312 86.188 c 69.312 104.949 84.523 120.164 103.285
 120.164 c 122.047 120.164 137.258 104.949 137.258 86.188 c h
137.258 86.188 m f
0.976471 0.811765 0.811765 rg
21.793 100.402 m 27.625 115.656 l 51.379 187.723 l 51.379 187.723 51.379
 187.719 51.383 187.719 c 74.098 167.664 l 74.215 167.562 74.336 167.477
 74.465 167.398 c 47.75 109.633 l 47.168 92.199 l 47.148 91.578 47.031 90.961
 46.824 90.371 c 45.273 85.992 l 44.262 83.137 41.305 81.457 38.328 82.059
 c 26.316 84.488 l 23.512 85.059 21.484 87.5 21.438 90.352 c 21.316 97.68
 l 21.301 98.613 21.465 99.531 21.793 100.402 c h
21.793 100.402 m f
0.215686 0.384314 0.8 rg
39.516 77.945 m 38.859 77.945 38.195 78.004 37.539 78.141 c 25.52 80.574
 l 20.918 81.508 17.516 85.59 17.438 90.289 c 17.316 97.613 l 17.293 99.07
 17.543 100.484 18.059 101.832 c 23.895 117.086 l 47.582 188.977 l 48.004
 190.25 49.035 191.23 50.332 191.582 c 51.633 191.934 53.02 191.605 54.023
 190.715 c 76.648 170.742 l 78.227 169.629 78.902 167.477 78.09 165.719 
c 51.723 108.691 l 51.164 92.07 l 51.133 91.039 50.938 90.02 50.59 89.039
 c 49.039 84.66 l 47.605 80.59 43.707 77.945 39.516 77.945 c h
53.277 180.715 m 31.426 114.406 l 25.531 98.977 l 25.379 98.586 25.309 
98.168 25.316 97.742 c 25.438 90.422 l 25.453 89.445 26.156 88.602 27.105
 88.41 c 39.125 85.977 l 40.137 85.773 41.164 86.352 41.508 87.328 c 43.059
 91.707 l 43.129 91.91 43.168 92.121 43.176 92.332 c 43.758 109.766 l 43.777
 110.301 43.902 110.824 44.125 111.309 c 69.566 166.328 l h
21.793 100.402 m 21.812 100.402 l h
21.793 100.402 m f
0.419608 0.866667 0.866667 rg
51.383 187.719 m 74.098 167.66 l 75.195 166.691 76.871 166.797 77.84 167.895
 c 106.059 199.852 l 112.562 207.219 111.867 218.469 104.492 224.977 c 97.121
 231.484 85.871 230.785 79.367 223.414 c 51.152 191.457 l 50.18 190.363 
50.281 188.688 51.383 187.719 c h
51.383 187.719 m f
0.215686 0.384314 0.8 rg
75.84 163 m 74.223 163 72.676 163.586 71.449 164.668 c 48.734 184.719 l
 45.988 187.152 45.73 191.359 48.156 194.105 c 76.371 226.062 l 80.223 230.426
 85.543 233.027 91.359 233.391 c 97.184 233.754 102.773 231.828 107.137 
227.973 c 116.148 220.02 117.012 206.211 109.051 197.203 c 80.836 165.25
 l 79.664 163.918 78.039 163.121 76.262 163.012 c 76.125 163.004 75.98 163
 75.84 163 c h
55.035 189.824 m 75.73 171.547 l 103.059 202.496 l 108.098 208.199 107.551
 216.941 101.848 221.98 c 99.082 224.422 95.543 225.629 91.852 225.414 c
 88.172 225.184 84.805 223.535 82.363 220.773 c h
55.035 189.824 m f
0.878431 0.921569 0.988235 rg
206.383 12.582 m 217.227 19.457 l 184.109 71.309 l 183.066 65.621 181.453
 60.137 179.309 54.926 c 208.262 9.582 l 208.273 9.59 l h
206.383 12.582 m f
0.215686 0.384314 0.8 rg
208.266 5.594 m 206.949 5.594 205.652 6.246 204.895 7.438 c 175.938 52.773
 l 175.238 53.871 175.117 55.242 175.609 56.449 c 177.66 61.422 179.195 
66.668 180.18 72.035 c 180.477 73.648 181.727 74.918 183.34 75.238 c 184.945
 75.555 186.59 74.852 187.477 73.461 c 220.594 21.609 l 221.164 20.711 221.359
 19.629 221.129 18.59 c 220.898 17.551 220.262 16.648 219.367 16.078 c 211.875
 11.332 l 212.27 10.516 212.375 9.586 212.168 8.699 c 211.93 7.656 211.281
 6.754 210.371 6.191 c 209.715 5.789 208.984 5.594 208.266 5.594 c h
183.777 55.355 m 207.582 18.078 l 211.703 20.684 l 185.793 61.258 l 185.191
 59.258 184.516 57.289 183.777 55.355 c h
183.777 55.355 m f
0.878431 0.921569 0.988235 rg
255.402 230.051 m 250.957 230.051 l 245 230.051 240.141 225.406 239.77 
219.543 c 237.027 222.68 233.008 224.672 228.512 224.672 c 221.031 224.672
 l 212.766 224.672 206.066 217.973 206.066 209.707 c 206.066 201.441 212.762
 194.742 221.031 194.742 c 228.516 194.742 l 232.988 194.742 236.996 196.715
 239.734 199.836 c 239.734 191 l 239.734 184.801 244.758 179.777 250.957
 179.777 c 255.406 179.777 l 255.406 230.051 l h
255.402 230.051 m f
Q Q
showpage
%%Trailer
end restore
%%EOF
