%!PS-Adobe-3.0 EPSF-3.0
%%Creator: cairo 1.14.8 (http://cairographics.org)
%%CreationDate: Wed Mar 20 09:06:38 2019
%%Pages: 1
%%DocumentData: Clean7Bit
%%LanguageLevel: 2
%%BoundingBox: 0 0 488 488
%%EndComments
%%BeginProlog
save
50 dict begin
/q { gsave } bind def
/Q { grestore } bind def
/cm { 6 array astore concat } bind def
/w { setlinewidth } bind def
/J { setlinecap } bind def
/j { setlinejoin } bind def
/M { setmiterlimit } bind def
/d { setdash } bind def
/m { moveto } bind def
/l { lineto } bind def
/c { curveto } bind def
/h { closepath } bind def
/re { exch dup neg 3 1 roll 5 3 roll moveto 0 rlineto
      0 exch rlineto 0 rlineto closepath } bind def
/S { stroke } bind def
/f { fill } bind def
/f* { eofill } bind def
/n { newpath } bind def
/W { clip } bind def
/W* { eoclip } bind def
/BT { } bind def
/ET { } bind def
/pdfmark where { pop globaldict /?pdfmark /exec load put }
    { globaldict begin /?pdfmark /pop load def /pdfmark
    /cleartomark load def end } ifelse
/BDC { mark 3 1 roll /BDC pdfmark } bind def
/EMC { mark /EMC pdfmark } bind def
/cairo_store_point { /cairo_point_y exch def /cairo_point_x exch def } def
/Tj { show currentpoint cairo_store_point } bind def
/TJ {
  {
    dup
    type /stringtype eq
    { show } { -0.001 mul 0 cairo_font_matrix dtransform rmoveto } ifelse
  } forall
  currentpoint cairo_store_point
} bind def
/cairo_selectfont { cairo_font_matrix aload pop pop pop 0 0 6 array astore
    cairo_font exch selectfont cairo_point_x cairo_point_y moveto } bind def
/Tf { pop /cairo_font exch def /cairo_font_matrix where
      { pop cairo_selectfont } if } bind def
/Td { matrix translate cairo_font_matrix matrix concatmatrix dup
      /cairo_font_matrix exch def dup 4 get exch 5 get cairo_store_point
      /cairo_font where { pop cairo_selectfont } if } bind def
/Tm { 2 copy 8 2 roll 6 array astore /cairo_font_matrix exch def
      cairo_store_point /cairo_font where { pop cairo_selectfont } if } bind def
/g { setgray } bind def
/rg { setrgbcolor } bind def
/d1 { setcachedevice } bind def
%%EndProlog
%%BeginSetup
%%EndSetup
%%Page: 1 1
%%BeginPageSetup
%%PageBoundingBox: 0 0 488 488
%%EndPageSetup
q 0 0 488 488 rectclip q
0.976471 0.811765 0.811765 rg
189 456.914 m 104.273 456.914 35.59 388.23 35.59 303.508 c 35.59 213.461
 l 28.129 213.461 l 14.973 213.461 4.301 202.797 4.301 189.637 c 4.301 176.48
 14.973 165.812 28.129 165.812 c 39.773 165.812 l 52.973 109.023 97.535 
64.289 154.355 51.164 c 154.355 3.996 l 288.668 3.996 l 288.668 84.027 l
 321.547 112.16 342.41 153.934 342.41 200.598 c 342.41 303.508 l 342.41 
388.234 273.727 456.914 189 456.914 c h
189 456.914 m f
0.215686 0.384314 0.8 rg
288.668 0 m 154.355 0 l 152.148 0 150.359 1.789 150.359 4 c 150.359 48.02
 l 94.914 62.043 50.766 106.219 36.629 161.816 c 28.129 161.816 l 12.785
 161.816 0.305 174.297 0.305 189.641 c 0.305 204.98 12.785 217.461 28.129
 217.461 c 31.594 217.461 l 31.594 303.508 l 31.594 390.305 102.203 460.914
 189 460.914 c 275.797 460.914 346.41 390.305 346.41 303.508 c 346.41 200.602
 l 346.41 155.188 326.848 112.145 292.664 82.199 c 292.664 4 l 292.664 1.789
 290.875 0 288.668 0 c h
158.355 7.996 m 284.668 7.996 l 284.668 84.027 l 284.668 85.195 285.18 
86.301 286.066 87.062 c 319.336 115.531 338.41 156.914 338.41 200.602 c 
338.41 303.508 l 338.41 385.891 271.387 452.918 189 452.918 c 106.609 452.918
 39.59 385.891 39.59 303.508 c 39.59 213.461 l 39.59 211.254 37.797 209.465
 35.59 209.465 c 28.129 209.465 l 17.195 209.465 8.301 200.57 8.301 189.637
 c 8.301 178.707 17.195 169.809 28.129 169.809 c 39.773 169.809 l 41.629
 169.809 43.242 168.523 43.664 166.719 c 56.477 111.582 100.277 67.754 155.254
 55.055 c 157.066 54.641 158.355 53.027 158.355 51.164 c h
158.355 7.996 m f
91.68 212.211 m 83.867 212.211 77.535 218.547 77.535 226.363 c 77.535 249.941
 l 77.535 257.758 83.867 264.094 91.68 264.094 c 99.496 264.094 105.832 
257.758 105.832 249.941 c 105.832 226.363 l 105.832 218.547 99.496 212.211
 91.68 212.211 c h
91.68 212.211 m f
0.976471 0.811765 0.811765 rg
267.176 208.996 m 267.176 179.004 242.859 154.688 212.863 154.688 c 182.871
 154.688 158.555 179.004 158.555 208.996 c 158.555 238.992 182.871 263.309
 212.863 263.309 c 242.859 263.309 267.176 238.992 267.176 208.996 c h
267.176 208.996 m f
0.27451 0.443137 0.776471 rg
369.918 408.918 m 369.914 408.898 l 342.539 450.711 293.641 478.578 237.844
 478.578 c 225.977 478.578 216.352 469.473 216.352 458.238 c 216.352 453.969
 l 216.352 458.996 214.816 463.66 212.188 467.555 c 212.191 467.559 l 212.191
 467.559 211.449 469.062 209.27 471.109 c 206.383 474.023 202.781 476.25
 198.723 477.484 c 193.039 479.758 185.098 481.645 174.152 482.105 c 174.152
 482.113 l 174.129 482.113 174.109 482.109 174.09 482.109 c 162.723 482.582
 148.129 481.516 129.398 477.73 c 115.773 476.238 102.758 472.762 90.656
 467.598 c 90.609 467.582 90.57 467.57 90.523 467.559 c 90.527 467.543 l
 83.656 464.605 77.094 461.102 70.867 457.133 c 68.16 455.473 66.805 454.438
 66.797 454.43 c 31.852 430.328 8.992 390.449 8.992 345.289 c 8.992 296.434
 l 8.992 294.168 10.855 292.332 13.16 292.332 c 216.348 292.332 l 216.348
 146.48 l 240.855 96.473 l 241.551 95.055 243.012 94.152 244.613 94.152 
c 308.254 94.152 l 314.691 94.152 321.016 95.07 327.051 96.805 c 327.238
 96.883 333.695 99.605 336.312 103.801 c 342.5 113.695 357.059 137.012 370.305
 158.316 c 389.965 189.93 401.129 226.035 402.012 263.082 c 404.422 364.582
 369.918 408.918 369.918 408.918 c h
369.918 408.918 m f
0.215686 0.384314 0.8 rg
308.258 90.156 m 244.613 90.156 l 241.508 90.156 238.625 91.949 237.266
 94.711 c 212.762 144.723 l 212.492 145.27 212.352 145.871 212.352 146.484
 c 212.352 288.336 l 13.16 288.336 l 8.656 288.336 4.992 291.969 4.992 296.438
 c 4.992 345.289 l 4.992 389.977 27.25 432.008 64.531 457.723 c 64.539 457.738
 66.023 458.852 68.777 460.539 c 75.121 464.586 81.816 468.141 88.625 471.074
 c 88.793 471.168 88.973 471.246 89.16 471.316 c 89.188 471.324 89.227 471.34
 89.27 471.355 c 101.836 476.695 115.129 480.168 128.785 481.684 c 145.953
 485.141 161.211 486.633 174.129 486.109 c 174.32 486.094 174.41 486.102
 174.547 486.09 c 184.492 485.648 193.07 484.027 200.055 481.258 c 204.59
 479.848 208.758 477.312 212.109 473.914 c 213.957 472.195 214.988 470.691
 215.469 469.883 c 219.801 477.438 228.211 482.574 237.848 482.574 c 293.207
 482.574 343.723 455.973 373.055 411.398 c 373.062 411.387 373.07 411.379
 373.074 411.371 c 374.52 409.516 408.43 364.738 406.012 262.988 c 405.125
 225.691 393.957 188.766 373.703 156.203 c 360.453 134.902 345.898 111.578
 339.711 101.684 c 336.605 96.715 329.934 93.688 328.629 93.129 c 328.477
 93.066 328.316 93.008 328.16 92.965 c 321.676 91.105 314.977 90.156 308.258
 90.156 c h
220.348 147.41 m 244.445 98.234 l 267.27 98.152 l 308.258 98.152 l 314.145
 98.152 320.016 98.965 325.703 100.578 c 327.949 101.57 331.555 103.727 
332.926 105.918 c 339.109 115.816 353.664 139.129 366.91 160.43 c 386.406
 191.781 397.16 227.309 398.016 263.176 c 400.27 358.062 369.547 402.629
 366.934 406.23 c 366.801 406.375 366.676 406.535 366.566 406.703 c 338.746
 449.207 290.629 474.578 237.844 474.578 c 228.199 474.578 220.348 467.246
 220.348 458.234 c 220.348 453.965 l 220.348 451.762 218.555 449.969 216.348
 449.969 c 214.145 449.969 212.352 451.762 212.352 453.965 c 212.352 458.016
 211.148 461.941 208.875 465.316 c 208.766 465.477 208.668 465.645 208.586
 465.816 c 208.48 465.984 207.875 466.926 206.531 468.188 c 203.953 470.793
 200.891 472.641 197.559 473.652 c 197.449 473.688 197.344 473.727 197.242
 473.77 c 191.02 476.262 183.195 477.723 173.984 478.113 c 173.949 478.113
 173.922 478.113 173.887 478.117 c 161.531 478.613 146.84 477.176 130.191
 473.809 c 130.07 473.785 129.953 473.77 129.832 473.754 c 116.828 472.332
 104.172 469.023 92.227 463.922 c 92.215 463.918 92.207 463.914 92.199 463.91
 c 92.164 463.895 92.133 463.879 92.098 463.867 c 85.574 461.074 79.152 
457.676 73.016 453.758 c 70.488 452.215 69.23 451.258 69.223 451.25 c 33.953
 426.922 12.988 387.348 12.988 345.289 c 12.988 296.438 l 12.988 296.406
 13.039 296.332 13.16 296.332 c 216.348 296.332 l 218.555 296.332 220.348
 294.543 220.348 292.332 c h
220.348 147.41 m f
0.976471 0.811765 0.811765 rg
267.176 208.996 m 267.176 179.004 242.859 154.688 212.863 154.688 c 182.871
 154.688 158.555 179.004 158.555 208.996 c 158.555 238.992 182.871 263.309
 212.863 263.309 c 242.859 263.309 267.176 238.992 267.176 208.996 c h
267.176 208.996 m f
0.976471 0.654902 0.654902 rg
347.445 363.324 m 347.453 363.324 l 345.742 389.656 324.414 403.648 318.293
 407.141 c 314.809 427.699 294.934 443.477 270.867 443.477 c 269.715 443.477
 268.586 443.395 267.457 443.32 c 260.402 459.129 243.105 470.32 222.836
 470.32 c 212.16 470.32 202.332 467.176 194.355 461.93 c 187.805 464.914
 180.406 466.625 172.547 466.625 c 153.5 466.625 137.086 456.73 129.324 
442.418 c 128.652 441.836 128.113 441.352 127.719 440.984 c 126.656 441.047
 125.598 441.129 124.52 441.129 c 98.137 441.129 76.746 422.188 76.512 398.754
 c 63 391.191 53.992 377.836 53.992 362.57 c 53.992 340.277 73.168 321.988
 97.641 320.016 c 97.66 319.82 l 97.66 319.82 113.656 316.586 129.785 320.719
 c 135.348 315.289 151.988 302.043 181.668 302.043 c 188.52 302.043 195.703
 302.773 203.094 304.234 c 209.668 305.625 l 219.094 299.684 235.863 297.918
 243.406 297.41 c 243.785 297.398 245.008 297.398 245.008 297.398 c 246.211
 297.352 247.434 297.324 248.684 297.324 c 253.484 297.324 258.375 297.699
 263.105 298.422 c 270.898 299.488 278.008 301.363 284.262 304.008 c 286.562
 303.68 288.59 302.422 289.727 300.562 c 305.398 274.887 l 306.023 273.863
 306.781 272.945 307.598 272.074 c 311.336 266.113 318.184 262.449 325.59
 262.449 c 327.188 262.449 l 338.699 262.449 348.027 271.148 348.027 281.879
 c 348.027 357.355 l 348.023 359.387 347.816 361.379 347.445 363.324 c h
347.445 363.324 m f
0.215686 0.384314 0.8 rg
327.18 258.453 m 325.586 258.453 l 316.977 258.453 308.91 262.719 304.414
 269.617 c 303.422 270.707 302.625 271.754 301.98 272.812 c 286.305 298.484
 l 285.941 299.078 285.328 299.547 284.586 299.824 c 278.312 297.312 271.281
 295.512 263.645 294.465 c 257.457 293.516 250.918 293.168 244.863 293.402
 c 244.855 293.402 243.68 293.402 243.301 293.414 c 234.523 294.004 218.992
 295.816 208.969 301.395 c 203.918 300.328 l 196.254 298.809 188.781 298.047
 181.66 298.047 c 153.062 298.047 135.906 309.832 128.625 316.336 c 112.582
 312.805 97.527 315.77 96.867 315.902 c 96.594 315.957 96.332 316.039 96.086
 316.145 c 69.719 318.816 49.988 338.586 49.988 362.57 c 49.988 378.102 
58.395 392.344 72.602 401.09 c 74.176 425.574 96.953 445.125 124.516 445.125
 c 125.09 445.125 125.656 445.102 126.223 445.074 c 135.164 460.855 152.828
 470.625 172.543 470.625 c 180.008 470.625 187.219 469.219 194.008 466.434
 c 202.594 471.602 212.508 474.312 222.836 474.312 c 243.184 474.312 261.34
 463.863 269.895 447.457 c 270.219 447.469 270.543 447.473 270.867 447.473
 c 296.035 447.473 317.164 431.68 321.883 409.66 c 330.074 404.617 349.648
 389.91 351.434 363.758 c 351.824 361.613 352.023 359.465 352.023 357.355
 c 352.023 281.879 l 352.023 268.961 340.875 258.453 327.18 258.453 c h
284.258 308.004 m 284.449 308.004 284.633 307.992 284.82 307.965 c 288.352
 307.461 291.375 305.52 293.129 302.648 c 308.805 276.973 l 309.223 276.289
 309.762 275.602 310.508 274.805 c 310.684 274.613 310.844 274.414 310.977
 274.191 c 313.977 269.414 319.574 266.445 325.586 266.445 c 327.184 266.445
 l 336.469 266.445 344.027 273.367 344.027 281.879 c 344.027 357.355 l 344.027
 359.062 343.859 360.816 343.523 362.57 c 343.473 362.816 343.449 363.066
 343.449 363.312 c 341.758 387.352 322.266 400.27 316.312 403.668 c 315.277
 404.258 314.555 405.289 314.359 406.469 c 311.16 425.285 292.469 439.477
 270.871 439.477 c 269.949 439.477 269.043 439.418 268.137 439.359 c 267.703
 439.332 l 266.043 439.199 264.484 440.168 263.809 441.691 c 257.133 456.652
 241.051 466.316 222.836 466.316 c 213.328 466.316 204.238 463.648 196.555
 458.594 c 195.41 457.84 193.949 457.723 192.699 458.297 c 186.379 461.168
 179.598 462.629 172.547 462.629 c 155.715 462.629 140.129 453.945 132.84
 440.516 c 132.605 440.086 132.297 439.707 131.93 439.391 c 131.309 438.855
 130.816 438.41 130.457 438.07 c 129.656 437.316 128.59 436.898 127.488 
436.992 c 126.859 437.031 l 126.086 437.078 125.312 437.133 124.523 437.133
 c 100.469 437.133 80.723 419.898 80.512 398.715 c 80.5 397.285 79.719 395.969
 78.469 395.27 c 65.648 388.09 57.992 375.867 57.992 362.574 c 57.992 342.422
 75.176 325.84 97.961 324 c 98.516 323.961 99.035 323.801 99.5 323.559 c
 103.195 322.969 116.066 321.332 128.793 324.59 c 130.148 324.941 131.582
 324.555 132.578 323.578 c 137.984 318.309 153.598 306.043 181.672 306.043
 c 188.27 306.043 195.215 306.754 202.324 308.164 c 208.844 309.543 l 209.867
 309.75 210.922 309.57 211.801 309.012 c 220.547 303.5 237.008 301.852 243.68
 301.398 c 245.012 301.398 l 246.32 301.348 247.488 301.324 248.684 301.324
 c 253.281 301.324 257.93 301.68 262.504 302.379 c 270.004 303.406 276.785
 305.188 282.711 307.691 c 283.195 307.902 283.727 308.004 284.258 308.004
 c h
284.258 308.004 m f
1 0.917647 0.572549 rg
319.945 456.82 m 319.945 357.625 l 299.223 303.539 l 298.172 300.789 300.867
 298.094 303.613 299.145 c 360.41 320.906 l 455.859 320.906 l 470.875 320.906
 483.043 333.074 483.043 348.086 c 483.043 456.82 l 483.043 471.832 470.875
 484.004 455.859 484.004 c 347.125 484.004 l 332.117 484.004 319.945 471.832
 319.945 456.82 c h
319.945 456.82 m f
0.215686 0.384314 0.8 rg
302.363 294.91 m 300.449 294.91 298.594 295.664 297.164 297.09 c 295.074
 299.184 294.434 302.203 295.492 304.965 c 315.945 358.363 l 315.945 456.82
 l 315.945 474.012 329.934 488 347.125 488 c 455.859 488 l 473.051 488 487.039
 474.012 487.039 456.82 c 487.039 348.086 l 487.039 330.895 473.051 316.906
 455.859 316.906 c 361.145 316.906 l 305.039 295.414 l 304.16 295.078 303.254
 294.91 302.363 294.91 c h
347.125 480 m 334.348 480 323.941 469.605 323.941 456.816 c 323.941 357.621
 l 323.941 357.133 323.852 356.648 323.676 356.191 c 303.438 303.359 l 358.98
 324.633 l 359.434 324.809 359.918 324.898 360.406 324.898 c 455.859 324.898
 l 468.645 324.898 479.043 335.301 479.043 348.082 c 479.043 456.816 l 479.043
 469.602 468.645 480 455.859 480 c h
319.945 357.625 m 319.965 357.625 l h
319.945 357.625 m f
0.976471 0.654902 0.654902 rg
408.711 458.828 m 430.262 458.828 444.898 446.125 444.898 425.215 c 444.898
 403.809 430.566 393.719 410.832 392.652 c 408.801 392.543 407.176 390.914
 407.074 388.879 c 406.809 383.648 l 406.703 381.52 404.945 379.852 402.82
 379.852 c 394.566 379.852 l 392.406 379.852 390.637 381.562 390.57 383.723
 c 390.023 400.98 l 389.949 403.238 391.758 405.105 394.016 405.105 c 395.199
 405.105 l 413.375 405.105 427.371 408.324 427.371 425.215 c 427.371 436.473
 420.453 443.387 408.875 443.387 c 398.621 443.387 391.738 438.207 390.434
 429 c 390.168 427.082 388.441 425.695 386.5 425.695 c 377.199 425.695 l
 374.793 425.695 372.961 427.809 373.223 430.195 c 375.102 447.234 388.562
 458.828 408.711 458.828 c h
398.414 344.305 m 389.418 344.305 383.113 353.887 388.906 363.656 c 389.18
 364.121 389.566 364.543 390.008 364.859 c 399.684 371.812 409.996 365.379
 409.996 356.043 c 409.996 349.449 404.848 344.305 398.414 344.305 c h
398.414 344.305 m f
0.643137 0.788235 1 rg
258.473 378.867 m 258.473 347.129 232.742 321.402 201.008 321.402 c 169.27
 321.402 143.543 347.129 143.543 378.867 c 143.543 410.598 169.27 436.328
 201.008 436.328 c 232.742 436.328 258.473 410.598 258.473 378.867 c h
258.473 378.867 m f
1 0.917647 0.572549 rg
230.984 408.836 m 214.375 425.445 187.484 425.488 170.93 408.934 c 154.371
 392.375 154.414 365.488 171.027 348.879 c 187.637 332.27 214.523 332.227
 231.082 348.781 c 247.637 365.34 247.59 392.223 230.984 408.836 c h
230.984 408.836 m f
0.215686 0.384314 0.8 rg
201.004 317.402 m 167.113 317.402 139.543 344.973 139.543 378.867 c 139.543
 412.754 167.113 440.328 201.004 440.328 c 234.895 440.328 262.465 412.754
 262.465 378.867 c 262.465 344.973 234.895 317.402 201.004 317.402 c h
201.004 432.332 m 171.523 432.332 147.535 408.348 147.535 378.867 c 147.535
 349.383 171.523 325.398 201.004 325.398 c 230.484 325.398 254.469 349.383
 254.469 378.867 c 254.469 408.348 230.484 432.332 201.004 432.332 c h
201.004 432.332 m f
0.976471 0.654902 0.654902 rg
210.738 378.023 m 223.789 391.078 l 224.984 392.266 225.816 393.816 225.961
 395.496 c 226.148 397.566 225.422 399.543 223.973 400.992 c 222.523 402.441
 220.547 403.168 218.473 402.984 c 216.793 402.832 215.25 402.004 214.055
 400.812 c 201.004 387.758 l 187.953 400.812 l 186.762 402.004 185.211 402.836
 183.535 402.984 c 181.465 403.168 179.48 402.441 178.035 400.992 c 176.59
 399.543 175.863 397.57 176.047 395.496 c 176.195 393.816 177.027 392.266
 178.219 391.078 c 191.266 378.023 l 178.219 364.973 l 177.027 363.781 176.195
 362.234 176.047 360.555 c 175.859 358.484 176.582 356.504 178.035 355.055
 c 179.48 353.609 181.461 352.883 183.535 353.066 c 185.211 353.219 186.758
 354.047 187.949 355.234 c 201.004 368.289 l 214.055 355.234 l 215.246 354.047
 216.789 353.215 218.469 353.066 c 220.543 352.883 222.52 353.609 223.973
 355.055 c 225.422 356.504 226.145 358.488 225.957 360.555 c 225.809 362.234
 224.977 363.781 223.785 364.973 c h
210.738 378.023 m f
Q Q
showpage
%%Trailer
end restore
%%EOF
