%!PS-Adobe-3.0 EPSF-3.0
%%Creator: cairo 1.14.8 (http://cairographics.org)
%%CreationDate: Wed Mar 20 09:06:38 2019
%%Pages: 1
%%DocumentData: Clean7Bit
%%LanguageLevel: 2
%%BoundingBox: 36 0 456 492
%%EndComments
%%BeginProlog
save
50 dict begin
/q { gsave } bind def
/Q { grestore } bind def
/cm { 6 array astore concat } bind def
/w { setlinewidth } bind def
/J { setlinecap } bind def
/j { setlinejoin } bind def
/M { setmiterlimit } bind def
/d { setdash } bind def
/m { moveto } bind def
/l { lineto } bind def
/c { curveto } bind def
/h { closepath } bind def
/re { exch dup neg 3 1 roll 5 3 roll moveto 0 rlineto
      0 exch rlineto 0 rlineto closepath } bind def
/S { stroke } bind def
/f { fill } bind def
/f* { eofill } bind def
/n { newpath } bind def
/W { clip } bind def
/W* { eoclip } bind def
/BT { } bind def
/ET { } bind def
/pdfmark where { pop globaldict /?pdfmark /exec load put }
    { globaldict begin /?pdfmark /pop load def /pdfmark
    /cleartomark load def end } ifelse
/BDC { mark 3 1 roll /BDC pdfmark } bind def
/EMC { mark /EMC pdfmark } bind def
/cairo_store_point { /cairo_point_y exch def /cairo_point_x exch def } def
/Tj { show currentpoint cairo_store_point } bind def
/TJ {
  {
    dup
    type /stringtype eq
    { show } { -0.001 mul 0 cairo_font_matrix dtransform rmoveto } ifelse
  } forall
  currentpoint cairo_store_point
} bind def
/cairo_selectfont { cairo_font_matrix aload pop pop pop 0 0 6 array astore
    cairo_font exch selectfont cairo_point_x cairo_point_y moveto } bind def
/Tf { pop /cairo_font exch def /cairo_font_matrix where
      { pop cairo_selectfont } if } bind def
/Td { matrix translate cairo_font_matrix matrix concatmatrix dup
      /cairo_font_matrix exch def dup 4 get exch 5 get cairo_store_point
      /cairo_font where { pop cairo_selectfont } if } bind def
/Tm { 2 copy 8 2 roll 6 array astore /cairo_font_matrix exch def
      cairo_store_point /cairo_font where { pop cairo_selectfont } if } bind def
/g { setgray } bind def
/rg { setrgbcolor } bind def
/d1 { setcachedevice } bind def
%%EndProlog
%%BeginSetup
%%EndSetup
%%Page: 1 1
%%BeginPageSetup
%%PageBoundingBox: 36 0 456 492
%%EndPageSetup
q 36 0 420 492 rectclip q
0.643137 0.788235 1 rg
83.902 119.316 m 54.371 124.344 l 51.754 124.789 49.102 123.812 47.332 
121.742 c 42.227 115.781 l 40.945 114.281 40.238 112.336 40.238 110.32 c
 40.238 107.449 41.672 104.785 44.023 103.312 c 89.957 74.512 l 92.555 72.883
 95.625 72.316 98.594 72.918 c 102.18 73.641 105.281 76.004 107.047 79.367
 c 112.223 89.219 l 113.781 92.188 113.039 95.898 110.473 97.961 c h
83.902 119.316 m f
0.419608 0.866667 0.866667 rg
280.531 176.711 m 222.016 202.016 l 280.277 336.734 l 288.492 355.727 310.551
 364.469 329.547 356.25 c 352.824 346.188 l 368.156 339.559 375.207 321.754
 368.578 306.426 c 319.082 191.98 l 312.652 177.121 295.395 170.281 280.531
 176.711 c h
280.531 176.711 m f
0.215686 0.384314 0.8 rg
292.164 170.285 m 287.672 170.285 283.191 171.207 278.949 173.043 c 220.43
 198.348 l 219.461 198.77 218.695 199.559 218.305 200.543 c 217.914 201.531
 217.93 202.633 218.352 203.605 c 276.613 338.324 l 281.008 348.488 289.102
 356.336 299.398 360.418 c 309.695 364.496 320.965 364.324 331.137 359.93
 c 354.41 349.859 l 362.805 346.23 369.281 339.551 372.652 331.047 c 376.023
 322.547 375.875 313.238 372.246 304.844 c 322.754 190.402 l 319.219 182.234
 312.715 175.93 304.445 172.652 c 300.469 171.07 296.312 170.285 292.164
 170.285 c h
227.277 204.102 m 282.121 180.383 l 288.328 177.695 295.215 177.59 301.5
 180.082 c 307.789 182.574 312.727 187.363 315.414 193.57 c 364.906 308.016
 l 367.691 314.453 367.801 321.582 365.219 328.098 c 362.633 334.613 357.672
 339.734 351.238 342.52 c 327.961 352.586 l 319.758 356.133 310.656 356.273
 302.344 352.98 c 294.035 349.688 287.496 343.355 283.953 335.145 c h
227.277 204.102 m f
115.691 88.785 m 113.996 88.785 112.336 89.387 111.008 90.508 c 81.082 
115.746 l 78.219 118.16 77.48 122.48 79.363 125.785 c 126.527 208.5 l 131.121
 217.238 137.812 224.723 145.809 230.031 c 154.531 235.816 164.539 238.875
 174.754 238.875 c 319.395 238.875 l 321.605 238.875 323.395 237.086 323.395
 234.879 c 323.395 202.531 l 323.395 182.383 308.301 165.988 289.742 165.988
 c 170.684 165.988 l 168.723 165.988 166.844 164.902 165.645 163.086 c 161.375
 156.602 l 121.949 92.359 l 120.797 90.484 118.926 89.211 116.816 88.871
 c 116.441 88.812 116.062 88.785 115.691 88.785 c h
174.754 230.883 m 166.121 230.883 157.637 228.281 150.23 223.371 c 143.348
 218.805 137.574 212.336 133.539 204.66 c 86.309 121.824 l 115.516 97.168
 l 154.625 160.895 l 158.965 167.488 l 161.645 171.555 166.027 173.984 170.68
 173.984 c 289.738 173.984 l 303.887 173.984 315.398 186.793 315.398 202.535
 c 315.398 230.883 l h
174.754 230.883 m f
0.27451 0.443137 0.776471 rg
174.754 234.883 m 165.332 234.883 156.086 232.051 148.02 226.703 c 140.559
 221.75 134.359 214.805 130 206.52 c 82.84 123.805 l 81.898 122.152 82.254
 119.984 83.66 118.797 c 113.586 93.562 l 115.16 92.234 117.43 92.641 118.539
 94.445 c 158.035 158.801 l 162.305 165.285 l 164.25 168.238 167.367 169.984
 170.684 169.984 c 289.742 169.984 l 306.121 169.984 319.395 184.555 319.395
 202.531 c 319.395 234.879 l 174.754 234.879 l h
174.754 234.883 m f
0.215686 0.384314 0.8 rg
115.691 88.785 m 113.996 88.785 112.336 89.387 111.008 90.508 c 81.082 
115.746 l 78.219 118.16 77.48 122.48 79.363 125.785 c 126.527 208.5 l 131.121
 217.238 137.812 224.723 145.809 230.031 c 154.531 235.816 164.539 238.875
 174.754 238.875 c 319.395 238.875 l 321.605 238.875 323.395 237.086 323.395
 234.879 c 323.395 202.531 l 323.395 182.383 308.301 165.988 289.742 165.988
 c 170.684 165.988 l 168.723 165.988 166.844 164.902 165.645 163.086 c 161.375
 156.602 l 121.949 92.359 l 120.797 90.484 118.926 89.211 116.816 88.871
 c 116.441 88.812 116.062 88.785 115.691 88.785 c h
174.754 230.883 m 166.121 230.883 157.637 228.281 150.23 223.371 c 143.348
 218.805 137.574 212.336 133.539 204.66 c 86.309 121.824 l 115.516 97.168
 l 154.625 160.895 l 158.965 167.488 l 161.645 171.555 166.027 173.984 170.68
 173.984 c 289.738 173.984 l 303.887 173.984 315.398 186.793 315.398 202.535
 c 315.398 230.883 l h
174.754 230.883 m f
0.976471 0.811765 0.811765 rg
379.289 473.223 m 355.758 483.395 328.434 472.57 318.258 449.039 c 307.445
 424.031 l 305.371 424.93 l 301.719 426.512 297.473 424.828 295.891 421.176
 c 294.312 417.52 295.988 413.277 299.648 411.695 c 302.879 410.293 l 299.727
 392.938 306.73 375.16 320.934 364.691 c 318.398 358.836 l 322.48 358.5 
326.578 357.535 330.543 355.82 c 352.02 346.535 l 353.555 345.871 354.98
 345.066 356.348 344.199 c 362.18 357.688 l 374.695 361.555 385.504 370.645
 391.105 383.609 c 403.469 412.188 l 413.645 435.723 402.82 463.047 379.289
 473.223 c h
379.289 473.223 m f
0.215686 0.384314 0.8 rg
96.266 68.688 m 93.312 68.688 90.402 69.52 87.836 71.125 c 41.902 99.926
 l 38.41 102.113 36.238 106.098 36.238 110.32 c 36.238 113.293 37.285 116.156
 39.191 118.375 c 44.297 124.34 l 47 127.496 51.012 128.973 55.043 128.285
 c 84.574 123.258 l 85.246 123.145 85.875 122.859 86.402 122.434 c 112.98
 101.078 l 117.051 97.805 118.223 92.039 115.766 87.359 c 110.586 77.508
 l 108.258 73.062 104.172 69.969 99.391 69 c 98.352 68.789 97.305 68.688
 96.266 68.688 c h
53.125 120.453 m 52.094 120.453 51.094 119.984 50.371 119.141 c 45.266 
113.18 l 44.602 112.402 44.234 111.387 44.234 110.32 c 44.234 108.828 44.969
 107.441 46.152 106.699 c 92.086 77.898 l 93.809 76.816 95.848 76.441 97.805
 76.836 c 100.223 77.324 102.301 78.926 103.508 81.223 c 108.688 91.078 
l 109.359 92.359 109.051 93.977 107.977 94.84 c 82.207 115.551 l 53.703 
120.402 l 53.512 120.438 53.32 120.453 53.125 120.453 c h
53.125 120.453 m f
356.348 340.203 m 355.598 340.203 354.855 340.414 354.207 340.824 c 352.852
 341.688 351.617 342.355 350.434 342.867 c 328.957 352.156 l 325.539 353.637
 321.879 354.539 318.07 354.855 c 316.785 354.961 315.637 355.68 314.973
 356.781 c 314.309 357.887 314.219 359.242 314.73 360.43 c 316.047 363.465
 l 303.211 374.285 296.543 391.129 298.477 407.848 c 298.062 408.027 l 295.312
 409.215 293.195 411.406 292.094 414.184 c 290.988 416.969 291.035 420.02
 292.223 422.766 c 294.441 427.895 300.059 430.523 305.309 429.168 c 314.59
 450.633 l 319.938 462.992 329.777 472.531 342.293 477.492 c 354.809 482.453
 368.516 482.238 380.875 476.895 c 393.238 471.551 402.777 461.711 407.738
 449.191 c 412.703 436.668 412.488 422.965 407.141 410.605 c 394.777 382.027
 l 389.176 369.07 378.434 359.109 365.141 354.457 c 360.02 342.621 l 359.559
 341.547 358.645 340.73 357.527 340.387 c 357.141 340.262 356.746 340.203
 356.348 340.203 c h
324.137 362.031 m 326.891 361.453 329.566 360.605 332.129 359.492 c 353.609
 350.207 l 353.879 350.086 354.152 349.965 354.426 349.832 c 358.512 359.277
 l 358.977 360.348 359.887 361.164 361.004 361.512 c 372.879 365.176 382.516
 373.812 387.438 385.195 c 399.801 413.777 l 404.301 424.176 404.48 435.707
 400.305 446.238 c 396.133 456.773 388.102 465.055 377.699 469.551 c 367.305
 474.047 355.773 474.227 345.242 470.055 c 334.703 465.883 326.426 457.855
 321.93 447.453 c 311.113 422.445 l 310.234 420.422 307.891 419.488 305.859
 420.363 c 303.785 421.262 l 302.156 421.965 300.266 421.211 299.566 419.586
 c 299.223 418.797 299.211 417.926 299.527 417.129 c 299.844 416.332 300.449
 415.703 301.238 415.363 c 304.469 413.961 l 306.176 413.227 307.148 411.41
 306.816 409.582 c 303.941 393.77 310.414 377.41 323.309 367.91 c 324.805
 366.809 325.344 364.812 324.602 363.105 c h
324.137 362.031 m f
322.719 416.59 m 320.438 417.574 319.391 420.223 320.375 422.5 c 323.352
 429.375 l 324.336 431.656 326.98 432.703 329.262 431.715 c 331.539 430.73
 332.586 428.086 331.602 425.809 c 328.629 418.93 l 327.641 416.652 324.996
 415.602 322.719 416.59 c h
322.719 416.59 m f
0.419608 0.866667 0.866667 rg
290.848 259.836 m 337.141 259.836 l 339.242 259.836 340.945 261.539 340.945
 263.645 c 340.945 318.648 l 340.945 333.531 328.879 345.602 313.996 345.602
 c 299.113 345.602 287.043 333.531 287.043 318.648 c 287.043 263.645 l 287.043
 261.539 288.746 259.836 290.848 259.836 c h
290.848 259.836 m f
0.976471 0.811765 0.811765 rg
290.836 259.836 m 290.836 247.984 l 290.836 244.203 287.91 241.066 284.145
 240.801 c 200.723 234.883 l 167.648 237.734 l 165.23 237.945 162.805 237.441
 160.668 236.285 c 152.137 231.676 l 148.93 229.941 146.93 226.59 146.93
 222.941 c 146.93 215.406 l 146.93 213.457 148.508 211.883 150.453 211.883
 c 319.762 211.883 l 325.473 211.883 330.754 214.93 333.609 219.879 c 334.531
 221.473 l 335.938 223.902 336.676 226.664 336.676 229.469 c 336.676 259.84
 l 290.836 259.84 l h
290.836 259.836 m f
0.27451 0.443137 0.776471 rg
423.77 438.16 m 423.766 438.156 l 421.184 453.055 410.953 466.668 395.457
 473.371 c 392.16 474.793 388.395 473.418 387.047 470.305 c 386.531 469.117
 l 387.137 470.512 387.27 471.996 387.008 473.395 c 387.008 473.395 386.984
 473.898 386.621 474.727 c 386.172 475.887 385.438 476.938 384.461 477.766
 c 383.16 479.082 381.18 480.559 378.191 482 c 378.188 482.004 378.18 482.004
 378.176 482.008 c 375.078 483.504 370.895 484.965 365.238 486.16 c 361.273
 487.387 357.242 487.984 353.262 488.004 c 353.25 488.004 353.234 488.008
 353.219 488.008 c 353.219 488 l 350.957 488.008 348.711 487.828 346.508
 487.473 c 345.559 487.336 345.059 487.211 345.055 487.211 c 332.453 484.711
 321.316 476.383 315.895 463.84 c 310.023 450.273 l 309.754 449.645 310.051
 448.91 310.691 448.637 c 367.121 424.23 l 354.402 394.816 l 349.602 383.723
 l 350.402 366.891 l 350.426 366.414 350.723 365.988 351.168 365.797 c 355.801
 363.789 l 357.461 363.074 l 368.84 358.152 l 370.629 357.379 372.496 356.875
 374.383 356.629 c 374.445 356.629 376.562 356.609 377.793 357.461 c 380.699
 359.469 387.547 364.191 393.781 368.52 c 403.039 374.938 410.477 383.625
 415.168 393.805 c 428.031 421.699 423.77 438.16 423.77 438.16 c h
423.77 438.16 m f
0.215686 0.384314 0.8 rg
374.457 352.633 m 374.406 352.633 374.359 352.633 374.316 352.633 c 374.168
 352.633 374.016 352.645 373.867 352.664 c 371.582 352.961 369.355 353.57
 367.254 354.477 c 349.578 362.121 l 347.738 362.922 346.492 364.723 346.402
 366.711 c 345.605 383.531 l 345.578 384.141 345.688 384.746 345.93 385.305
 c 361.859 422.145 l 309.102 444.961 l 307.809 445.52 306.809 446.551 306.289
 447.859 c 305.777 449.16 305.797 450.586 306.355 451.863 c 312.219 465.426
 l 317.945 478.668 329.918 488.277 344.246 491.121 c 344.258 491.129 344.875
 491.273 345.945 491.426 c 348.258 491.801 350.664 491.992 353.031 491.996
 c 353.168 492 353.305 492 353.441 491.996 c 357.77 491.961 362.074 491.297
 366.242 490.031 c 371.57 488.891 376.141 487.418 379.836 485.648 c 379.887
 485.625 379.934 485.602 379.98 485.578 c 382.922 484.156 385.352 482.504
 387.184 480.699 c 388.219 479.793 389.086 478.703 389.742 477.492 c 392.129
 478.211 394.695 478.055 397.047 477.039 c 413.254 470.027 424.691 455.836
 427.668 439.043 c 428.074 437.348 431.695 420.105 418.797 392.125 c 413.863
 381.426 406 372.125 396.059 365.227 c 389.816 360.902 382.969 356.172 380.062
 354.168 c 378.035 352.773 375.414 352.633 374.457 352.633 c h
354.312 368.789 m 370.426 361.82 l 371.762 361.242 373.172 360.844 374.617
 360.633 c 374.988 360.656 375.453 360.734 375.629 360.812 c 378.426 362.75
 385.266 367.48 391.5 371.801 c 400.273 377.883 407.203 386.07 411.539 395.477
 c 422.996 420.344 420.219 435.652 419.918 437.074 c 419.879 437.203 419.852
 437.34 419.828 437.477 c 417.367 451.688 407.66 463.738 393.867 469.703
 c 393.219 469.984 392.512 470.016 391.891 469.789 c 391.504 469.648 390.984
 469.348 390.719 468.719 c 390.199 467.527 l 389.324 465.508 386.973 464.57
 384.941 465.449 c 382.918 466.324 381.988 468.676 382.863 470.707 c 383.129
 471.32 383.203 471.992 383.078 472.652 c 383.062 472.746 383.047 472.836
 383.035 472.93 c 383.02 472.984 382.992 473.055 382.957 473.137 c 382.68
 473.84 382.328 474.336 381.875 474.719 c 381.789 474.793 381.703 474.871
 381.621 474.953 c 380.438 476.148 378.648 477.344 376.449 478.406 c 376.438
 478.41 376.422 478.418 376.41 478.426 c 373.246 479.953 369.207 481.234
 364.41 482.254 c 364.289 482.277 364.176 482.309 364.059 482.344 c 360.539
 483.43 356.898 483.988 353.242 484.008 c 353.23 484.008 353.215 484.008
 353.203 484.008 c 351.273 484 349.164 483.852 347.141 483.527 c 346.445
 483.426 346.086 483.348 346.004 483.328 c 334.066 480.961 324.246 473.098
 319.559 462.258 c 314.785 451.219 l 368.699 427.902 l 369.672 427.484 370.441
 426.691 370.832 425.703 c 371.223 424.715 371.203 423.617 370.785 422.645
 c 353.637 382.988 l h
354.391 367.094 m 354.395 367.078 l 354.395 367.082 354.391 367.09 354.391
 367.094 c h
313.695 448.691 m 313.691 448.684 l 313.691 448.688 313.695 448.691 313.695
 448.691 c h
383.133 474.375 m 382.988 473.824 382.969 473.316 383.031 472.957 c 382.98
 473.438 383.016 473.918 383.133 474.375 c h
385.203 476.961 m 384.758 476.734 384.395 476.449 384.094 476.133 c 384.406
 476.465 384.777 476.746 385.203 476.961 c h
385.207 476.961 m 385.203 476.961 385.203 476.961 385.203 476.961 c h
385.207 476.961 m f
0.976471 0.811765 0.811765 rg
372.574 401.5 m 372.574 392.422 365.215 385.066 356.137 385.066 c 347.062
 385.066 339.703 392.422 339.703 401.5 c 339.703 410.578 347.062 417.934
 356.137 417.934 c 365.215 417.934 372.574 410.578 372.574 401.5 c h
372.574 401.5 m f
0.215686 0.384314 0.8 rg
337.141 255.84 m 290.848 255.84 l 286.551 255.84 283.047 259.34 283.047
 263.645 c 283.047 318.648 l 283.047 335.715 296.93 349.598 313.992 349.598
 c 331.059 349.598 344.941 335.715 344.941 318.648 c 344.941 263.641 l 344.941
 259.34 341.441 255.84 337.141 255.84 c h
291.043 263.836 m 336.945 263.836 l 336.945 318.648 l 336.945 331.305 326.648
 341.602 313.992 341.602 c 301.34 341.602 291.043 331.305 291.043 318.648
 c h
291.043 263.836 m f
319.766 207.883 m 150.457 207.883 l 146.305 207.883 142.934 211.258 142.934
 215.406 c 142.934 222.941 l 142.934 228.066 145.727 232.762 150.234 235.195
 c 158.77 239.805 l 161.598 241.336 164.789 241.996 167.984 241.723 c 200.754
 238.891 l 283.859 244.785 l 285.531 244.906 286.836 246.309 286.836 247.984
 c 286.836 259.836 l 286.836 262.043 288.625 263.836 290.832 263.836 c 336.68
 263.836 l 338.887 263.836 340.676 262.043 340.676 259.836 c 340.676 229.469
 l 340.676 225.965 339.746 222.508 337.996 219.473 c 337.074 217.875 l 333.516
 211.711 326.883 207.883 319.766 207.883 c h
150.93 215.879 m 319.766 215.879 l 324.039 215.879 328.016 218.176 330.148
 221.871 c 331.074 223.469 l 332.121 225.293 332.68 227.367 332.68 229.465
 c 332.68 255.84 l 294.832 255.84 l 294.832 247.98 l 294.832 242.133 290.262
 237.223 284.426 236.809 c 201.008 230.891 l 200.797 230.875 200.586 230.879
 200.379 230.895 c 167.305 233.754 l 165.672 233.895 164.023 233.555 162.57
 232.77 c 154.039 228.152 l 152.121 227.121 150.93 225.121 150.93 222.938
 c h
150.93 215.879 m f
0.27451 0.443137 0.776471 rg
176.109 169.508 m 176.109 4 l 337.945 4 l 390.664 124.652 l 392.277 128.355
 393.113 132.348 393.113 136.391 c 393.113 169.508 l h
176.109 169.508 m f
0.643137 0.788235 1 rg
430.926 382 m 413.922 382 l 406.578 382 399.938 377.629 397.039 370.883
 c 323.234 199.547 l 323.234 169.508 l 392.297 169.508 l 450.98 354.602 
l 451.633 356.656 451.965 358.805 451.965 360.961 c 451.965 372.578 442.547
 382 430.926 382 c h
430.926 382 m f
367.078 70.676 m 401.461 17.93 l 402.414 16.465 402.922 14.754 402.922 
13.004 c 402.922 9.516 l 402.922 6.469 400.453 4 397.406 4 c 337.945 4 l
 h
367.078 70.676 m f
374.727 136.09 m 374.727 123.395 364.434 113.102 351.738 113.102 c 339.039
 113.102 328.75 123.395 328.75 136.09 c 328.75 148.785 339.039 159.078 351.738
 159.078 c 364.434 159.078 374.727 148.785 374.727 136.09 c h
374.727 136.09 m f
0.878431 0.921569 0.988235 rg
362.492 136.09 m 362.492 130.148 357.676 125.328 351.738 125.328 c 345.797
 125.328 340.977 130.148 340.977 136.09 c 340.977 142.031 345.797 146.844
 351.738 146.844 c 357.676 146.844 362.492 142.031 362.492 136.09 c h
362.492 136.09 m f
0.215686 0.384314 0.8 rg
392.297 165.512 m 323.234 165.512 l 321.027 165.512 319.234 167.305 319.234
 169.508 c 319.234 199.547 l 319.234 200.094 319.348 200.633 319.559 201.129
 c 393.363 372.465 l 396.906 380.688 404.977 386 413.922 386 c 430.926 386
 l 444.73 386 455.961 374.77 455.961 360.965 c 455.961 358.391 455.566 355.844
 454.789 353.395 c 396.105 168.305 l 395.578 166.641 394.039 165.512 392.297
 165.512 c h
327.23 173.508 m 389.371 173.508 l 447.168 355.809 l 447.699 357.477 447.965
 359.211 447.965 360.965 c 447.965 370.359 440.32 378.004 430.926 378.004
 c 413.922 378.004 l 408.168 378.004 402.984 374.59 400.707 369.305 c 327.23
 198.723 l h
327.23 173.508 m f
0.643137 0.788235 1 rg
363.691 169.508 m 167.527 169.508 l 161.43 169.508 156.492 174.453 156.492
 180.547 c 156.492 202.613 l 156.492 208.707 161.43 213.645 167.527 213.645
 c 363.688 213.645 l 369.781 213.645 374.727 208.707 374.727 202.613 c 374.727
 180.547 l 374.727 174.453 369.781 169.508 363.691 169.508 c h
363.691 169.508 m f
0.215686 0.384314 0.8 rg
363.688 165.512 m 167.527 165.512 l 159.238 165.512 152.492 172.258 152.492
 180.547 c 152.492 202.613 l 152.492 210.902 159.238 217.645 167.527 217.645
 c 363.688 217.645 l 371.977 217.645 378.723 210.902 378.723 202.613 c 378.723
 180.547 l 378.723 172.254 371.98 165.512 363.688 165.512 c h
167.527 209.648 m 163.645 209.648 160.488 206.492 160.488 202.613 c 160.488
 180.547 l 160.488 176.664 163.645 173.508 167.527 173.508 c 363.688 173.508
 l 367.57 173.508 370.727 176.664 370.727 180.547 c 370.727 202.613 l 370.727
 206.492 367.574 209.648 363.688 209.648 c h
167.527 209.648 m f
337.945 0 m 176.105 0 l 173.902 0 172.109 1.793 172.109 4 c 172.109 169.508
 l 172.109 171.719 173.902 173.508 176.105 173.508 c 393.113 173.508 l 395.324
 173.508 397.113 171.719 397.113 169.508 c 397.113 138.895 l 397.113 132.613
 395.836 126.512 393.324 120.754 c 341.609 2.398 l 340.969 0.941 339.531
 0 337.945 0 c h
180.105 7.996 m 335.328 7.996 l 385.992 123.957 l 388.066 128.699 389.117
 133.723 389.117 138.895 c 389.117 165.512 l 180.105 165.512 l h
180.105 7.996 m f
397.406 0 m 337.945 0 l 336.594 0 335.336 0.68 334.598 1.809 c 333.859 
2.938 333.738 4.367 334.277 5.598 c 363.414 72.273 l 364.004 73.621 365.281
 74.535 366.75 74.66 c 368.207 74.777 369.621 74.09 370.426 72.855 c 404.812
 20.109 l 406.188 17.992 406.918 15.535 406.918 13.004 c 406.918 9.516 l
 406.918 4.27 402.652 0 397.406 0 c h
344.055 7.996 m 397.406 7.996 l 398.246 7.996 398.922 8.676 398.922 9.516
 c 398.922 13.004 l 398.922 13.98 398.641 14.926 398.113 15.746 c 367.777
 62.285 l h
344.055 7.996 m f
0.72549 0.745098 0.988235 rg
176.109 4 m 83.547 4 l 79.48 4 76.188 7.293 76.188 11.355 c 76.188 38.906
 l 76.188 42.965 79.48 46.262 83.547 46.262 c 176.109 46.262 l h
176.109 4 m f
155.418 140.797 m 147.059 140.797 139.418 136.074 135.68 128.598 c 106.102
 69.441 l 104.57 66.375 103.77 63 103.77 59.57 c 103.77 46.262 l 176.105
 46.262 l 176.105 43.293 l 176.105 140.797 l h
155.418 140.797 m f
0.215686 0.384314 0.8 rg
176.105 0 m 83.547 0 l 77.285 0 72.188 5.09 72.188 11.355 c 72.188 38.906
 l 72.188 45.164 77.285 50.258 83.547 50.258 c 176.109 50.258 l 178.316 
50.258 180.109 48.469 180.109 46.262 c 180.109 4 l 180.105 1.793 178.316
 0 176.105 0 c h
83.547 42.262 m 81.691 42.262 80.184 40.762 80.184 38.906 c 80.184 11.355
 l 80.184 9.504 81.691 7.996 83.547 7.996 c 172.113 7.996 l 172.113 42.262
 l h
83.547 42.262 m f
176.105 39.297 m 174.258 39.297 172.699 40.555 172.246 42.262 c 103.773
 42.262 l 101.566 42.262 99.777 44.055 99.777 46.262 c 99.777 59.57 l 99.777
 63.602 100.73 67.629 102.527 71.23 c 132.105 130.387 l 136.551 139.27 145.484
 144.797 155.418 144.797 c 176.109 144.797 l 178.316 144.797 180.109 143.004
 180.109 140.797 c 180.109 43.293 l 180.105 41.086 178.316 39.297 176.105
 39.297 c h
107.773 50.258 m 172.113 50.258 l 172.113 136.801 l 155.418 136.801 l 148.531
 136.801 142.34 132.969 139.258 126.809 c 109.68 67.652 l 108.434 65.156
 107.773 62.363 107.773 59.574 c h
107.773 50.258 m f
Q Q
showpage
%%Trailer
end restore
%%EOF
