%!PS-Adobe-3.0 EPSF-3.0
%%Creator: cairo 1.14.8 (http://cairographics.org)
%%CreationDate: Wed Mar 20 09:06:38 2019
%%Pages: 1
%%DocumentData: Clean7Bit
%%LanguageLevel: 2
%%BoundingBox: 40 0 447 486
%%EndComments
%%BeginProlog
save
50 dict begin
/q { gsave } bind def
/Q { grestore } bind def
/cm { 6 array astore concat } bind def
/w { setlinewidth } bind def
/J { setlinecap } bind def
/j { setlinejoin } bind def
/M { setmiterlimit } bind def
/d { setdash } bind def
/m { moveto } bind def
/l { lineto } bind def
/c { curveto } bind def
/h { closepath } bind def
/re { exch dup neg 3 1 roll 5 3 roll moveto 0 rlineto
      0 exch rlineto 0 rlineto closepath } bind def
/S { stroke } bind def
/f { fill } bind def
/f* { eofill } bind def
/n { newpath } bind def
/W { clip } bind def
/W* { eoclip } bind def
/BT { } bind def
/ET { } bind def
/pdfmark where { pop globaldict /?pdfmark /exec load put }
    { globaldict begin /?pdfmark /pop load def /pdfmark
    /cleartomark load def end } ifelse
/BDC { mark 3 1 roll /BDC pdfmark } bind def
/EMC { mark /EMC pdfmark } bind def
/cairo_store_point { /cairo_point_y exch def /cairo_point_x exch def } def
/Tj { show currentpoint cairo_store_point } bind def
/TJ {
  {
    dup
    type /stringtype eq
    { show } { -0.001 mul 0 cairo_font_matrix dtransform rmoveto } ifelse
  } forall
  currentpoint cairo_store_point
} bind def
/cairo_selectfont { cairo_font_matrix aload pop pop pop 0 0 6 array astore
    cairo_font exch selectfont cairo_point_x cairo_point_y moveto } bind def
/Tf { pop /cairo_font exch def /cairo_font_matrix where
      { pop cairo_selectfont } if } bind def
/Td { matrix translate cairo_font_matrix matrix concatmatrix dup
      /cairo_font_matrix exch def dup 4 get exch 5 get cairo_store_point
      /cairo_font where { pop cairo_selectfont } if } bind def
/Tm { 2 copy 8 2 roll 6 array astore /cairo_font_matrix exch def
      cairo_store_point /cairo_font where { pop cairo_selectfont } if } bind def
/g { setgray } bind def
/rg { setrgbcolor } bind def
/d1 { setcachedevice } bind def
%%EndProlog
%%BeginSetup
%%EndSetup
%%Page: 1 1
%%BeginPageSetup
%%PageBoundingBox: 40 0 447 486
%%EndPageSetup
q 40 0 407 486 rectclip q
0.976471 0.811765 0.811765 rg
229.086 456.719 m 144.398 456.719 75.742 388.066 75.742 303.379 c 75.742
 213.371 l 68.281 213.371 l 55.129 213.371 44.469 202.711 44.469 189.555
 c 44.469 176.406 55.129 165.742 68.281 165.742 c 79.922 165.742 l 93.117
 108.977 137.66 64.262 194.457 51.145 c 194.457 3.996 l 328.711 3.996 l 
328.711 83.988 l 361.574 112.109 382.43 153.863 382.43 200.508 c 382.43 
303.379 l 382.43 388.066 313.773 456.719 229.086 456.719 c h
229.086 456.719 m f
0.215686 0.384314 0.8 rg
328.711 0 m 194.457 0 l 192.254 0 190.461 1.789 190.461 3.996 c 190.461
 48 l 135.039 62.02 90.91 106.176 76.785 161.746 c 68.281 161.746 l 52.949
 161.746 40.473 174.227 40.473 189.555 c 40.473 204.891 52.949 217.367 68.281
 217.367 c 71.742 217.367 l 71.742 303.379 l 71.742 390.133 142.324 460.715
 229.086 460.715 c 315.84 460.715 386.422 390.133 386.422 303.379 c 386.422
 200.512 l 386.422 155.125 366.867 112.094 332.707 82.168 c 332.707 3.996
 l 332.707 1.785 330.914 0 328.711 0 c h
198.453 7.992 m 324.715 7.992 l 324.715 83.992 l 324.715 85.16 325.227 
86.266 326.109 87.027 c 359.363 115.484 378.43 156.848 378.43 200.516 c 
378.43 303.379 l 378.43 385.727 311.434 452.723 229.086 452.723 c 146.734
 452.723 79.738 385.727 79.738 303.379 c 79.738 213.371 l 79.738 211.168
 77.949 209.375 75.742 209.375 c 68.281 209.375 l 57.352 209.375 48.465 
200.484 48.465 189.555 c 48.465 178.629 57.352 169.738 68.281 169.738 c 
79.918 169.738 l 81.781 169.738 83.391 168.457 83.812 166.648 c 96.621 111.543
 140.402 67.727 195.355 55.039 c 197.164 54.621 198.449 53.004 198.449 51.145
 c 198.449 7.992 l h
198.453 7.992 m f
131.812 212.121 m 124 212.121 117.668 218.457 117.668 226.266 c 117.668
 249.836 l 117.668 257.648 124 263.98 131.812 263.98 c 139.621 263.98 145.953
 257.648 145.953 249.836 c 145.953 226.266 l 145.953 218.457 139.621 212.121
 131.812 212.121 c h
131.812 212.121 m f
0.976471 0.811765 0.811765 rg
307.23 208.906 m 307.23 178.926 282.922 154.621 252.938 154.621 c 222.953
 154.621 198.652 178.926 198.652 208.906 c 198.652 238.891 222.953 263.195
 252.938 263.195 c 282.922 263.195 307.23 238.891 307.23 208.906 c h
307.23 208.906 m f
0.27451 0.443137 0.776471 rg
409.926 408.742 m 409.918 408.723 l 382.559 450.52 333.68 478.371 277.91
 478.371 c 266.043 478.371 256.426 469.273 256.426 458.043 c 256.426 453.777
 l 256.426 458.797 254.887 463.461 252.262 467.355 c 252.266 467.359 l 252.266
 467.359 251.527 468.863 249.34 470.906 c 246.461 473.82 242.859 476.047
 238.805 477.277 c 233.125 479.555 225.184 481.438 214.246 481.898 c 214.246
 481.902 l 214.223 481.902 214.203 481.902 214.18 481.902 c 202.82 482.371
 188.23 481.309 169.512 477.523 c 155.891 476.035 142.879 472.562 130.781
 467.398 c 130.738 467.383 130.695 467.371 130.648 467.359 c 130.656 467.344
 l 123.785 464.406 117.227 460.906 111.008 456.938 c 108.301 455.277 106.945
 454.246 106.941 454.238 c 72.004 430.141 49.156 390.277 49.156 345.141 
c 49.156 296.305 l 49.156 294.043 51.02 292.211 53.324 292.211 c 256.426
 292.211 l 256.426 146.418 l 280.922 96.434 l 281.617 95.016 283.074 94.113
 284.676 94.113 c 348.285 94.113 l 354.723 94.113 361.043 95.031 367.078
 96.766 c 367.266 96.844 373.723 99.566 376.34 103.758 c 382.52 113.648 
397.07 136.957 410.312 158.25 c 429.961 189.848 441.121 225.941 442.004 
262.973 c 444.414 364.426 409.926 408.742 409.926 408.742 c h
409.926 408.742 m f
0.215686 0.384314 0.8 rg
348.285 90.117 m 284.676 90.117 l 281.574 90.117 278.691 91.906 277.332
 94.672 c 252.832 144.664 l 252.562 145.207 252.426 145.809 252.426 146.418
 c 252.426 288.215 l 53.32 288.215 l 48.82 288.215 45.16 291.844 45.16 296.305
 c 45.16 345.141 l 45.16 389.809 67.406 431.824 104.672 457.527 c 104.68
 457.539 106.156 458.652 108.918 460.344 c 115.246 464.379 121.938 467.934
 128.754 470.871 c 128.945 470.977 129.148 471.066 129.363 471.137 c 129.371
 471.141 129.387 471.148 129.402 471.152 c 141.965 476.492 155.254 479.965
 168.895 481.473 c 186.043 484.93 201.273 486.418 214.203 485.898 c 214.363
 485.898 214.496 485.895 214.641 485.883 c 224.582 485.441 233.16 483.82
 240.137 481.051 c 244.668 479.645 248.828 477.109 252.188 473.711 c 254.027
 471.996 255.062 470.488 255.543 469.68 c 259.871 477.234 268.277 482.367
 277.914 482.367 c 333.254 482.367 383.75 455.777 413.066 411.215 c 413.07
 411.207 413.078 411.199 413.082 411.191 c 414.523 409.34 448.418 364.582
 446.004 262.879 c 445.117 225.598 433.949 188.688 413.711 156.137 c 400.465
 134.844 385.91 111.535 379.73 101.641 c 376.602 96.633 369.941 93.633 368.633
 93.086 c 368.488 93.023 368.34 92.969 368.184 92.926 c 361.699 91.062 355.004
 90.117 348.285 90.117 c h
260.418 147.348 m 284.508 98.191 l 307.324 98.109 l 348.285 98.109 l 354.176
 98.109 360.039 98.926 365.734 100.539 c 367.406 101.277 371.418 103.426
 372.949 105.875 c 379.129 115.762 393.68 139.07 406.922 160.359 c 426.406
 191.699 437.156 227.211 438.012 263.062 c 440.27 358.234 409.559 402.477
 406.949 406.055 c 406.812 406.203 406.691 406.363 406.574 406.535 c 378.766
 449.016 330.664 474.375 277.91 474.375 c 268.266 474.375 260.418 467.047
 260.418 458.043 c 260.418 453.777 l 260.418 451.57 258.629 449.781 256.422
 449.781 c 254.219 449.781 252.426 451.57 252.426 453.777 c 252.426 457.824
 251.223 461.75 248.945 465.121 c 248.836 465.281 248.738 465.449 248.656
 465.621 c 248.555 465.781 247.953 466.727 246.609 467.988 c 244.035 470.59
 240.973 472.445 237.641 473.453 c 237.531 473.488 237.426 473.527 237.32
 473.57 c 231.102 476.062 223.281 477.52 214.078 477.906 c 214.055 477.906
 214.035 477.906 214.016 477.91 c 201.664 478.422 186.961 476.977 170.305
 473.605 c 170.184 473.582 170.066 473.562 169.945 473.547 c 156.949 472.129
 144.305 468.824 132.352 463.723 c 132.344 463.719 132.336 463.715 132.328
 463.711 c 132.293 463.695 132.262 463.684 132.227 463.668 c 125.695 460.875
 119.281 457.477 113.152 453.566 c 110.625 452.02 109.371 451.066 109.359
 451.059 c 74.105 426.734 53.152 387.184 53.152 345.141 c 53.152 296.305
 l 53.152 296.277 53.199 296.203 53.32 296.203 c 256.422 296.203 l 258.629
 296.203 260.418 294.414 260.418 292.211 c h
260.418 147.348 m f
0.976471 0.811765 0.811765 rg
307.23 208.906 m 307.23 178.926 282.922 154.621 252.938 154.621 c 222.953
 154.621 198.652 178.926 198.652 208.906 c 198.652 238.891 222.953 263.195
 252.938 263.195 c 282.922 263.195 307.23 238.891 307.23 208.906 c h
307.23 208.906 m f
0.976471 0.654902 0.654902 rg
387.465 355.844 m 387.473 355.852 l 385.754 384.086 364.441 399.086 358.324
 402.832 c 354.84 424.875 334.973 441.789 310.918 441.789 c 309.766 441.789
 308.637 441.699 307.504 441.625 c 300.457 458.57 283.168 470.57 262.91 
470.57 c 252.234 470.57 242.41 467.203 234.438 461.582 c 227.891 464.773
 220.496 466.613 212.641 466.613 c 193.598 466.613 177.195 456 169.438 440.652
 c 168.758 440.031 168.223 439.516 167.828 439.117 c 166.77 439.184 165.711
 439.27 164.633 439.27 c 138.262 439.27 116.879 418.965 116.645 393.836 
c 103.137 385.723 94.133 371.402 94.133 355.043 c 94.133 331.137 113.305
 311.523 137.766 309.41 c 137.785 309.199 l 137.785 309.199 153.773 305.73
 169.895 310.164 c 175.457 304.34 192.09 290.137 221.754 290.137 c 228.602
 290.137 235.785 290.926 243.172 292.492 c 249.742 293.98 l 259.164 287.609
 275.93 285.715 283.469 285.168 c 283.848 285.156 285.07 285.156 285.07 
285.156 c 286.27 285.109 287.496 285.082 288.746 285.082 c 293.539 285.082
 298.426 285.48 303.16 286.258 c 310.949 287.402 318.055 289.41 324.305 
292.246 c 326.605 291.895 328.633 290.547 329.766 288.555 c 345.434 261.023
 l 346.055 259.926 346.816 258.941 347.633 258.004 c 351.367 251.613 358.215
 247.688 365.617 247.688 c 367.211 247.688 l 378.719 247.688 388.047 257.012
 388.047 268.52 c 388.047 349.449 l 388.043 351.625 387.836 353.762 387.465
 355.844 c h
387.465 355.844 m f
1 0.917647 0.572549 rg
247.93 304.617 m 238.176 304.617 228.277 306.301 218.605 309.852 c 181.41
 323.504 162.258 364.875 175.91 402.07 c 181.496 417.281 192.668 429.402
 207.371 436.215 c 222.07 443.02 238.547 443.691 253.762 438.109 c 280.352
 428.348 294.039 398.777 284.281 372.188 c 275.984 349.59 250.852 337.961
 228.254 346.25 c 208.973 353.328 199.043 374.773 206.121 394.059 c 212.191
 410.586 230.566 419.102 247.113 413.035 c 261.359 407.805 268.695 391.957
 263.465 377.703 c 258.934 365.352 245.195 358.988 232.836 363.523 c 222.059
 367.48 216.504 379.473 220.465 390.254 c 223.941 399.727 234.469 404.609
 243.961 401.129 c 244.867 400.797 245.734 400.387 246.559 399.91 c 245.477
 400.668 244.281 401.305 242.98 401.781 c 232.668 405.57 221.172 400.254
 217.383 389.926 c 212.578 376.852 219.312 362.305 232.395 357.504 c 248.773
 351.484 267.012 359.922 273.031 376.316 c 280.516 396.699 270.02 419.375
 249.633 426.855 c 237.434 431.336 224.211 430.797 212.41 425.332 c 200.613
 419.871 191.648 410.145 187.168 397.938 c 175.793 366.945 191.75 332.48
 222.738 321.102 c 260.715 307.16 302.949 326.715 316.887 364.688 c 323.227
 381.957 324.125 400.453 319.484 418.184 c 318.645 421.391 320.562 424.664
 323.766 425.5 c 326.973 426.336 330.242 424.422 331.082 421.223 c 336.348
 401.109 335.328 380.133 328.141 360.555 c 315.469 326.051 282.711 304.621
 247.93 304.617 c h
247.93 304.617 m f
0.215686 0.384314 0.8 rg
367.203 243.691 m 365.613 243.691 l 356.953 243.691 348.852 248.266 344.371
 255.656 c 343.371 256.836 342.594 257.922 341.953 259.055 c 326.285 286.578
 l 325.926 287.219 325.336 287.723 324.637 288.027 c 318.371 285.344 311.344
 283.422 303.734 282.305 c 297.547 281.293 290.996 280.918 284.914 281.168
 c 284.906 281.164 283.719 281.164 283.34 281.176 c 274.57 281.805 259.059
 283.742 249 289.719 c 244.051 288.598 l 236.371 286.965 228.887 286.141
 221.75 286.141 c 193.145 286.141 175.984 298.746 168.672 305.73 c 152.633
 301.98 137.598 305.148 136.934 305.293 c 136.656 305.355 136.395 305.441
 136.145 305.555 c 109.82 308.434 90.133 329.496 90.133 355.043 c 90.133
 371.57 98.535 386.758 112.719 396.086 c 114.176 422.297 136.992 443.266
 164.629 443.266 c 165.176 443.266 165.719 443.242 166.258 443.215 c 175.172
 460.133 192.863 470.605 212.637 470.605 c 220.086 470.605 227.285 469.109
 234.066 466.145 c 242.656 471.664 252.574 474.566 262.906 474.566 c 283.316
 474.566 301.496 463.352 310.02 445.766 c 310.316 445.777 310.617 445.781
 310.918 445.781 c 335.738 445.781 357.344 428.484 361.949 405.254 c 370.078
 399.902 389.684 384.176 391.453 356.238 c 391.84 353.965 392.039 351.676
 392.039 349.441 c 392.039 268.516 l 392.039 254.828 380.898 243.691 367.203
 243.691 c h
324.301 296.238 m 324.504 296.238 324.707 296.223 324.906 296.195 c 328.465
 295.652 331.5 293.586 333.238 290.527 c 348.898 263.004 l 349.324 262.258
 349.875 261.504 350.637 260.633 c 350.805 260.441 350.949 260.238 351.078
 260.02 c 354.086 254.879 359.652 251.684 365.613 251.684 c 367.203 251.684
 l 376.492 251.684 384.047 259.238 384.047 268.52 c 384.047 349.449 l 384.047
 351.316 383.875 353.23 383.531 355.148 c 383.488 355.383 383.469 355.621
 383.469 355.855 c 381.77 381.844 362.211 395.766 356.238 399.422 c 355.242
 400.031 354.562 401.051 354.379 402.207 c 351.172 422.492 332.484 437.793
 310.918 437.793 c 309.992 437.793 309.086 437.727 308.176 437.668 c 307.77
 437.641 l 306.082 437.527 304.473 438.516 303.816 440.094 c 297.125 456.184
 281.07 466.578 262.906 466.578 c 253.449 466.578 244.398 463.723 236.742
 458.32 c 235.547 457.48 233.992 457.355 232.684 457.996 c 226.395 461.066
 219.645 462.621 212.637 462.621 c 195.605 462.621 180.414 453.516 173 438.855
 c 172.785 438.43 172.492 438.043 172.137 437.719 c 171.516 437.145 171.027
 436.668 170.664 436.301 c 169.855 435.488 168.754 435.059 167.574 435.133
 c 166.957 435.172 l 166.188 435.223 165.414 435.277 164.629 435.277 c 140.586
 435.277 120.852 416.672 120.637 393.801 c 120.625 392.414 119.891 391.129
 118.699 390.414 c 105.816 382.676 98.125 369.457 98.125 355.047 c 98.125
 333.27 115.312 315.363 138.102 313.398 c 138.68 313.348 139.219 313.176
 139.699 312.91 c 143.414 312.277 156.199 310.547 168.828 314.02 c 170.254
 314.406 171.766 313.992 172.777 312.926 c 178.18 307.273 193.762 294.137
 221.75 294.137 c 228.332 294.137 235.258 294.898 242.34 296.402 c 248.855
 297.883 l 249.934 298.125 251.062 297.914 251.98 297.293 c 260.699 291.398
 277.105 289.637 283.754 289.156 c 283.938 289.152 285.066 289.156 285.07
 289.156 c 286.375 289.105 287.547 289.078 288.742 289.078 c 293.32 289.078
 297.953 289.457 302.508 290.207 c 309.988 291.305 316.742 293.211 322.652
 295.891 c 323.172 296.125 323.734 296.238 324.301 296.238 c h
324.301 296.238 m f
0.976471 0.654902 0.654902 rg
251.332 389.453 m 251.332 382.281 245.516 376.469 238.344 376.469 c 231.172
 376.469 225.359 382.281 225.359 389.453 c 225.359 396.625 231.172 402.441
 238.344 402.441 c 245.516 402.441 251.332 396.625 251.332 389.453 c h
251.332 389.453 m f
Q Q
showpage
%%Trailer
end restore
%%EOF
