%!PS-Adobe-3.0 EPSF-3.0
%%Creator: cairo 1.14.8 (http://cairographics.org)
%%CreationDate: Wed Mar 20 09:06:38 2019
%%Pages: 1
%%DocumentData: Clean7Bit
%%LanguageLevel: 2
%%BoundingBox: 0 38 488 448
%%EndComments
%%BeginProlog
save
50 dict begin
/q { gsave } bind def
/Q { grestore } bind def
/cm { 6 array astore concat } bind def
/w { setlinewidth } bind def
/J { setlinecap } bind def
/j { setlinejoin } bind def
/M { setmiterlimit } bind def
/d { setdash } bind def
/m { moveto } bind def
/l { lineto } bind def
/c { curveto } bind def
/h { closepath } bind def
/re { exch dup neg 3 1 roll 5 3 roll moveto 0 rlineto
      0 exch rlineto 0 rlineto closepath } bind def
/S { stroke } bind def
/f { fill } bind def
/f* { eofill } bind def
/n { newpath } bind def
/W { clip } bind def
/W* { eoclip } bind def
/BT { } bind def
/ET { } bind def
/pdfmark where { pop globaldict /?pdfmark /exec load put }
    { globaldict begin /?pdfmark /pop load def /pdfmark
    /cleartomark load def end } ifelse
/BDC { mark 3 1 roll /BDC pdfmark } bind def
/EMC { mark /EMC pdfmark } bind def
/cairo_store_point { /cairo_point_y exch def /cairo_point_x exch def } def
/Tj { show currentpoint cairo_store_point } bind def
/TJ {
  {
    dup
    type /stringtype eq
    { show } { -0.001 mul 0 cairo_font_matrix dtransform rmoveto } ifelse
  } forall
  currentpoint cairo_store_point
} bind def
/cairo_selectfont { cairo_font_matrix aload pop pop pop 0 0 6 array astore
    cairo_font exch selectfont cairo_point_x cairo_point_y moveto } bind def
/Tf { pop /cairo_font exch def /cairo_font_matrix where
      { pop cairo_selectfont } if } bind def
/Td { matrix translate cairo_font_matrix matrix concatmatrix dup
      /cairo_font_matrix exch def dup 4 get exch 5 get cairo_store_point
      /cairo_font where { pop cairo_selectfont } if } bind def
/Tm { 2 copy 8 2 roll 6 array astore /cairo_font_matrix exch def
      cairo_store_point /cairo_font where { pop cairo_selectfont } if } bind def
/g { setgray } bind def
/rg { setrgbcolor } bind def
/d1 { setcachedevice } bind def
%%EndProlog
%%BeginSetup
%%EndSetup
%%Page: 1 1
%%BeginPageSetup
%%PageBoundingBox: 0 38 488 448
%%EndPageSetup
q 0 38 488 410 rectclip q
0.976471 0.811765 0.811765 rg
141.887 419.531 m 141.887 419.375 141.906 419.223 141.91 419.066 c 134.965
 419.066 l 94.371 419.066 61.461 386.16 61.461 345.562 c 61.461 304.969 
94.371 272.059 134.965 272.059 c 141.91 272.059 l 141.906 271.902 141.887
 271.754 141.887 271.598 c 141.887 259.211 151.93 249.172 164.312 249.172
 c 176.695 249.172 186.734 259.211 186.734 271.598 c 186.734 272.41 186.688
 273.211 186.602 274.004 c 219.121 281.59 243.352 310.734 243.352 345.562
 c 243.352 380.391 219.117 409.543 186.602 417.125 c 186.688 417.914 186.734
 418.719 186.734 419.531 c 186.734 431.914 176.695 441.957 164.312 441.957
 c 151.93 441.957 141.887 431.918 141.887 419.531 c h
141.887 419.531 m f
243.352 345.562 m 243.352 332.316 239.84 319.895 233.703 309.16 c 262.715
 309.16 l 267.254 309.16 270.934 312.84 270.934 317.379 c 270.934 373.746
 l 270.934 378.285 267.254 381.965 262.715 381.965 c 233.703 381.965 l 239.84
 371.234 243.352 358.812 243.352 345.562 c h
243.352 345.562 m f
0.215686 0.384314 0.8 rg
164.312 245.172 m 150.938 245.172 139.855 255.152 138.121 268.059 c 134.965
 268.059 l 92.227 268.059 57.461 302.824 57.461 345.562 c 57.461 388.297
 92.227 423.066 134.965 423.066 c 138.121 423.066 l 139.855 435.973 150.938
 445.957 164.312 445.957 c 178.66 445.957 190.371 434.461 190.727 420.199
 c 224.234 410.891 247.355 380.66 247.355 345.562 c 247.355 310.465 224.234
 280.234 190.727 270.926 c 190.371 256.664 178.656 245.172 164.312 245.172
 c h
134.965 415.066 m 96.641 415.066 65.461 383.887 65.461 345.562 c 65.461
 307.238 96.641 276.059 134.965 276.059 c 141.91 276.059 l 142.98 276.059
 144.008 275.633 144.758 274.871 c 145.508 274.109 145.926 273.078 145.91
 272.008 c 145.906 271.855 145.898 271.703 145.887 271.547 c 145.887 261.438
 154.152 253.172 164.312 253.172 c 174.469 253.172 182.734 261.438 182.734
 271.598 c 182.734 272.27 182.695 272.93 182.625 273.578 c 182.41 275.59
 183.727 277.441 185.695 277.895 c 217.289 285.27 239.352 313.094 239.352
 345.562 c 239.352 378.035 217.289 405.863 185.695 413.23 c 183.727 413.691
 182.41 415.539 182.625 417.547 c 182.695 418.199 182.734 418.863 182.734
 419.531 c 182.734 429.691 174.469 437.957 164.312 437.957 c 154.176 437.957
 145.922 429.727 145.887 419.594 c 145.898 419.406 145.906 419.266 145.91
 419.117 c 145.926 418.047 145.508 417.02 144.758 416.258 c 144.004 415.492
 142.98 415.066 141.91 415.066 c h
134.965 415.066 m f
164.312 245.172 m 150.938 245.172 139.855 255.152 138.121 268.059 c 134.965
 268.059 l 92.227 268.059 57.461 302.824 57.461 345.562 c 57.461 388.297
 92.227 423.066 134.965 423.066 c 138.121 423.066 l 139.855 435.973 150.938
 445.957 164.312 445.957 c 178.66 445.957 190.371 434.461 190.727 420.199
 c 224.234 410.891 247.355 380.66 247.355 345.562 c 247.355 310.465 224.234
 280.234 190.727 270.926 c 190.371 256.664 178.656 245.172 164.312 245.172
 c h
134.965 415.066 m 96.641 415.066 65.461 383.887 65.461 345.562 c 65.461
 307.238 96.641 276.059 134.965 276.059 c 141.91 276.059 l 142.98 276.059
 144.008 275.633 144.758 274.871 c 145.508 274.109 145.926 273.078 145.91
 272.008 c 145.906 271.855 145.898 271.703 145.887 271.547 c 145.887 261.438
 154.152 253.172 164.312 253.172 c 174.469 253.172 182.734 261.438 182.734
 271.598 c 182.734 272.27 182.695 272.93 182.625 273.578 c 182.41 275.59
 183.727 277.441 185.695 277.895 c 217.289 285.27 239.352 313.094 239.352
 345.562 c 239.352 378.035 217.289 405.863 185.695 413.23 c 183.727 413.691
 182.41 415.539 182.625 417.547 c 182.695 418.199 182.734 418.863 182.734
 419.531 c 182.734 429.691 174.469 437.957 164.312 437.957 c 154.176 437.957
 145.922 429.727 145.887 419.594 c 145.898 419.406 145.906 419.266 145.91
 419.117 c 145.926 418.047 145.508 417.02 144.758 416.258 c 144.004 415.492
 142.98 415.066 141.91 415.066 c h
134.965 415.066 m f
0.419608 0.866667 0.866667 rg
480 442.902 m 301.695 442.902 l 280.113 442.902 262.613 425.402 262.613
 403.82 c 262.613 287.309 l 262.613 265.727 280.113 248.227 301.695 248.227
 c 484 248.227 l 484 438.902 l 484 441.109 482.211 442.902 480 442.902 c
 h
480 442.902 m f
0.27451 0.443137 0.776471 rg
143.363 431.367 m 119.91 431.367 l 119.91 438.801 l 119.91 441.672 117.672
 443.996 114.91 443.996 c 86.348 443.996 l 54.586 443.996 28.836 417.23 
28.836 384.207 c 28.836 382.355 l 28.836 373.941 35.246 367.105 43.262 366.785
 c 35.246 366.477 28.836 359.645 28.836 351.238 c 28.836 312.121 l 28.836
 276.277 56.789 247.215 91.27 247.215 c 114.887 247.215 l 117.66 247.215
 119.91 249.551 119.91 252.438 c 119.91 259.762 l 143.363 259.762 l 188.945
 259.762 225.895 298.176 225.895 345.562 c 225.895 392.953 188.945 431.367
 143.363 431.367 c h
143.363 431.367 m f
0.215686 0.384314 0.8 rg
484 244.227 m 301.695 244.227 l 277.941 244.227 258.613 263.555 258.613
 287.309 c 258.613 305.164 l 233.703 305.164 l 232.277 305.164 230.961 305.926
 230.242 307.156 c 229.531 308.391 229.527 309.91 230.23 311.148 c 236.199
 321.586 239.355 333.484 239.355 345.562 c 239.355 357.645 236.199 369.547
 230.23 379.98 c 229.523 381.219 229.527 382.738 230.242 383.973 c 230.961
 385.207 232.281 385.965 233.703 385.965 c 258.613 385.965 l 258.613 403.82
 l 258.613 427.574 277.941 446.902 301.695 446.902 c 480 446.902 l 484.41
 446.902 488 443.316 488 438.902 c 488 248.227 l 488 246.02 486.207 244.227
 484 244.227 c h
240.258 313.16 m 262.613 313.16 l 264.82 313.16 266.613 311.371 266.613
 309.16 c 266.613 287.309 l 266.613 267.965 282.352 252.227 301.695 252.227
 c 480 252.227 l 480 438.902 l 301.695 438.902 l 282.352 438.902 266.613
 423.164 266.613 403.816 c 266.613 381.965 l 266.613 379.758 264.82 377.965
 262.613 377.965 c 240.258 377.965 l 244.914 367.852 247.352 356.777 247.352
 345.562 c 247.352 334.352 244.914 323.273 240.258 313.16 c h
240.258 313.16 m f
114.934 243.219 m 91.301 243.219 l 54.652 243.219 24.836 274.133 24.836
 312.125 c 24.836 351.238 l 24.836 357.59 27.734 363.223 32.273 366.793 
c 27.734 370.367 24.836 376.004 24.836 382.355 c 24.836 384.211 l 24.836
 419.383 52.445 448 86.379 448 c 114.957 448 l 119.922 448 123.961 443.875
 123.961 438.801 c 123.961 435.367 l 143.422 435.367 l 191.16 435.367 230
 395.078 230 345.562 c 230 296.047 191.16 255.758 143.422 255.758 c 123.961
 255.758 l 123.961 252.438 l 123.957 247.355 119.91 243.219 114.934 243.219
 c h
86.375 440 m 56.852 440 32.836 414.973 32.836 384.211 c 32.836 382.355 
l 32.836 376.102 37.484 371.02 43.426 370.785 c 45.57 370.699 47.27 368.934
 47.266 366.785 c 47.266 364.637 45.566 362.875 43.422 362.793 c 37.484 
362.562 32.836 357.488 32.836 351.238 c 32.836 312.125 l 32.836 278.539 
59.059 251.219 91.297 251.219 c 114.93 251.219 l 115.492 251.219 115.957
 251.766 115.957 252.438 c 115.957 259.758 l 115.957 261.965 117.746 263.758
 119.957 263.758 c 143.418 263.758 l 186.746 263.758 221.996 300.453 221.996
 345.559 c 221.996 390.664 186.75 427.367 143.422 427.367 c 119.957 427.367
 l 117.75 427.367 115.957 429.16 115.957 431.367 c 115.957 438.801 l 115.957
 439.453 115.5 440.004 114.953 440.004 c 86.375 440.004 l h
86.375 440 m f
0.72549 0.745098 0.988235 rg
481.086 248.043 m 270.566 248.043 l 267.383 248.043 264.332 249.305 262.078
 251.555 c 249.023 264.613 l 246.023 267.613 241.953 269.297 237.711 269.297
 c 12 269.297 l 7.582 269.297 4 265.715 4 261.297 c 4 50.719 l 4 46.301 
7.582 42.719 12 42.719 c 476 42.719 l 480.418 42.719 484 46.301 484 50.719
 c 484 248.043 l h
481.086 248.043 m f
0.878431 0.921569 0.988235 rg
465.871 210.645 m 255.352 210.645 l 252.168 210.645 249.117 211.91 246.863
 214.16 c 233.809 227.215 l 230.809 230.215 226.738 231.898 222.492 231.898
 c 4 231.898 l 4 80.719 l 484 80.719 l 484 210.645 l h
465.871 210.645 m f
0.643137 0.788235 1 rg
135.82 101.328 m 97.508 101.328 l 93.293 101.328 89.879 104.742 89.879 
108.957 c 89.879 207.793 l 89.879 212.008 93.293 215.426 97.508 215.426 
c 135.82 215.426 l 140.035 215.426 143.449 212.008 143.449 207.793 c 143.449
 108.957 l 143.449 104.742 140.035 101.328 135.82 101.328 c h
135.82 101.328 m f
223.824 101.328 m 185.516 101.328 l 181.301 101.328 177.887 104.742 177.887
 108.957 c 177.887 207.793 l 177.887 212.008 181.301 215.426 185.516 215.426
 c 223.824 215.426 l 228.039 215.426 231.457 212.008 231.457 207.793 c 231.457
 108.957 l 231.457 104.742 228.039 101.328 223.824 101.328 c h
223.824 101.328 m f
299.984 101.328 m 262.414 101.328 l 257.996 101.328 254.414 104.91 254.414
 109.328 c 254.414 186.875 l 254.414 191.09 257.828 194.508 262.043 194.508
 c 300.355 194.508 l 304.566 194.508 307.984 191.09 307.984 186.875 c 307.984
 109.328 l 307.984 104.91 304.402 101.328 299.984 101.328 c h
299.984 101.328 m f
387.992 101.328 m 350.422 101.328 l 346.004 101.328 342.422 104.91 342.422
 109.328 c 342.422 186.875 l 342.422 191.09 345.84 194.508 350.051 194.508
 c 388.363 194.508 l 392.574 194.508 395.992 191.09 395.992 186.875 c 395.992
 109.328 l 395.992 104.91 392.41 101.328 387.992 101.328 c h
387.992 101.328 m f
476 101.328 m 438.43 101.328 l 434.012 101.328 430.43 104.91 430.43 109.328
 c 430.43 186.875 l 430.43 191.09 433.848 194.508 438.059 194.508 c 476.371
 194.508 l 480.586 194.508 484 191.09 484 186.875 c 484 109.328 l 484 104.91
 480.418 101.328 476 101.328 c h
476 101.328 m f
49.941 101.328 m 11.629 101.328 l 7.414 101.328 4 104.742 4 108.957 c 4
 207.793 l 4 212.008 7.414 215.426 11.629 215.426 c 49.941 215.426 l 54.152
 215.426 57.57 212.008 57.57 207.793 c 57.57 108.957 l 57.57 104.742 54.152
 101.328 49.941 101.328 c h
49.941 101.328 m f
0.976471 0.654902 0.654902 rg
105.914 175.859 m 103.219 175.859 l 101.555 175.859 100.586 177.664 101.547
 178.969 c 114.992 197.25 l 115.809 198.359 117.52 198.359 118.336 197.25
 c 131.781 178.969 l 132.742 177.664 131.773 175.859 130.113 175.859 c 127.414
 175.859 l 126.285 175.859 125.367 174.977 125.367 173.887 c 125.367 120.645
 l 125.367 119.555 124.453 118.672 123.32 118.672 c 110.012 118.672 l 108.879
 118.672 107.961 119.555 107.961 120.645 c 107.961 173.887 l 107.961 174.973
 107.043 175.859 105.914 175.859 c h
105.914 175.859 m f
20.035 175.859 m 17.34 175.859 l 15.68 175.859 14.707 177.664 15.672 178.969
 c 29.117 197.25 l 29.934 198.359 31.641 198.359 32.457 197.25 c 45.902 
178.969 l 46.863 177.664 45.895 175.859 44.234 175.859 c 41.539 175.859 
l 40.406 175.859 39.488 174.977 39.488 173.887 c 39.488 120.645 l 39.488
 119.555 38.574 118.672 37.441 118.672 c 24.133 118.672 l 23.004 118.672
 22.086 119.555 22.086 120.645 c 22.086 173.887 l 22.082 174.973 21.164 
175.859 20.035 175.859 c h
20.035 175.859 m f
267.754 161.805 m 270.449 161.805 l 271.578 161.805 272.496 160.922 272.496
 159.832 c 272.496 115.402 l 272.496 113.414 274.109 111.805 276.098 111.805
 c 286.305 111.805 l 288.293 111.805 289.902 113.414 289.902 115.402 c 289.902
 159.832 l 289.902 160.922 290.82 161.805 291.953 161.805 c 294.648 161.805
 l 296.309 161.805 297.281 163.609 296.316 164.914 c 282.871 183.195 l 282.043
 184.324 280.359 184.324 279.531 183.195 c 266.086 164.914 l 265.121 163.609
 266.094 161.805 267.754 161.805 c h
267.754 161.805 m f
355.762 161.805 m 358.457 161.805 l 359.59 161.805 360.508 160.922 360.508
 159.832 c 360.508 115.402 l 360.508 113.414 362.117 111.805 364.105 111.805
 c 374.312 111.805 l 376.301 111.805 377.91 113.414 377.91 115.402 c 377.91
 159.832 l 377.91 160.922 378.828 161.805 379.961 161.805 c 382.656 161.805
 l 384.316 161.805 385.289 163.609 384.324 164.914 c 370.879 183.195 l 370.051
 184.324 368.367 184.324 367.539 183.195 c 354.094 164.914 l 353.129 163.609
 354.102 161.805 355.762 161.805 c h
355.762 161.805 m f
443.77 161.805 m 446.465 161.805 l 447.598 161.805 448.516 160.922 448.516
 159.832 c 448.516 115.402 l 448.516 113.414 450.125 111.805 452.113 111.805
 c 462.32 111.805 l 464.309 111.805 465.922 113.414 465.922 115.402 c 465.922
 159.832 l 465.922 160.922 466.836 161.805 467.969 161.805 c 470.664 161.805
 l 472.324 161.805 473.297 163.609 472.336 164.914 c 458.887 183.195 l 458.059
 184.324 456.375 184.324 455.547 183.195 c 442.102 164.914 l 441.137 163.609
 442.109 161.805 443.77 161.805 c h
443.77 161.805 m f
192.965 175.859 m 190.27 175.859 l 188.605 175.859 187.637 177.664 188.598
 178.969 c 202.043 197.25 l 202.859 198.359 204.57 198.359 205.387 197.25
 c 218.832 178.969 l 219.793 177.664 218.82 175.859 217.16 175.859 c 214.465
 175.859 l 213.336 175.859 212.418 174.977 212.418 173.887 c 212.418 120.645
 l 212.418 119.555 211.504 118.672 210.371 118.672 c 197.059 118.672 l 195.93
 118.672 195.012 119.555 195.012 120.645 c 195.012 173.887 l 195.012 174.973
 194.098 175.859 192.965 175.859 c h
192.965 175.859 m f
0.215686 0.384314 0.8 rg
476 38.719 m 12 38.719 l 5.383 38.719 0 44.102 0 50.719 c 0 261.297 l 0
 267.914 5.383 273.297 12 273.297 c 237.711 273.297 l 243.051 273.297 248.074
 271.219 251.852 267.441 c 264.902 254.383 l 266.414 252.875 268.426 252.043
 270.562 252.043 c 484 252.043 l 486.207 252.043 488 250.25 488 248.043 
c 488 50.719 l 488 44.102 482.617 38.719 476 38.719 c h
12 265.297 m 9.793 265.297 8 263.504 8 261.297 c 8 50.719 l 8 48.516 9.793
 46.719 12 46.719 c 476 46.719 l 478.207 46.719 480 48.516 480 50.719 c 
480 244.043 l 270.562 244.043 l 266.293 244.043 262.273 245.707 259.25 248.727
 c 246.195 261.785 l 243.961 264.016 240.871 265.297 237.711 265.297 c h
12 265.297 m f
Q Q
showpage
%%Trailer
end restore
%%EOF
