%!PS-Adobe-3.0 EPSF-3.0
%%Creator: cairo 1.14.8 (http://cairographics.org)
%%CreationDate: Wed Mar 20 09:06:38 2019
%%Pages: 1
%%DocumentData: Clean7Bit
%%LanguageLevel: 2
%%BoundingBox: 0 29 485 455
%%EndComments
%%BeginProlog
save
50 dict begin
/q { gsave } bind def
/Q { grestore } bind def
/cm { 6 array astore concat } bind def
/w { setlinewidth } bind def
/J { setlinecap } bind def
/j { setlinejoin } bind def
/M { setmiterlimit } bind def
/d { setdash } bind def
/m { moveto } bind def
/l { lineto } bind def
/c { curveto } bind def
/h { closepath } bind def
/re { exch dup neg 3 1 roll 5 3 roll moveto 0 rlineto
      0 exch rlineto 0 rlineto closepath } bind def
/S { stroke } bind def
/f { fill } bind def
/f* { eofill } bind def
/n { newpath } bind def
/W { clip } bind def
/W* { eoclip } bind def
/BT { } bind def
/ET { } bind def
/pdfmark where { pop globaldict /?pdfmark /exec load put }
    { globaldict begin /?pdfmark /pop load def /pdfmark
    /cleartomark load def end } ifelse
/BDC { mark 3 1 roll /BDC pdfmark } bind def
/EMC { mark /EMC pdfmark } bind def
/cairo_store_point { /cairo_point_y exch def /cairo_point_x exch def } def
/Tj { show currentpoint cairo_store_point } bind def
/TJ {
  {
    dup
    type /stringtype eq
    { show } { -0.001 mul 0 cairo_font_matrix dtransform rmoveto } ifelse
  } forall
  currentpoint cairo_store_point
} bind def
/cairo_selectfont { cairo_font_matrix aload pop pop pop 0 0 6 array astore
    cairo_font exch selectfont cairo_point_x cairo_point_y moveto } bind def
/Tf { pop /cairo_font exch def /cairo_font_matrix where
      { pop cairo_selectfont } if } bind def
/Td { matrix translate cairo_font_matrix matrix concatmatrix dup
      /cairo_font_matrix exch def dup 4 get exch 5 get cairo_store_point
      /cairo_font where { pop cairo_selectfont } if } bind def
/Tm { 2 copy 8 2 roll 6 array astore /cairo_font_matrix exch def
      cairo_store_point /cairo_font where { pop cairo_selectfont } if } bind def
/g { setgray } bind def
/rg { setrgbcolor } bind def
/d1 { setcachedevice } bind def
%%EndProlog
%%BeginSetup
%%EndSetup
%%Page: 1 1
%%BeginPageSetup
%%PageBoundingBox: 0 29 485 455
%%EndPageSetup
q 0 29 485 426 rectclip q
0.27451 0.443137 0.776471 rg
472.648 223.434 m 477.688 225.422 481 230.285 481 235.703 c 481 260.066
 l 481 265.75 476.969 270.641 471.383 271.719 c 453.43 275.18 435.184 276.926
 416.898 276.926 c 390.008 276.93 l 390.004 276.93 390 276.93 389.996 276.93
 c 289.957 276.93 l 276.281 276.93 264.078 270.523 256.176 260.555 c 252.891
 256.41 247.793 254.117 242.5 254.117 c 237.211 254.117 232.109 256.41 228.824
 260.555 c 220.926 270.523 208.723 276.93 195.043 276.93 c 68.121 276.93
 l 49.828 276.93 31.582 275.184 13.621 271.723 c 13.617 271.719 l 8.031 
270.641 3.996 265.75 3.996 260.066 c 3.996 235.703 l 3.996 230.285 7.312
 225.422 12.352 223.434 c 28.047 217.246 l 42.684 171.254 l 43.418 168.285
 44.344 165.398 45.441 162.594 c 45.48 162.465 l 45.492 162.465 l 55.746
 136.371 81.152 117.891 110.887 117.891 c 149.938 117.891 l 185.844 117.891
 218.328 140.516 230.781 174.191 c 231.828 177.031 l 234.469 184.176 236.289
 191.535 237.27 199.031 c 237.613 201.652 239.852 203.609 242.5 203.609 
c 245.148 203.609 247.391 201.652 247.734 199.031 c 248.719 191.539 250.535
 184.18 253.172 177.031 c 254.227 174.184 l 266.742 140.352 299.004 117.887
 335.082 117.887 c 374.121 117.887 l 403.855 117.887 429.254 136.367 439.516
 162.465 c 439.523 162.465 l 439.562 162.594 l 440.66 165.395 441.582 168.281
 442.316 171.246 c 456.953 217.242 l h
472.648 223.434 m f
0.878431 0.921569 0.988235 rg
195.043 258.461 m 60.066 258.461 l 52.777 258.461 46.871 252.551 46.871
 245.27 c 46.871 225.832 50.07 206.531 56.34 188.129 c 60.68 175.398 l 61.359
 172.719 62.25 170.121 63.328 167.621 c 63.363 167.527 l 63.371 167.527 
l 71.344 149.191 89.609 136.359 110.887 136.359 c 149.934 136.359 l 178.277
 136.359 203.621 154.016 213.449 180.594 c 214.5 183.438 l 217.918 192.68
 219.664 202.453 219.664 212.305 c 219.664 233.832 l 219.668 247.434 208.645
 258.461 195.043 258.461 c h
195.043 258.461 m f
390.266 258.461 m 390.266 258.445 l 390.172 258.445 390.086 258.461 389.992
 258.461 c 289.957 258.461 l 276.355 258.461 265.328 247.434 265.328 233.832
 c 265.328 212.305 l 265.328 202.453 267.078 192.68 270.496 183.438 c 271.543
 180.594 l 281.375 154.012 306.719 136.359 335.062 136.359 c 374.117 136.359
 l 395.402 136.359 413.684 149.207 421.641 167.57 c 421.906 167.527 l 428.93
 188.133 l 435.199 206.531 438.398 225.836 438.398 245.27 c 438.398 252.555
 432.492 258.465 425.207 258.465 c 390.266 258.465 l h
390.266 258.461 m f
0.643137 0.788235 1 rg
56.703 276.848 m 98.285 410.621 l 99.625 414.93 102.66 417.512 106.137 
417.297 c 131.18 415.746 l 135.684 415.473 138.68 421.301 137.238 427.551
 c 134.125 441.07 124.969 450.73 115.258 450.73 c 92.359 450.73 l 89.312
 450.73 86.641 448.566 85.23 444.965 c 17.676 272.121 l 30.559 274.891 43.605
 276.484 56.703 276.848 c h
56.703 276.848 m f
363.207 415.746 m 388.113 417.297 l 391.566 417.508 394.59 414.93 395.918
 410.621 c 437.32 276.668 l 449.523 276.074 461.676 274.43 473.676 271.723
 c 474.785 271.473 475.812 271 476.75 270.375 c 408.898 444.961 l 407.5 
448.566 404.84 450.73 401.805 450.73 c 379.039 450.73 l 369.387 450.73 360.277
 441.07 357.18 427.551 c 355.754 421.301 358.727 415.473 363.207 415.746
 c h
363.207 415.746 m f
0.215686 0.384314 0.8 rg
374.117 113.895 m 335.078 113.895 l 297.508 113.895 263.512 137.566 250.477
 172.805 c 249.426 175.645 l 246.691 183.043 244.793 190.734 243.77 198.512
 c 243.688 199.141 243.145 199.617 242.5 199.617 c 241.863 199.617 241.316
 199.141 241.23 198.512 c 240.211 190.723 238.309 183.031 235.578 175.645
 c 234.531 172.812 l 221.5 137.57 187.504 113.898 149.938 113.898 c 110.883
 113.898 l 80.234 113.898 53.176 132.281 41.867 160.758 c 41.789 160.914
 41.723 161.082 41.668 161.258 c 40.555 164.109 39.586 167.145 38.836 170.164
 c 24.812 214.227 l 10.883 219.715 l 4.27 222.324 0 228.602 0 235.707 c 
0 260.07 l 0 267.656 5.406 274.211 12.859 275.648 c 12.922 275.66 12.992
 275.672 13.059 275.68 c 31.031 279.152 49.621 280.93 68.125 280.93 c 195.043
 280.93 l 209.496 280.93 222.949 274.41 231.957 263.043 c 234.402 259.961
 238.344 258.121 242.5 258.121 c 246.656 258.121 250.602 259.961 253.039
 263.043 c 262.051 274.41 275.504 280.93 289.957 280.93 c 416.898 280.93
 l 435.391 280.93 453.98 279.152 472.141 275.648 c 479.594 274.211 485 267.66
 485 260.07 c 485 235.711 l 485 228.602 480.727 222.328 474.113 219.719 
c 460.188 214.23 l 446.168 170.164 l 445.418 167.16 444.453 164.133 443.293
 161.172 c 443.273 161.117 443.254 161.062 443.227 161.012 c 443.23 161.012
 l 431.984 132.387 404.855 113.895 374.117 113.895 c h
242.5 207.609 m 247.137 207.609 251.094 204.145 251.695 199.555 c 252.637
 192.363 254.398 185.258 256.922 178.422 c 257.977 175.574 l 269.852 143.465
 300.836 121.887 335.078 121.887 c 374.117 121.887 l 401.547 121.887 425.754
 138.391 435.785 163.93 c 435.797 163.961 435.809 163.988 435.824 164.016
 c 435.828 164.027 435.832 164.043 435.836 164.051 c 436.887 166.742 437.762
 169.484 438.434 172.207 c 438.457 172.293 438.477 172.379 438.504 172.461
 c 453.141 218.457 l 453.508 219.605 454.363 220.523 455.484 220.961 c 471.18
 227.148 l 474.719 228.543 477.004 231.906 477.004 235.703 c 477.004 260.066
 l 477.004 263.832 474.32 267.078 470.625 267.793 c 452.961 271.203 434.883
 272.926 416.898 272.926 c 390.039 272.93 l 390.012 272.93 389.988 272.93
 389.961 272.93 c 289.957 272.93 l 277.961 272.93 266.793 267.516 259.309
 258.074 c 255.363 253.094 249.082 250.121 242.5 250.121 c 235.824 250.121
 229.699 253.016 225.691 258.074 c 218.211 267.516 207.035 272.93 195.043
 272.93 c 68.121 272.93 l 50.125 272.93 32.047 271.203 14.379 267.793 c 
14.316 267.781 14.246 267.77 14.18 267.758 c 10.676 267.078 7.992 263.832
 7.992 260.062 c 7.992 235.703 l 7.992 231.902 10.277 228.543 13.816 227.148
 c 29.508 220.961 l 30.629 220.52 31.488 219.602 31.852 218.457 c 46.492
 172.465 l 46.52 172.379 46.539 172.297 46.562 172.211 c 47.234 169.48 48.109
 166.734 49.156 164.047 c 49.164 164.031 49.168 164.016 49.176 164 c 49.184
 163.977 49.195 163.953 49.203 163.93 c 59.242 138.391 83.453 121.887 110.879
 121.887 c 149.934 121.887 l 184.172 121.887 215.152 143.465 227.023 175.582
 c 228.074 178.418 l 230.598 185.246 232.355 192.355 233.301 199.551 c 233.906
 204.145 237.863 207.609 242.5 207.609 c h
472.648 223.434 m 472.668 223.434 l h
472.648 223.434 m f
17.676 268.125 m 16.516 268.125 15.398 268.629 14.633 269.531 c 13.676 
270.652 13.418 272.203 13.953 273.574 c 81.508 446.418 l 83.508 451.543 
87.668 454.73 92.359 454.73 c 115.258 454.73 l 126.938 454.73 137.574 443.918
 141.137 428.449 c 142.277 423.488 141.266 418.383 138.504 415.121 c 136.512
 412.773 133.801 411.59 130.938 411.758 c 105.891 413.305 l 104.375 413.406
 102.863 411.883 102.098 409.43 c 60.523 275.66 l 60.016 274.027 58.523 
272.895 56.816 272.848 c 44.07 272.496 31.184 270.938 18.516 268.215 c 18.234
 268.152 17.953 268.125 17.676 268.125 c h
56.703 276.848 m 56.723 276.848 l h
92.359 446.734 m 91.016 446.734 89.742 445.527 88.953 443.508 c 24.051 
277.457 l 33.906 279.234 43.848 280.336 53.73 280.742 c 94.469 411.809 l
 96.359 417.895 101.016 421.625 106.387 421.289 c 131.43 419.738 l 131.547
 419.73 131.906 419.707 132.402 420.293 c 133.348 421.402 133.996 423.801
 133.348 426.652 c 130.664 438.289 123.059 446.734 115.258 446.734 c h
92.359 446.734 m f
476.75 266.371 m 475.98 266.371 475.207 266.59 474.535 267.039 c 473.953
 267.426 473.367 267.688 472.793 267.82 c 461.121 270.457 449.117 272.086
 437.125 272.668 c 435.441 272.75 434 273.875 433.5 275.484 c 392.098 409.438
 l 391.344 411.883 389.887 413.391 388.359 413.309 c 363.457 411.758 l 360.586
 411.578 357.91 412.766 355.93 415.102 c 353.16 418.359 352.148 423.473 
353.285 428.445 c 356.828 443.918 367.422 454.73 379.039 454.73 c 401.809
 454.73 l 406.488 454.73 410.633 451.543 412.629 446.41 c 480.477 271.82
 l 481.105 270.195 480.609 268.348 479.258 267.254 c 478.527 266.668 477.641
 266.371 476.75 266.371 c h
440.316 280.5 m 450.297 279.883 460.27 278.57 470.043 276.586 c 405.172
 443.516 l 404.391 445.531 403.133 446.734 401.805 446.734 c 379.039 446.734
 l 371.293 446.734 363.742 438.289 361.078 426.656 c 360.422 423.789 361.082
 421.387 362.027 420.273 c 362.5 419.715 362.82 419.73 362.961 419.738 c
 387.863 421.285 l 393.211 421.625 397.855 417.891 399.738 411.797 c h
363.207 415.746 m 363.227 415.746 l h
363.207 415.746 m f
0.643137 0.788235 1 rg
110.309 136.383 m 217.609 243.684 l 213.809 252.379 205.145 258.465 195.043
 258.465 c 182.922 258.465 l 75.16 150.703 l 84.324 141.953 96.672 136.531
 110.309 136.383 c h
110.309 136.383 m f
438.398 245.27 m 438.398 252.551 432.496 258.461 425.207 258.461 c 409.285
 258.461 l 298.172 147.348 l 308.922 140.359 321.645 136.359 335.066 136.359
 c 336.652 136.359 l 438.25 237.953 l 438.348 240.391 438.398 242.828 438.398
 245.27 c h
438.398 245.27 m f
1 0.917647 0.572549 rg
45.141 108.578 m 38.402 93.852 27.223 81.582 13.305 73.469 c 10.809 72.016
 10.809 68.488 13.305 67.031 c 27.223 58.926 38.402 46.652 45.141 31.922
 c 46.449 29.062 50.527 29.062 51.84 31.922 c 58.578 46.652 69.758 58.926
 83.672 67.031 c 86.172 68.488 86.172 72.016 83.672 73.469 c 69.758 81.582
 58.578 93.852 51.84 108.578 c 50.527 111.441 46.449 111.441 45.141 108.578
 c h
45.141 108.578 m f
359.727 360.926 m 354.543 349.594 345.941 340.152 335.238 333.914 c 333.316
 332.793 333.316 330.082 335.238 328.961 c 345.941 322.727 354.547 313.285
 359.727 301.953 c 360.734 299.746 363.871 299.746 364.879 301.953 c 370.062
 313.281 378.664 322.723 389.367 328.961 c 391.289 330.082 391.289 332.793
 389.367 333.914 c 378.664 340.152 370.062 349.594 364.879 360.926 c 363.871
 363.125 360.734 363.125 359.727 360.926 c h
359.727 360.926 m f
0.976471 0.654902 0.654902 rg
383.746 194.363 m 327.781 194.363 l 323.367 194.363 319.785 197.945 319.785
 202.359 c 319.785 206.773 323.367 210.355 327.781 210.355 c 383.746 210.355
 l 388.164 210.355 391.742 206.773 391.742 202.359 c 391.742 197.945 388.164
 194.363 383.746 194.363 c h
383.746 194.363 m f
157.215 193.695 m 101.25 193.695 l 96.832 193.695 93.254 197.277 93.254
 201.691 c 93.254 206.109 96.832 209.688 101.25 209.688 c 157.215 209.688
 l 161.629 209.688 165.211 206.109 165.211 201.691 c 165.211 197.277 161.629
 193.695 157.215 193.695 c h
157.215 193.695 m f
129.23 165.715 m 124.816 165.715 121.234 169.293 121.234 173.711 c 121.234
 229.676 l 121.234 234.09 124.816 237.672 129.23 237.672 c 133.648 237.672
 137.227 234.09 137.227 229.676 c 137.227 173.711 l 137.227 169.293 133.648
 165.715 129.23 165.715 c h
129.23 165.715 m f
Q Q
showpage
%%Trailer
end restore
%%EOF
