%!PS-Adobe-3.0 EPSF-3.0
%%Creator: cairo 1.14.8 (http://cairographics.org)
%%CreationDate: Wed Mar 20 09:06:38 2019
%%Pages: 1
%%DocumentData: Clean7Bit
%%LanguageLevel: 2
%%BoundingBox: 0 2 493 491
%%EndComments
%%BeginProlog
save
50 dict begin
/q { gsave } bind def
/Q { grestore } bind def
/cm { 6 array astore concat } bind def
/w { setlinewidth } bind def
/J { setlinecap } bind def
/j { setlinejoin } bind def
/M { setmiterlimit } bind def
/d { setdash } bind def
/m { moveto } bind def
/l { lineto } bind def
/c { curveto } bind def
/h { closepath } bind def
/re { exch dup neg 3 1 roll 5 3 roll moveto 0 rlineto
      0 exch rlineto 0 rlineto closepath } bind def
/S { stroke } bind def
/f { fill } bind def
/f* { eofill } bind def
/n { newpath } bind def
/W { clip } bind def
/W* { eoclip } bind def
/BT { } bind def
/ET { } bind def
/pdfmark where { pop globaldict /?pdfmark /exec load put }
    { globaldict begin /?pdfmark /pop load def /pdfmark
    /cleartomark load def end } ifelse
/BDC { mark 3 1 roll /BDC pdfmark } bind def
/EMC { mark /EMC pdfmark } bind def
/cairo_store_point { /cairo_point_y exch def /cairo_point_x exch def } def
/Tj { show currentpoint cairo_store_point } bind def
/TJ {
  {
    dup
    type /stringtype eq
    { show } { -0.001 mul 0 cairo_font_matrix dtransform rmoveto } ifelse
  } forall
  currentpoint cairo_store_point
} bind def
/cairo_selectfont { cairo_font_matrix aload pop pop pop 0 0 6 array astore
    cairo_font exch selectfont cairo_point_x cairo_point_y moveto } bind def
/Tf { pop /cairo_font exch def /cairo_font_matrix where
      { pop cairo_selectfont } if } bind def
/Td { matrix translate cairo_font_matrix matrix concatmatrix dup
      /cairo_font_matrix exch def dup 4 get exch 5 get cairo_store_point
      /cairo_font where { pop cairo_selectfont } if } bind def
/Tm { 2 copy 8 2 roll 6 array astore /cairo_font_matrix exch def
      cairo_store_point /cairo_font where { pop cairo_selectfont } if } bind def
/g { setgray } bind def
/rg { setrgbcolor } bind def
/d1 { setcachedevice } bind def
%%EndProlog
%%BeginSetup
%%EndSetup
%%Page: 1 1
%%BeginPageSetup
%%PageBoundingBox: 0 2 493 491
%%EndPageSetup
q 0 2 493 489 rectclip q
0.976471 0.811765 0.811765 rg
466.738 439.109 m 405.391 387.27 l 405.324 387.348 l 456.441 430.543 l 
459.91 433.477 460.863 438.625 458.277 442.348 c 455.309 446.625 449.395
 447.336 445.516 444.059 c 394.113 400.621 l 394.074 400.664 l 394.262 409.363
 l 395.508 410.418 l 409.613 422.336 l 416.832 428.441 417.953 439.086 412.32
 446.535 c 411.016 448.266 408.48 448.461 406.828 447.062 c 382.156 426.215
 l 377.641 422.395 l 370.641 416.484 l 360.809 408.176 l 359.688 407.227
 358.695 406.133 357.855 404.93 c 357.852 404.926 357.852 404.926 357.852
 404.926 c 336.32 373.992 l 330.43 366.078 l 329.77 365.191 329.289 364.227
 328.906 363.23 c 321.898 350.121 l 308.918 337.898 l 167.812 230.992 l 
167.469 230.73 167.117 230.516 166.766 230.332 c 96.98 164.582 l 109.363
 152.449 l 135.918 126.715 l 150.125 112.949 172.609 112.676 187.148 126.09
 c 354.715 283.707 l 364.641 293.059 l 383.477 301.5 l 383.855 301.645 384.223
 301.809 384.59 301.996 c 384.746 302.066 l 384.742 302.07 l 384.793 302.102
 384.844 302.137 384.895 302.164 c 386.043 302.781 l 400.703 310.691 414.27
 320.48 426.395 331.902 c 479.824 382.246 l 479.539 382.488 l 481.371 385.578
 481.188 389.605 478.734 392.508 c 475.633 396.176 470.152 396.633 466.492
 393.535 c 478.824 403.957 l 482.312 406.906 483.297 412.105 480.676 415.844
 c 477.895 419.805 472.605 420.629 468.77 418.082 c 478.234 426.074 l 482.113
 429.355 482.402 435.309 478.68 438.945 c 475.438 442.117 470.199 442.035
 466.738 439.109 c h
466.738 439.109 m f
0.215686 0.384314 0.8 rg
161.855 112.219 m 151.484 112.219 141.121 116.105 133.137 123.844 c 94.184
 161.727 l 93.406 162.488 92.973 163.535 92.98 164.621 c 92.992 165.707 
93.445 166.746 94.238 167.492 c 164.023 233.242 l 164.285 233.488 164.574
 233.699 164.895 233.867 c 165.062 233.957 165.23 234.055 165.398 234.184
 c 306.332 340.961 l 318.68 352.59 l 325.27 364.914 l 325.809 366.262 326.445
 367.422 327.219 368.461 c 333.113 376.379 l 354.531 407.156 l 354.547 407.18
 354.562 407.199 354.574 407.219 c 355.617 408.711 356.848 410.059 358.23
 411.23 c 404.25 450.117 l 405.902 451.512 408.07 452.176 410.234 451.938
 c 412.359 451.699 414.238 450.641 415.512 448.945 c 420.82 441.918 421.223
 432.656 417.184 425.352 c 442.934 447.109 l 445.652 449.41 449.25 450.469
 452.781 449.996 c 456.32 449.531 459.52 447.574 461.566 444.625 c 462.277
 443.598 462.812 442.484 463.172 441.328 c 464.156 442.16 l 469.258 446.469
 476.863 446.316 481.48 441.805 c 484.043 439.301 485.438 435.82 485.309
 432.254 c 485.18 428.688 483.543 425.324 480.82 423.02 c 479.633 422.02
 l 481.297 421.113 482.785 419.812 483.953 418.145 c 487.68 412.832 486.562
 405.262 481.414 400.91 c 478.082 398.094 l 479.457 397.359 480.723 396.355
 481.793 395.094 c 484.852 391.473 485.586 386.469 483.828 382.152 c 483.801
 381.086 483.355 380.074 482.574 379.34 c 429.141 329 l 416.766 317.34 402.902
 307.336 387.945 299.266 c 386.934 298.719 l 386.758 298.605 386.57 298.504
 386.379 298.418 c 385.961 298.207 385.5 298.004 385.031 297.812 c 366.895
 289.691 l 357.461 280.801 l 189.891 123.18 l 181.961 115.863 171.906 112.219
 161.855 112.219 c h
102.75 164.527 m 112.164 155.305 l 138.699 129.586 l 151.375 117.309 171.469
 117.062 184.438 129.027 c 361.898 295.969 l 362.223 296.277 362.602 296.527
 363.008 296.711 c 381.844 305.148 l 381.902 305.18 381.969 305.203 382.031
 305.227 c 382.277 305.324 382.523 305.434 382.766 305.555 c 382.812 305.582
 382.863 305.605 382.91 305.629 c 384.148 306.305 l 398.492 314.039 411.785
 323.637 423.656 334.816 c 475.828 383.973 l 475.902 384.164 475.996 384.348
 476.102 384.531 c 477.125 386.25 476.957 388.422 475.684 389.926 c 474.875
 390.883 473.742 391.469 472.492 391.574 c 471.254 391.676 470.035 391.293
 469.078 390.484 c 467.387 389.059 464.867 389.27 463.441 390.957 c 462.016
 392.645 462.227 395.168 463.914 396.594 c 476.246 407.016 l 478.234 408.695
 478.754 411.625 477.402 413.551 c 475.938 415.641 473.113 416.172 470.984
 414.75 c 469.219 413.582 466.848 413.988 465.574 415.684 c 464.301 417.379
 464.574 419.77 466.191 421.141 c 475.652 429.133 l 476.676 430 477.266 
431.211 477.312 432.547 c 477.359 433.883 476.855 435.145 475.883 436.09
 c 474.188 437.75 471.301 437.738 469.316 436.059 c 407.973 384.223 l 407.16
 383.535 406.105 383.199 405.043 383.293 c 403.984 383.383 403.004 383.895
 402.32 384.711 c 400.91 386.398 401.062 388.984 402.742 390.406 c 453.859
 433.602 l 455.844 435.281 456.344 438.125 454.988 440.078 c 454.215 441.188
 453.059 441.898 451.73 442.074 c 450.41 442.246 449.113 441.867 448.094
 441.004 c 396.688 397.57 l 395.875 396.879 394.82 396.547 393.742 396.641
 c 392.676 396.742 391.691 397.266 391.016 398.094 c 390.41 398.832 390.055
 399.801 390.074 400.754 c 390.262 409.453 l 390.285 410.602 390.801 411.684
 391.68 412.426 c 407.031 425.398 l 412.535 430.043 413.496 438.148 409.277
 443.934 c 363.391 405.125 l 362.543 404.41 361.793 403.59 361.152 402.684
 c 361.145 402.676 361.137 402.664 361.129 402.652 c 339.605 371.711 l 333.637
 363.699 l 333.262 363.191 332.934 362.574 332.641 361.809 c 332.582 361.652
 332.516 361.5 332.434 361.355 c 325.418 348.246 l 325.215 347.867 324.953
 347.52 324.633 347.223 c 311.66 334.996 l 311.555 334.898 311.449 334.805
 311.332 334.719 c 170.227 227.812 l 169.887 227.555 169.531 227.316 169.156
 227.094 c h
102.75 164.527 m f
416.895 369.961 m 415.766 369.961 414.641 370.438 413.852 371.367 c 412.422
 373.051 412.625 375.578 414.309 377.008 c 466.184 421.129 l 467.867 422.555
 470.387 422.352 471.816 420.672 c 473.25 418.988 473.043 416.465 471.359
 415.035 c 419.484 370.914 l 418.734 370.273 417.812 369.961 416.895 369.961
 c h
416.895 369.961 m f
428.535 357.387 m 427.402 357.387 426.277 357.863 425.488 358.793 c 424.055
 360.473 424.258 363 425.941 364.43 c 463.809 396.68 l 465.492 398.113 468.016
 397.91 469.445 396.227 c 470.875 394.543 470.672 392.02 468.996 390.59 
c 431.125 358.34 l 430.371 357.699 429.449 357.387 428.535 357.387 c h
428.535 357.387 m f
353.441 317.297 m 352.379 317.297 351.316 317.719 350.531 318.555 c 349.016
 320.164 349.09 322.695 350.699 324.207 c 365.262 337.926 l 378.074 350 
386.219 366.289 388.191 383.785 c 390.137 401.07 l 390.387 403.262 392.383
 404.852 394.559 404.594 c 396.754 404.344 398.332 402.371 398.086 400.176
 c 396.141 382.891 l 393.957 363.516 384.938 345.477 370.746 332.105 c 356.188
 318.387 l 355.41 317.656 354.426 317.297 353.441 317.297 c h
353.441 317.297 m f
0.419608 0.866667 0.866667 rg
216.953 6.586 m 4 6.586 l 4 448.441 l 72.762 448.441 l 152.398 448.441 
216.953 383.887 216.953 304.25 c h
216.953 6.586 m f
0.215686 0.384314 0.8 rg
216.953 2.586 m 4 2.586 l 1.793 2.586 0 4.379 0 6.586 c 0 448.441 l 0 450.652
 1.793 452.441 4 452.441 c 72.762 452.441 l 154.477 452.441 220.953 385.961
 220.953 304.25 c 220.953 6.586 l 220.953 4.379 219.16 2.586 216.953 2.586
 c h
8 10.586 m 212.953 10.586 l 212.953 304.25 l 212.953 381.555 150.066 444.441
 72.762 444.441 c 8 444.441 l h
8 10.586 m f
0.878431 0.921569 0.988235 rg
133.27 351.207 m 133.348 360.492 132.152 369.742 129.715 378.719 c 124.582
 397.652 106.66 410.648 86.527 410.812 c 69.355 410.949 l 52.188 411.09 
l 32.051 411.254 13.922 398.551 8.48 379.707 c 5.898 370.77 4.551 361.543
 4.477 352.258 c 4.031 297.664 l 4.023 296.375 4.047 295.086 4.062 293.797
 c 4 293.797 l 4.07 292.98 l 4.219 284.645 4.926 276.328 6.211 268.098 c
 17.688 134.75 l 67.098 134.348 l 116.516 133.945 l 130.16 267.09 l 131.582
 275.301 132.426 283.602 132.707 291.938 c 132.793 292.75 l 132.73 292.75
 l 132.766 294.039 132.812 295.324 132.824 296.613 c h
133.27 351.207 m f
0.215686 0.384314 0.8 rg
116.516 129.941 m 116.508 129.941 116.496 129.941 116.484 129.941 c 17.652
 130.75 l 15.59 130.766 13.875 132.348 13.699 134.406 c 2.238 267.621 l 
0.957 275.852 0.227 284.316 0.074 292.773 c 0.016 293.457 l -0.016 293.793
 0 294.129 0.055 294.457 c 0.039 295.535 0.023 296.613 0.031 297.695 c 0.477
 352.289 l 0.559 361.938 1.957 371.531 4.637 380.816 c 10.477 401.047 29.836
 415.094 51.797 415.094 c 51.938 415.094 52.078 415.094 52.215 415.09 c 
86.559 414.812 l 108.691 414.629 128.027 400.219 133.578 379.766 c 136.105
 370.438 137.348 360.82 137.27 351.176 c 136.824 296.582 l 136.816 295.535
 136.785 294.484 136.754 293.434 c 136.75 293.301 l 136.797 292.984 136.805
 292.66 136.773 292.344 c 136.703 291.664 l 136.41 283.219 135.547 274.766
 134.129 266.543 c 120.492 133.535 l 120.281 131.492 118.566 129.941 116.516
 129.941 c h
21.359 138.723 m 112.91 137.973 l 126.184 267.496 l 126.191 267.586 126.207
 267.68 126.223 267.77 c 127.598 275.719 128.438 283.895 128.711 292.07 
c 128.715 292.16 128.723 292.254 128.734 292.344 c 128.746 292.465 l 128.734
 292.598 128.73 292.727 128.734 292.863 c 128.758 293.676 l 128.789 294.664
 128.82 295.652 128.828 296.641 c 129.273 351.242 l 129.348 360.156 128.195
 369.047 125.855 377.672 c 121.246 394.676 105.062 406.66 86.496 406.809
 c 52.152 407.09 l 52.035 407.09 51.918 407.09 51.797 407.09 c 33.379 407.09
 17.18 395.418 12.32 378.598 c 9.844 370.012 8.551 361.141 8.477 352.223
 c 8.031 297.629 l 8.023 296.605 8.039 295.582 8.055 294.559 c 8.066 293.852
 l 8.066 293.707 8.062 293.562 8.047 293.422 c 8.055 293.32 l 8.062 293.23
 8.07 293.141 8.07 293.051 c 8.215 284.863 8.922 276.676 10.16 268.715 c
 10.18 268.625 10.188 268.535 10.195 268.441 c h
21.359 138.723 m f
0.976471 0.654902 0.654902 rg
375.27 195.102 m 353.391 194.098 l 381.324 177.598 l 398.379 178.379 l 
398.191 182.445 l h
375.27 195.102 m f
0.878431 0.921569 0.988235 rg
476.418 162.215 m 476.422 162.562 l 476.461 167.672 472.352 171.848 467.246
 171.891 c 407.402 172.379 l 405.656 172.395 404.23 170.988 404.219 169.242
 c 404.117 156.711 l 404.102 154.965 405.508 153.539 407.254 153.523 c 467.094
 153.035 l 472.199 152.992 476.375 157.102 476.418 162.215 c h
476.418 162.215 m f
476.109 124.504 m 476.113 124.852 l 476.156 129.961 472.043 134.141 466.938
 134.18 c 407.098 134.668 l 405.352 134.684 403.926 133.277 403.91 131.535
 c 403.809 119 l 403.793 117.254 405.199 115.828 406.945 115.812 c 466.785
 115.324 l 471.891 115.281 476.07 119.395 476.109 124.504 c h
476.109 124.504 m f
460.191 105.777 m 460.191 106.129 l 460.234 111.234 456.125 115.414 451.016
 115.457 c 406.945 115.816 l 405.199 115.828 403.773 114.426 403.758 112.68
 c 403.656 100.145 l 403.641 98.398 405.047 96.973 406.793 96.961 c 450.863
 96.598 l 455.969 96.559 460.148 100.668 460.191 105.777 c h
460.191 105.777 m f
448.414 198.812 m 448.438 200.613 447.027 202.113 445.219 202.125 c 409.176
 202.418 l 402.75 202.473 l 392.809 202.555 l 378.355 202.672 l 377.09 202.68
 375.82 202.527 374.594 202.211 c 374.117 202.086 l 371.297 201.363 370.812
 197.562 373.363 196.152 c 399.32 181.824 l 401.453 180.648 403.844 180.02
 406.277 180 c 408.992 179.977 l 429.031 179.812 l 439.625 179.73 448.289
 188.227 448.414 198.812 c h
448.414 198.812 m f
488.996 143.43 m 489.039 148.637 485.012 152.891 479.992 152.93 c 430.723
 153.332 l 407.195 153.523 l 405.48 153.539 404.078 152.109 404.066 150.332
 c 403.965 137.914 l 403.949 136.137 405.324 134.684 407.039 134.668 c 430.566
 134.477 l 479.84 134.074 l 484.855 134.035 488.953 138.223 488.996 143.43
 c h
488.996 143.43 m f
0.976471 0.654902 0.654902 rg
385.914 100.348 m 386.508 172.609 l 386.516 173.793 385.922 174.883 384.953
 175.453 c 350.176 195.996 l 348.887 196.754 347.383 196.984 345.949 196.637
 c 314.742 189.102 l 309.289 187.789 305.395 182.621 305.344 176.641 c 304.809
 110.66 l 304.75 103.551 310.09 97.742 316.734 97.688 c 382.883 97.148 l
 384.543 97.141 385.902 98.57 385.914 100.348 c h
385.914 100.348 m f
0.878431 0.921569 0.988235 rg
385.914 100.348 m 386.508 172.609 l 386.516 173.793 385.922 174.883 384.953
 175.453 c 350.176 195.996 l 348.887 196.754 347.383 196.984 345.949 196.637
 c 314.742 189.102 l 309.289 187.789 305.395 182.621 305.344 176.641 c 304.809
 110.66 l 304.75 103.551 310.09 97.742 316.734 97.688 c 382.883 97.148 l
 384.543 97.141 385.902 98.57 385.914 100.348 c h
385.914 100.348 m f
0.976471 0.654902 0.654902 rg
404.117 156.711 m 404.219 169.219 l 386.48 169.363 l 386.375 156.684 l 
404.133 156.543 l 404.129 156.598 404.117 156.652 404.117 156.711 c h
404.117 156.711 m f
403.809 119 m 403.91 131.535 l 403.91 131.559 403.918 131.578 403.918 131.602
 c 386.172 131.746 l 386.066 119.07 l 403.812 118.926 l 403.812 118.953 
403.809 118.977 403.809 119 c h
403.809 119 m f
403.652 100.145 m 403.758 112.676 l 403.758 112.699 403.766 112.723 403.766
 112.746 c 386.02 112.891 l 385.914 100.215 l 403.66 100.07 l 403.66 100.098
 403.652 100.117 403.652 100.145 c h
403.652 100.145 m f
403.961 137.914 m 404.062 150.328 l 404.062 150.375 404.074 150.414 404.078
 150.461 c 386.324 150.602 l 386.223 137.926 l 403.973 137.785 l 403.973
 137.828 403.961 137.871 403.961 137.914 c h
403.961 137.914 m f
0.215686 0.384314 0.8 rg
467.172 149.035 m 467.133 149.035 467.098 149.035 467.059 149.035 c 407.215
 149.523 l 403.27 149.559 400.086 152.797 400.113 156.742 c 400.219 169.277
 l 400.234 171.188 400.992 172.98 402.355 174.324 c 403.719 175.664 405.586
 176.371 407.438 176.379 c 467.277 175.891 l 474.582 175.832 480.48 169.836
 480.422 162.531 c 480.418 162.176 l 480.383 158.637 478.98 155.324 476.457
 152.84 c 473.961 150.383 470.668 149.035 467.172 149.035 c h
408.121 157.516 m 467.125 157.035 l 468.504 157.07 469.855 157.559 470.852
 158.543 c 471.852 159.527 472.406 160.844 472.418 162.246 c 472.418 162.25
 472.418 162.254 472.418 162.258 c 472.422 162.605 l 472.445 165.488 470.109
 167.867 467.211 167.891 c 408.211 168.371 l h
408.121 157.516 m f
466.859 111.324 m 466.824 111.324 466.785 111.324 466.75 111.324 c 406.906
 111.812 l 402.961 111.848 399.777 115.086 399.805 119.031 c 399.906 131.566
 l 399.945 135.496 403.148 138.668 407.066 138.668 c 407.129 138.668 l 466.969
 138.18 l 470.508 138.148 473.824 136.742 476.305 134.223 c 478.789 131.695
 480.141 128.355 480.109 124.82 c 480.109 124.473 l 480.078 120.93 478.672
 117.613 476.152 115.133 c 473.656 112.672 470.355 111.324 466.859 111.324
 c h
407.812 119.805 m 466.816 119.324 l 466.859 119.324 l 468.246 119.324 469.555
 119.859 470.539 120.832 c 471.543 121.816 472.098 123.133 472.109 124.535
 c 472.113 124.875 l 472.125 126.289 471.59 127.609 470.605 128.609 c 469.625
 129.609 468.309 130.168 466.902 130.18 c 407.898 130.66 l h
476.109 124.504 m 476.129 124.504 l h
476.109 124.504 m f
450.945 92.598 m 450.902 92.598 450.867 92.598 450.832 92.598 c 406.758
 92.961 l 402.809 92.992 399.625 96.227 399.652 100.176 c 399.758 112.715
 l 399.773 114.625 400.531 116.418 401.895 117.758 c 403.258 119.098 405.016
 119.844 406.977 119.816 c 451.047 119.457 l 458.352 119.398 464.254 113.402
 464.191 106.098 c 464.188 105.742 l 464.156 102.203 462.754 98.891 460.23
 96.406 c 457.734 93.945 454.438 92.598 450.945 92.598 c h
407.66 100.949 m 450.895 100.598 l 452.273 100.586 453.621 101.125 454.621
 102.105 c 455.621 103.09 456.176 104.406 456.188 105.812 c 456.188 105.816
 456.188 105.82 456.188 105.824 c 456.191 106.168 l 456.215 109.051 453.875
 111.43 450.98 111.453 c 407.75 111.805 l h
407.66 100.949 m f
429.191 175.816 m 429.129 175.816 429.066 175.816 429 175.816 c 406.25 
176 l 403.156 176.027 400.094 176.832 397.387 178.324 c 371.43 192.652 l
 368.824 194.09 367.383 196.93 367.758 199.883 c 368.133 202.832 370.234
 205.223 373.121 205.965 c 373.598 206.086 l 375.16 206.488 376.758 206.68
 378.391 206.672 c 445.254 206.129 l 447.18 206.113 448.98 205.344 450.332
 203.969 c 451.695 202.574 452.434 200.727 452.41 198.766 c 452.262 186.07
 441.863 175.816 429.191 175.816 c h
377.168 198.621 m 401.254 185.324 l 402.797 184.473 404.547 184.012 406.312
 183.996 c 429.066 183.812 l 429.191 183.812 l 437.258 183.812 443.918 190.148
 444.391 198.137 c 378.324 198.676 l 377.965 198.668 377.555 198.66 377.168
 198.621 c h
377.168 198.621 m f
479.91 130.074 m 479.875 130.074 479.844 130.074 479.805 130.074 c 407.008
 130.668 l 403.094 130.703 399.934 133.965 399.965 137.945 c 400.066 150.363
 l 400.082 152.262 400.816 154.051 402.133 155.398 c 403.492 156.785 405.281
 157.516 407.227 157.523 c 480.023 156.93 l 483.547 156.902 486.84 155.461
 489.293 152.871 c 491.711 150.32 493.027 146.953 493 143.398 c 492.938 
136.027 487.078 130.074 479.91 130.074 c h
407.969 138.66 m 479.871 138.074 l 479.91 138.074 l 482.695 138.074 484.973
 140.484 485 143.465 c 488.996 143.43 l 485 143.465 l 485.012 144.941 484.477
 146.324 483.492 147.363 c 482.543 148.363 481.289 148.918 479.957 148.93
 c 408.059 149.516 l h
407.969 138.66 m f
382.902 93.152 m 382.887 93.152 382.867 93.152 382.852 93.152 c 316.699
 93.691 l 312.367 93.727 308.324 95.551 305.312 98.828 c 302.375 102.027
 300.777 106.246 300.812 110.699 c 301.352 176.676 l 301.414 184.527 306.535
 191.238 313.805 192.996 c 345.012 200.527 l 347.465 201.117 350.02 200.73
 352.211 199.441 c 386.988 178.902 l 389.18 177.609 390.531 175.184 390.508
 172.578 c 389.918 100.316 l 389.902 98.438 389.195 96.668 387.922 95.324
 c 386.609 93.941 384.781 93.152 382.902 93.152 c h
347.273 192.797 m 347.145 192.797 347.016 192.785 346.887 192.75 c 315.684
 185.219 l 311.984 184.324 309.383 180.789 309.348 176.613 c 308.809 110.633
 l 308.789 108.215 309.641 105.941 311.203 104.238 c 312.699 102.613 314.672
 101.707 316.766 101.691 c 381.922 101.16 l 382.504 172.254 l 348.141 192.551
 l 347.867 192.715 347.57 192.797 347.273 192.797 c h
347.273 192.797 m f
381.324 173.598 m 380.613 173.598 379.906 173.789 379.289 174.152 c 351.355
 190.652 l 349.832 191.555 349.082 193.348 349.512 195.062 c 349.938 196.781
 351.441 198.012 353.207 198.094 c 375.086 199.098 l 375.824 199.137 376.555
 198.961 377.203 198.602 c 400.125 185.945 l 401.34 185.273 402.121 184.016
 402.188 182.629 c 402.375 178.562 l 402.422 177.504 402.047 176.469 401.332
 175.684 c 400.617 174.898 399.621 174.43 398.559 174.383 c 381.508 173.598
 l 381.449 173.598 381.387 173.598 381.324 173.598 c h
366.977 190.719 m 382.332 181.648 l 390.676 182.027 l 374.324 191.055 l
 h
366.977 190.719 m f
404.129 152.543 m 404.117 152.543 404.109 152.543 404.098 152.543 c 386.34
 152.688 l 385.281 152.695 384.266 153.125 383.523 153.883 c 382.777 154.637
 382.367 155.66 382.375 156.719 c 382.477 169.395 l 382.496 171.594 384.281
 173.363 386.477 173.363 c 386.512 173.363 l 404.254 173.219 l 405.312 173.211
 406.324 172.781 407.07 172.023 c 407.812 171.266 408.227 170.246 408.219
 169.184 c 408.117 156.871 l 408.121 156.801 408.125 156.734 408.129 156.68
 c 408.168 155.59 407.758 154.531 406.996 153.75 c 406.242 152.977 405.207
 152.543 404.129 152.543 c h
390.406 160.656 m 400.145 160.574 l 400.188 165.25 l 390.445 165.332 l 
h
390.406 160.656 m f
403.812 114.93 m 403.801 114.93 403.793 114.93 403.781 114.93 c 386.035
 115.074 l 383.828 115.09 382.051 116.898 382.07 119.105 c 382.172 131.777
 l 382.18 132.84 382.609 133.855 383.367 134.598 c 384.125 135.344 385.117
 135.738 386.207 135.746 c 403.953 135.602 l 406.148 135.586 407.918 133.801
 407.918 131.602 c 407.918 131.52 407.914 131.43 407.906 131.336 c 407.809
 119.117 l 407.812 119.051 407.812 118.988 407.812 118.93 c 407.812 117.863
 407.387 116.84 406.629 116.09 c 405.883 115.344 404.871 114.93 403.812 
114.93 c h
390.102 123.043 m 399.84 122.961 l 399.879 127.637 l 390.141 127.719 l 
h
390.102 123.043 m f
403.66 96.074 m 403.648 96.074 403.641 96.074 403.629 96.074 c 385.883 
96.219 l 384.82 96.227 383.809 96.656 383.062 97.41 c 382.32 98.168 381.906
 99.188 381.914 100.25 c 382.02 112.926 l 382.027 113.988 382.461 115 383.215
 115.746 c 383.973 116.488 384.941 116.914 386.055 116.895 c 403.797 116.746
 l 405.992 116.73 407.766 114.941 407.766 112.746 c 407.766 112.672 407.762
 112.594 407.758 112.512 c 407.656 100.301 l 407.715 99.215 407.336 98.145
 406.59 97.348 c 405.836 96.535 404.773 96.074 403.66 96.074 c h
389.949 104.184 m 399.688 104.105 l 399.727 108.781 l 389.988 108.859 l
 h
389.949 104.184 m f
403.973 133.785 m 403.961 133.785 403.953 133.785 403.941 133.785 c 386.188
 133.926 l 385.129 133.934 384.113 134.363 383.371 135.121 c 382.625 135.879
 382.215 136.898 382.223 137.961 c 382.324 150.633 l 382.344 152.832 384.129
 154.602 386.324 154.602 c 386.359 154.602 l 404.113 154.457 l 405.199 154.449
 406.234 154 406.98 153.211 c 407.727 152.422 408.125 151.363 408.074 150.281
 c 408.074 150.23 408.07 150.172 408.062 150.113 c 407.965 138.066 l 407.969
 138.027 407.969 137.992 407.973 137.961 c 408.02 136.863 407.617 135.797
 406.855 135.008 c 406.102 134.227 405.059 133.785 403.973 133.785 c h
390.258 141.895 m 399.992 141.816 l 400.035 146.492 l 390.293 146.57 l 
h
390.258 141.895 m f
0.878431 0.921569 0.988235 rg
68.32 196.109 m 67.91 145.668 l 67.898 144.332 l 67.887 142.988 l 67.477
 92.551 l 282.066 104.086 l 299.066 105 312.516 121.215 312.676 140.992 
c 312.699 143.676 l 312.859 163.457 299.676 179.891 282.691 181.078 c h
68.32 196.109 m f
0.976471 0.654902 0.654902 rg
298.871 142.684 m 298.871 126.684 285.895 113.707 269.891 113.707 c 253.891
 113.707 240.918 126.684 240.918 142.684 c 240.918 158.688 253.891 171.66
 269.891 171.66 c 285.895 171.66 298.871 158.688 298.871 142.684 c h
298.871 142.684 m f
0.643137 0.788235 1 rg
282.934 142.684 m 282.934 135.48 277.094 129.645 269.891 129.645 c 262.691
 129.645 256.852 135.48 256.852 142.684 c 256.852 149.883 262.691 155.723
 269.891 155.723 c 277.094 155.723 282.934 149.883 282.934 142.684 c h
282.934 142.684 m f
0.215686 0.384314 0.8 rg
67.473 88.555 m 66.445 88.555 65.457 88.945 64.711 89.66 c 63.918 90.418
 63.469 91.477 63.477 92.582 c 64.324 196.141 l 64.336 197.246 64.793 198.297
 65.605 199.047 c 66.418 199.797 67.504 200.172 68.602 200.098 c 282.969
 185.066 l 302.059 183.73 316.875 165.531 316.695 143.645 c 316.672 140.961
 l 316.492 119.07 301.387 101.117 282.277 100.09 c 67.691 88.559 l 67.617
 88.555 67.543 88.555 67.473 88.555 c h
72.285 191.82 m 71.508 96.773 l 281.844 108.082 l 296.742 108.879 308.527
 123.352 308.668 141.027 c 308.695 143.715 l 308.836 161.387 297.293 176.047
 282.41 177.09 c h
72.285 191.82 m f
0.976471 0.654902 0.654902 rg
130.934 145.824 m 130.934 111.02 102.715 82.805 67.91 82.805 c 33.102 82.805
 4.887 111.02 4.887 145.824 c 4.887 180.637 33.102 208.852 67.91 208.852
 c 102.715 208.852 130.934 180.637 130.934 145.824 c h
130.934 145.824 m f
0.643137 0.788235 1 rg
102.121 145.824 m 102.121 126.93 86.805 111.613 67.91 111.613 c 49.012 
111.613 33.695 126.93 33.695 145.824 c 33.695 164.719 49.012 180.043 67.91
 180.043 c 86.805 180.043 102.121 164.719 102.121 145.824 c h
102.121 145.824 m f
0.215686 0.384314 0.8 rg
67.918 78.805 m 67.73 78.805 67.547 78.805 67.363 78.805 c 30.406 79.105
 0.59 109.418 0.891 146.371 c 1.035 164.273 8.145 181.051 20.906 193.605
 c 33.535 206.027 50.203 212.852 67.895 212.852 c 68.086 212.852 68.27 212.852
 68.457 212.848 c 105.414 212.551 135.238 182.234 134.934 145.281 c 134.633
 108.508 104.621 78.805 67.918 78.805 c h
67.895 204.852 m 52.312 204.852 37.637 198.848 26.516 187.902 c 15.277 
176.848 9.02 162.078 8.891 146.309 c 8.625 113.762 34.883 87.07 67.43 86.805
 c 67.914 86.805 l 100.246 86.801 126.672 112.961 126.934 145.344 c 127.199
 177.891 100.941 204.582 68.391 204.848 c 68.227 204.852 68.059 204.852 
67.895 204.852 c h
67.895 204.852 m f
67.914 107.617 m 67.805 107.617 67.703 107.617 67.598 107.617 c 46.527 
107.789 29.527 125.07 29.699 146.137 c 29.871 167.102 46.98 184.039 67.906
 184.039 c 68.219 184.039 l 89.289 183.867 106.289 166.586 106.121 145.516
 c 105.949 124.555 88.84 107.617 67.914 107.617 c h
67.664 115.613 m 84.293 115.441 97.992 128.918 98.125 145.578 c 98.258 
162.242 84.812 175.906 68.156 176.043 c 68.074 176.043 67.988 176.043 67.906
 176.043 c 51.359 176.043 37.832 162.652 37.699 146.07 c 37.559 129.414 
51.004 115.75 67.664 115.613 c h
67.664 115.613 m f
269.898 109.707 m 269.809 109.707 269.715 109.707 269.621 109.707 c 260.816
 109.777 252.562 113.277 246.387 119.559 c 240.211 125.836 236.844 134.145
 236.918 142.953 c 237.066 161.137 252.074 175.824 270.16 175.656 c 278.969
 175.586 287.219 172.086 293.398 165.809 c 299.578 159.531 302.941 151.223
 302.867 142.414 c 302.797 133.605 299.301 125.355 293.016 119.176 c 286.805
 113.062 278.605 109.707 269.898 109.707 c h
269.891 167.66 m 256.211 167.66 245.027 156.59 244.918 142.891 c 244.863
 136.219 247.41 129.922 252.086 125.168 c 256.766 120.414 263.02 117.762
 269.688 117.711 c 276.336 117.652 282.656 120.203 287.41 124.883 c 292.164
 129.559 294.816 135.809 294.867 142.48 c 294.922 149.148 292.375 155.445
 287.695 160.203 c 283.02 164.953 276.766 167.602 270.094 167.656 c 270.027
 167.66 269.957 167.66 269.891 167.66 c h
269.891 167.66 m f
269.895 125.648 m 269.848 125.648 269.801 125.648 269.754 125.648 c 265.215
 125.684 260.949 127.488 257.754 130.738 c 254.559 133.984 252.816 138.277
 252.855 142.824 c 252.93 152.219 260.629 159.82 270.035 159.723 c 274.578
 159.684 278.84 157.879 282.039 154.629 c 285.234 151.383 286.969 147.086
 286.93 142.547 c 286.891 138 285.086 133.738 281.84 130.543 c 278.625 127.379
 274.387 125.648 269.895 125.648 c h
269.891 151.723 m 264.941 151.723 260.895 147.715 260.852 142.758 c 260.832
 140.348 261.758 138.07 263.453 136.348 c 265.152 134.625 267.406 133.66
 269.82 133.641 c 269.895 133.641 l 272.273 133.641 274.52 134.562 276.227
 136.242 c 277.953 137.938 278.914 140.199 278.934 142.609 c 278.953 145.02
 278.031 147.293 276.332 149.016 c 274.637 150.742 272.375 151.703 269.965
 151.723 c 269.941 151.723 269.914 151.723 269.891 151.723 c h
269.891 151.723 m f
1 0.917647 0.572549 rg
433.809 297.289 m 427.07 282.555 415.883 270.281 401.965 262.164 c 399.465
 260.711 399.465 257.18 401.965 255.727 c 415.883 247.617 427.07 235.34 
433.809 220.602 c 435.121 217.742 439.199 217.742 440.512 220.602 c 447.258
 235.34 458.438 247.617 472.359 255.727 c 474.855 257.18 474.855 260.711
 472.359 262.164 c 458.438 270.281 447.258 282.555 440.512 297.289 c 439.199
 300.152 435.121 300.152 433.809 297.289 c h
433.809 297.289 m f
293.973 75.051 m 289.254 64.738 281.426 56.141 271.68 50.465 c 269.93 49.445
 269.93 46.973 271.68 45.953 c 281.426 40.277 289.254 31.684 293.973 21.367
 c 294.891 19.363 297.746 19.363 298.664 21.367 c 303.383 31.684 311.211
 40.273 320.957 45.953 c 322.703 46.973 322.703 49.445 320.957 50.465 c 
311.211 56.141 303.383 64.734 298.664 75.051 c 297.746 77.055 294.891 77.055
 293.973 75.051 c h
293.973 75.051 m f
0.976471 0.811765 0.811765 rg
116.977 441.508 m 116.977 486.898 l 4 486.898 l 4 448.441 l 72.762 448.441
 l 88.188 448.441 103.039 445.996 116.977 441.508 c h
116.977 441.508 m f
0.215686 0.384314 0.8 rg
116.977 437.512 m 116.566 437.512 116.152 437.574 115.75 437.703 c 101.852
 442.172 87.387 444.441 72.762 444.441 c 4 444.441 l 1.793 444.441 0 446.234
 0 448.441 c 0 486.898 l 0 489.105 1.793 490.898 4 490.898 c 116.977 490.898
 l 119.184 490.898 120.973 489.105 120.973 486.898 c 120.973 441.508 l 120.973
 440.23 120.359 439.031 119.332 438.277 c 118.637 437.773 117.812 437.512
 116.977 437.512 c h
8 452.441 m 72.762 452.441 l 86.395 452.441 99.902 450.578 112.977 446.891
 c 112.977 482.898 l 8 482.898 l h
8 452.441 m f
Q Q
showpage
%%Trailer
end restore
%%EOF
