%!PS-Adobe-3.0 EPSF-3.0
%%Creator: cairo 1.14.8 (http://cairographics.org)
%%CreationDate: Wed Mar 20 09:06:38 2019
%%Pages: 1
%%DocumentData: Clean7Bit
%%LanguageLevel: 2
%%BoundingBox: 0 0 462 461
%%EndComments
%%BeginProlog
save
50 dict begin
/q { gsave } bind def
/Q { grestore } bind def
/cm { 6 array astore concat } bind def
/w { setlinewidth } bind def
/J { setlinecap } bind def
/j { setlinejoin } bind def
/M { setmiterlimit } bind def
/d { setdash } bind def
/m { moveto } bind def
/l { lineto } bind def
/c { curveto } bind def
/h { closepath } bind def
/re { exch dup neg 3 1 roll 5 3 roll moveto 0 rlineto
      0 exch rlineto 0 rlineto closepath } bind def
/S { stroke } bind def
/f { fill } bind def
/f* { eofill } bind def
/n { newpath } bind def
/W { clip } bind def
/W* { eoclip } bind def
/BT { } bind def
/ET { } bind def
/pdfmark where { pop globaldict /?pdfmark /exec load put }
    { globaldict begin /?pdfmark /pop load def /pdfmark
    /cleartomark load def end } ifelse
/BDC { mark 3 1 roll /BDC pdfmark } bind def
/EMC { mark /EMC pdfmark } bind def
/cairo_store_point { /cairo_point_y exch def /cairo_point_x exch def } def
/Tj { show currentpoint cairo_store_point } bind def
/TJ {
  {
    dup
    type /stringtype eq
    { show } { -0.001 mul 0 cairo_font_matrix dtransform rmoveto } ifelse
  } forall
  currentpoint cairo_store_point
} bind def
/cairo_selectfont { cairo_font_matrix aload pop pop pop 0 0 6 array astore
    cairo_font exch selectfont cairo_point_x cairo_point_y moveto } bind def
/Tf { pop /cairo_font exch def /cairo_font_matrix where
      { pop cairo_selectfont } if } bind def
/Td { matrix translate cairo_font_matrix matrix concatmatrix dup
      /cairo_font_matrix exch def dup 4 get exch 5 get cairo_store_point
      /cairo_font where { pop cairo_selectfont } if } bind def
/Tm { 2 copy 8 2 roll 6 array astore /cairo_font_matrix exch def
      cairo_store_point /cairo_font where { pop cairo_selectfont } if } bind def
/g { setgray } bind def
/rg { setrgbcolor } bind def
/d1 { setcachedevice } bind def
%%EndProlog
%%BeginSetup
%%EndSetup
%%Page: 1 1
%%BeginPageSetup
%%PageBoundingBox: 0 0 462 461
%%EndPageSetup
q 0 0 462 461 rectclip q
0.643137 0.788235 1 rg
425.973 97.723 m 35.68 97.723 l 18.082 97.723 3.816 111.988 3.816 129.582
 c 3.816 424.293 l 3.816 441.891 18.082 456.156 35.68 456.156 c 425.973 
456.156 l 443.57 456.156 457.836 441.891 457.836 424.293 c 457.836 129.582
 l 457.836 111.988 443.57 97.723 425.973 97.723 c h
425.973 97.723 m f
0.878431 0.921569 0.988235 rg
457.836 126.398 m 457.836 169.406 l 3.816 169.406 l 3.816 126.398 l 3.816
 110.559 18.082 97.723 35.68 97.723 c 425.973 97.723 l 443.57 97.723 457.836
 110.559 457.836 126.398 c h
457.836 126.398 m f
368.996 4.133 m 92.656 4.133 l 86.484 4.133 81.48 9.137 81.48 15.309 c 
81.48 20.832 l 81.48 27.004 86.484 32.008 92.656 32.008 c 368.996 32.008
 l 375.168 32.008 380.172 27.004 380.172 20.832 c 380.172 15.309 l 380.172
 9.137 375.168 4.133 368.996 4.133 c h
368.996 4.133 m f
0.27451 0.443137 0.776471 rg
27.715 205.25 m 27.715 420.312 l 27.715 426.91 33.062 432.258 39.66 432.258
 c 421.992 432.258 l 428.59 432.258 433.938 426.91 433.938 420.312 c 433.938
 205.25 l 433.938 198.652 428.59 193.305 421.992 193.305 c 39.66 193.305
 l 33.062 193.305 27.715 198.652 27.715 205.25 c h
27.715 205.25 m f
0.643137 0.788235 1 rg
231.852 113.652 m 229.801 113.652 l 219.41 113.652 210.91 122.152 210.91
 132.543 c 210.91 134.586 l 210.91 144.977 219.41 153.48 229.801 153.48 
c 231.852 153.48 l 242.242 153.48 250.742 144.977 250.742 134.586 c 250.742
 132.543 l 250.742 122.156 242.238 113.652 231.852 113.652 c h
231.852 113.652 m f
0.215686 0.384314 0.8 rg
426.145 93.727 m 35.855 93.727 l 16.082 93.727 0 109.812 0 129.578 c 0 
424.289 l 0 444.059 16.082 460.145 35.855 460.145 c 426.148 460.145 l 445.918
 460.145 462 444.059 462 424.289 c 462 129.578 l 462 109.812 445.918 93.727
 426.145 93.727 c h
35.855 452.16 m 20.484 452.16 7.984 439.66 7.984 424.289 c 7.984 129.578
 l 7.984 114.211 20.488 101.711 35.855 101.711 c 426.148 101.711 l 441.516
 101.711 454.016 114.211 454.016 129.578 c 454.016 424.289 l 454.016 439.66
 441.516 452.16 426.148 452.16 c h
35.855 452.16 m f
422.164 189.309 m 39.832 189.309 l 31.043 189.309 23.895 196.457 23.895
 205.246 c 23.895 420.309 l 23.895 429.098 31.043 436.246 39.832 436.246
 c 422.164 436.246 l 430.953 436.246 438.102 429.098 438.102 420.309 c 438.102
 205.246 l 438.105 196.457 430.957 189.309 422.164 189.309 c h
39.832 428.262 m 35.449 428.262 31.879 424.695 31.879 420.309 c 31.879 
205.246 l 31.879 200.859 35.449 197.293 39.832 197.293 c 422.164 197.293
 l 426.551 197.293 430.117 200.859 430.117 205.246 c 430.117 420.309 l 430.117
 424.695 426.551 428.262 422.164 428.262 c h
39.832 428.262 m f
369.168 0.137 m 92.828 0.137 l 84.465 0.137 77.66 6.941 77.66 15.305 c 
77.66 20.832 l 77.66 29.195 84.465 36 92.828 36 c 369.168 36 l 377.531 36
 384.34 29.195 384.34 20.832 c 384.34 15.305 l 384.34 6.941 377.531 0.137
 369.168 0.137 c h
92.828 28.016 m 88.867 28.016 85.645 24.789 85.645 20.828 c 85.645 15.305
 l 85.645 11.344 88.867 8.117 92.828 8.117 c 369.168 8.117 l 373.129 8.117
 376.355 11.344 376.355 15.305 c 376.355 20.828 l 376.355 24.789 373.129
 28.016 369.168 28.016 c h
92.828 28.016 m f
0.643137 0.788235 1 rg
137.367 97.719 m 121.305 32.012 l 340.348 32.012 l 324.281 97.719 l h
137.367 97.719 m f
0.215686 0.384314 0.8 rg
340.52 28.016 m 121.477 28.016 l 120.254 28.016 119.094 28.574 118.34 29.539
 c 117.582 30.508 117.309 31.762 117.598 32.953 c 133.66 98.668 l 134.102
 100.453 135.699 101.711 137.539 101.711 c 324.457 101.711 l 326.301 101.711
 327.902 100.453 328.34 98.668 c 344.398 32.953 l 344.691 31.762 344.418
 30.508 343.66 29.539 c 342.906 28.574 341.746 28.016 340.52 28.016 c h
126.566 36 m 335.434 36 l 321.324 93.723 l 140.676 93.723 l h
126.566 36 m f
0.878431 0.921569 0.988235 rg
57.195 311.871 m 62.895 311.871 66.82 309.176 68.902 306.414 c 68.902 308.887
 l 68.902 310.23 69.996 311.32 71.34 311.32 c 73.52 311.32 l 74.863 311.32
 75.957 310.23 75.957 308.887 c 75.957 279.973 l 75.957 278.625 74.863 277.535
 73.52 277.535 c 71.34 277.535 l 69.996 277.535 68.902 278.625 68.902 279.973
 c 68.902 282.562 l 66.758 279.684 62.711 276.984 57.07 276.984 c 48.301
 276.984 41.25 284.16 41.25 294.582 c 41.25 305.008 48.301 311.871 57.195
 311.871 c h
58.664 305.801 m 53.453 305.801 48.426 301.879 48.426 294.582 c 48.426 
287.285 53.453 283.055 58.664 283.055 c 63.938 283.055 68.902 287.164 68.902
 294.461 c 68.902 301.691 63.938 305.801 58.664 305.801 c h
58.664 305.801 m f
98.766 311.871 m 104.465 311.871 108.391 309.176 110.477 306.414 c 110.477
 308.887 l 110.477 310.23 111.566 311.32 112.91 311.32 c 115.09 311.32 l
 116.438 311.32 117.527 310.23 117.527 308.887 c 117.527 279.973 l 117.527
 278.625 116.438 277.535 115.09 277.535 c 112.91 277.535 l 111.566 277.535
 110.477 278.625 110.477 279.973 c 110.477 282.562 l 108.328 279.684 104.281
 276.984 98.641 276.984 c 89.875 276.984 82.824 284.16 82.824 294.582 c 
82.824 305.008 89.871 311.871 98.766 311.871 c h
100.234 305.801 m 95.023 305.801 89.996 301.879 89.996 294.582 c 89.996
 287.285 95.023 283.055 100.234 283.055 c 105.508 283.055 110.477 287.164
 110.477 294.461 c 110.477 301.691 105.508 305.801 100.234 305.801 c h
100.234 305.801 m f
153.895 337.434 m 160.996 337.434 166.52 335.031 170.422 331.906 c 171.988
 330.652 174.32 331.852 174.32 333.859 c 174.32 334.004 l 174.32 335.383
 175.41 336.469 176.758 336.469 c 184.184 336.469 l 185.531 336.469 186.621
 335.379 186.621 334.035 c 186.621 279.973 l 186.621 278.625 185.531 277.535
 184.184 277.535 c 176.758 277.535 l 175.41 277.535 174.32 278.625 174.32
 279.973 c 174.32 280.332 l 174.32 282.41 171.934 283.477 170.312 282.18
 c 166.316 278.973 160.707 276.57 153.68 276.57 c 138.383 276.57 126.082
 289.086 126.082 307.27 c 126.082 325.453 138.383 337.434 153.895 337.434
 c h
156.457 326.844 m 147.367 326.844 138.598 320 138.598 307.27 c 138.598 
294.543 147.367 287.16 156.457 287.16 c 165.656 287.16 174.32 294.328 174.32
 307.059 c 174.32 319.68 165.656 326.844 156.457 326.844 c h
156.457 326.844 m f
226.402 337.434 m 233.508 337.434 239.031 335.031 242.93 331.906 c 244.496
 330.652 246.832 331.852 246.832 333.859 c 246.832 334.004 l 246.832 335.383
 247.922 336.469 249.266 336.469 c 256.699 336.469 l 258.043 336.469 259.133
 335.379 259.133 334.035 c 259.133 279.973 l 259.133 278.625 258.043 277.535
 256.699 277.535 c 249.266 277.535 l 247.922 277.535 246.832 278.625 246.832
 279.973 c 246.832 280.332 l 246.832 282.41 244.445 283.477 242.824 282.18
 c 238.828 278.973 233.219 276.57 226.188 276.57 c 210.895 276.57 198.594
 289.086 198.594 307.27 c 198.59 325.453 210.895 337.434 226.402 337.434
 c h
228.969 326.844 m 219.875 326.844 211.102 320 211.102 307.27 c 211.102 
294.543 219.875 287.16 228.969 287.16 c 238.168 287.16 246.828 294.328 246.828
 307.059 c 246.828 319.68 238.168 326.844 228.969 326.844 c h
228.969 326.844 m f
298.91 337.434 m 306.016 337.434 311.539 335.031 315.441 331.906 c 317.008
 330.652 319.34 331.852 319.34 333.859 c 319.34 334.004 l 319.34 335.383
 320.43 336.469 321.777 336.469 c 329.203 336.469 l 330.547 336.469 331.641
 335.379 331.641 334.035 c 331.641 279.973 l 331.641 278.625 330.547 277.535
 329.203 277.535 c 321.777 277.535 l 320.43 277.535 319.34 278.625 319.34
 279.973 c 319.34 280.332 l 319.34 282.41 316.949 283.477 315.332 282.18
 c 311.336 278.973 305.723 276.57 298.699 276.57 c 283.402 276.57 271.102
 289.086 271.102 307.27 c 271.102 325.453 283.402 337.434 298.91 337.434
 c h
301.477 326.844 m 292.387 326.844 283.613 320 283.613 307.27 c 283.613 
294.543 292.387 287.16 301.477 287.16 c 310.676 287.16 319.34 294.328 319.34
 307.059 c 319.34 319.68 310.676 326.844 301.477 326.844 c h
301.477 326.844 m f
357.863 311.871 m 363.566 311.871 367.492 309.176 369.578 306.414 c 369.578
 308.887 l 369.578 310.23 370.664 311.32 372.012 311.32 c 374.191 311.32
 l 375.535 311.32 376.629 310.23 376.629 308.887 c 376.629 279.973 l 376.629
 278.625 375.535 277.535 374.191 277.535 c 372.012 277.535 l 370.664 277.535
 369.578 278.625 369.578 279.973 c 369.578 282.562 l 367.43 279.684 363.383
 276.984 357.742 276.984 c 348.977 276.984 341.922 284.16 341.922 294.582
 c 341.922 305.008 348.973 311.871 357.863 311.871 c h
359.336 305.801 m 354.121 305.801 349.098 301.879 349.098 294.582 c 349.098
 287.285 354.121 283.055 359.336 283.055 c 364.605 283.055 369.578 287.164
 369.578 294.461 c 369.574 301.691 364.605 305.801 359.336 305.801 c h
359.336 305.801 m f
399.438 311.871 m 405.137 311.871 409.059 309.176 411.145 306.414 c 411.145
 308.887 l 411.145 310.23 412.238 311.32 413.582 311.32 c 415.762 311.32
 l 417.105 311.32 418.195 310.23 418.195 308.887 c 418.195 279.973 l 418.195
 278.625 417.105 277.535 415.762 277.535 c 413.582 277.535 l 412.238 277.535
 411.145 278.625 411.145 279.973 c 411.145 282.562 l 409 279.684 404.953
 276.984 399.312 276.984 c 390.543 276.984 383.492 284.16 383.492 294.582
 c 383.492 305.008 390.547 311.871 399.438 311.871 c h
400.906 305.801 m 395.691 305.801 390.668 301.879 390.668 294.582 c 390.668
 287.285 395.691 283.055 400.906 283.055 c 406.176 283.055 411.145 287.164
 411.145 294.461 c 411.145 301.691 406.18 305.801 400.906 305.801 c h
400.906 305.801 m f
0.917647 0.662745 0.490196 rg
448.262 106.934 m 439.277 97.949 424.707 97.949 415.723 106.934 c 339.148
 183.512 l 336.273 186.383 336.273 191.047 339.148 193.922 c 361.277 216.047
 l 364.148 218.922 368.812 218.922 371.688 216.047 c 448.262 139.477 l 457.246
 130.488 457.246 115.922 448.262 106.934 c h
448.262 106.934 m f
1 0.917647 0.572549 rg
361.027 215.801 m 336.434 240.398 l 333.336 236.398 329.992 232.535 326.324
 228.871 c 322.66 225.207 318.797 221.859 314.801 218.766 c 339.395 194.172
 l h
361.027 215.801 m f
0.419608 0.866667 0.866667 rg
325.945 400.34 m 278.559 447.723 201.641 447.895 154.469 400.723 c 107.301
 353.555 107.477 276.629 154.852 229.25 c 202.234 181.871 279.156 181.699
 326.324 228.867 c 373.496 276.043 373.324 352.961 325.945 400.34 c h
302.617 252.586 m 286.098 236.066 264.059 227.004 240.562 227.059 c 217.086
 227.117 195.027 236.273 178.453 252.852 c 144.148 287.152 144.027 342.855
 178.184 377.008 c 194.699 393.527 216.738 402.59 240.234 402.535 c 263.711
 402.477 285.77 393.32 302.344 376.746 c 318.926 360.16 328.086 338.098 
328.137 314.613 c 328.191 291.121 319.125 269.094 302.617 252.586 c h
302.617 252.586 m f
0.215686 0.384314 0.8 rg
431.992 96.215 m 425.074 96.215 418.164 98.848 412.898 104.113 c 336.328
 180.688 l 331.902 185.117 331.902 192.316 336.328 196.746 c 358.453 218.875
 l 360.598 221.02 363.449 222.199 366.48 222.199 c 369.516 222.199 372.367
 221.02 374.512 218.875 c 451.082 142.297 l 461.609 131.773 461.609 114.641
 451.082 104.113 c 445.82 98.848 438.906 96.215 431.992 96.215 c h
366.48 214.215 m 365.582 214.215 364.734 213.859 364.098 213.223 c 341.973
 191.098 l 340.66 189.785 340.66 187.648 341.973 186.328 c 418.543 109.758
 l 425.961 102.344 438.02 102.344 445.438 109.758 c 452.852 117.172 452.852
 129.234 445.438 136.652 c 368.863 213.223 l 368.23 213.859 367.383 214.215
 366.48 214.215 c h
366.48 214.215 m f
339.395 190.176 m 338.375 190.176 337.352 190.562 336.574 191.348 c 311.977
 215.941 l 311.168 216.754 310.742 217.871 310.816 219.02 c 310.891 220.164
 311.453 221.223 312.355 221.922 c 316.398 225.051 320.148 228.34 323.504
 231.695 c 326.855 235.051 330.148 238.801 333.273 242.84 c 333.977 243.75
 335.031 244.312 336.18 244.383 c 337.316 244.445 338.445 244.031 339.254
 243.219 c 363.852 218.625 l 364.598 217.875 365.02 216.863 365.02 215.801
 c 365.02 214.746 364.598 213.727 363.852 212.98 c 342.219 191.348 l 341.438
 190.562 340.418 190.176 339.395 190.176 c h
320.773 218.434 m 339.395 199.816 l 355.383 215.797 l 336.762 234.418 l
 334.293 231.441 331.742 228.637 329.148 226.043 c 326.559 223.457 323.754
 220.906 320.773 218.434 c h
320.773 218.434 m f
240.949 189.613 m 240.852 189.613 240.758 189.613 240.66 189.613 c 207.172
 189.688 175.695 202.758 152.031 226.43 c 103.094 275.367 102.922 354.82
 151.648 403.547 c 175.148 427.047 206.465 439.98 239.848 439.98 c 240.141
 439.98 l 273.625 439.902 305.105 426.832 328.766 403.164 c 352.434 379.496
 365.512 348.02 365.586 314.535 c 365.66 281.043 352.723 249.613 329.152
 226.047 c 305.648 202.547 274.332 189.613 240.949 189.613 c h
239.848 431.996 m 208.598 431.996 179.289 419.895 157.293 397.898 c 111.684
 352.289 111.855 277.898 157.676 232.07 c 179.84 209.91 209.316 197.668 
240.676 197.598 c 240.945 197.598 l 272.199 197.598 301.508 209.699 323.504
 231.695 c 345.559 253.75 357.668 283.164 357.602 314.52 c 357.531 345.879
 345.281 375.355 323.121 397.52 c 300.957 419.684 271.48 431.926 240.117
 431.996 c 240.031 431.996 239.938 431.996 239.848 431.996 c h
240.785 223.07 m 240.707 223.07 240.629 223.07 240.555 223.07 c 216.012
 223.129 192.957 232.703 175.629 250.027 c 139.77 285.891 139.645 344.121
 175.359 379.836 c 192.578 397.055 215.531 406.527 240.012 406.527 c 240.246
 406.527 l 264.785 406.469 287.84 396.895 305.168 379.566 c 322.5 362.234
 332.074 339.172 332.129 314.625 c 332.184 290.066 322.699 267.031 305.434
 249.762 c 288.223 232.543 265.266 223.07 240.785 223.07 c h
240.012 398.543 m 217.66 398.543 196.715 389.898 181.008 374.188 c 148.406
 341.586 148.527 288.422 181.277 255.672 c 197.102 239.852 218.16 231.105
 240.574 231.051 c 240.785 231.051 l 263.137 231.051 284.082 239.695 299.789
 255.406 c 315.547 271.16 324.195 292.188 324.145 314.605 c 324.098 337.023
 315.352 358.09 299.523 373.922 c 283.699 389.742 262.641 398.488 240.227
 398.543 c 240.156 398.543 240.082 398.543 240.012 398.543 c h
240.012 398.543 m f
Q Q
showpage
%%Trailer
end restore
%%EOF
