%!PS-Adobe-3.0 EPSF-3.0
%%Creator: cairo 1.14.8 (http://cairographics.org)
%%CreationDate: Wed Mar 20 09:06:38 2019
%%Pages: 1
%%DocumentData: Clean7Bit
%%LanguageLevel: 2
%%BoundingBox: 0 0 487 487
%%EndComments
%%BeginProlog
save
50 dict begin
/q { gsave } bind def
/Q { grestore } bind def
/cm { 6 array astore concat } bind def
/w { setlinewidth } bind def
/J { setlinecap } bind def
/j { setlinejoin } bind def
/M { setmiterlimit } bind def
/d { setdash } bind def
/m { moveto } bind def
/l { lineto } bind def
/c { curveto } bind def
/h { closepath } bind def
/re { exch dup neg 3 1 roll 5 3 roll moveto 0 rlineto
      0 exch rlineto 0 rlineto closepath } bind def
/S { stroke } bind def
/f { fill } bind def
/f* { eofill } bind def
/n { newpath } bind def
/W { clip } bind def
/W* { eoclip } bind def
/BT { } bind def
/ET { } bind def
/pdfmark where { pop globaldict /?pdfmark /exec load put }
    { globaldict begin /?pdfmark /pop load def /pdfmark
    /cleartomark load def end } ifelse
/BDC { mark 3 1 roll /BDC pdfmark } bind def
/EMC { mark /EMC pdfmark } bind def
/cairo_store_point { /cairo_point_y exch def /cairo_point_x exch def } def
/Tj { show currentpoint cairo_store_point } bind def
/TJ {
  {
    dup
    type /stringtype eq
    { show } { -0.001 mul 0 cairo_font_matrix dtransform rmoveto } ifelse
  } forall
  currentpoint cairo_store_point
} bind def
/cairo_selectfont { cairo_font_matrix aload pop pop pop 0 0 6 array astore
    cairo_font exch selectfont cairo_point_x cairo_point_y moveto } bind def
/Tf { pop /cairo_font exch def /cairo_font_matrix where
      { pop cairo_selectfont } if } bind def
/Td { matrix translate cairo_font_matrix matrix concatmatrix dup
      /cairo_font_matrix exch def dup 4 get exch 5 get cairo_store_point
      /cairo_font where { pop cairo_selectfont } if } bind def
/Tm { 2 copy 8 2 roll 6 array astore /cairo_font_matrix exch def
      cairo_store_point /cairo_font where { pop cairo_selectfont } if } bind def
/g { setgray } bind def
/rg { setrgbcolor } bind def
/d1 { setcachedevice } bind def
%%EndProlog
%%BeginSetup
%%EndSetup
%%Page: 1 1
%%BeginPageSetup
%%PageBoundingBox: 0 0 487 487
%%EndPageSetup
q 0 0 487 487 rectclip q
0.643137 0.788235 1 rg
406.668 93.266 m 34.426 93.266 l 17.641 93.266 4.039 106.867 4.039 123.648
 c 4.039 404.734 l 4.039 421.516 17.641 435.121 34.426 435.121 c 406.668
 435.121 l 423.453 435.121 437.055 421.516 437.055 404.734 c 437.055 123.648
 l 437.055 106.867 423.449 93.266 406.668 93.266 c h
406.668 93.266 m f
0.878431 0.921569 0.988235 rg
437.055 120.613 m 437.055 161.633 l 4.039 161.633 l 4.039 120.613 l 4.039
 105.508 17.641 93.266 34.426 93.266 c 406.668 93.266 l 423.449 93.266 437.055
 105.508 437.055 120.613 c h
437.055 120.613 m f
352.324 4 m 88.766 4 l 82.879 4 78.105 8.773 78.105 14.66 c 78.105 19.934
 l 78.105 25.82 82.879 30.59 88.766 30.59 c 352.324 30.59 l 358.215 30.59
 362.984 25.82 362.984 19.934 c 362.984 14.66 l 362.984 8.773 358.215 4 
352.324 4 c h
352.324 4 m f
0.27451 0.443137 0.776471 rg
26.828 195.824 m 26.828 400.934 l 26.828 407.23 31.93 412.328 38.223 412.328
 c 402.871 412.328 l 409.164 412.328 414.266 407.23 414.266 400.934 c 414.266
 195.824 l 414.266 189.527 409.164 184.426 402.871 184.426 c 38.223 184.426
 l 31.93 184.426 26.828 189.527 26.828 195.824 c h
26.828 195.824 m f
0.643137 0.788235 1 rg
221.609 107.387 m 219.484 107.387 l 208.656 107.387 199.797 116.246 199.797
 127.074 c 199.797 129.203 l 199.797 140.027 208.656 148.887 219.484 148.887
 c 221.609 148.887 l 232.434 148.887 241.293 140.027 241.293 129.203 c 241.293
 127.074 l 241.293 116.246 232.438 107.387 221.609 107.387 c h
221.609 107.387 m f
0.215686 0.384314 0.8 rg
406.832 89.262 m 34.594 89.262 l 15.633 89.262 0.203 104.688 0.203 123.645
 c 0.203 404.73 l 0.203 423.688 15.633 439.113 34.594 439.113 c 406.832 
439.113 l 425.789 439.113 441.219 423.688 441.219 404.73 c 441.219 123.645
 l 441.219 104.688 425.789 89.262 406.832 89.262 c h
34.59 431.117 m 20.039 431.117 8.199 419.281 8.199 404.73 c 8.199 123.645
 l 8.199 109.098 20.039 97.258 34.59 97.258 c 406.832 97.258 l 421.383 97.258
 433.219 109.098 433.219 123.645 c 433.219 404.73 l 433.219 419.281 421.383
 431.117 406.832 431.117 c h
34.59 431.117 m f
403.035 180.422 m 38.387 180.422 l 29.902 180.422 22.996 187.328 22.996
 195.82 c 22.996 400.93 l 22.996 409.418 29.902 416.324 38.387 416.324 c
 403.035 416.324 l 411.523 416.324 418.426 409.418 418.426 400.93 c 418.426
 195.82 l 418.426 187.328 411.523 180.422 403.035 180.422 c h
38.387 408.328 m 34.312 408.328 30.992 405.008 30.992 400.93 c 30.992 195.82
 l 30.992 191.738 34.312 188.418 38.387 188.418 c 403.035 188.418 l 407.109
 188.418 410.43 191.738 410.43 195.82 c 410.43 400.93 l 410.43 405.008 407.109
 408.328 403.035 408.328 c h
38.387 408.328 m f
352.488 0 m 88.93 0 l 80.848 0 74.27 6.574 74.27 14.656 c 74.27 19.93 l
 74.27 28.012 80.848 34.586 88.93 34.586 c 352.488 34.586 l 360.57 34.586
 367.148 28.012 367.148 19.93 c 367.148 14.656 l 367.148 6.574 360.57 0 
352.488 0 c h
88.93 26.59 m 85.258 26.59 82.266 23.598 82.266 19.93 c 82.266 14.656 l
 82.266 10.988 85.258 7.996 88.93 7.996 c 352.488 7.996 l 356.164 7.996 
359.148 10.988 359.148 14.656 c 359.148 19.93 l 359.148 23.598 356.164 26.59
 352.488 26.59 c h
88.93 26.59 m f
0.643137 0.788235 1 rg
131.41 93.262 m 116.09 30.59 l 325 30.59 l 309.684 93.262 l h
131.41 93.262 m f
0.215686 0.384314 0.8 rg
325.164 26.59 m 116.254 26.59 l 115.027 26.59 113.867 27.152 113.109 28.121
 c 112.352 29.086 112.078 30.34 112.371 31.535 c 127.695 94.211 l 128.129
 96 129.734 97.258 131.574 97.258 c 309.848 97.258 l 311.691 97.258 313.293
 96 313.727 94.211 c 329.051 31.535 l 329.344 30.34 329.07 29.086 328.312
 28.121 c 327.555 27.152 326.395 26.59 325.164 26.59 c h
121.348 34.586 m 320.074 34.586 l 306.707 89.262 l 134.715 89.262 l h
121.348 34.586 m f
0.419608 0.866667 0.866667 rg
211.438 445.211 m 211.438 307.301 l 182.633 232.109 l 181.172 228.293 184.914
 224.543 188.734 226.004 c 267.691 256.254 l 400.395 256.254 l 421.266 256.254
 438.184 273.176 438.184 294.047 c 438.184 445.211 l 438.184 466.078 421.266
 482.996 400.395 482.996 c 249.227 482.996 l 228.359 483 211.438 466.078
 211.438 445.211 c h
211.438 445.211 m f
0.215686 0.384314 0.8 rg
187 221.68 m 184.746 221.68 182.559 222.57 180.875 224.25 c 178.41 226.719
 177.648 230.281 178.898 233.539 c 207.441 308.043 l 207.441 445.211 l 207.441
 468.25 226.188 487 249.23 487 c 400.395 487 l 423.438 487 442.18 468.254
 442.18 445.211 c 442.18 294.047 l 442.18 271 423.438 252.254 400.395 252.254
 c 268.43 252.254 l 190.164 222.273 l 189.125 221.879 188.055 221.68 187
 221.68 c h
249.23 479.004 m 230.594 479.004 215.438 463.848 215.438 445.211 c 215.438
 307.305 l 215.438 306.816 215.348 306.336 215.172 305.879 c 186.363 230.68
 l 186.32 230.57 186.195 230.238 186.527 229.906 c 186.859 229.574 187.191
 229.699 187.301 229.738 c 266.262 259.988 l 266.719 260.164 267.203 260.254
 267.691 260.254 c 400.395 260.254 l 419.023 260.254 434.184 275.41 434.184
 294.043 c 434.184 445.211 l 434.184 463.848 419.023 479.004 400.395 479.004
 c h
211.434 307.305 m 211.453 307.305 l h
211.434 307.305 m f
0.976471 0.654902 0.654902 rg
286.516 334.797 m 246.055 334.797 l 241.648 334.797 238.078 338.367 238.078
 342.777 c 238.078 405.633 l 238.078 410.035 241.648 413.605 246.055 413.605
 c 286.516 413.605 l h
286.516 334.797 m f
0.878431 0.921569 0.988235 rg
286.516 413.605 m 286.516 334.797 l 364.582 306.484 l 367.219 305.527 370.02
 307.43 370.02 310.176 c 370.02 438.23 l 370.02 440.977 367.219 442.883 
364.582 441.926 c h
286.516 413.605 m f
1 0.917647 0.572549 rg
413.254 392.816 m 411.559 394.711 409.047 395.797 406.359 395.797 c 403.457
 395.797 400.801 394.57 399.07 392.438 c 396.617 389.418 396.742 385.227
 399.363 382.25 c 402.461 378.742 404.109 374.508 404.129 370.016 c 404.152
 365.516 402.539 361.273 399.48 357.73 c 396.879 354.73 396.801 350.543 
399.281 347.539 c 401.008 345.449 403.645 344.25 406.508 344.25 c 409.23
 344.25 411.77 345.359 413.465 347.293 c 419.129 353.75 422.23 361.852 422.188
 370.098 c 422.148 378.344 418.977 386.414 413.254 392.816 c h
413.254 392.816 m f
431.832 417.387 m 430.152 418.832 427.957 419.629 425.652 419.629 c 422.762
 419.629 420.113 418.41 418.387 416.285 c 415.66 412.922 416.148 408.191
 419.52 405.277 c 430.25 396.008 436.191 383.535 436.254 370.168 c 436.316
 356.793 430.492 344.266 419.852 334.898 c 416.504 331.957 416.062 327.219
 418.824 323.879 c 420.539 321.797 423.168 320.602 426.023 320.602 c 428.363
 320.602 430.582 321.422 432.277 322.906 c 446.57 335.453 454.398 352.27
 454.312 370.254 c 454.23 388.23 446.246 404.969 431.832 417.387 c h
431.832 417.387 m f
450.613 441.227 m 448.992 442.512 446.914 443.219 444.766 443.219 c 441.914
 443.219 439.191 441.965 437.488 439.859 c 436.141 438.195 435.523 436.148
 435.75 434.086 c 435.984 431.988 437.07 430.078 438.809 428.707 c 457.496
 413.953 468.273 392.668 468.379 370.316 c 468.484 347.953 457.906 326.57
 439.355 311.648 c 437.633 310.262 436.566 308.34 436.352 306.242 c 436.145
 304.18 436.777 302.133 438.145 300.473 c 439.867 298.387 442.496 297.195
 445.355 297.195 c 447.539 297.195 449.645 297.918 451.273 299.234 c 473.746
 317.328 486.562 343.266 486.438 370.402 c 486.312 397.531 473.254 423.348
 450.613 441.227 c h
450.613 441.227 m f
0.976471 0.811765 0.811765 rg
370.02 398.848 m 370.02 341.559 l 380.598 342.512 388.887 351.383 388.887
 362.207 c 388.887 378.199 l 388.887 389.023 380.598 397.902 370.02 398.848
 c h
370.02 398.848 m f
Q Q
showpage
%%Trailer
end restore
%%EOF
