%!PS-Adobe-3.0 EPSF-3.0
%%Creator: cairo 1.14.8 (http://cairographics.org)
%%CreationDate: Wed Mar 20 09:06:38 2019
%%Pages: 1
%%DocumentData: Clean7Bit
%%LanguageLevel: 2
%%BoundingBox: 0 16 478 461
%%EndComments
%%BeginProlog
save
50 dict begin
/q { gsave } bind def
/Q { grestore } bind def
/cm { 6 array astore concat } bind def
/w { setlinewidth } bind def
/J { setlinecap } bind def
/j { setlinejoin } bind def
/M { setmiterlimit } bind def
/d { setdash } bind def
/m { moveto } bind def
/l { lineto } bind def
/c { curveto } bind def
/h { closepath } bind def
/re { exch dup neg 3 1 roll 5 3 roll moveto 0 rlineto
      0 exch rlineto 0 rlineto closepath } bind def
/S { stroke } bind def
/f { fill } bind def
/f* { eofill } bind def
/n { newpath } bind def
/W { clip } bind def
/W* { eoclip } bind def
/BT { } bind def
/ET { } bind def
/pdfmark where { pop globaldict /?pdfmark /exec load put }
    { globaldict begin /?pdfmark /pop load def /pdfmark
    /cleartomark load def end } ifelse
/BDC { mark 3 1 roll /BDC pdfmark } bind def
/EMC { mark /EMC pdfmark } bind def
/cairo_store_point { /cairo_point_y exch def /cairo_point_x exch def } def
/Tj { show currentpoint cairo_store_point } bind def
/TJ {
  {
    dup
    type /stringtype eq
    { show } { -0.001 mul 0 cairo_font_matrix dtransform rmoveto } ifelse
  } forall
  currentpoint cairo_store_point
} bind def
/cairo_selectfont { cairo_font_matrix aload pop pop pop 0 0 6 array astore
    cairo_font exch selectfont cairo_point_x cairo_point_y moveto } bind def
/Tf { pop /cairo_font exch def /cairo_font_matrix where
      { pop cairo_selectfont } if } bind def
/Td { matrix translate cairo_font_matrix matrix concatmatrix dup
      /cairo_font_matrix exch def dup 4 get exch 5 get cairo_store_point
      /cairo_font where { pop cairo_selectfont } if } bind def
/Tm { 2 copy 8 2 roll 6 array astore /cairo_font_matrix exch def
      cairo_store_point /cairo_font where { pop cairo_selectfont } if } bind def
/g { setgray } bind def
/rg { setrgbcolor } bind def
/d1 { setcachedevice } bind def
%%EndProlog
%%BeginSetup
%%EndSetup
%%Page: 1 1
%%BeginPageSetup
%%PageBoundingBox: 0 16 478 461
%%EndPageSetup
q 0 16 478 445 rectclip q
0.419608 0.866667 0.866667 rg
365.117 456.355 m 90.906 456.355 l 63.805 456.355 41.828 434.383 41.828
 407.277 c 41.828 228.18 l 4.414 130.516 l 2.516 125.562 7.383 120.695 12.34
 122.594 c 114.883 161.879 l 365.113 161.879 l 392.219 161.879 414.191 183.852
 414.191 210.957 c 414.191 407.273 l 414.195 434.379 392.223 456.355 365.117
 456.355 c h
365.117 456.355 m f
0.878431 0.921569 0.988235 rg
159.105 308.363 m 159.105 289.91 144.145 274.949 125.691 274.949 c 107.234
 274.949 92.277 289.91 92.277 308.363 c 92.277 326.816 107.234 341.781 125.691
 341.781 c 144.145 341.781 159.105 326.816 159.105 308.363 c h
159.105 308.363 m f
262.957 308.363 m 262.957 289.91 247.996 274.949 229.543 274.949 c 211.09
 274.949 196.129 289.91 196.129 308.363 c 196.129 326.816 211.09 341.781
 229.543 341.781 c 247.996 341.781 262.957 326.816 262.957 308.363 c h
262.957 308.363 m f
366.809 308.363 m 366.809 289.91 351.852 274.949 333.398 274.949 c 314.941
 274.949 299.984 289.91 299.984 308.363 c 299.984 326.816 314.941 341.781
 333.398 341.781 c 351.852 341.781 366.809 326.816 366.809 308.363 c h
366.809 308.363 m f
0.215686 0.384314 0.8 rg
10.094 118.176 m 7.477 118.176 4.938 119.203 2.984 121.16 c 0.117 124.027
 -0.762 128.16 0.688 131.945 c 37.836 228.918 l 37.836 407.273 l 37.836 
436.543 61.645 460.352 90.906 460.352 c 365.117 460.352 l 394.379 460.352
 418.191 436.543 418.191 407.273 c 418.191 210.957 l 418.191 181.691 394.379
 157.879 365.117 157.879 c 115.625 157.879 l 13.77 118.859 l 12.562 118.402
 11.32 118.176 10.094 118.176 c h
90.906 452.363 m 66.051 452.363 45.824 432.137 45.824 407.273 c 45.824 
228.176 l 45.824 227.688 45.73 227.203 45.562 226.746 c 8.148 129.09 l 7.695
 127.918 8.336 127.102 8.633 126.809 c 8.926 126.512 9.734 125.871 10.91
 126.324 c 113.457 165.609 l 113.914 165.777 114.402 165.867 114.883 165.867
 c 365.117 165.867 l 389.977 165.867 410.203 186.094 410.203 210.957 c 410.203
 407.273 l 410.203 432.137 389.977 452.363 365.117 452.363 c h
90.906 452.363 m f
0.976471 0.654902 0.654902 rg
474.008 135.797 m 474.008 72.371 422.59 20.961 359.168 20.961 c 295.746
 20.961 244.332 72.371 244.332 135.797 c 244.332 199.219 295.746 250.637
 359.168 250.637 c 422.59 250.637 474.008 199.219 474.008 135.797 c h
474.008 135.797 m f
1 0.917647 0.572549 rg
419.074 195.707 m 385.879 228.902 332.148 228.988 299.059 195.902 c 265.973
 162.816 266.062 109.082 299.258 75.887 c 332.453 42.695 386.18 42.605 419.27
 75.691 c 452.359 108.777 452.27 162.512 419.074 195.707 c h
419.074 195.707 m f
0.215686 0.384314 0.8 rg
359.168 16.965 m 293.645 16.965 240.336 70.27 240.336 135.797 c 240.336
 201.324 293.645 254.629 359.168 254.629 c 424.695 254.629 478 201.324 478
 135.797 c 478 70.27 424.695 16.965 359.168 16.965 c h
359.168 246.641 m 298.047 246.641 248.324 196.914 248.324 135.797 c 248.324
 74.676 298.047 24.953 359.168 24.953 c 420.285 24.953 470.012 74.676 470.012
 135.797 c 470.012 196.914 420.285 246.641 359.168 246.641 c h
359.168 246.641 m f
0.976471 0.654902 0.654902 rg
378.621 134.113 m 404.703 160.195 l 407.086 162.578 408.742 165.668 409.039
 169.027 c 409.41 173.168 407.965 177.121 405.07 180.012 c 402.176 182.91
 398.215 184.355 394.078 183.988 c 390.723 183.691 387.633 182.031 385.25
 179.648 c 359.168 153.566 l 333.09 179.648 l 330.707 182.031 327.617 183.691
 324.262 183.988 c 320.121 184.355 316.164 182.91 313.27 180.012 c 310.379
 177.117 308.93 173.168 309.297 169.027 c 309.594 165.672 311.258 162.578
 313.641 160.195 c 339.719 134.113 l 313.641 108.035 l 311.262 105.652 309.598
 102.562 309.297 99.215 c 308.926 95.07 310.375 91.109 313.27 88.215 c 316.164
 85.32 320.121 83.875 324.262 84.242 c 327.617 84.539 330.707 86.199 333.09
 88.578 c 359.168 114.664 l 385.25 88.578 l 387.633 86.199 390.723 84.539
 394.078 84.242 c 398.219 83.875 402.176 85.32 405.07 88.215 c 407.965 91.109
 409.41 95.07 409.039 99.215 c 408.742 102.562 407.082 105.652 404.699 108.035
 c h
378.621 134.113 m f
Q Q
showpage
%%Trailer
end restore
%%EOF
