%!PS-Adobe-3.0 EPSF-3.0
%%Creator: cairo 1.14.8 (http://cairographics.org)
%%CreationDate: Wed Mar 20 09:06:38 2019
%%Pages: 1
%%DocumentData: Clean7Bit
%%LanguageLevel: 2
%%BoundingBox: 0 0 488 488
%%EndComments
%%BeginProlog
save
50 dict begin
/q { gsave } bind def
/Q { grestore } bind def
/cm { 6 array astore concat } bind def
/w { setlinewidth } bind def
/J { setlinecap } bind def
/j { setlinejoin } bind def
/M { setmiterlimit } bind def
/d { setdash } bind def
/m { moveto } bind def
/l { lineto } bind def
/c { curveto } bind def
/h { closepath } bind def
/re { exch dup neg 3 1 roll 5 3 roll moveto 0 rlineto
      0 exch rlineto 0 rlineto closepath } bind def
/S { stroke } bind def
/f { fill } bind def
/f* { eofill } bind def
/n { newpath } bind def
/W { clip } bind def
/W* { eoclip } bind def
/BT { } bind def
/ET { } bind def
/pdfmark where { pop globaldict /?pdfmark /exec load put }
    { globaldict begin /?pdfmark /pop load def /pdfmark
    /cleartomark load def end } ifelse
/BDC { mark 3 1 roll /BDC pdfmark } bind def
/EMC { mark /EMC pdfmark } bind def
/cairo_store_point { /cairo_point_y exch def /cairo_point_x exch def } def
/Tj { show currentpoint cairo_store_point } bind def
/TJ {
  {
    dup
    type /stringtype eq
    { show } { -0.001 mul 0 cairo_font_matrix dtransform rmoveto } ifelse
  } forall
  currentpoint cairo_store_point
} bind def
/cairo_selectfont { cairo_font_matrix aload pop pop pop 0 0 6 array astore
    cairo_font exch selectfont cairo_point_x cairo_point_y moveto } bind def
/Tf { pop /cairo_font exch def /cairo_font_matrix where
      { pop cairo_selectfont } if } bind def
/Td { matrix translate cairo_font_matrix matrix concatmatrix dup
      /cairo_font_matrix exch def dup 4 get exch 5 get cairo_store_point
      /cairo_font where { pop cairo_selectfont } if } bind def
/Tm { 2 copy 8 2 roll 6 array astore /cairo_font_matrix exch def
      cairo_store_point /cairo_font where { pop cairo_selectfont } if } bind def
/g { setgray } bind def
/rg { setrgbcolor } bind def
/d1 { setcachedevice } bind def
%%EndProlog
%%BeginSetup
%%EndSetup
%%Page: 1 1
%%BeginPageSetup
%%PageBoundingBox: 0 0 488 488
%%EndPageSetup
q 0 0 488 488 rectclip q
1 0.917647 0.572549 rg
243.078 241.457 m 242.578 243.574 242.117 245.684 242.062 245.93 c 242.062
 245.93 242.062 245.93 242.062 245.934 c 241.168 252.379 241.754 257.52 
241.754 257.52 c 241.754 257.52 241.758 257.516 241.758 257.516 c 242.355
 265.023 245.105 271.688 249.781 276.32 c 249.777 276.332 l 250.66 277.57
 249.141 278.699 249.141 278.699 c 246.68 280.023 245.457 280.969 245.457
 280.969 c 239.578 285.051 234.293 291 230.5 298.402 c 225.883 307.402 224.301
 316.914 225.418 325.219 c 225.406 325.219 l 224.98 327.773 223.215 327.363
 223.215 327.363 c 223.215 327.371 l 211.922 325.262 198.961 331.566 190.121
 343.465 c 190.121 343.457 l 188.25 344.605 187.875 342.598 187.875 342.598
 c 187.867 342.605 l 186.121 334.641 181.734 328.074 174.977 324.633 c 169.379
 321.781 162.996 321.496 156.715 323.328 c 156.715 323.32 l 156.715 323.32
 155.41 323.598 152.844 324.723 c 152.844 324.719 l 152.844 324.719 151.062
 324.918 151.297 322.805 c 151.281 322.809 l 155.133 310.844 153.984 298.832
 148.492 290.617 c 147.848 289.723 147.141 288.875 146.387 288.082 c 146.391
 288.078 l 146.391 288.078 145.324 286.645 146.965 284.918 c 147.117 284.836
 147.273 284.75 147.43 284.66 c 147.453 284.66 l 147.535 284.613 147.617
 284.559 147.699 284.508 c 148.309 284.16 148.91 283.789 149.414 283.441
 c 149.41 283.441 l 150.645 282.645 151.402 282.051 151.402 282.051 c 151.402
 282.047 l 152.348 281.336 152.742 279.934 152.238 279.039 c 144.969 266.078
 l 153.531 249.543 l 168.539 247.805 l 169.574 247.688 170.512 246.543 170.555
 245.336 c 170.609 243.852 170.57 242.395 170.469 240.965 c 170.469 240.965
 170.48 240.961 170.48 240.961 c 170.48 240.961 170.617 236.312 174.242 
236.352 c 183.844 237.16 194.328 232.227 202.332 223.207 c 202.34 223.215
 l 205.66 219.836 207.477 224.184 207.477 224.184 c 209.641 230.52 213.66
 235.668 219.379 238.582 c 225.867 241.887 233.418 241.754 240.637 238.867
 c 242.238 238.223 243.523 239.566 243.078 241.457 c h
243.078 241.457 m f
0.419608 0.866667 0.866667 rg
62.117 344.609 m 62.094 356.281 69.109 367.602 80.84 372.828 c 100.031 
381.367 l 112.668 387 127.297 381.715 132.699 369.578 c 182.543 257.633 
l 189.82 237.371 l 114.672 220.023 l 112.668 219.559 110.637 220.691 109.98
 222.645 c 102.922 243.668 l 78.016 290.801 l 77.656 291.473 77.34 292.16
 76.992 292.84 c 76.969 292.828 l 61.207 322.703 62.117 344.609 62.117 344.609
 c h
62.117 344.609 m f
0.27451 0.443137 0.776471 rg
181.82 237.375 m 188.594 240.781 l 189.445 216.102 l 189.691 208.918 188.395
 201.766 185.645 195.125 c 183.125 189.023 181.82 182.48 181.82 175.875 
c 181.82 39.359 l 126.555 39.359 l 118.215 219.211 l 117.965 222.633 l h
181.82 237.375 m f
0.643137 0.788235 1 rg
178.371 39.359 m 184.98 17.727 l 185.211 16.984 185.324 16.211 185.324 
15.43 c 185.324 11.684 l 185.324 7.438 181.969 4 177.828 4 c 112.387 4 l
 107.613 4 103.293 6.914 101.414 11.418 c 101.414 15.172 l 101.414 19.203
 103.496 22.93 106.891 24.969 c 130.852 39.359 l h
178.371 39.359 m f
0.976471 0.811765 0.811765 rg
36.945 470.496 m 17.547 461.859 8.82 439.129 17.461 419.73 c 26.637 399.113
 l 24.93 398.352 l 21.914 397.008 20.559 393.48 21.902 390.465 c 23.242 
387.453 26.77 386.102 29.785 387.438 c 32.449 388.625 l 41.262 376.969 56.027
 371.27 70.375 374.055 c 72.527 369.227 l 75.02 371.527 77.902 373.48 81.172
 374.941 c 98.883 382.824 l 100.148 383.387 101.438 383.809 102.73 384.156
 c 97.781 395.273 l 102.438 405.07 102.957 416.762 98.203 427.449 c 87.707
 451.008 l 79.074 470.41 56.344 479.133 36.945 470.496 c h
36.945 470.496 m f
81.293 416.16 m 81.293 408.641 75.199 402.547 67.684 402.547 c 60.164 402.547
 54.07 408.641 54.07 416.16 c 54.07 423.68 60.164 429.773 67.684 429.773
 c 75.199 429.773 81.293 423.68 81.293 416.16 c h
81.293 416.16 m f
0.215686 0.384314 0.8 rg
72.527 365.23 m 72.258 365.23 71.984 365.262 71.719 365.316 c 70.457 365.574
 69.398 366.426 68.875 367.605 c 67.965 369.645 l 54.277 368.074 40.441 
373.387 31.293 383.738 c 26.297 381.594 20.469 383.863 18.246 388.84 c 16.312
 393.199 17.762 398.215 21.453 400.934 c 13.809 418.105 l 9.195 428.465 
8.895 439.996 12.957 450.582 c 17.02 461.168 24.965 469.539 35.32 474.148
 c 56.703 483.668 81.844 474.016 91.363 452.637 c 101.852 429.07 l 106.648
 418.305 106.738 406.09 102.156 395.27 c 106.383 385.785 l 106.859 384.715
 106.84 383.492 106.34 382.434 c 105.836 381.379 104.891 380.598 103.762
 380.293 c 102.516 379.961 101.453 379.598 100.508 379.176 c 82.801 371.289
 l 80.055 370.066 77.508 368.383 75.234 366.293 c 74.488 365.605 73.523 
365.23 72.527 365.23 c h
70.379 378.055 m 71.934 378.055 73.383 377.145 74.027 375.684 c 74.086 
375.555 l 75.816 376.73 77.645 377.746 79.547 378.594 c 97.254 386.477 l
 97.27 386.484 97.289 386.496 97.305 386.504 c 94.125 393.648 l 93.652 394.711
 93.668 395.934 94.168 396.992 c 98.504 406.109 98.641 416.613 94.547 425.82
 c 84.055 449.383 l 76.324 466.734 55.922 474.574 38.566 466.844 c 30.16
 463.102 23.711 456.309 20.414 447.719 c 17.121 439.125 17.363 429.762 21.105
 421.355 c 30.285 400.738 l 30.719 399.77 30.746 398.668 30.367 397.68 c
 29.984 396.688 29.227 395.887 28.258 395.457 c 26.551 394.699 l 25.555 
394.254 25.105 393.09 25.547 392.094 c 25.992 391.102 27.156 390.648 28.156
 391.094 c 30.824 392.281 l 32.523 393.039 34.516 392.523 35.637 391.039
 c 43.508 380.625 56.84 375.504 69.609 377.984 c 69.871 378.035 70.125 378.055
 70.379 378.055 c h
70.379 378.055 m f
0.27451 0.443137 0.776471 rg
83.262 477.949 m 83.262 477.945 l 72.734 484.727 58.699 486.121 45.922 
480.438 c 43.203 479.227 41.926 476.16 43.07 473.586 c 43.508 472.609 l 
42.996 473.762 42.168 474.672 41.168 475.297 c 41.168 475.301 l 41.168 475.301
 40.844 475.57 40.137 475.812 c 39.176 476.188 38.129 476.328 37.074 476.199
 c 35.539 476.141 33.527 475.762 30.977 474.75 c 30.977 474.754 l 30.973
 474.75 30.969 474.75 30.965 474.746 c 28.312 473.695 25.082 471.961 21.176
 469.188 c 18.207 467.457 15.582 465.332 13.336 462.918 c 13.328 462.91 
13.316 462.902 13.309 462.898 c 13.312 462.895 l 12.039 461.52 10.895 460.047
 9.875 458.504 c 9.422 457.848 9.219 457.473 9.219 457.469 c 3.676 448.387
 2.504 436.922 7.105 426.586 c 12.086 415.398 l 12.316 414.883 12.934 414.652
 13.461 414.887 c 59.984 435.602 l 70.781 411.352 l 74.855 402.199 l 85.562
 393.254 l 85.867 393 86.293 392.941 86.664 393.105 c 90.48 394.801 l 91.848
 395.41 l 101.234 399.59 l 102.703 400.246 104.059 401.102 105.266 402.113
 c 105.301 402.152 106.504 403.434 106.676 404.66 c 107.082 407.559 108.039
 414.383 108.898 420.609 c 110.176 429.848 109.051 439.258 105.477 447.828
 c 95.684 471.312 83.262 477.949 83.262 477.949 c h
83.262 477.949 m f
0.215686 0.384314 0.8 rg
86.238 389.016 m 85.078 389.016 83.922 389.414 83.004 390.18 c 72.293 399.137
 l 71.824 399.527 71.453 400.023 71.203 400.582 c 57.961 430.32 l 15.086
 411.234 l 13.855 410.684 12.477 410.648 11.223 411.129 c 9.973 411.609 
8.98 412.551 8.434 413.777 c 3.453 424.957 l -1.504 436.086 -0.625 449.02
 5.801 459.547 c 5.801 459.547 5.797 459.543 5.797 459.543 c 5.793 459.543
 6.062 460.016 6.578 460.77 c 7.66 462.402 8.902 463.996 10.246 465.461 
c 10.332 465.562 10.426 465.664 10.523 465.758 c 13.004 468.41 15.855 470.691
 19 472.547 c 22.719 475.176 26.219 477.156 29.41 478.426 c 29.445 478.441
 29.477 478.457 29.508 478.469 c 32.121 479.5 34.559 480.078 36.762 480.184
 c 37.789 480.293 38.828 480.242 39.836 480.047 c 40.832 481.824 42.383 
483.238 44.297 484.09 c 57.867 490.129 73.16 489.125 85.258 481.414 c 86.664
 480.625 99.312 472.996 109.168 449.371 c 112.973 440.246 114.25 430.109
 112.859 420.062 c 112.008 413.898 111.062 407.145 110.648 404.195 c 110.305
 401.773 108.664 399.887 108.172 399.367 c 108.07 399.258 107.957 399.156
 107.844 399.055 c 106.336 397.789 104.656 396.738 102.859 395.938 c 88.285
 389.449 l 87.637 389.16 86.938 389.016 86.238 389.016 c h
85.035 396.754 m 85.031 396.754 l h
78.133 404.676 m 86.711 397.5 l 99.609 403.242 l 100.633 403.699 101.59
 404.285 102.469 404.992 c 102.57 405.121 102.68 405.285 102.742 405.398
 c 103.18 408.5 104.105 415.109 104.941 421.16 c 106.137 429.789 105.047
 438.484 101.789 446.293 c 93.184 466.922 82.465 473.77 81.453 474.379 c
 81.332 474.441 81.215 474.508 81.098 474.582 c 71.246 480.926 58.707 481.75
 47.547 476.785 c 47.035 476.559 46.82 476.188 46.738 475.988 c 46.66 475.797
 46.59 475.508 46.723 475.215 c 47.16 474.238 l 48.059 472.219 47.152 469.859
 45.137 468.961 c 43.125 468.059 40.758 468.965 39.855 470.98 c 39.68 471.367
 39.41 471.68 39.047 471.906 c 39.004 471.938 38.953 471.969 38.906 472 
c 38.836 472.027 38.723 472.07 38.68 472.086 c 38.328 472.227 37.945 472.277
 37.566 472.227 c 37.453 472.215 37.34 472.203 37.227 472.199 c 36.312 472.164
 34.746 471.938 32.48 471.043 c 32.465 471.039 32.449 471.031 32.434 471.023
 c 29.781 469.977 26.77 468.258 23.492 465.926 c 23.395 465.855 23.293 465.793
 23.191 465.73 c 20.613 464.227 18.281 462.363 16.266 460.191 c 16.266 460.188
 l 16.258 460.184 16.254 460.176 16.246 460.168 c 15.148 458.984 14.125 
457.68 13.207 456.297 c 12.887 455.832 12.742 455.582 12.715 455.531 c 12.664
 455.441 12.598 455.336 12.543 455.25 c 7.57 447.098 6.871 436.938 10.758
 428.207 c 14.531 419.734 l 58.359 439.25 l 60.379 440.152 62.734 439.242
 63.637 437.223 c h
11.836 418.539 m 11.832 418.539 11.832 418.535 11.828 418.535 c h
38.125 472.707 m 38.398 472.383 38.664 472.16 38.832 472.051 c 38.57 472.242
 38.332 472.461 38.125 472.707 c h
37.172 475.289 m 37.176 474.688 37.305 474.164 37.496 473.723 c 37.285 
474.207 37.176 474.738 37.172 475.289 c h
37.172 475.297 m 37.172 475.289 l 37.172 475.293 37.172 475.293 37.172 
475.297 c h
37.172 475.297 m f
0.976471 0.811765 0.811765 rg
81.293 416.16 m 81.293 408.641 75.199 402.547 67.684 402.547 c 60.164 402.547
 54.07 408.641 54.07 416.16 c 54.07 423.68 60.164 429.773 67.684 429.773
 c 75.199 429.773 81.293 423.68 81.293 416.16 c h
81.293 416.16 m f
0.215686 0.384314 0.8 rg
37.785 402.27 m 36.672 402.27 35.652 402.883 35.133 403.871 c 34.586 404.902
 34.688 406.152 35.391 407.082 c 44.41 418.996 l 45.41 420.316 47.289 420.574
 48.609 419.578 c 49.93 418.578 50.191 416.695 49.191 415.371 c 44.047 408.574
 l 52.488 408.984 l 54.109 409.07 55.543 407.789 55.625 406.137 c 55.703
 404.484 54.43 403.074 52.777 402.996 c 37.93 402.273 l 37.879 402.273 37.832
 402.27 37.785 402.27 c h
37.785 402.27 m f
0.27451 0.443137 0.776471 rg
464.73 123.906 m 281.168 123.906 l 270.68 123.906 262.176 132.406 262.176
 142.898 c 262.176 464.863 l 262.176 475.352 270.68 483.855 281.168 483.855
 c 464.73 483.855 l 475.219 483.855 483.723 475.352 483.723 464.863 c 483.723
 142.898 l 483.723 132.406 475.219 123.906 464.73 123.906 c h
464.73 123.906 m f
1 0.917647 0.572549 rg
450.043 264.762 m 450.668 267.246 451.328 269.695 451.406 269.984 c 453.961
 277.203 457.355 282.262 457.355 282.262 c 457.355 282.258 l 462.051 289.781
 468.523 295.254 475.922 297.562 c 475.922 297.574 l 477.512 298.395 476.543
 300.395 476.543 300.395 c 474.676 303.113 473.914 304.758 473.914 304.758
 c 469.977 312.207 467.68 321.285 467.719 331.074 c 467.766 342.977 471.258
 353.773 476.922 361.848 c 476.914 361.852 l 477.848 364.754 475.789 365.281
 475.789 365.281 c 475.789 365.289 l 462.848 369.199 452.715 382.797 449.914
 400.016 c 449.91 400.008 l 448.582 402.219 447.102 400.332 447.102 400.332
 c 447.098 400.34 l 440.965 392.965 432.824 388.477 423.895 388.535 c 416.504
 388.582 409.68 391.746 404.102 397.055 c 404.098 397.051 l 404.098 397.051
 402.883 398.043 400.816 400.613 c 400.816 400.609 l 400.816 400.609 399.062
 401.781 398.164 399.445 c 398.148 399.457 l 395.695 384.875 387.996 372.945
 377.812 367.328 c 376.648 366.738 375.453 366.242 374.234 365.816 c 374.238
 365.809 l 374.238 365.809 372.352 364.891 373.129 362.199 c 373.242 362.027
 373.359 361.855 373.473 361.68 c 373.48 361.676 373.488 361.672 373.496
 361.664 c 373.555 361.57 373.613 361.469 373.672 361.371 c 374.121 360.676
 374.551 359.965 374.887 359.332 c 374.883 359.332 l 375.742 357.824 376.211
 356.793 376.211 356.793 c 376.207 356.793 l 376.812 355.535 376.465 353.859
 375.457 353.195 c 360.844 343.586 l 360.844 321.676 l 375.586 311.734 l
 376.602 311.051 376.961 309.348 376.355 308.066 c 375.605 306.488 374.781
 304.984 373.898 303.547 c 373.898 303.547 373.906 303.539 373.906 303.539
 c 373.906 303.539 371.535 298.609 375.348 296.688 c 385.816 292.332 394.102
 281.5 397.586 267.75 c 397.598 267.75 l 399.234 262.418 403.488 265.984
 403.488 265.984 c 409.176 271.434 416.164 274.637 423.715 274.586 c 432.285
 274.531 440.102 270.305 446.09 263.375 c 447.418 261.844 449.488 262.543
 450.043 264.762 c h
450.043 264.762 m f
0.976471 0.811765 0.811765 rg
425.488 353.887 m 425.488 362.855 424.773 371.812 423.348 380.668 c 406.777
 483.855 l 281.168 483.855 l 270.676 483.855 262.176 475.352 262.176 464.863
 c 262.176 331.48 l 206.609 303.695 l 203.812 302.297 203.812 298.301 206.609
 296.898 c 262.176 269.117 l 262.176 142.898 l 262.176 132.406 270.68 123.906
 281.168 123.906 c 417.891 123.906 l 425.488 271.598 l 425.328 271.629 l
 425.422 273.926 425.488 276.219 425.488 278.516 c h
425.488 353.887 m f
0.878431 0.921569 0.988235 rg
389.406 250.301 m 320.41 250.301 l 318.312 250.301 316.617 252.004 316.617
 254.102 c 316.617 301.355 l 316.617 303.457 318.312 305.152 320.41 305.152
 c 389.406 305.152 l 394.648 305.152 398.902 300.902 398.902 295.66 c 398.902
 259.797 l 398.902 254.551 394.648 250.301 389.406 250.301 c h
389.406 250.301 m f
316.617 258.559 m 307.301 258.559 l 296.711 258.559 288.133 267.145 288.133
 277.727 c 288.133 288.316 296.711 296.898 307.301 296.898 c 316.617 296.898
 l h
316.617 258.559 m f
381.809 195.57 m 312.816 195.57 l 310.719 195.57 309.02 197.273 309.02 
199.371 c 309.02 246.629 l 309.02 248.723 310.719 250.426 312.816 250.426
 c 381.809 250.426 l 387.051 250.426 391.305 246.176 391.305 240.934 c 391.305
 205.066 l 391.305 199.82 387.051 195.57 381.809 195.57 c h
381.809 195.57 m f
309.02 203.828 m 299.703 203.828 l 289.117 203.828 280.535 212.414 280.535
 223 c 280.535 233.586 289.117 242.168 299.703 242.168 c 309.02 242.168 
l h
309.02 203.828 m f
378.016 140.719 m 309.02 140.719 l 306.922 140.719 305.219 142.422 305.219
 144.516 c 305.219 191.777 l 305.219 193.871 306.922 195.57 309.02 195.57
 c 378.016 195.57 l 383.258 195.57 387.508 191.32 387.508 186.074 c 387.508
 150.215 l 387.508 144.969 383.258 140.719 378.016 140.719 c h
378.016 140.719 m f
305.219 148.977 m 295.906 148.977 l 285.32 148.977 276.734 157.562 276.734
 168.145 c 276.734 178.734 285.32 187.312 295.906 187.312 c 305.219 187.312
 l h
305.219 148.977 m f
374.215 414.859 m 305.219 414.859 l 303.121 414.859 301.422 416.559 301.422
 418.656 c 301.422 465.914 l 301.422 468.012 303.121 469.715 305.219 469.715
 c 374.215 469.715 l 379.461 469.715 383.711 465.461 383.711 460.219 c 383.711
 424.352 l 383.711 419.109 379.461 414.859 374.215 414.859 c h
374.215 414.859 m f
301.422 423.113 m 292.105 423.113 l 281.523 423.113 272.938 431.699 272.938
 442.285 c 272.938 452.871 281.523 461.457 292.105 461.457 c 301.422 461.457
 l h
301.422 423.113 m f
381.809 360.004 m 312.816 360.004 l 310.719 360.004 309.02 361.707 309.02
 363.805 c 309.02 411.062 l 309.02 413.16 310.719 414.859 312.816 414.859
 c 381.809 414.859 l 387.051 414.859 391.305 410.605 391.305 405.363 c 391.305
 369.5 l 391.305 364.258 387.051 360.004 381.809 360.004 c h
381.809 360.004 m f
309.02 368.262 m 299.703 368.262 l 289.117 368.262 280.535 376.848 280.535
 387.43 c 280.535 398.02 289.117 406.602 299.703 406.602 c 309.02 406.602
 l h
309.02 368.262 m f
0.976471 0.654902 0.654902 rg
389.406 305.152 m 320.41 305.152 l 318.312 305.152 316.617 306.855 316.617
 308.953 c 316.617 356.207 l 316.617 358.305 318.312 360.004 320.41 360.004
 c 389.406 360.004 l 394.648 360.004 398.902 355.754 398.902 350.512 c 398.902
 314.648 l 398.902 309.406 394.648 305.152 389.406 305.152 c h
389.406 305.152 m f
316.617 313.41 m 307.301 313.41 l 296.711 313.41 288.133 321.996 288.133
 332.578 c 288.133 343.168 296.711 351.75 307.301 351.75 c 316.617 351.75
 l h
316.617 313.41 m f
1 0.917647 0.572549 rg
354.695 320.172 m 354.145 320.172 353.586 320.293 353.055 320.547 c 351.168
 321.457 350.367 323.723 351.277 325.613 c 363.566 351.273 l 364.477 353.16
 366.738 353.961 368.633 353.055 c 370.527 352.148 371.324 349.883 370.418
 347.988 c 358.125 322.332 l 357.473 320.969 356.113 320.172 354.695 320.172
 c h
354.695 320.172 m f
379.219 341.047 m 365.977 329.855 l 341.074 325.383 l 340.418 325.266 339.805
 324.977 339.293 324.551 c 319.473 307.793 l 318.844 307.262 318.438 306.57
 318.25 305.828 c 318.867 305.406 319.605 305.152 320.41 305.152 c 328.117
 305.152 l 343.418 318.09 l 368.32 322.562 l 368.977 322.68 369.594 322.969
 370.105 323.398 c 384.121 335.25 l 385.727 336.605 385.926 338.996 384.57
 340.602 c 383.219 342.203 380.816 342.402 379.219 341.047 c h
379.219 341.047 m f
0.215686 0.384314 0.8 rg
464.73 119.91 m 281.168 119.91 l 268.492 119.91 258.18 130.219 258.18 142.898
 c 258.18 266.648 l 204.824 293.324 l 202.164 294.656 200.516 297.324 200.516
 300.297 c 200.516 303.27 202.164 305.941 204.824 307.27 c 258.18 333.949
 l 258.18 464.863 l 258.18 477.543 268.492 487.852 281.168 487.852 c 464.73
 487.852 l 477.402 487.852 487.719 477.543 487.719 464.863 c 487.719 142.898
 l 487.719 130.219 477.402 119.91 464.73 119.91 c h
208.758 300.301 m 263.965 272.695 l 265.32 272.016 266.176 270.629 266.176
 269.117 c 266.176 142.898 l 266.176 134.629 272.898 127.906 281.168 127.906
 c 464.73 127.906 l 472.996 127.906 479.723 134.629 479.723 142.898 c 479.723
 464.863 l 479.723 473.133 472.996 479.855 464.73 479.855 c 281.168 479.855
 l 272.902 479.855 266.176 473.133 266.176 464.863 c 266.176 331.48 l 266.176
 329.965 265.32 328.578 263.965 327.902 c h
208.758 300.301 m f
113.75 215.922 m 110.379 215.922 107.309 218.047 106.191 221.371 c 99.234
 242.09 l 74.477 288.934 l 74.246 289.375 74.027 289.82 73.809 290.262 c
 73.625 290.641 l 73.559 290.742 73.496 290.848 73.438 290.961 c 57.719 
320.746 58.062 342.816 58.121 344.68 c 58.125 358.297 66.395 370.773 79.215
 376.477 c 98.406 385.023 l 105.461 388.164 113.285 388.477 120.434 385.898
 c 127.641 383.297 133.293 378.082 136.352 371.203 c 186.195 259.262 l 186.234
 259.172 186.27 259.078 186.305 258.984 c 193.578 238.723 l 193.965 237.648
 193.875 236.461 193.328 235.457 c 192.781 234.453 191.832 233.734 190.719
 233.477 c 115.57 216.125 l 114.961 215.988 114.352 215.922 113.75 215.922
 c h
80.293 295.102 m 80.391 294.961 80.48 294.809 80.562 294.648 c 80.988 293.781
 l 81.172 293.41 81.355 293.035 81.547 292.668 c 106.453 245.535 l 106.555
 245.344 106.641 245.145 106.707 244.941 c 113.77 223.918 l 184.535 240.254
 l 178.828 256.137 l 129.047 367.949 l 126.879 372.82 122.855 376.523 117.719
 378.375 c 112.52 380.254 106.816 380.02 101.652 377.715 c 82.461 369.172
 l 72.512 364.742 66.094 355.102 66.117 344.617 c 66.117 344.562 66.117 
344.504 66.113 344.449 c 66.105 344.121 65.559 323.238 80.293 295.102 c 
h
80.293 295.102 m f
181.82 35.359 m 126.555 35.359 l 124.418 35.359 122.656 37.039 122.559 
39.172 c 114.219 219.023 l 113.98 222.344 l 113.84 224.309 115.152 226.086
 117.066 226.527 c 180.453 241.164 l 186.797 244.352 l 188.012 244.965 189.461
 244.914 190.633 244.219 c 191.805 243.523 192.539 242.277 192.586 240.922
 c 193.438 216.238 l 193.707 208.434 192.324 200.812 189.34 193.594 c 187
 187.949 185.816 181.984 185.816 175.875 c 185.816 39.359 l 185.816 37.148
 184.031 35.359 181.82 35.359 c h
130.367 43.355 m 177.824 43.355 l 177.824 175.875 l 177.824 183.039 179.211
 190.031 181.953 196.652 c 184.5 202.809 185.672 209.305 185.445 215.965
 c 184.812 234.402 l 183.617 233.805 l 183.332 233.664 183.031 233.555 182.723
 233.48 c 122.203 219.512 l 122.203 219.496 l h
181.82 237.375 m 181.84 237.375 l h
181.82 237.375 m f
0.419608 0.866667 0.866667 rg
137.07 336.301 m 141.785 374.277 l 142.059 376.469 140.5 378.465 138.309
 378.738 c 106.84 382.641 l 94.16 384.215 82.605 375.211 81.031 362.531 
c 79.461 349.855 88.461 338.301 101.141 336.727 c 132.609 332.82 l 134.805
 332.551 136.801 334.105 137.07 336.301 c h
137.07 336.301 m f
0.215686 0.384314 0.8 rg
133.109 328.793 m 132.781 328.793 132.453 328.812 132.121 328.855 c 100.652
 332.758 l 93.461 333.652 87.047 337.293 82.59 343.008 c 78.137 348.727 
76.176 355.832 77.066 363.027 c 78.91 377.871 92.512 388.434 107.336 386.609
 c 138.801 382.703 l 140.922 382.441 142.812 381.367 144.121 379.684 c 145.438
 378 146.016 375.902 145.75 373.781 c 141.039 335.805 l 140.535 331.762 
137.078 328.793 133.109 328.793 c h
103.977 378.82 m 94.469 378.82 86.199 371.715 85 362.039 c 84.371 356.969
 85.758 351.957 88.895 347.922 c 92.035 343.891 96.559 341.324 101.629 340.695
 c 137.07 336.297 l 133.105 336.789 l 137.816 374.766 l 106.348 378.676 
l 105.551 378.773 104.762 378.82 103.977 378.82 c h
103.977 378.82 m f
0.976471 0.811765 0.811765 rg
203.902 356.895 m 197.477 364.805 l 195.473 367.266 192.574 368.836 189.422
 369.172 c 141.773 374.191 l 137.273 337.926 l 173.945 334.531 l 176.117
 334.328 177.73 332.422 177.562 330.25 c 174.863 294.691 l 170.598 279.762
 l 170.129 278.117 170.297 276.352 171.07 274.832 c 188.969 239.727 l 190.426
 239.727 l 193.395 239.727 196.055 241.547 197.129 244.316 c 200.516 253.074
 l 201.055 254.469 201.148 255.992 200.777 257.441 c 194.852 280.703 l 206.406
 347.285 l 207 350.699 206.086 354.203 203.902 356.895 c h
203.902 356.895 m f
0.215686 0.384314 0.8 rg
190.426 235.723 m 188.969 235.723 l 187.465 235.723 186.09 236.566 185.406
 237.91 c 167.512 273.016 l 166.27 275.445 166 278.23 166.75 280.859 c 170.906
 295.398 l 173.574 330.551 l 136.902 333.941 l 135.828 334.043 134.84 334.574
 134.16 335.418 c 133.48 336.262 133.172 337.344 133.309 338.418 c 137.805
 374.684 l 138.074 376.848 139.988 378.418 142.191 378.168 c 189.84 373.148
 l 194.074 372.703 197.891 370.633 200.574 367.324 c 207 359.418 l 209.918
 355.828 211.137 351.156 210.348 346.598 c 198.934 280.859 l 204.652 258.43
 l 205.23 256.164 205.09 253.812 204.242 251.625 c 200.855 242.871 l 199.199
 238.598 195.008 235.723 190.426 235.723 c h
141.75 341.523 m 174.312 338.512 l 178.629 338.117 181.875 334.27 181.547
 329.945 c 178.844 294.391 l 178.824 294.117 178.777 293.852 178.703 293.594
 c 174.438 278.664 l 174.242 277.988 174.312 277.27 174.633 276.648 c 191.348
 243.859 l 192.266 244.141 193.039 244.836 193.395 245.758 c 196.785 254.516
 l 197.027 255.137 197.066 255.801 196.902 256.445 c 190.973 279.711 l 190.836
 280.258 190.812 280.828 190.91 281.383 c 202.469 347.965 l 202.863 350.242
 202.254 352.574 200.793 354.371 c 200.797 354.371 l 194.371 362.281 l 193.023
 363.938 191.121 364.973 189 365.195 c 145.254 369.805 l h
141.75 341.523 m f
177.828 0 m 112.387 0 l 105.988 0 100.23 3.879 97.723 9.875 c 97.52 10.363
 97.414 10.887 97.414 11.418 c 97.414 15.172 l 97.414 20.578 100.258 25.648
 104.832 28.391 c 128.797 42.781 l 129.414 43.156 130.125 43.352 130.852
 43.352 c 178.371 43.352 l 180.129 43.352 181.68 42.203 182.195 40.523 c
 188.809 18.898 l 189.152 17.77 189.324 16.605 189.324 15.43 c 189.324 11.684
 l 189.324 5.242 184.168 0 177.828 0 c h
105.41 12.297 m 106.789 9.664 109.453 7.996 112.387 7.996 c 177.824 7.996
 l 179.754 7.996 181.328 9.652 181.328 11.688 c 181.328 15.43 l 181.328 
15.816 181.273 16.199 181.16 16.566 c 175.414 35.359 l 131.961 35.359 l 
108.945 21.539 l 106.766 20.23 105.41 17.793 105.41 15.172 c h
105.41 12.297 m f
Q Q
showpage
%%Trailer
end restore
%%EOF
