%!PS-Adobe-3.0 EPSF-3.0
%%Creator: cairo 1.14.8 (http://cairographics.org)
%%CreationDate: Wed Mar 20 09:06:38 2019
%%Pages: 1
%%DocumentData: Clean7Bit
%%LanguageLevel: 2
%%BoundingBox: 0 0 488 488
%%EndComments
%%BeginProlog
save
50 dict begin
/q { gsave } bind def
/Q { grestore } bind def
/cm { 6 array astore concat } bind def
/w { setlinewidth } bind def
/J { setlinecap } bind def
/j { setlinejoin } bind def
/M { setmiterlimit } bind def
/d { setdash } bind def
/m { moveto } bind def
/l { lineto } bind def
/c { curveto } bind def
/h { closepath } bind def
/re { exch dup neg 3 1 roll 5 3 roll moveto 0 rlineto
      0 exch rlineto 0 rlineto closepath } bind def
/S { stroke } bind def
/f { fill } bind def
/f* { eofill } bind def
/n { newpath } bind def
/W { clip } bind def
/W* { eoclip } bind def
/BT { } bind def
/ET { } bind def
/pdfmark where { pop globaldict /?pdfmark /exec load put }
    { globaldict begin /?pdfmark /pop load def /pdfmark
    /cleartomark load def end } ifelse
/BDC { mark 3 1 roll /BDC pdfmark } bind def
/EMC { mark /EMC pdfmark } bind def
/cairo_store_point { /cairo_point_y exch def /cairo_point_x exch def } def
/Tj { show currentpoint cairo_store_point } bind def
/TJ {
  {
    dup
    type /stringtype eq
    { show } { -0.001 mul 0 cairo_font_matrix dtransform rmoveto } ifelse
  } forall
  currentpoint cairo_store_point
} bind def
/cairo_selectfont { cairo_font_matrix aload pop pop pop 0 0 6 array astore
    cairo_font exch selectfont cairo_point_x cairo_point_y moveto } bind def
/Tf { pop /cairo_font exch def /cairo_font_matrix where
      { pop cairo_selectfont } if } bind def
/Td { matrix translate cairo_font_matrix matrix concatmatrix dup
      /cairo_font_matrix exch def dup 4 get exch 5 get cairo_store_point
      /cairo_font where { pop cairo_selectfont } if } bind def
/Tm { 2 copy 8 2 roll 6 array astore /cairo_font_matrix exch def
      cairo_store_point /cairo_font where { pop cairo_selectfont } if } bind def
/g { setgray } bind def
/rg { setrgbcolor } bind def
/d1 { setcachedevice } bind def
%%EndProlog
%%BeginSetup
%%EndSetup
%%Page: 1 1
%%BeginPageSetup
%%PageBoundingBox: 0 0 488 488
%%EndPageSetup
q 0 0 488 488 rectclip q
0.72549 0.745098 0.988235 rg
450.273 332.352 m 447.848 332.352 445.883 330.383 445.883 327.957 c 445.883
 270.871 l 445.883 268.445 443.918 266.48 441.492 266.48 c 375.621 266.48
 l 373.191 266.48 371.227 264.512 371.227 262.086 c 371.227 205 l 371.227
 202.574 369.262 200.609 366.84 200.609 c 300.965 200.609 l 298.543 200.609
 296.574 198.641 296.574 196.215 c 296.574 139.129 l 296.574 136.703 294.609
 134.738 292.184 134.738 c 226.312 134.738 l 223.887 134.738 221.922 132.77
 221.922 130.344 c 221.922 73.258 l 221.922 70.832 219.953 68.867 217.527
 68.867 c 151.656 68.867 l 149.23 68.867 147.266 66.898 147.266 64.473 c
 147.266 7.387 l 147.266 7.09 147.219 6.809 147.164 6.531 c 147.164 3.992
 l 484.008 3.992 l 484.008 332.352 l h
450.273 332.352 m f
1 0.917647 0.572549 rg
4.945 69.863 m 4.945 57.414 19.996 51.184 28.801 59.98 c 428.02 459.199
 l 436.82 468.004 430.586 483.055 418.137 483.055 c 414.43 483.055 410.875
 481.582 408.258 478.965 c 9.039 79.742 l 6.414 77.125 4.945 73.57 4.945
 69.863 c h
4.945 69.863 m f
0.215686 0.384314 0.8 rg
19.031 51.852 m 16.703 51.852 14.336 52.316 12.043 53.266 c 5.203 56.098
 0.953 62.461 0.953 69.863 c 0.953 74.664 2.824 79.176 6.215 82.566 c 405.434
 481.785 l 408.828 485.176 413.336 487.047 418.137 487.047 c 425.539 487.047
 431.902 482.801 434.734 475.957 c 437.566 469.113 436.074 461.613 430.836
 456.379 c 31.617 57.16 l 28.141 53.676 23.656 51.852 19.031 51.852 c h
418.137 479.062 m 415.469 479.062 412.965 478.027 411.078 476.141 c 11.859
 76.922 l 9.973 75.035 8.938 72.531 8.938 69.863 c 8.938 64.949 12.117 61.875
 15.098 60.645 c 18.078 59.406 22.496 59.328 25.973 62.805 c 425.191 462.023
 l 428.672 465.5 428.59 469.922 427.355 472.902 c 426.125 475.883 423.051
 479.062 418.137 479.062 c h
418.137 479.062 m f
0.976471 0.654902 0.654902 rg
189.406 263.719 m 58.684 263.719 l 58.684 365.777 l 58.684 381.609 71.516
 394.449 87.352 394.449 c 160.738 394.449 l 176.574 394.449 189.41 381.609
 189.41 365.777 c 189.41 263.719 l h
189.406 263.719 m f
191.922 228.887 m 56.168 228.887 l 51.211 228.887 47.195 232.906 47.195
 237.859 c 47.195 254.75 l 47.195 259.703 51.211 263.719 56.168 263.719 
c 191.922 263.719 l 196.879 263.719 200.898 259.703 200.898 254.75 c 200.898
 237.859 l 200.898 232.902 196.879 228.887 191.922 228.887 c h
191.922 228.887 m f
0.215686 0.384314 0.8 rg
189.41 259.727 m 58.684 259.727 l 56.477 259.727 54.691 261.516 54.691 
263.719 c 54.691 365.777 l 54.691 383.789 69.34 398.441 87.352 398.441 c
 160.738 398.441 l 178.75 398.441 193.402 383.789 193.402 365.777 c 193.402
 263.719 l 193.402 261.512 191.613 259.727 189.41 259.727 c h
62.676 267.711 m 185.418 267.711 l 185.418 365.777 l 185.418 379.383 174.348
 390.457 160.738 390.457 c 87.352 390.457 l 73.746 390.457 62.676 379.387
 62.676 365.777 c h
62.676 267.711 m f
191.922 224.895 m 56.168 224.895 l 49.02 224.895 43.199 230.711 43.199 
237.859 c 43.199 254.75 l 43.199 261.898 49.02 267.711 56.168 267.711 c 
191.922 267.711 l 199.07 267.711 204.887 261.895 204.887 254.75 c 204.887
 237.859 l 204.891 230.711 199.07 224.895 191.922 224.895 c h
56.168 259.727 m 53.422 259.727 51.188 257.492 51.188 254.75 c 51.188 237.859
 l 51.188 235.113 53.422 232.879 56.168 232.879 c 191.922 232.879 l 194.672
 232.879 196.906 235.113 196.906 237.859 c 196.906 254.75 l 196.906 257.492
 194.672 259.727 191.922 259.727 c h
56.168 259.727 m f
0.643137 0.788235 1 rg
62.777 292.391 m 42.297 292.391 l 40.035 292.391 38.203 294.227 38.203 
296.488 c 38.203 308.777 l 38.203 311.039 40.035 312.871 42.297 312.871 
c 62.777 312.871 l 65.039 312.871 66.875 311.039 66.875 308.777 c 66.875
 296.488 l 66.875 294.227 65.039 292.391 62.777 292.391 c h
62.777 292.391 m f
205.793 292.391 m 185.309 292.391 l 183.051 292.391 181.215 294.227 181.215
 296.488 c 181.215 308.777 l 181.215 311.039 183.051 312.871 185.309 312.871
 c 205.793 312.871 l 208.055 312.871 209.887 311.039 209.887 308.777 c 209.887
 296.488 l 209.887 294.227 208.055 292.391 205.793 292.391 c h
205.793 292.391 m f
0.215686 0.384314 0.8 rg
62.777 288.398 m 42.297 288.398 l 37.836 288.398 34.211 292.023 34.211 
296.488 c 34.211 308.777 l 34.211 313.23 37.836 316.863 42.297 316.863 c
 62.777 316.863 l 67.234 316.863 70.867 313.23 70.867 308.777 c 70.867 296.488
 l 70.867 292.027 67.234 288.398 62.777 288.398 c h
42.297 308.879 m 42.195 296.488 l 62.777 296.383 l 62.836 296.383 62.883
 296.43 62.883 296.488 c 62.883 308.777 l h
42.297 308.879 m f
205.793 288.398 m 185.309 288.398 l 180.855 288.398 177.223 292.023 177.223
 296.488 c 177.223 308.777 l 177.223 313.23 180.852 316.863 185.309 316.863
 c 205.793 316.863 l 210.25 316.863 213.879 313.23 213.879 308.777 c 213.879
 296.488 l 213.879 292.027 210.25 288.398 205.793 288.398 c h
185.309 308.879 m 185.207 296.488 l 205.793 296.383 l 205.848 296.383 205.895
 296.43 205.895 296.488 c 205.895 308.777 l h
185.309 308.879 m f
0.419608 0.866667 0.866667 rg
183.059 312.871 m 182.145 320.516 179.992 328.027 176.605 335.305 c 172.996
 343.055 l 164.398 356.277 l 162.07 362.297 155.98 366.602 148.809 366.602
 c 99.281 366.602 l 94.176 366.602 89.613 364.418 86.566 360.992 c 86.477
 361.031 l 86.059 360.375 l 85.328 359.465 84.703 358.48 84.191 357.434 
c 75.102 343.117 l 71.48 335.348 l 68.09 328.059 65.934 320.527 65.02 312.875
 c 82.668 312.875 l 82.668 263.719 l 165.414 263.719 l 165.414 312.871 l
 h
183.059 312.871 m f
0.215686 0.384314 0.8 rg
84.254 299.699 m 84.164 299.699 84.07 299.703 83.98 299.707 c 81.781 299.855
 80.117 301.758 80.266 303.961 c 82.969 343.93 l 83.117 346.133 85.012 347.797
 87.215 347.645 c 89.414 347.496 91.082 345.594 90.934 343.395 c 88.23 303.422
 l 88.09 301.312 86.336 299.699 84.254 299.699 c h
84.254 299.699 m f
163.996 297.32 m 161.914 297.32 160.16 298.938 160.016 301.047 c 157.152
 343.395 l 157.008 345.594 158.672 347.5 160.871 347.648 c 163.078 347.781
 164.977 346.133 165.121 343.934 c 167.984 301.582 l 168.133 299.383 166.469
 297.477 164.27 297.328 c 164.176 297.324 164.086 297.32 163.996 297.32 
c h
163.996 297.32 m f
0.976471 0.811765 0.811765 rg
161.395 312.871 m 161.395 283.176 l 172.602 283.176 l 177.449 283.176 181.383
 287.109 181.383 291.957 c 181.383 304.441 l 181.383 307.258 181.188 310.07
 180.844 312.871 c h
161.395 312.871 m f
67.496 312.871 m 67.152 310.086 66.961 307.289 66.961 304.484 c 66.961 
292 l 66.961 287.152 70.895 283.215 75.742 283.215 c 86.953 283.215 l 86.953
 312.871 l h
67.496 312.871 m f
0.215686 0.384314 0.8 rg
172.602 279.188 m 161.395 279.188 l 159.188 279.188 157.402 280.973 157.402
 283.18 c 157.402 312.871 l 157.402 315.074 159.188 316.863 161.395 316.863
 c 180.848 316.863 l 182.859 316.863 184.559 315.359 184.809 313.363 c 185.184
 310.32 185.375 307.316 185.375 304.441 c 185.375 291.957 l 185.375 284.918
 179.645 279.188 172.602 279.188 c h
165.387 287.172 m 172.602 287.172 l 175.238 287.172 177.391 289.316 177.391
 291.957 c 177.391 304.441 l 177.391 305.887 177.332 307.367 177.223 308.879
 c 165.383 308.879 l 165.383 287.172 l h
165.387 287.172 m f
86.953 279.223 m 75.742 279.223 l 68.699 279.223 62.969 284.957 62.969 
292 c 62.969 304.484 l 62.969 307.344 63.16 310.332 63.531 313.359 c 63.781
 315.359 65.48 316.867 67.496 316.867 c 86.953 316.867 l 89.152 316.867 
90.945 315.078 90.945 312.875 c 90.945 283.219 l 90.945 281.016 89.152 279.223
 86.953 279.223 c h
71.113 308.879 m 71.008 307.383 70.953 305.914 70.953 304.484 c 70.953 
292 l 70.953 289.359 73.102 287.207 75.742 287.207 c 82.957 287.207 l 82.957
 308.879 l h
71.113 308.879 m f
0.27451 0.443137 0.776471 rg
81.551 302.633 42.496 -38.914 re f
124.047 302.633 42.496 -38.914 re f
117.902 201.871 m 77.664 201.871 l 76.535 201.871 75.617 202.789 75.617
 203.918 c 75.617 291.707 l 75.617 298.496 81.121 303.996 87.906 303.996
 c 107.66 303.996 l 114.449 303.996 119.949 298.496 119.949 291.707 c 119.949
 203.918 l 119.949 202.789 119.031 201.871 117.902 201.871 c h
117.902 201.871 m f
170.422 201.871 m 130.191 201.871 l 129.059 201.871 128.141 202.789 128.141
 203.918 c 128.141 291.707 l 128.141 298.496 133.641 303.996 140.43 303.996
 c 160.184 303.996 l 166.973 303.996 172.473 298.496 172.473 291.707 c 172.473
 203.918 l 172.473 202.789 171.555 201.871 170.422 201.871 c h
170.422 201.871 m f
0.976471 0.654902 0.654902 rg
187.719 111.762 m 60.371 111.762 l 51.879 111.762 45 118.645 45 127.133
 c 45 166.02 l 45 174.512 51.879 181.391 60.371 181.391 c 187.719 181.391
 l 196.211 181.391 203.09 174.512 203.09 166.02 c 203.09 127.133 l 203.09
 118.645 196.207 111.762 187.719 111.762 c h
187.719 111.762 m f
0.976471 0.811765 0.811765 rg
164.715 424.465 m 164.629 424.465 164.547 424.449 164.461 424.449 c 164.461
 428.234 l 164.461 450.355 146.367 468.285 124.047 468.285 c 101.723 468.285
 83.633 450.355 83.633 428.234 c 83.633 424.449 l 83.547 424.453 83.461 
424.465 83.375 424.465 c 76.57 424.465 71.051 418.992 71.051 412.246 c 71.051
 405.496 76.566 400.027 83.375 400.027 c 83.824 400.027 84.266 400.051 84.703
 400.098 c 88.871 382.383 104.898 369.176 124.047 369.176 c 143.191 369.176
 159.219 382.383 163.391 400.098 c 163.824 400.051 164.266 400.027 164.715
 400.027 c 171.523 400.027 177.047 405.496 177.047 412.246 c 177.047 418.992
 171.523 424.465 164.715 424.465 c h
164.715 424.465 m f
0.27451 0.443137 0.776471 rg
164 434.215 m 164.297 432.262 164.457 430.266 164.457 428.234 c 164.457
 424.449 l 164.543 424.449 164.629 424.461 164.715 424.461 c 167.906 424.461
 170.805 423.246 172.996 421.273 c 172.996 434.215 l h
164 434.215 m f
0.215686 0.384314 0.8 rg
173 417.281 m 172.031 417.281 171.07 417.633 170.324 418.312 c 168.781 
419.703 166.789 420.473 164.715 420.473 c 164.754 420.465 164.602 420.453
 164.461 420.457 c 163.406 420.457 162.398 420.875 161.652 421.609 c 160.895
 422.363 160.469 423.383 160.469 424.449 c 160.469 428.234 l 160.469 430
 160.328 431.812 160.055 433.617 c 159.879 434.77 160.215 435.938 160.977
 436.82 c 161.73 437.703 162.84 438.211 164 438.211 c 172.996 438.211 l 
175.199 438.211 176.988 436.422 176.988 434.219 c 176.988 421.277 l 176.988
 419.703 176.059 418.273 174.621 417.633 c 174.102 417.395 173.547 417.281
 173 417.281 c h
168.453 428.023 m 168.637 427.98 168.824 427.934 169.008 427.883 c 169.008
 430.223 l 168.406 430.223 l 168.438 429.559 168.453 428.895 168.453 428.234
 c h
168.453 428.023 m f
0.27451 0.443137 0.776471 rg
75.336 434.215 m 75.336 421.496 l 77.496 423.34 80.305 424.465 83.375 424.465
 c 83.461 424.465 83.547 424.449 83.633 424.449 c 83.633 428.234 l 83.633
 430.27 83.793 432.262 84.09 434.215 c h
75.336 434.215 m f
0.215686 0.384314 0.8 rg
75.336 417.504 m 74.773 417.504 74.203 417.621 73.668 417.871 c 72.254 
418.523 71.344 419.938 71.344 421.496 c 71.344 434.215 l 71.344 436.418 
73.137 438.207 75.336 438.207 c 84.09 438.207 l 85.25 438.207 86.359 437.699
 87.117 436.816 c 87.875 435.934 88.211 434.766 88.035 433.613 c 87.762 
431.805 87.621 429.992 87.621 428.23 c 87.621 424.445 l 87.621 423.379 87.195
 422.359 86.438 421.605 c 85.676 420.859 84.707 420.469 83.582 420.453 c
 83.504 420.453 83.301 420.465 83.219 420.473 c 81.379 420.469 79.449 419.754
 77.93 418.457 c 77.191 417.832 76.27 417.504 75.336 417.504 c h
79.328 430.223 m 79.328 427.945 l 79.43 427.973 79.535 427.996 79.637 428.02
 c 79.637 428.234 l 79.637 428.895 79.652 429.555 79.684 430.223 c h
79.328 430.223 m f
124.047 387.047 m 117.871 387.047 113.215 389.801 113.215 393.457 c 113.215
 394.559 114.109 395.453 115.211 395.453 c 116.316 395.453 117.207 394.559
 117.207 393.457 c 117.207 392.754 119.602 391.039 124.047 391.039 c 128.488
 391.039 130.883 392.754 130.883 393.457 c 130.883 394.559 131.777 395.453
 132.879 395.453 c 133.98 395.453 134.875 394.559 134.875 393.457 c 134.875
 389.801 130.219 387.047 124.047 387.047 c h
124.047 387.047 m f
105.391 407.902 m 102.918 407.902 100.902 409.918 100.902 412.395 c 100.902
 419.875 l 100.902 422.352 102.918 424.363 105.391 424.363 c 107.867 424.363
 109.879 422.352 109.879 419.875 c 109.879 412.395 l 109.879 409.918 107.867
 407.902 105.391 407.902 c h
105.391 407.902 m f
142.699 407.902 m 140.223 407.902 138.207 409.918 138.207 412.395 c 138.207
 419.875 l 138.207 422.352 140.223 424.363 142.699 424.363 c 145.172 424.363
 147.184 422.352 147.184 419.875 c 147.184 412.395 l 147.184 409.918 145.172
 407.902 142.699 407.902 c h
142.699 407.902 m f
0.643137 0.788235 1 rg
111.012 201.871 m 81.785 201.871 l 77.211 193.148 l 76.367 191.531 75.918
 189.652 75.918 187.73 c 75.918 183.438 l 75.918 182.305 76.66 181.387 77.578
 181.387 c 115.215 181.387 l 116.133 181.387 116.879 182.305 116.879 183.438
 c 116.879 187.73 l 116.879 189.648 116.43 191.531 115.582 193.148 c h
111.012 201.871 m f
163.531 201.871 m 134.309 201.871 l 129.734 193.148 l 128.891 191.535 128.441
 189.652 128.441 187.73 c 128.441 183.438 l 128.441 182.309 129.184 181.391
 130.102 181.391 c 167.738 181.391 l 168.656 181.391 169.398 182.309 169.398
 183.438 c 169.398 187.73 l 169.398 189.652 168.953 191.531 168.105 193.148
 c h
163.531 201.871 m f
0.976471 0.811765 0.811765 rg
124.047 370.332 m 118.414 370.332 113.133 371.742 108.574 374.207 c 108.574
 362.551 l 108.574 360.727 110.137 359.246 112.066 359.246 c 136.027 359.246
 l 137.953 359.246 139.52 360.727 139.52 362.551 c 139.52 374.207 l 134.957
 371.742 129.676 370.332 124.047 370.332 c h
124.047 370.332 m f
0.215686 0.384314 0.8 rg
117.902 197.879 m 77.664 197.879 l 74.336 197.879 71.625 200.59 71.625 
203.918 c 71.625 291.707 l 71.625 300.688 78.93 307.988 87.906 307.988 c
 107.66 307.988 l 116.641 307.988 123.941 300.684 123.941 291.707 c 123.941
 203.918 l 123.941 200.59 121.23 197.879 117.902 197.879 c h
79.609 205.863 m 115.957 205.863 l 115.957 291.707 l 115.957 296.281 112.238
 300.004 107.66 300.004 c 87.906 300.004 l 83.328 300.004 79.609 296.281
 79.609 291.707 c h
79.609 205.863 m f
170.422 197.879 m 130.191 197.879 l 126.863 197.879 124.148 200.59 124.148
 203.918 c 124.148 291.707 l 124.148 300.688 131.453 307.988 140.43 307.988
 c 160.184 307.988 l 169.16 307.988 176.465 300.684 176.465 291.707 c 176.465
 203.918 l 176.465 200.59 173.754 197.879 170.422 197.879 c h
132.133 205.863 m 168.48 205.863 l 168.48 291.707 l 168.48 296.281 164.758
 300.004 160.184 300.004 c 140.43 300.004 l 135.852 300.004 132.133 296.281
 132.133 291.707 c h
132.133 205.863 m f
128.141 259.727 m 119.949 259.727 l 117.746 259.727 115.957 261.516 115.957
 263.719 c 115.957 291.707 l 115.957 296.281 112.238 300.004 107.66 300.004
 c 87.906 300.004 l 86.691 300.004 85.5 299.734 84.375 299.203 c 83.141 
298.621 81.688 298.711 80.535 299.438 c 79.375 300.172 78.68 301.441 78.68
 302.812 c 78.68 308.879 l 65.02 308.879 l 63.875 308.879 62.793 309.367
 62.031 310.219 c 61.273 311.074 60.922 312.211 61.055 313.344 c 62.02 321.43
 64.312 329.402 67.863 337.031 c 71.48 344.801 l 71.555 344.957 71.637 345.109
 71.73 345.25 c 80.711 359.391 l 81.289 360.551 81.992 361.656 82.805 362.691
 c 83.105 363.164 l 83.398 363.629 83.777 364.016 84.207 364.312 c 88.102
 368.316 93.543 370.594 99.281 370.594 c 102.785 370.594 l 92.691 376.066
 85.074 385.242 81.652 396.121 c 73.461 396.98 67.059 403.883 67.059 412.242
 c 67.059 419.902 72.438 426.34 79.641 428.023 c 79.641 428.23 l 79.641 
452.516 99.559 472.273 124.047 472.273 c 148.535 472.273 168.453 452.516
 168.453 428.23 c 168.453 428.023 l 175.656 426.344 181.039 419.906 181.039
 412.242 c 181.039 403.883 174.633 396.98 166.438 396.121 c 163.02 385.242
 155.402 376.066 145.309 370.594 c 148.809 370.594 l 157.23 370.594 164.871
 365.602 167.961 358.125 c 176.348 345.227 l 176.449 345.074 176.543 344.91
 176.621 344.738 c 180.227 336.992 l 183.773 329.379 186.059 321.426 187.031
 313.344 c 187.164 312.211 186.812 311.074 186.051 310.223 c 185.293 309.367
 184.207 308.879 183.062 308.879 c 169.414 308.879 l 169.414 302.812 l 169.414
 301.441 168.715 300.172 167.559 299.438 c 166.402 298.711 164.957 298.621
 163.719 299.203 c 162.594 299.734 161.402 300.004 160.188 300.004 c 140.434
 300.004 l 135.855 300.004 132.137 296.281 132.137 291.707 c 132.137 263.719
 l 132.133 261.512 130.344 259.727 128.141 259.727 c h
123.941 267.711 m 124.148 267.711 l 124.148 291.707 l 124.148 300.688 131.453
 307.988 140.43 307.988 c 160.184 307.988 l 160.602 307.988 161.016 307.973
 161.426 307.941 c 161.426 312.871 l 161.426 315.074 163.215 316.863 165.418
 316.863 c 178.41 316.863 l 177.332 322.57 175.516 328.188 172.988 333.617
 c 169.496 341.113 l 161.055 354.102 l 160.902 354.332 160.773 354.578 160.676
 354.84 c 158.883 359.484 154.109 362.609 148.809 362.609 c 139.52 362.609
 l 137.312 362.609 135.527 364.398 135.527 366.602 c 135.527 372.258 l 135.527
 373.875 136.504 375.332 137.996 375.945 c 148.824 380.406 156.863 389.773
 159.504 401.016 c 159.969 402.969 161.816 404.277 163.809 404.066 c 164.105
 404.035 164.41 404.02 164.719 404.02 c 169.312 404.02 173.055 407.707 173.055
 412.246 c 173.055 416.781 169.312 420.473 164.719 420.473 c 164.551 420.457
 l 163.477 420.434 162.438 420.844 161.668 421.594 c 160.902 422.344 160.469
 423.371 160.469 424.449 c 160.469 428.234 l 160.469 448.113 144.129 464.289
 124.047 464.289 c 103.965 464.289 87.621 448.117 87.621 428.234 c 87.621
 424.449 l 87.621 423.371 87.188 422.344 86.422 421.594 c 85.652 420.844
 84.594 420.43 83.539 420.457 c 83.477 420.461 83.301 420.469 83.238 420.473
 c 78.781 420.473 75.043 416.781 75.043 412.242 c 75.043 407.703 78.781 
404.016 83.375 404.016 c 83.68 404.016 83.984 404.035 84.281 404.066 c 86.281
 404.277 88.125 402.969 88.586 401.016 c 91.227 389.773 99.27 380.406 110.094
 375.945 c 111.586 375.328 112.566 373.871 112.566 372.258 c 112.566 366.602
 l 112.566 364.398 110.777 362.609 108.574 362.609 c 99.281 362.609 l 95.508
 362.609 91.961 361.055 89.547 358.34 c 89.492 358.277 89.438 358.219 89.379
 358.16 c 89.312 358.062 89.242 357.965 89.168 357.875 c 88.625 357.191 
88.152 356.457 87.781 355.688 c 87.715 355.551 87.641 355.418 87.559 355.293
 c 78.609 341.191 l 75.102 333.66 l 72.566 328.211 70.746 322.582 69.668
 316.863 c 82.672 316.863 l 84.875 316.863 86.664 315.074 86.664 312.871
 c 86.664 307.938 l 87.078 307.969 87.488 307.984 87.906 307.984 c 107.66
 307.984 l 116.641 307.984 123.941 300.684 123.941 291.703 c h
123.941 267.711 m f
0.976471 0.811765 0.811765 rg
111.172 312.66 m 110.082 314.582 108.043 315.773 105.832 315.773 c 89.734
 315.773 l 87.523 315.773 85.48 314.586 84.391 312.66 c 82.348 309.066 l
 81.824 308.141 81.547 307.094 81.547 306.031 c 81.547 301.234 l 81.547 
297.617 84.484 294.684 88.105 294.684 c 107.461 294.684 l 111.082 294.684
 114.016 297.613 114.016 301.234 c 114.016 306.031 l 114.016 307.098 113.742
 308.141 113.215 309.066 c h
111.172 312.66 m f
163.695 312.66 m 162.605 314.582 160.566 315.773 158.355 315.773 c 142.258
 315.773 l 140.047 315.773 138.008 314.586 136.914 312.66 c 134.875 309.066
 l 134.348 308.141 134.07 307.094 134.07 306.031 c 134.07 301.234 l 134.07
 297.617 137.008 294.684 140.629 294.684 c 159.984 294.684 l 163.602 294.684
 166.543 297.613 166.543 301.234 c 166.543 306.031 l 166.543 307.098 166.266
 308.141 165.738 309.066 c h
163.695 312.66 m f
0.215686 0.384314 0.8 rg
107.461 290.691 m 88.105 290.691 l 82.289 290.691 77.555 295.422 77.555
 301.238 c 77.555 306.031 l 77.555 307.781 78.012 309.512 78.879 311.039
 c 80.918 314.633 l 82.715 317.797 86.09 319.762 89.73 319.762 c 105.828
 319.762 l 109.469 319.762 112.848 317.797 114.645 314.633 c 116.684 311.035
 l 117.547 309.512 118.004 307.781 118.004 306.031 c 118.004 301.234 l 118.008
 295.422 113.277 290.691 107.461 290.691 c h
89.734 311.781 m 88.965 311.781 88.246 311.363 87.863 310.691 c 85.82 307.094
 l 85.637 306.77 85.539 306.402 85.539 306.031 c 85.539 301.238 l 85.539
 299.824 86.691 298.676 88.105 298.676 c 107.461 298.676 l 108.875 298.676
 110.023 299.824 110.023 301.238 c 110.023 306.031 l 110.023 306.402 109.93
 306.77 109.742 307.094 c 107.703 310.691 l 107.32 311.363 106.605 311.781
 105.832 311.781 c h
89.734 311.781 m f
159.984 290.691 m 140.625 290.691 l 134.812 290.691 130.078 295.422 130.078
 301.238 c 130.078 306.031 l 130.078 307.781 130.539 309.508 131.398 311.035
 c 133.441 314.633 l 135.234 317.797 138.617 319.766 142.258 319.766 c 158.352
 319.766 l 161.992 319.766 165.371 317.797 167.164 314.633 c 169.207 311.039
 l 170.074 309.508 170.531 307.781 170.531 306.031 c 170.531 301.238 l 170.535
 295.422 165.801 290.691 159.984 290.691 c h
142.258 311.781 m 141.484 311.781 140.77 311.363 140.387 310.695 c 138.348
 307.098 l 138.164 306.773 138.066 306.406 138.066 306.035 c 138.066 301.238
 l 138.066 299.828 139.215 298.68 140.629 298.68 c 159.988 298.68 l 161.398
 298.68 162.551 299.828 162.551 301.238 c 162.551 306.035 l 162.551 306.406
 162.449 306.777 162.266 307.098 c 160.227 310.695 l 159.844 311.363 159.129
 311.781 158.355 311.781 c h
142.258 311.781 m f
0.27451 0.443137 0.776471 rg
153.039 434.215 m 173.914 434.215 l 175.438 434.215 176.672 435.449 176.672
 436.973 c 176.672 452.328 l 176.672 469.824 162.488 484.008 144.992 484.008
 c 143.699 484.008 l 139.133 484.008 135.434 480.309 135.434 475.742 c 135.434
 451.816 l 135.434 442.098 143.312 434.215 153.039 434.215 c h
153.039 434.215 m f
110.754 434.215 m 74.43 434.215 l 72.906 434.215 71.664 435.453 71.664 
436.984 c 71.664 449.617 l 71.664 468.609 87.062 484.008 106.055 484.008
 c 127.258 484.008 l 131.816 484.008 135.512 480.312 135.512 475.754 c 135.512
 458.98 l 135.516 445.301 124.43 434.215 110.754 434.215 c h
110.754 434.215 m f
0.215686 0.384314 0.8 rg
173.914 430.223 m 153.035 430.223 l 141.125 430.223 131.441 439.91 131.441
 451.816 c 131.441 475.742 l 131.441 482.5 136.941 487.996 143.695 487.996
 c 144.992 487.996 l 164.66 487.996 180.66 471.996 180.66 452.328 c 180.66
 436.969 l 180.664 433.246 177.637 430.223 173.914 430.223 c h
143.699 480.016 m 141.344 480.016 139.426 478.098 139.426 475.742 c 139.426
 451.816 l 139.426 444.312 145.531 438.207 153.039 438.207 c 172.68 438.207
 l 172.68 452.328 l 172.68 467.594 160.258 480.016 144.992 480.016 c h
143.699 480.016 m f
110.754 430.223 m 74.43 430.223 l 70.703 430.223 67.672 433.254 67.672 
436.984 c 67.672 449.617 l 67.672 470.781 84.891 488 106.055 488 c 127.258
 488 l 134.016 488 139.508 482.508 139.508 475.754 c 139.508 458.98 l 139.508
 443.121 126.609 430.223 110.754 430.223 c h
75.656 438.207 m 110.754 438.207 l 122.207 438.207 131.523 447.523 131.523
 458.98 c 131.523 475.754 l 131.523 478.105 129.609 480.016 127.258 480.016
 c 106.055 480.016 l 89.293 480.016 75.656 466.379 75.656 449.617 c h
75.656 438.207 m f
115.215 177.398 m 77.578 177.398 l 74.461 177.398 71.926 180.109 71.926
 183.441 c 71.926 187.73 l 71.926 190.305 72.531 192.816 73.676 195.004 
c 78.25 203.727 l 78.938 205.043 80.301 205.863 81.785 205.863 c 111.012
 205.863 l 112.496 205.863 113.855 205.043 114.543 203.727 c 119.117 195.004
 l 120.262 192.816 120.871 190.301 120.871 187.73 c 120.871 183.441 l 120.871
 180.109 118.332 177.398 115.215 177.398 c h
79.91 185.383 m 112.887 185.383 l 112.887 187.73 l 112.887 189.02 112.594
 190.246 112.047 191.293 c 108.598 197.879 l 84.203 197.879 l 80.75 191.293
 l 80.203 190.246 79.91 189.016 79.91 187.73 c h
79.91 185.383 m f
167.738 177.398 m 130.102 177.398 l 126.984 177.398 124.449 180.109 124.449
 183.441 c 124.449 187.73 l 124.449 190.301 125.055 192.812 126.199 195.004
 c 130.773 203.727 l 131.461 205.043 132.824 205.863 134.309 205.863 c 163.531
 205.863 l 165.02 205.863 166.379 205.043 167.07 203.727 c 171.637 195.004
 l 172.785 192.816 173.387 190.301 173.387 187.73 c 173.387 183.441 l 173.391
 180.109 170.859 177.398 167.738 177.398 c h
132.434 185.383 m 165.406 185.383 l 165.406 187.73 l 165.406 189.02 165.117
 190.246 164.57 191.293 c 161.117 197.879 l 136.723 197.879 l 133.27 191.293
 l 132.723 190.246 132.434 189.016 132.434 187.73 c h
132.434 185.383 m f
187.719 107.77 m 60.371 107.77 l 49.691 107.77 41.008 116.453 41.008 127.133
 c 41.008 166.02 l 41.008 176.699 49.691 185.383 60.371 185.383 c 187.719
 185.383 l 198.398 185.383 207.082 176.699 207.082 166.02 c 207.082 127.133
 l 207.082 116.453 198.398 107.77 187.719 107.77 c h
60.371 177.398 m 54.098 177.398 48.992 172.297 48.992 166.023 c 48.992 
127.137 l 48.992 120.859 54.098 115.754 60.371 115.754 c 187.719 115.754
 l 193.996 115.754 199.098 120.859 199.098 127.137 c 199.098 166.023 l 199.098
 172.297 193.996 177.398 187.719 177.398 c h
60.371 177.398 m f
484.008 0 m 147.164 0 l 144.965 0 143.172 1.789 143.172 3.992 c 143.172
 6.531 l 143.172 6.797 143.199 7.066 143.254 7.328 c 143.273 64.473 l 143.273
 69.098 147.035 72.859 151.656 72.859 c 217.527 72.859 l 217.746 72.859 
217.93 73.035 217.93 73.258 c 217.93 130.344 l 217.93 134.969 221.688 138.73
 226.312 138.73 c 292.184 138.73 l 292.402 138.73 292.582 138.906 292.582
 139.129 c 292.582 196.215 l 292.582 200.84 296.344 204.602 300.965 204.602
 c 366.84 204.602 l 367.055 204.602 367.234 204.777 367.234 205 c 367.234
 262.086 l 367.234 266.711 370.996 270.473 375.621 270.473 c 441.492 270.473
 l 441.711 270.473 441.891 270.648 441.891 270.871 c 441.891 327.957 l 441.891
 332.582 445.652 336.344 450.273 336.344 c 484.008 336.344 l 486.211 336.344
 488 334.555 488 332.352 c 488 3.992 l 488 1.789 486.211 0 484.008 0 c h
147.164 6.531 m 147.184 6.531 l h
151.258 7.984 m 480.016 7.984 l 480.016 328.359 l 450.273 328.359 l 450.055
 328.359 449.875 328.18 449.875 327.957 c 449.875 270.871 l 449.875 266.246
 446.113 262.488 441.492 262.488 c 375.621 262.488 l 375.398 262.488 375.219
 262.309 375.219 262.086 c 375.219 205 l 375.219 200.375 371.461 196.617
 366.84 196.617 c 300.965 196.617 l 300.746 196.617 300.566 196.438 300.566
 196.215 c 300.566 139.129 l 300.566 134.504 296.809 130.746 292.184 130.746
 c 226.312 130.746 l 226.094 130.746 225.914 130.566 225.914 130.344 c 225.914
 73.258 l 225.914 68.633 222.152 64.875 217.527 64.875 c 151.656 64.875 
l 151.438 64.875 151.258 64.695 151.258 64.473 c h
151.258 7.984 m f
Q Q
showpage
%%Trailer
end restore
%%EOF
