%!PS-Adobe-3.0 EPSF-3.0
%%Creator: cairo 1.14.8 (http://cairographics.org)
%%CreationDate: Wed Mar 20 09:06:38 2019
%%Pages: 1
%%DocumentData: Clean7Bit
%%LanguageLevel: 2
%%BoundingBox: 0 8 480 471
%%EndComments
%%BeginProlog
save
50 dict begin
/q { gsave } bind def
/Q { grestore } bind def
/cm { 6 array astore concat } bind def
/w { setlinewidth } bind def
/J { setlinecap } bind def
/j { setlinejoin } bind def
/M { setmiterlimit } bind def
/d { setdash } bind def
/m { moveto } bind def
/l { lineto } bind def
/c { curveto } bind def
/h { closepath } bind def
/re { exch dup neg 3 1 roll 5 3 roll moveto 0 rlineto
      0 exch rlineto 0 rlineto closepath } bind def
/S { stroke } bind def
/f { fill } bind def
/f* { eofill } bind def
/n { newpath } bind def
/W { clip } bind def
/W* { eoclip } bind def
/BT { } bind def
/ET { } bind def
/pdfmark where { pop globaldict /?pdfmark /exec load put }
    { globaldict begin /?pdfmark /pop load def /pdfmark
    /cleartomark load def end } ifelse
/BDC { mark 3 1 roll /BDC pdfmark } bind def
/EMC { mark /EMC pdfmark } bind def
/cairo_store_point { /cairo_point_y exch def /cairo_point_x exch def } def
/Tj { show currentpoint cairo_store_point } bind def
/TJ {
  {
    dup
    type /stringtype eq
    { show } { -0.001 mul 0 cairo_font_matrix dtransform rmoveto } ifelse
  } forall
  currentpoint cairo_store_point
} bind def
/cairo_selectfont { cairo_font_matrix aload pop pop pop 0 0 6 array astore
    cairo_font exch selectfont cairo_point_x cairo_point_y moveto } bind def
/Tf { pop /cairo_font exch def /cairo_font_matrix where
      { pop cairo_selectfont } if } bind def
/Td { matrix translate cairo_font_matrix matrix concatmatrix dup
      /cairo_font_matrix exch def dup 4 get exch 5 get cairo_store_point
      /cairo_font where { pop cairo_selectfont } if } bind def
/Tm { 2 copy 8 2 roll 6 array astore /cairo_font_matrix exch def
      cairo_store_point /cairo_font where { pop cairo_selectfont } if } bind def
/g { setgray } bind def
/rg { setrgbcolor } bind def
/d1 { setcachedevice } bind def
%%EndProlog
%%BeginSetup
%%EndSetup
%%Page: 1 1
%%BeginPageSetup
%%PageBoundingBox: 0 8 480 471
%%EndPageSetup
q 0 8 480 463 rectclip q
0.419608 0.866667 0.866667 rg
353.688 466.211 m 125.324 466.211 l 68.078 466.211 20.91 423.184 14.324
 367.711 c 134.082 367.711 l 140.77 383.875 150.473 394.062 161.258 394.062
 c 317.754 394.062 l 328.539 394.062 338.242 383.875 344.93 367.711 c 464.688
 367.711 l 458.102 423.184 410.934 466.211 353.688 466.211 c h
353.688 466.211 m f
0.27451 0.443137 0.776471 rg
412.363 261.469 m 409.426 270.137 401.426 275.953 392.434 275.953 c 87.566
 275.953 l 78.578 275.953 70.578 270.137 67.641 261.469 c 19.496 119.32 
l 10.188 91.848 5.438 62.98 5.438 33.914 c 5.438 22.031 14.879 12.395 26.523
 12.395 c 453.48 12.395 l 465.125 12.395 474.566 22.027 474.566 33.914 c
 474.566 62.98 469.816 91.848 460.508 119.32 c h
412.363 261.469 m f
0.419608 0.866667 0.866667 rg
195.199 177.453 m 226.824 177.453 l 229.734 177.453 232.094 179.812 232.094
 182.727 c 232.094 214.352 l 232.094 217.262 229.734 219.621 226.824 219.621
 c 195.199 219.621 l 192.285 219.621 189.926 217.262 189.926 214.352 c 189.926
 182.727 l 189.926 179.812 192.285 177.453 195.199 177.453 c h
195.199 177.453 m f
137.215 177.453 m 168.84 177.453 l 171.754 177.453 174.113 179.812 174.113
 182.727 c 174.113 214.352 l 174.113 217.262 171.754 219.621 168.84 219.621
 c 137.215 219.621 l 134.305 219.621 131.941 217.262 131.941 214.352 c 131.941
 182.727 l 131.941 179.812 134.305 177.453 137.215 177.453 c h
137.215 177.453 m f
79.234 177.453 m 110.859 177.453 l 113.77 177.453 116.129 179.812 116.129
 182.727 c 116.129 214.352 l 116.129 217.262 113.77 219.621 110.859 219.621
 c 79.234 219.621 l 76.32 219.621 73.961 217.262 73.961 214.352 c 73.961
 182.727 l 73.961 179.812 76.32 177.453 79.234 177.453 c h
79.234 177.453 m f
369.145 177.453 m 400.77 177.453 l 403.684 177.453 406.043 179.812 406.043
 182.727 c 406.043 214.352 l 406.043 217.262 403.684 219.621 400.77 219.621
 c 369.145 219.621 l 366.234 219.621 363.871 217.262 363.871 214.352 c 363.871
 182.727 l 363.871 179.812 366.234 177.453 369.145 177.453 c h
369.145 177.453 m f
311.164 177.453 m 342.789 177.453 l 345.699 177.453 348.059 179.812 348.059
 182.727 c 348.059 214.352 l 348.059 217.262 345.699 219.621 342.789 219.621
 c 311.164 219.621 l 308.25 219.621 305.891 217.262 305.891 214.352 c 305.891
 182.727 l 305.891 179.812 308.25 177.453 311.164 177.453 c h
311.164 177.453 m f
253.18 177.453 m 284.805 177.453 l 287.719 177.453 290.078 179.812 290.078
 182.727 c 290.078 214.352 l 290.078 217.262 287.719 219.621 284.805 219.621
 c 253.18 219.621 l 250.27 219.621 247.906 217.262 247.906 214.352 c 247.906
 182.727 l 247.906 179.812 250.27 177.453 253.18 177.453 c h
253.18 177.453 m f
166.203 114.199 m 197.832 114.199 l 200.742 114.199 203.102 116.559 203.102
 119.469 c 203.102 151.094 l 203.102 154.008 200.742 156.367 197.832 156.367
 c 166.203 156.367 l 163.293 156.367 160.934 154.008 160.934 151.094 c 160.934
 119.469 l 160.934 116.559 163.293 114.199 166.203 114.199 c h
166.203 114.199 m f
108.223 114.199 m 139.852 114.199 l 142.762 114.199 145.121 116.559 145.121
 119.469 c 145.121 151.094 l 145.121 154.008 142.762 156.367 139.852 156.367
 c 108.223 156.367 l 105.312 156.367 102.953 154.008 102.953 151.094 c 102.953
 119.469 l 102.953 116.559 105.312 114.199 108.223 114.199 c h
108.223 114.199 m f
340.152 114.199 m 371.777 114.199 l 374.688 114.199 377.051 116.559 377.051
 119.469 c 377.051 151.094 l 377.051 154.008 374.688 156.367 371.777 156.367
 c 340.152 156.367 l 337.238 156.367 334.879 154.008 334.879 151.094 c 334.879
 119.469 l 334.879 116.559 337.238 114.199 340.152 114.199 c h
340.152 114.199 m f
282.168 114.199 m 313.793 114.199 l 316.707 114.199 319.066 116.559 319.066
 119.469 c 319.066 151.094 l 319.066 154.008 316.707 156.367 313.793 156.367
 c 282.168 156.367 l 279.258 156.367 276.898 154.008 276.898 151.094 c 276.898
 119.469 l 276.898 116.559 279.258 114.199 282.168 114.199 c h
282.168 114.199 m f
224.188 114.199 m 255.812 114.199 l 258.723 114.199 261.086 116.559 261.086
 119.469 c 261.086 151.094 l 261.086 154.008 258.723 156.367 255.812 156.367
 c 224.188 156.367 l 221.273 156.367 218.914 154.008 218.914 151.094 c 218.914
 119.469 l 218.914 116.559 221.273 114.199 224.188 114.199 c h
224.188 114.199 m f
400.051 50.949 m 79.949 50.949 l 76.645 50.949 73.961 53.629 73.961 56.938
 c 73.961 87.125 l 73.961 90.434 76.645 93.113 79.949 93.113 c 400.051 93.113
 l 403.359 93.113 406.043 90.434 406.043 87.125 c 406.043 56.938 l 406.043
 53.629 403.359 50.949 400.051 50.949 c h
400.051 50.949 m f
0.215686 0.384314 0.8 rg
464.688 363.719 m 344.93 363.719 l 343.312 363.719 341.855 364.691 341.242
 366.184 c 334.961 381.367 326.402 390.07 317.758 390.07 c 161.258 390.07
 l 152.613 390.07 144.055 381.363 137.773 366.184 c 137.16 364.691 135.699
 363.719 134.086 363.719 c 14.324 363.719 l 13.184 363.719 12.098 364.203
 11.34 365.059 c 10.578 365.91 10.227 367.047 10.359 368.184 c 17.266 426.344
 66.688 470.207 125.324 470.207 c 353.688 470.207 l 412.324 470.207 461.75
 426.344 468.656 368.184 c 468.785 367.047 468.434 365.91 467.672 365.059
 c 466.914 364.203 465.832 363.719 464.688 363.719 c h
347.559 371.703 m 460.098 371.703 l 451.746 423.617 406.77 462.219 353.688
 462.219 c 125.324 462.219 l 72.242 462.219 27.27 423.617 18.914 371.703
 c 131.457 371.703 l 139.074 388.727 149.594 398.059 161.258 398.059 c 317.758
 398.059 l 329.422 398.059 339.941 388.727 347.559 371.703 c h
347.559 371.703 m f
453.48 8.406 m 26.523 8.406 l 12.695 8.406 1.441 19.848 1.441 33.914 c 
1.441 63.484 6.242 92.652 15.711 120.602 c 63.859 262.746 l 67.344 273.035
 76.875 279.945 87.57 279.945 c 392.434 279.945 l 403.133 279.945 412.664
 273.035 416.145 262.746 c 464.293 120.602 l 473.758 92.652 478.562 63.484
 478.562 33.914 c 478.559 19.848 467.309 8.406 453.48 8.406 c h
87.566 271.961 m 80.297 271.961 73.809 267.227 71.422 260.188 c 23.273 
118.043 l 14.09 90.918 9.43 62.617 9.43 33.914 c 9.43 24.254 17.098 16.395
 26.523 16.395 c 453.48 16.395 l 462.906 16.395 470.574 24.254 470.574 33.914
 c 470.574 62.617 465.914 90.914 456.727 118.043 c 408.578 260.188 l 406.199
 267.227 399.707 271.961 392.434 271.961 c h
87.566 271.961 m f
0.878431 0.921569 0.988235 rg
119.02 298.199 m 26.02 298.199 l 13.855 298.199 3.992 308.059 3.992 320.223
 c 3.992 361.965 l 3.992 368.051 8.926 372.98 15.008 372.98 c 130.027 372.98
 l 136.109 372.98 141.043 368.051 141.043 361.965 c 141.043 320.223 l 141.043
 308.059 131.18 298.199 119.02 298.199 c h
119.02 298.199 m f
453.98 298.199 m 360.988 298.199 l 348.82 298.199 338.961 308.059 338.961
 320.223 c 338.961 361.965 l 338.961 368.051 343.891 372.98 349.973 372.98
 c 464.996 372.98 l 471.074 372.98 476.008 368.051 476.008 361.965 c 476.008
 320.223 l 476.004 308.059 466.148 298.199 453.98 298.199 c h
453.98 298.199 m f
0.215686 0.384314 0.8 rg
119.02 294.207 m 26.02 294.207 l 11.672 294.207 0 305.879 0 320.223 c 0
 361.965 l 0 370.246 6.73 376.973 15.008 376.973 c 130.027 376.973 l 138.305
 376.973 145.035 370.242 145.035 361.965 c 145.035 320.223 l 145.035 305.879
 133.363 294.207 119.02 294.207 c h
15.008 368.984 m 11.133 368.984 7.988 365.84 7.988 361.965 c 7.988 320.223
 l 7.988 310.281 16.078 302.191 26.02 302.191 c 119.02 302.191 l 128.961
 302.191 137.051 310.281 137.051 320.223 c 137.051 361.965 l 137.051 365.84
 133.902 368.984 130.031 368.984 c h
15.008 368.984 m f
453.98 294.207 m 360.984 294.207 l 346.637 294.207 334.965 305.879 334.965
 320.223 c 334.965 361.965 l 334.965 370.246 341.695 376.973 349.973 376.973
 c 464.992 376.973 l 473.27 376.973 480 370.242 480 361.965 c 480 320.223
 l 480.004 305.879 468.328 294.207 453.98 294.207 c h
349.973 368.984 m 346.102 368.984 342.953 365.84 342.953 361.965 c 342.953
 320.223 l 342.953 310.281 351.043 302.191 360.988 302.191 c 453.984 302.191
 l 463.93 302.191 472.016 310.281 472.016 320.223 c 472.016 361.965 l 472.016
 365.84 468.867 368.984 464.996 368.984 c h
349.973 368.984 m f
Q Q
showpage
%%Trailer
end restore
%%EOF
