%!PS-Adobe-3.0 EPSF-3.0
%%Creator: cairo 1.14.8 (http://cairographics.org)
%%CreationDate: Wed Mar 20 09:06:38 2019
%%Pages: 1
%%DocumentData: Clean7Bit
%%LanguageLevel: 2
%%BoundingBox: 0 93 491 398
%%EndComments
%%BeginProlog
save
50 dict begin
/q { gsave } bind def
/Q { grestore } bind def
/cm { 6 array astore concat } bind def
/w { setlinewidth } bind def
/J { setlinecap } bind def
/j { setlinejoin } bind def
/M { setmiterlimit } bind def
/d { setdash } bind def
/m { moveto } bind def
/l { lineto } bind def
/c { curveto } bind def
/h { closepath } bind def
/re { exch dup neg 3 1 roll 5 3 roll moveto 0 rlineto
      0 exch rlineto 0 rlineto closepath } bind def
/S { stroke } bind def
/f { fill } bind def
/f* { eofill } bind def
/n { newpath } bind def
/W { clip } bind def
/W* { eoclip } bind def
/BT { } bind def
/ET { } bind def
/pdfmark where { pop globaldict /?pdfmark /exec load put }
    { globaldict begin /?pdfmark /pop load def /pdfmark
    /cleartomark load def end } ifelse
/BDC { mark 3 1 roll /BDC pdfmark } bind def
/EMC { mark /EMC pdfmark } bind def
/cairo_store_point { /cairo_point_y exch def /cairo_point_x exch def } def
/Tj { show currentpoint cairo_store_point } bind def
/TJ {
  {
    dup
    type /stringtype eq
    { show } { -0.001 mul 0 cairo_font_matrix dtransform rmoveto } ifelse
  } forall
  currentpoint cairo_store_point
} bind def
/cairo_selectfont { cairo_font_matrix aload pop pop pop 0 0 6 array astore
    cairo_font exch selectfont cairo_point_x cairo_point_y moveto } bind def
/Tf { pop /cairo_font exch def /cairo_font_matrix where
      { pop cairo_selectfont } if } bind def
/Td { matrix translate cairo_font_matrix matrix concatmatrix dup
      /cairo_font_matrix exch def dup 4 get exch 5 get cairo_store_point
      /cairo_font where { pop cairo_selectfont } if } bind def
/Tm { 2 copy 8 2 roll 6 array astore /cairo_font_matrix exch def
      cairo_store_point /cairo_font where { pop cairo_selectfont } if } bind def
/g { setgray } bind def
/rg { setrgbcolor } bind def
/d1 { setcachedevice } bind def
%%EndProlog
%%BeginSetup
%%EndSetup
%%Page: 1 1
%%BeginPageSetup
%%PageBoundingBox: 0 93 491 398
%%EndPageSetup
q 0 93 491 305 rectclip q
0.976471 0.811765 0.811765 rg
456.086 250.949 16.121 -18.422 re f
0.976471 0.654902 0.654902 rg
449.52 251.684 m 479.18 251.684 l 479.18 276.957 l 479.18 283.344 474 288.527
 467.609 288.527 c 461.09 288.527 l 454.699 288.527 449.52 283.344 449.52
 276.957 c h
449.52 251.684 m f
462.23 156.352 m 462.23 127.062 l 477.828 127.062 l 480.91 127.062 483.414
 129.566 483.414 132.652 c 483.414 150.766 l 483.414 153.848 480.91 156.352
 477.828 156.352 c h
462.23 156.352 m f
0.976471 0.811765 0.811765 rg
444.008 149.031 m 440.711 143.859 436.758 138.965 432.25 134.387 c 462.23
 134.387 l 462.23 149.031 l h
444.008 149.031 m f
0.643137 0.788235 1 rg
482.77 232.523 m 433.137 232.523 l 440.824 219.277 445.254 203.918 445.281
 187.531 c 482.77 187.531 l 485.109 187.531 487.008 189.426 487.008 191.77
 c 487.008 228.289 l 487.004 230.629 485.105 232.523 482.77 232.523 c h
482.77 232.523 m f
0.215686 0.384314 0.8 rg
472.207 228.527 m 456.09 228.527 l 453.879 228.527 452.094 230.32 452.094
 232.523 c 452.094 250.945 l 452.094 253.156 453.879 254.941 456.09 254.941
 c 472.207 254.941 l 474.41 254.941 476.203 253.156 476.203 250.945 c 476.203
 232.523 l 476.203 230.32 474.41 228.527 472.207 228.527 c h
460.082 236.523 m 468.207 236.523 l 468.207 246.949 l 460.082 246.949 l
 h
460.082 236.523 m f
479.18 247.688 m 449.52 247.688 l 447.312 247.688 445.523 249.477 445.523
 251.684 c 445.523 276.957 l 445.523 285.543 452.508 292.523 461.09 292.523
 c 467.609 292.523 l 476.191 292.523 483.176 285.543 483.176 276.957 c 483.176
 251.684 l 483.176 249.477 481.383 247.688 479.18 247.688 c h
453.516 255.68 m 475.18 255.68 l 475.18 276.957 l 475.18 281.129 471.781
 284.531 467.609 284.531 c 461.09 284.531 l 456.914 284.531 453.516 281.129
 453.516 276.957 c h
453.516 255.68 m f
477.828 123.07 m 462.227 123.07 l 460.02 123.07 458.227 124.859 458.227
 127.066 c 458.227 156.355 l 458.227 158.559 460.02 160.352 462.227 160.352
 c 477.828 160.352 l 483.109 160.352 487.41 156.055 487.41 150.766 c 487.41
 132.652 l 487.41 127.367 483.109 123.07 477.828 123.07 c h
466.223 131.062 m 477.828 131.062 l 478.703 131.062 479.418 131.773 479.418
 132.652 c 479.418 150.766 l 479.418 151.645 478.703 152.352 477.828 152.352
 c 466.223 152.352 l h
466.223 131.062 m f
462.227 130.387 m 432.246 130.387 l 430.641 130.387 429.184 131.355 428.562
 132.844 c 427.938 134.332 428.27 136.043 429.402 137.191 c 433.746 141.602
 437.527 146.312 440.637 151.184 c 441.375 152.332 442.641 153.027 444.004
 153.027 c 462.227 153.027 l 464.434 153.027 466.223 151.238 466.223 149.031
 c 466.223 134.387 l 466.223 132.176 464.434 130.387 462.227 130.387 c h
441.211 138.383 m 458.227 138.383 l 458.227 145.035 l 446.164 145.035 l
 444.641 142.773 442.984 140.555 441.211 138.383 c h
441.211 138.383 m f
482.77 183.535 m 445.277 183.535 l 443.07 183.535 441.285 185.32 441.281
 187.527 c 441.258 202.605 437.242 217.469 429.68 230.52 c 428.961 231.758
 428.961 233.281 429.672 234.52 c 430.387 235.762 431.707 236.523 433.137
 236.523 c 482.766 236.523 l 487.305 236.523 491 232.828 491 228.285 c 491
 191.77 l 491 187.227 487.309 183.535 482.77 183.535 c h
449.184 191.527 m 482.77 191.527 l 482.902 191.527 483.008 191.637 483.008
 191.77 c 483.008 228.285 l 483.008 228.418 482.902 228.527 482.77 228.527
 c 439.793 228.527 l 445.41 216.984 448.617 204.371 449.184 191.527 c h
449.184 191.527 m f
0.976471 0.811765 0.811765 rg
18.797 250.945 16.117 -18.422 re f
0.976471 0.654902 0.654902 rg
41.484 251.684 m 11.828 251.684 l 11.828 276.957 l 11.828 283.344 17.008
 288.527 23.395 288.527 c 29.914 288.527 l 36.301 288.527 41.484 283.344
 41.484 276.957 c h
41.484 251.684 m f
28.773 156.352 m 28.773 127.062 l 13.18 127.062 l 10.09 127.062 7.59 129.566
 7.59 132.652 c 7.59 150.766 l 7.59 153.848 10.09 156.352 13.18 156.352 
c h
28.773 156.352 m f
0.976471 0.811765 0.811765 rg
46.992 149.031 m 28.773 149.031 l 28.773 134.387 l 58.75 134.387 l 54.242
 138.965 50.293 143.859 46.992 149.031 c h
46.992 149.031 m f
0.643137 0.788235 1 rg
57.863 232.523 m 8.23 232.523 l 5.895 232.523 3.996 230.629 3.996 228.289
 c 3.996 191.77 l 3.996 189.426 5.895 187.531 8.23 187.531 c 45.723 187.531
 l 45.746 203.918 50.18 219.277 57.863 232.523 c h
57.863 232.523 m f
0.215686 0.384314 0.8 rg
34.914 228.527 m 18.797 228.527 l 16.594 228.527 14.801 230.32 14.801 232.523
 c 14.801 250.945 l 14.801 253.156 16.594 254.941 18.797 254.941 c 34.914
 254.941 l 37.121 254.941 38.914 253.156 38.914 250.945 c 38.914 232.523
 l 38.914 230.32 37.121 228.527 34.914 228.527 c h
22.793 236.523 m 30.918 236.523 l 30.918 246.949 l 22.793 246.949 l h
22.793 236.523 m f
41.484 247.688 m 11.828 247.688 l 9.617 247.688 7.832 249.477 7.832 251.684
 c 7.832 276.957 l 7.832 285.543 14.809 292.523 23.395 292.523 c 29.914 
292.523 l 38.5 292.523 45.484 285.543 45.484 276.957 c 45.484 251.684 l 
45.484 249.477 43.691 247.688 41.484 247.688 c h
15.824 255.68 m 37.488 255.68 l 37.488 276.957 l 37.488 281.129 34.09 284.531
 29.914 284.531 c 23.395 284.531 l 19.219 284.531 15.824 281.129 15.824 
276.957 c h
15.824 255.68 m f
28.777 123.07 m 13.18 123.07 l 7.895 123.07 3.594 127.367 3.594 132.652
 c 3.594 150.766 l 3.594 156.051 7.895 160.348 13.18 160.348 c 28.777 160.348
 l 30.98 160.348 32.773 158.559 32.773 156.352 c 32.773 127.062 l 32.773
 124.859 30.98 123.07 28.777 123.07 c h
13.18 152.355 m 12.301 152.355 11.586 151.645 11.586 150.766 c 11.586 132.652
 l 11.586 131.777 12.301 131.062 13.18 131.062 c 24.773 131.062 l 24.773
 152.355 l h
13.18 152.355 m f
45.723 183.535 m 8.23 183.535 l 3.695 183.535 0 187.227 0 191.77 c 0 228.285
 l 0 232.828 3.691 236.523 8.23 236.523 c 57.863 236.523 l 59.293 236.523
 60.613 235.758 61.328 234.52 c 62.039 233.281 62.039 231.758 61.324 230.52
 c 53.754 217.469 49.746 202.605 49.723 187.527 c 49.719 185.32 47.93 183.535
 45.723 183.535 c h
8.23 228.527 m 8.102 228.527 7.996 228.422 7.996 228.289 c 7.996 191.77
 l 7.996 191.637 8.102 191.531 8.23 191.531 c 41.816 191.531 l 42.383 204.371
 45.59 216.984 51.207 228.531 c 8.23 228.531 l h
8.23 228.527 m f
58.754 130.387 m 28.777 130.387 l 26.57 130.387 24.777 132.18 24.777 134.387
 c 24.777 149.031 l 24.777 151.238 26.57 153.027 28.777 153.027 c 46.996
 153.027 l 48.359 153.027 49.629 152.332 50.367 151.184 c 53.477 146.312
 57.254 141.602 61.602 137.191 c 62.73 136.043 63.062 134.332 62.438 132.844
 c 61.816 131.355 60.363 130.387 58.754 130.387 c h
32.77 138.383 m 49.793 138.383 l 48.016 140.555 46.363 142.773 44.84 145.035
 c 32.77 145.035 l h
32.77 138.383 m f
0.419608 0.866667 0.866667 rg
309.746 316.48 m 91.68 316.48 l 85.832 316.48 81.09 311.738 81.09 305.891
 c 81.09 232.523 l 409.91 232.523 l 409.91 305.891 l 409.91 311.738 405.168
 316.48 399.316 316.48 c h
309.746 316.48 m f
0.215686 0.384314 0.8 rg
409.91 228.527 m 81.09 228.527 l 78.883 228.527 77.094 230.32 77.094 232.523
 c 77.094 305.891 l 77.094 313.934 83.637 320.477 91.684 320.477 c 399.32
 320.477 l 407.363 320.477 413.91 313.934 413.91 305.891 c 413.91 232.523
 l 413.91 230.32 412.121 228.527 409.91 228.527 c h
85.086 236.523 m 405.914 236.523 l 405.914 305.891 l 405.914 309.523 402.957
 312.48 399.316 312.48 c 91.684 312.48 l 88.051 312.48 85.086 309.527 85.086
 305.891 c h
85.086 236.523 m f
0.643137 0.788235 1 rg
310.434 277.656 m 123.273 277.656 l 123.273 187.395 l 367.727 187.395 l
 367.727 277.656 l h
310.434 277.656 m f
0.215686 0.384314 0.8 rg
367.727 183.398 m 123.273 183.398 l 121.066 183.398 119.277 185.188 119.277
 187.395 c 119.277 277.656 l 119.277 279.867 121.066 281.652 123.273 281.652
 c 367.723 281.652 l 369.934 281.652 371.723 279.867 371.723 277.656 c 371.723
 187.395 l 371.727 185.188 369.934 183.398 367.727 183.398 c h
127.27 191.391 m 363.727 191.391 l 363.727 273.66 l 127.27 273.66 l h
127.27 191.391 m f
0.976471 0.654902 0.654902 rg
435.887 187.395 m 435.887 149.75 405.371 119.238 367.727 119.238 c 330.082
 119.238 299.57 149.75 299.57 187.395 c 299.57 225.035 330.082 255.551 367.727
 255.551 c 405.371 255.551 435.887 225.035 435.887 187.395 c h
435.887 187.395 m f
0.878431 0.921569 0.988235 rg
367.727 135.223 m 338.961 135.223 315.559 158.625 315.559 187.391 c 315.559
 216.156 338.961 239.562 367.727 239.562 c 396.496 239.562 419.898 216.156
 419.898 187.391 c 419.898 158.625 396.496 135.223 367.727 135.223 c h
367.727 135.223 m f
0.643137 0.788235 1 rg
367.727 277.656 m 317.973 277.656 277.488 237.191 277.461 187.438 c 299.57
 187.438 l 299.594 225.062 330.098 255.551 367.727 255.551 c 405.367 255.551
 435.887 225.035 435.887 187.391 c 435.887 149.766 405.395 119.262 367.77
 119.234 c 367.77 97.129 l 417.523 97.152 457.992 137.633 457.992 187.391
 c 457.992 237.168 417.5 277.656 367.727 277.656 c h
367.727 277.656 m f
0.215686 0.384314 0.8 rg
367.773 93.129 m 366.715 93.129 365.699 93.551 364.949 94.301 c 364.199
 95.051 363.777 96.07 363.777 97.129 c 363.777 119.238 l 363.777 121.441
 365.566 123.234 367.77 123.234 c 403.129 123.254 431.891 152.035 431.891
 187.395 c 431.891 222.773 403.109 251.559 367.727 251.559 c 332.375 251.559
 303.59 222.789 303.566 187.438 c 303.566 185.23 301.777 183.445 299.57 
183.445 c 277.465 183.445 l 276.402 183.445 275.391 183.867 274.641 184.613
 c 273.891 185.363 273.465 186.379 273.469 187.441 c 273.496 239.391 315.781
 281.656 367.727 281.656 c 419.707 281.656 461.992 239.371 461.992 187.395
 c 461.988 135.445 419.727 93.156 367.773 93.129 c h
371.773 115.348 m 371.773 101.219 l 417.465 103.344 453.996 141.188 453.996
 187.395 c 453.996 234.961 415.297 273.66 367.727 273.66 c 321.523 273.66
 283.676 237.129 281.555 191.434 c 295.684 191.434 l 297.785 229.348 329.309
 259.547 367.723 259.547 c 407.512 259.547 439.883 227.176 439.883 187.391
 c 439.883 148.973 409.684 117.453 371.773 115.348 c h
371.773 115.348 m f
1 0.917647 0.572549 rg
262.457 364.055 m 228.543 364.055 l 227.734 364.055 227.082 364.711 227.082
 365.516 c 227.082 387.855 l 227.082 391.09 229.703 393.711 232.938 393.711
 c 258.07 393.711 l 261.301 393.711 263.926 391.09 263.926 387.855 c 263.926
 365.52 l 263.922 364.711 263.266 364.055 262.457 364.055 c h
262.457 364.055 m f
0.976471 0.811765 0.811765 rg
236.523 364.055 18.418 -21.785 re f
236.523 174.684 m 236.523 138.207 l 236.523 133.121 240.645 128.996 245.73
 128.996 c 250.82 128.996 254.941 133.117 254.941 138.207 c 254.941 174.684
 l h
236.523 174.684 m f
0.976471 0.654902 0.654902 rg
259.176 175.695 m 231.828 175.695 l 228.188 175.695 225.238 178.645 225.238
 182.289 c 225.238 335.68 l 225.238 339.316 228.188 342.27 231.828 342.27
 c 259.176 342.27 l 262.812 342.27 265.762 339.316 265.762 335.68 c 265.762
 182.289 l 265.762 178.645 262.816 175.695 259.176 175.695 c h
259.176 175.695 m f
1 0.917647 0.572549 rg
257.383 218.363 m 257.383 211.93 252.168 206.711 245.73 206.711 c 239.293
 206.711 234.078 211.93 234.078 218.363 c 234.078 224.801 239.293 230.016
 245.73 230.016 c 252.168 230.016 257.383 224.801 257.383 218.363 c h
257.383 218.363 m f
0.215686 0.384314 0.8 rg
262.457 360.059 m 228.543 360.059 l 225.531 360.059 223.082 362.504 223.082
 365.516 c 223.082 387.855 l 223.082 393.289 227.504 397.711 232.938 397.711
 c 258.07 397.711 l 263.5 397.711 267.922 393.289 267.922 387.855 c 267.922
 365.52 l 267.918 362.504 265.469 360.059 262.457 360.059 c h
231.078 368.051 m 259.926 368.051 l 259.926 387.855 l 259.926 388.883 259.094
 389.715 258.07 389.715 c 232.938 389.715 l 231.91 389.715 231.078 388.883
 231.078 387.855 c h
231.078 368.051 m f
254.941 338.273 m 236.52 338.273 l 234.312 338.273 232.523 340.062 232.523
 342.27 c 232.523 364.055 l 232.523 366.258 234.312 368.051 236.52 368.051
 c 254.941 368.051 l 257.148 368.051 258.941 366.258 258.941 364.055 c 258.941
 342.27 l 258.941 340.062 257.152 338.273 254.941 338.273 c h
240.516 346.266 m 250.945 346.266 l 250.945 360.059 l 240.516 360.059 l
 h
240.516 346.266 m f
245.73 125 m 238.445 125 232.523 130.926 232.523 138.211 c 232.523 174.684
 l 232.523 176.891 234.312 178.68 236.52 178.68 c 254.941 178.68 l 257.148
 178.68 258.941 176.891 258.941 174.684 c 258.941 138.211 l 258.941 130.926
 253.016 125 245.73 125 c h
240.516 170.688 m 240.516 138.211 l 240.516 135.336 242.855 132.996 245.73
 132.996 c 248.609 132.996 250.945 135.336 250.945 138.211 c 250.945 170.688
 l h
240.516 170.688 m f
259.176 171.699 m 231.828 171.699 l 225.988 171.699 221.238 176.449 221.238
 182.289 c 221.238 335.68 l 221.238 341.516 225.988 346.266 231.828 346.266
 c 259.176 346.266 l 265.012 346.266 269.762 341.52 269.762 335.68 c 269.762
 182.289 l 269.762 176.449 265.016 171.699 259.176 171.699 c h
231.828 338.273 m 230.398 338.273 229.234 337.109 229.234 335.68 c 229.234
 182.289 l 229.234 180.855 230.398 179.691 231.828 179.691 c 259.176 179.691
 l 260.605 179.691 261.77 180.855 261.77 182.289 c 261.77 335.68 l 261.77
 337.109 260.605 338.273 259.176 338.273 c h
231.828 338.273 m f
0.976471 0.654902 0.654902 rg
191.43 187.395 m 191.43 149.75 160.918 119.238 123.273 119.238 c 85.633
 119.238 55.117 149.75 55.117 187.395 c 55.117 225.035 85.633 255.551 123.273
 255.551 c 160.918 255.551 191.43 225.035 191.43 187.395 c h
191.43 187.395 m f
0.878431 0.921569 0.988235 rg
123.273 135.223 m 94.504 135.223 71.105 158.625 71.105 187.391 c 71.105
 216.156 94.504 239.562 123.273 239.562 c 152.043 239.562 175.441 216.156
 175.441 187.391 c 175.441 158.625 152.043 135.223 123.273 135.223 c h
123.273 135.223 m f
0.643137 0.788235 1 rg
55.117 187.395 m 55.117 225.039 85.633 255.555 123.273 255.555 c 160.902
 255.555 191.406 225.062 191.43 187.441 c 213.539 187.441 l 213.516 237.191
 173.031 277.66 123.273 277.66 c 73.5 277.66 33.012 237.168 33.012 187.395
 c 33.012 137.637 73.477 97.156 123.23 97.133 c 123.23 119.238 l 85.609 
119.262 55.117 149.766 55.117 187.395 c h
55.117 187.395 m f
0.215686 0.384314 0.8 rg
123.273 115.238 m 83.484 115.238 51.117 147.605 51.117 187.395 c 51.117
 227.18 83.484 259.547 123.273 259.547 c 163.062 259.547 195.43 227.18 195.43
 187.395 c 195.43 147.605 163.062 115.238 123.273 115.238 c h
123.273 251.555 m 87.895 251.555 59.113 222.77 59.113 187.395 c 59.113 
152.012 87.898 123.234 123.273 123.234 c 158.652 123.234 187.434 152.012
 187.434 187.395 c 187.434 222.77 158.652 251.555 123.273 251.555 c h
123.273 251.555 m f
123.227 93.129 m 71.277 93.156 29.012 135.445 29.012 187.395 c 29.012 239.367
 71.297 281.652 123.273 281.652 c 175.223 281.652 217.508 239.391 217.535
 187.441 c 217.535 186.379 217.113 185.359 216.367 184.609 c 215.617 183.863
 214.602 183.441 213.539 183.441 c 191.43 183.441 l 189.227 183.441 187.434
 185.227 187.434 187.438 c 187.414 222.789 158.629 251.555 123.273 251.555
 c 87.895 251.555 59.113 222.77 59.113 187.391 c 59.113 152.035 87.879 123.254
 123.23 123.23 c 125.441 123.23 127.227 121.438 127.227 119.234 c 127.227
 97.129 l 127.227 96.07 126.805 95.051 126.055 94.301 c 125.309 93.551 124.289
 93.129 123.227 93.129 c h
123.273 273.66 m 75.707 273.66 37.004 234.961 37.004 187.395 c 37.004 141.188
 73.535 103.34 119.23 101.219 c 119.23 115.348 l 81.32 117.453 51.113 148.973
 51.113 187.391 c 51.113 227.176 83.484 259.547 123.273 259.547 c 161.695
 259.547 193.211 229.348 195.316 191.434 c 209.445 191.434 l 207.324 237.133
 169.477 273.66 123.273 273.66 c h
123.273 273.66 m f
367.727 115.238 m 327.941 115.238 295.574 147.605 295.574 187.395 c 295.574
 227.18 327.941 259.547 367.727 259.547 c 407.516 259.547 439.883 227.18
 439.883 187.395 c 439.883 147.605 407.516 115.238 367.727 115.238 c h
367.727 251.555 m 332.352 251.555 303.566 222.77 303.566 187.395 c 303.566
 152.012 332.352 123.234 367.727 123.234 c 403.109 123.234 431.887 152.012
 431.887 187.395 c 431.887 222.77 403.105 251.555 367.727 251.555 c h
367.727 251.555 m f
Q Q
showpage
%%Trailer
end restore
%%EOF
