%!PS-Adobe-3.0 EPSF-3.0
%%Creator: cairo 1.14.8 (http://cairographics.org)
%%CreationDate: Wed Mar 20 09:06:38 2019
%%Pages: 1
%%DocumentData: Clean7Bit
%%LanguageLevel: 2
%%BoundingBox: 12 0 476 487
%%EndComments
%%BeginProlog
save
50 dict begin
/q { gsave } bind def
/Q { grestore } bind def
/cm { 6 array astore concat } bind def
/w { setlinewidth } bind def
/J { setlinecap } bind def
/j { setlinejoin } bind def
/M { setmiterlimit } bind def
/d { setdash } bind def
/m { moveto } bind def
/l { lineto } bind def
/c { curveto } bind def
/h { closepath } bind def
/re { exch dup neg 3 1 roll 5 3 roll moveto 0 rlineto
      0 exch rlineto 0 rlineto closepath } bind def
/S { stroke } bind def
/f { fill } bind def
/f* { eofill } bind def
/n { newpath } bind def
/W { clip } bind def
/W* { eoclip } bind def
/BT { } bind def
/ET { } bind def
/pdfmark where { pop globaldict /?pdfmark /exec load put }
    { globaldict begin /?pdfmark /pop load def /pdfmark
    /cleartomark load def end } ifelse
/BDC { mark 3 1 roll /BDC pdfmark } bind def
/EMC { mark /EMC pdfmark } bind def
/cairo_store_point { /cairo_point_y exch def /cairo_point_x exch def } def
/Tj { show currentpoint cairo_store_point } bind def
/TJ {
  {
    dup
    type /stringtype eq
    { show } { -0.001 mul 0 cairo_font_matrix dtransform rmoveto } ifelse
  } forall
  currentpoint cairo_store_point
} bind def
/cairo_selectfont { cairo_font_matrix aload pop pop pop 0 0 6 array astore
    cairo_font exch selectfont cairo_point_x cairo_point_y moveto } bind def
/Tf { pop /cairo_font exch def /cairo_font_matrix where
      { pop cairo_selectfont } if } bind def
/Td { matrix translate cairo_font_matrix matrix concatmatrix dup
      /cairo_font_matrix exch def dup 4 get exch 5 get cairo_store_point
      /cairo_font where { pop cairo_selectfont } if } bind def
/Tm { 2 copy 8 2 roll 6 array astore /cairo_font_matrix exch def
      cairo_store_point /cairo_font where { pop cairo_selectfont } if } bind def
/g { setgray } bind def
/rg { setrgbcolor } bind def
/d1 { setcachedevice } bind def
%%EndProlog
%%BeginSetup
%%EndSetup
%%Page: 1 1
%%BeginPageSetup
%%PageBoundingBox: 12 0 476 487
%%EndPageSetup
q 12 0 464 487 rectclip q
0.27451 0.443137 0.776471 rg
115.875 123.531 m 178.219 123.531 l 178.219 267.066 l 178.219 287.305 161.812
 303.715 141.574 303.715 c 116.773 303.715 l 100.445 303.715 87.203 290.473
 87.203 274.141 c 87.203 152.203 l 87.203 136.367 100.039 123.531 115.875
 123.531 c h
115.875 123.531 m f
0.643137 0.788235 1 rg
178.219 240.875 m 161.75 240.875 l 159.766 240.875 158.152 242.484 158.152
 244.473 c 158.152 251.664 l 158.152 253.652 159.766 255.262 161.75 255.262
 c 178.219 255.262 l h
178.219 240.875 m f
0.976471 0.654902 0.654902 rg
301.562 6.516 m 363.93 46.055 l 367.582 48.367 368.664 53.203 366.352 56.852
 c 365.578 58.066 l 363.262 61.719 358.43 62.801 354.781 60.488 c 283.68
 15.406 l 287.293 9.707 l 290.355 4.887 296.742 3.453 301.562 6.516 c h
301.562 6.516 m f
0.976471 0.811765 0.811765 rg
142.328 428.008 m 167.402 428.008 187.723 407.684 187.723 382.613 c 187.723
 355.969 l 189.934 355.969 l 193.824 355.969 196.98 352.816 196.98 348.922
 c 196.98 345.023 193.824 341.867 189.934 341.867 c 186.488 341.867 l 182.586
 325.066 169.395 311.828 152.582 307.945 c 152.582 301.703 l 148.789 302.988
 144.738 303.715 140.512 303.715 c 117.629 303.715 l 115.996 303.715 114.402
 303.547 112.84 303.301 c 112.84 317.672 l 103.109 325.996 96.938 338.355
 96.938 352.164 c 96.938 382.613 l 96.938 407.688 117.262 428.008 142.328
 428.008 c h
142.328 428.008 m f
0.976471 0.654902 0.654902 rg
25.512 299.762 m 76.629 299.762 l 82.469 299.762 87.203 295.027 87.203 
289.188 c 87.203 207.059 l 80.469 201.871 74.359 195.934 69 189.34 c 69 
281.559 l 25.512 281.559 l 20.48 281.559 16.41 285.633 16.41 290.66 c 16.41
 295.684 20.48 299.762 25.512 299.762 c h
25.512 299.762 m f
0.215686 0.384314 0.8 rg
69 185.348 m 68.551 185.348 68.098 185.422 67.66 185.574 c 66.066 186.145
 65.004 187.648 65.004 189.344 c 65.004 277.559 l 25.508 277.559 l 18.289
 277.559 12.41 283.438 12.41 290.66 c 12.41 297.883 18.285 303.762 25.508
 303.762 c 76.625 303.762 l 84.66 303.762 91.199 297.223 91.199 289.188 
c 91.199 207.059 l 91.199 205.816 90.621 204.652 89.641 203.895 c 83.141
 198.891 77.238 193.145 72.098 186.824 c 71.324 185.871 70.176 185.348 69
 185.348 c h
25.508 295.762 m 22.695 295.762 20.402 293.473 20.402 290.66 c 20.402 287.844
 22.695 285.555 25.508 285.555 c 69 285.555 l 71.203 285.555 72.996 283.762
 72.996 281.559 c 72.996 199.797 l 76.203 203.059 79.613 206.137 83.207 
209.004 c 83.207 289.184 l 83.207 292.809 80.25 295.758 76.625 295.758 c
 25.508 295.758 l h
87.203 207.059 m 87.223 207.059 l h
87.203 207.059 m f
171.129 355.598 m 173.441 355.598 175.312 357.477 175.312 359.785 c 175.312
 366.766 l 175.312 369.074 173.441 370.953 171.129 370.953 c 168.816 370.953
 166.941 369.074 166.941 366.766 c 166.941 359.785 l 166.938 357.477 168.816
 355.598 171.129 355.598 c h
171.129 355.598 m f
0.643137 0.788235 1 rg
313.586 73.98 m 342.465 78.898 l 345.02 79.332 347.613 78.375 349.348 76.348
 c 354.336 70.516 l 355.59 69.055 356.285 67.152 356.285 65.184 c 356.285
 62.375 354.875 59.77 352.578 58.328 c 307.664 30.164 l 305.121 28.574 302.117
 28.02 299.219 28.605 c 295.703 29.312 292.676 31.621 290.949 34.906 c 285.891
 44.543 l 284.367 47.449 285.094 51.082 287.598 53.094 c h
313.586 73.98 m f
0.215686 0.384314 0.8 rg
301.5 24.379 m 300.473 24.379 299.449 24.48 298.43 24.688 c 293.723 25.633
 289.711 28.684 287.41 33.051 c 282.352 42.688 l 279.934 47.305 281.086 
52.984 285.098 56.211 c 311.086 77.094 l 311.617 77.52 312.25 77.805 312.922
 77.922 c 341.793 82.84 l 345.77 83.516 349.723 82.062 352.387 78.953 c 
357.379 73.121 l 359.25 70.926 360.285 68.109 360.285 65.184 c 360.285 61.023
 358.148 57.102 354.703 54.941 c 309.785 26.781 l 307.266 25.195 304.398
 24.379 301.5 24.379 c h
315.281 70.211 m 290.102 49.98 l 289.078 49.156 288.789 47.617 289.43 46.402
 c 294.488 36.766 l 295.656 34.539 297.672 32.992 300.004 32.52 c 301.91
 32.137 303.871 32.504 305.539 33.551 c 350.457 61.711 l 351.586 62.418 
352.293 63.75 352.293 65.18 c 352.293 66.199 351.938 67.172 351.305 67.918
 c 346.312 73.75 l 345.496 74.699 344.32 75.152 343.137 74.953 c h
315.281 70.211 m f
0.27451 0.443137 0.776471 rg
228.652 186.992 m 237.867 186.992 246.906 184.227 254.793 178.992 c 262.09
 174.148 268.156 167.363 272.418 159.258 c 318.535 78.367 l 319.457 76.75
 319.109 74.633 317.734 73.473 c 288.469 48.793 l 286.926 47.496 284.707
 47.891 283.621 49.664 c 245 112.594 l 240.824 118.938 l 238.922 121.82 
235.875 123.531 232.629 123.531 c 116.199 123.531 l 100.184 123.531 87.203
 137.777 87.203 155.359 c 87.203 186.996 l 228.652 186.996 l h
228.652 186.992 m f
0.215686 0.384314 0.8 rg
286.41 44.031 m 286.039 44.031 285.664 44.062 285.289 44.121 c 283.199 
44.457 281.355 45.719 280.215 47.57 c 241.594 110.504 l 237.484 116.734 
l 236.336 118.488 234.52 119.535 232.629 119.535 c 116.199 119.535 l 98.008
 119.535 83.207 135.602 83.207 155.359 c 83.207 186.992 l 83.207 189.199
 84.992 190.988 87.203 190.988 c 228.648 190.988 l 238.656 190.988 248.461
 187.988 257 182.324 c 264.836 177.125 271.391 169.793 275.953 161.117 c
 322.008 80.344 l 323.871 77.078 323.141 72.809 320.309 70.418 c 291.039
 45.742 l 289.73 44.629 288.086 44.031 286.41 44.031 c h
91.199 182.992 m 91.199 155.359 l 91.199 140.012 102.41 127.527 116.199
 127.527 c 232.629 127.527 l 237.215 127.527 241.523 125.133 244.164 121.129
 c 248.34 114.789 l 286.602 52.441 l 315.16 76.527 l 268.945 157.273 l 264.941
 164.883 259.305 171.203 252.586 175.66 c 245.355 180.457 237.078 182.992
 228.648 182.992 c h
91.199 182.992 m f
178.215 119.535 m 115.875 119.535 l 97.859 119.535 83.207 134.188 83.207
 152.199 c 83.207 274.141 l 83.207 292.648 98.262 307.711 116.773 307.711
 c 141.574 307.711 l 163.984 307.711 182.215 289.477 182.215 267.066 c 182.215
 123.531 l 182.215 121.324 180.426 119.535 178.215 119.535 c h
116.773 299.719 m 102.668 299.719 91.199 288.242 91.199 274.141 c 91.199
 152.203 l 91.199 138.594 102.266 127.527 115.875 127.527 c 174.219 127.527
 l 174.219 267.066 l 174.219 285.07 159.578 299.719 141.574 299.719 c h
116.773 299.719 m f
1 0.917647 0.572549 rg
255.891 113.27 m 255.891 52.918 206.969 3.996 146.617 3.996 c 86.27 3.996
 37.348 52.918 37.348 113.27 c 37.348 173.621 86.27 222.543 146.617 222.543
 c 206.969 222.543 255.891 173.621 255.891 113.27 c h
255.891 113.27 m f
0.215686 0.384314 0.8 rg
146.617 0 m 84.16 0 33.352 50.812 33.352 113.27 c 33.352 175.727 84.16 
226.539 146.617 226.539 c 209.078 226.539 259.891 175.727 259.891 113.27
 c 259.891 50.812 209.078 0 146.617 0 c h
146.617 218.547 m 88.566 218.547 41.344 171.32 41.344 113.27 c 41.344 55.223
 88.566 7.992 146.617 7.992 c 204.672 7.992 251.898 55.223 251.898 113.27
 c 251.898 171.32 204.672 218.547 146.617 218.547 c h
146.617 218.547 m f
0.643137 0.788235 1 rg
231.352 113.27 m 231.352 66.473 193.414 28.539 146.617 28.539 c 99.824 
28.539 61.887 66.473 61.887 113.27 c 61.887 160.066 99.824 198 146.617 198
 c 193.414 198 231.352 160.066 231.352 113.27 c h
231.352 113.27 m f
0.976471 0.811765 0.811765 rg
151.34 354.648 m 151.34 345.77 144.145 338.578 135.27 338.578 c 126.391
 338.578 119.199 345.77 119.199 354.648 c 119.199 363.523 126.391 370.723
 135.27 370.723 c 144.145 370.723 151.34 363.523 151.34 354.648 c h
151.34 354.648 m f
0.215686 0.384314 0.8 rg
152.582 297.707 m 152.152 297.707 151.719 297.777 151.301 297.918 c 147.77
 299.113 144.141 299.715 140.512 299.715 c 117.629 299.715 l 116.367 299.715
 115.008 299.598 113.469 299.352 c 112.312 299.172 111.133 299.5 110.25 
300.258 c 109.359 301.016 108.844 302.129 108.844 303.297 c 108.844 315.871
 l 98.715 325.223 92.938 338.344 92.938 352.16 c 92.938 382.613 l 92.938
 409.848 115.094 432.004 142.332 432.004 c 169.566 432.004 191.723 409.848
 191.723 382.613 c 191.723 359.82 l 196.965 358.961 200.98 354.398 200.98
 348.918 c 200.98 342.828 196.027 337.871 189.938 337.871 c 189.555 337.871
 l 184.785 322.137 172.281 309.617 156.582 304.871 c 156.582 301.703 l 156.582
 300.414 155.961 299.207 154.918 298.457 c 154.227 297.965 153.406 297.707
 152.582 297.707 c h
117.629 307.711 m 140.512 307.711 l 143.219 307.711 145.918 307.441 148.586
 306.906 c 148.586 307.945 l 148.586 309.805 149.871 311.422 151.68 311.84
 c 166.91 315.355 179.043 327.5 182.594 342.773 c 183.016 344.586 184.629
 345.863 186.488 345.863 c 189.934 345.863 l 191.621 345.863 192.984 347.238
 192.984 348.922 c 192.984 350.602 191.617 351.973 189.934 351.973 c 187.727
 351.973 l 185.523 351.973 183.73 353.766 183.73 355.969 c 183.73 382.613
 l 183.73 405.438 165.156 424.012 142.332 424.012 c 119.508 424.012 100.934
 405.438 100.934 382.613 c 100.934 352.164 l 100.934 340.062 106.219 328.594
 115.438 320.703 c 116.324 319.945 116.836 318.836 116.836 317.668 c 116.836
 307.699 l 117.102 307.707 117.367 307.711 117.629 307.711 c h
117.629 307.711 m f
0.878431 0.921569 0.988235 rg
88.797 413.801 m 88.797 413.797 l 96.898 426.168 111.367 434.418 127.879
 434.418 c 131.395 434.418 134.238 431.723 134.238 428.398 c 134.238 427.133
 l 134.238 428.621 134.695 430.004 135.473 431.152 c 135.473 431.152 135.691
 431.598 136.34 432.203 c 137.191 433.066 138.258 433.727 139.457 434.09
 c 141.141 434.766 143.488 435.32 146.727 435.457 c 146.746 435.457 l 150.109
 435.598 154.43 435.281 159.973 434.164 c 164.004 433.723 167.852 432.695
 171.434 431.164 c 171.449 431.16 171.461 431.156 171.473 431.152 c 171.473
 431.148 l 173.508 430.281 175.449 429.246 177.289 428.07 c 178.09 427.578
 178.488 427.27 178.488 427.27 c 188.832 420.137 195.598 408.336 195.598
 394.973 c 195.598 380.52 l 195.598 379.852 195.043 379.305 194.363 379.305
 c 134.238 379.305 l 134.238 336.145 l 126.988 321.352 l 126.781 320.93 
126.348 320.664 125.875 320.664 c 107.043 320.664 l 105.141 320.664 103.266
 320.934 101.48 321.449 c 101.426 321.473 99.516 322.277 98.738 323.516 
c 96.91 326.449 92.602 333.344 88.68 339.652 c 82.867 349.004 79.559 359.688
 79.297 370.652 c 78.586 400.684 88.797 413.801 88.797 413.801 c h
88.797 413.801 m f
0.215686 0.384314 0.8 rg
296.051 0.914 m 291.301 0.914 286.648 3.266 283.922 7.566 c 280.309 13.27
 l 279.125 15.137 279.68 17.602 281.543 18.785 c 352.645 63.863 l 355.309
 65.555 358.477 66.105 361.559 65.418 c 364.637 64.727 367.266 62.875 368.957
 60.211 c 369.727 58.996 l 373.215 53.492 371.582 46.172 366.074 42.684 
c 303.707 3.137 l 301.332 1.633 298.68 0.914 296.051 0.914 c h
301.562 6.516 m 301.586 6.516 l h
289.199 14.176 m 290.676 11.844 l 292.547 8.895 296.469 8.012 299.426 9.887
 c 361.793 49.426 l 363.574 50.559 364.105 52.926 362.973 54.715 c 362.207
 55.926 l 361.66 56.793 360.809 57.391 359.809 57.613 c 358.812 57.836 357.789
 57.656 356.926 57.109 c h
289.199 14.176 m f
146.617 24.543 m 97.695 24.543 57.895 64.344 57.895 113.27 c 57.895 162.191
 97.695 201.992 146.617 201.992 c 195.543 201.992 235.348 162.191 235.348
 113.27 c 235.348 64.344 195.543 24.543 146.617 24.543 c h
146.617 194.004 m 102.102 194.004 65.887 157.789 65.887 113.27 c 65.887
 68.754 102.102 32.535 146.617 32.535 c 191.137 32.535 227.355 68.754 227.355
 113.27 c 227.355 157.785 191.137 194.004 146.617 194.004 c h
146.617 194.004 m f
0.878431 0.921569 0.988235 rg
283.684 15.41 m 298.102 24.551 l 254.074 93.484 l 252.688 85.926 250.539
 78.637 247.688 71.703 c 286.184 11.43 l 286.199 11.434 l h
283.684 15.41 m f
0.215686 0.384314 0.8 rg
286.191 7.438 m 284.867 7.438 283.57 8.09 282.812 9.277 c 244.32 69.555
 l 243.617 70.652 243.496 72.02 243.992 73.227 c 246.75 79.922 248.82 86.984
 250.145 94.207 c 250.434 95.824 251.691 97.094 253.305 97.41 c 254.914 
97.734 256.559 97.027 257.441 95.641 c 301.469 26.699 l 302.039 25.805 302.23
 24.719 302.004 23.684 c 301.773 22.645 301.137 21.742 300.238 21.172 c 
289.199 14.172 l 289.574 13.578 l 290.148 12.672 290.336 11.574 290.094 
10.535 c 289.852 9.488 289.199 8.586 288.285 8.027 c 287.629 7.629 286.902
 7.438 286.191 7.438 c h
252.16 72.125 m 284.875 20.895 l 292.574 25.777 l 255.844 83.289 l 254.809
 79.492 253.578 75.762 252.16 72.125 c h
252.16 72.125 m f
0.27451 0.443137 0.776471 rg
147.891 298.074 m 137.965 306.52 122.926 304.887 114.301 295.121 c 77.309
 253.223 l 72.922 248.543 l 71.609 247.145 70.637 245.469 70.07 243.637 
c 42.934 155.512 l 42.344 153.582 43.445 151.547 45.387 150.996 c 72.484
 143.25 l 74.184 142.766 75.977 143.582 76.727 145.18 c 112.793 221.891 
l 150.305 264.375 l 159.055 274.289 158.004 289.473 147.891 298.074 c h
147.891 298.074 m f
0.215686 0.384314 0.8 rg
73.496 139.109 m 72.797 139.109 72.086 139.207 71.383 139.41 c 44.281 147.152
 l 42.309 147.719 40.676 149.023 39.695 150.836 c 38.711 152.641 38.504 
154.723 39.109 156.684 c 66.25 244.816 l 66.988 247.215 68.289 249.449 70
 251.277 c 74.391 255.957 l 111.301 297.766 l 121.5 309.316 139.074 310.82
 150.48 301.121 c 156.18 296.266 159.621 289.48 160.152 282.016 c 160.684
 274.551 158.25 267.348 153.297 261.734 c 116.16 219.676 l 80.336 143.48
 l 79.062 140.754 76.375 139.109 73.496 139.109 c h
46.875 154.727 m 73.254 147.188 l 109.176 223.594 l 109.336 223.934 109.547
 224.254 109.797 224.539 c 147.309 267.027 l 150.832 271.016 152.562 276.137
 152.18 281.449 c 151.805 286.75 149.359 291.578 145.305 295.035 c 137.195
 301.93 124.629 300.781 117.293 292.473 c 80.301 250.574 l 75.832 245.812
 l 74.945 244.863 74.277 243.703 73.891 242.461 c h
46.875 154.727 m f
0.419608 0.866667 0.866667 rg
124.832 256.594 m 110.863 269.086 l 109.383 270.41 109.258 272.688 110.578
 274.164 c 115.719 279.914 l 117.047 281.395 119.324 281.523 120.801 280.199
 c 134.77 267.707 l 136.25 266.379 136.375 264.102 135.055 262.625 c 129.91
 256.879 l 128.582 255.395 126.312 255.266 124.832 256.594 c h
124.832 256.594 m f
0.215686 0.384314 0.8 rg
155.457 322.953 m 154.613 322.953 153.828 323.492 153.555 324.336 c 150.754
 332.984 159.473 342.41 159.844 342.809 c 160.594 343.609 161.859 343.652
 162.664 342.898 c 163.469 342.145 163.512 340.879 162.758 340.074 c 162.684
 339.996 155.281 331.969 157.355 325.57 c 157.695 324.52 157.121 323.395
 156.07 323.051 c 155.863 322.984 155.656 322.953 155.457 322.953 c h
155.457 322.953 m f
125.875 316.672 m 107.043 316.672 l 104.793 316.672 102.551 316.988 100.379
 317.609 c 100.219 317.656 100.062 317.711 99.91 317.777 c 98.969 318.176
 96.645 319.332 95.352 321.402 c 95.223 321.609 l 93.324 324.645 89.121 
331.379 85.289 337.539 c 79.031 347.602 75.578 359.016 75.305 370.559 c 
74.586 400.723 84.562 414.82 85.574 416.172 c 94.785 430.102 110.582 438.414
 127.879 438.414 c 130.441 438.414 132.793 437.508 134.602 436.008 c 135.621
 436.801 136.832 437.445 138.117 437.863 c 140.477 438.781 143.309 439.316
 146.547 439.453 c 146.609 439.457 146.676 439.457 146.746 439.457 c 150.609
 439.613 155.324 439.172 160.586 438.117 c 164.863 437.633 169.035 436.531
 172.973 434.855 c 173.012 434.84 173.051 434.824 173.086 434.809 c 175.273
 433.867 177.41 432.734 179.441 431.434 c 179.984 431.102 180.438 430.805
 180.785 430.547 c 192.566 422.41 199.598 409.113 199.598 394.973 c 199.598
 380.52 l 199.598 377.645 197.25 375.309 194.367 375.309 c 138.234 375.309
 l 138.234 336.145 l 138.234 335.539 138.094 334.938 137.824 334.391 c 130.578
 319.59 l 129.684 317.789 127.887 316.672 125.875 316.672 c h
102.859 325.215 m 104.23 324.848 105.637 324.664 107.043 324.664 c 124.156
 324.664 l 130.238 337.074 l 130.238 379.309 l 130.238 381.512 132.031 383.305
 134.234 383.305 c 191.602 383.305 l 191.602 394.973 l 191.602 406.496 185.852
 417.34 176.219 423.984 c 176.168 424.02 176.117 424.059 176.066 424.094
 c 175.977 424.16 175.691 424.363 175.203 424.66 c 173.457 425.777 171.695
 426.707 169.895 427.477 c 169.871 427.488 169.852 427.496 169.828 427.504
 c 166.555 428.902 163.09 429.805 159.535 430.195 c 159.414 430.207 159.297
 430.227 159.176 430.25 c 154.469 431.199 150.332 431.602 146.906 431.469
 c 144.52 431.367 142.457 430.992 140.938 430.387 c 140.832 430.344 140.727
 430.305 140.617 430.273 c 140.078 430.105 139.578 429.809 139.176 429.398
 c 139.102 429.324 139.047 429.273 139.008 429.234 c 138.957 429.086 138.965
 429.195 138.785 428.926 c 138.422 428.391 138.234 427.77 138.234 427.137
 c 138.234 424.93 136.445 423.141 134.238 423.141 c 132.031 423.141 130.242
 424.93 130.242 427.137 c 130.242 428.398 l 130.242 429.516 129.18 430.422
 127.879 430.422 c 113.211 430.422 99.855 423.391 92.141 411.609 c 92.066
 411.496 91.984 411.383 91.898 411.277 c 91.051 410.074 82.66 397.43 83.297
 370.746 c 83.531 360.633 86.57 350.609 92.078 341.762 c 95.906 335.605 
100.109 328.875 102 325.844 c 102.125 325.637 l 102.184 325.598 102.535 
325.375 102.859 325.215 c h
102.859 325.215 m f
0.27451 0.443137 0.776471 rg
137.395 399.691 m 216.254 391.992 l 222.184 391.414 227.324 396.074 227.324
 402.035 c 227.324 403.336 226.27 404.383 224.969 404.383 c 137.617 404.383
 l 136.324 404.383 135.27 403.332 135.27 402.035 c 135.27 400.82 136.188
 399.809 137.395 399.691 c h
137.395 399.691 m f
189.75 458.637 m 176.836 458.637 l 174.387 458.637 171.961 458.219 169.652
 457.41 c 116.996 438.828 l 115.07 438.152 113.047 437.805 111.008 437.805
 c 81.883 437.805 l 79.504 437.805 77.207 436.957 75.395 435.418 c 74.766
 434.887 l 70.75 431.469 70.07 425.523 73.215 421.293 c 78.203 414.574 l
 78.203 406.188 l 78.203 402.215 81.422 398.996 85.395 398.996 c 193.074
 398.996 l 195.055 398.996 196.66 400.594 196.672 402.57 c 196.938 451.402
 l 196.965 455.395 193.738 458.637 189.75 458.637 c h
189.75 458.637 m f
0.643137 0.788235 1 rg
78.207 414.574 m 78.207 406.188 l 78.207 402.215 81.426 398.996 85.398 
398.996 c 193.059 398.996 l 195.047 398.996 196.652 400.605 196.652 402.594
 c 196.652 414.574 l h
78.207 414.574 m f
1 0.917647 0.572549 rg
196.652 437.355 m 190.809 437.355 l 189.074 437.355 187.449 436.523 186.438
 435.121 c 182.918 430.258 l 181.902 428.844 181.625 427.027 182.18 425.379
 c 185.805 414.574 l 196.656 414.574 l 196.656 437.355 l h
196.652 437.355 m f
0.215686 0.384314 0.8 rg
217.227 387.949 m 216.773 387.949 216.32 387.973 215.863 388.016 c 144.355
 394.996 l 85.398 394.996 l 79.227 394.996 74.207 400.016 74.207 406.188
 c 74.207 413.254 l 70.004 418.91 l 65.625 424.816 66.578 433.168 72.18 
437.93 c 72.809 438.465 l 75.332 440.613 78.559 441.801 81.883 441.801 c
 111.008 441.801 l 112.598 441.801 114.168 442.066 115.664 442.598 c 168.324
 461.176 l 171.062 462.145 173.922 462.633 176.832 462.633 c 189.746 462.633
 l 192.746 462.633 195.57 461.465 197.684 459.332 c 199.801 457.207 200.953
 454.379 200.938 451.383 c 200.699 408.379 l 224.969 408.379 l 228.473 408.379
 231.32 405.531 231.32 402.035 c 231.32 398.07 229.633 394.27 226.699 391.602
 c 224.098 389.246 220.707 387.949 217.227 387.949 c h
81.883 433.809 m 80.457 433.809 79.07 433.301 77.988 432.375 c 77.363 431.84
 l 74.957 429.793 74.547 426.203 76.426 423.672 c 81.41 416.957 l 81.926
 416.27 82.203 415.434 82.203 414.574 c 82.203 406.188 l 82.203 404.426 
83.633 402.992 85.398 402.992 c 144.555 402.992 l 144.68 402.992 144.812
 402.984 144.941 402.973 c 216.641 395.973 l 218.391 395.797 220.035 396.355
 221.328 397.523 c 222.199 398.312 222.805 399.293 223.109 400.387 c 196.684
 400.387 l 195.625 400.387 194.602 400.812 193.852 401.566 c 193.102 402.32
 192.684 403.348 192.688 404.406 c 192.945 451.43 l 192.953 452.289 192.621
 453.094 192.016 453.699 c 191.414 454.309 190.609 454.641 189.75 454.641
 c 176.836 454.641 l 174.836 454.641 172.871 454.305 170.98 453.641 c 118.324
 435.062 l 115.965 434.23 113.508 433.812 111.008 433.812 c 81.883 433.812
 l h
224.969 400.387 m 224.992 400.387 l h
224.969 400.387 m f
0.976471 0.811765 0.811765 rg
151.34 354.648 m 151.34 345.77 144.145 338.578 135.27 338.578 c 126.391
 338.578 119.199 345.77 119.199 354.648 c 119.199 363.523 126.391 370.723
 135.27 370.723 c 144.145 370.723 151.34 363.523 151.34 354.648 c h
151.34 354.648 m f
72.484 143.25 m 45.477 150.973 l 38.285 132.168 l 37.844 131.012 37.625
 129.781 37.648 128.547 c 37.809 118.809 l 37.867 115.012 40.566 111.766
 44.289 111.008 c 60.266 107.777 l 64.215 106.977 68.152 109.207 69.496 
113.008 c 71.559 118.836 l 71.832 119.617 71.988 120.434 72.016 121.262 
c 72.75 143.203 l 72.66 143.219 72.57 143.227 72.484 143.25 c h
72.484 143.25 m f
0.215686 0.384314 0.8 rg
61.84 103.621 m 61.055 103.621 60.266 103.699 59.473 103.859 c 43.496 107.094
 l 37.977 108.211 33.898 113.109 33.809 118.742 c 33.648 128.484 l 33.617
 130.234 33.918 131.961 34.547 133.598 c 41.742 152.398 l 42.484 154.336
 44.578 155.387 46.574 154.812 c 73.422 147.141 l 73.477 147.133 73.535 
147.121 73.559 147.113 c 75.465 146.723 76.809 145.016 76.746 143.07 c 76.012
 121.129 l 75.969 119.898 75.738 118.684 75.328 117.508 c 73.266 111.676
 l 71.539 106.793 66.867 103.621 61.84 103.621 c h
47.898 146.121 m 42.02 130.738 l 41.758 130.055 41.629 129.34 41.645 128.617
 c 41.805 118.871 l 41.836 116.961 43.211 115.301 45.082 114.93 c 61.055
 111.691 l 63.059 111.281 65.059 112.43 65.727 114.34 c 67.793 120.164 l
 67.93 120.559 68.008 120.973 68.023 121.391 c 68.652 140.191 l h
47.898 146.121 m f
0.419608 0.866667 0.866667 rg
442.102 483.004 m 313.984 483.004 l 313.984 323.133 l 313.984 321.535 314.715
 319.996 316.039 318.82 c 376.215 265.246 l 379.289 262.512 384.562 262.512
 387.637 265.246 c 447.812 318.82 l 449.133 319.996 449.867 321.539 449.867
 323.133 c 449.867 483.004 l h
442.102 483.004 m f
0.27451 0.443137 0.776471 rg
381.926 483.098 m 381.926 263.191 l 384.016 263.191 386.098 263.875 387.637
 265.246 c 447.816 318.82 l 449.133 319.996 449.867 321.535 449.867 323.129
 c 449.867 483.098 l h
381.926 483.098 m f
0.215686 0.384314 0.8 rg
381.926 259.184 m 378.895 259.184 375.867 260.207 373.555 262.262 c 313.379
 315.836 l 311.191 317.785 309.988 320.375 309.988 323.133 c 309.988 483.004
 l 309.988 485.207 311.781 487 313.984 487 c 449.867 487 l 452.074 487 453.863
 485.207 453.863 483.004 c 453.863 323.133 l 453.863 320.375 452.66 317.785
 450.473 315.836 c 390.297 262.262 l 387.988 260.207 384.957 259.184 381.926
 259.184 c h
317.98 479.008 m 317.98 323.133 l 317.98 322.688 318.234 322.219 318.695
 321.805 c 378.871 268.234 l 380.441 266.836 383.406 266.832 384.984 268.234
 c 445.156 321.805 l 445.613 322.215 445.871 322.684 445.871 323.129 c 445.871
 479.008 l h
317.98 479.008 m f
1 0.917647 0.572549 rg
381.926 267.285 m 347.715 267.285 319.98 239.551 319.98 205.336 c 319.98
 171.125 347.715 143.391 381.926 143.391 c 416.141 143.391 443.875 171.125
 443.875 205.336 c 443.875 239.551 416.137 267.285 381.926 267.285 c h
381.926 161.676 m 357.852 161.676 338.266 181.262 338.266 205.336 c 338.266
 229.414 357.852 249 381.926 249 c 406.004 249 425.59 229.414 425.59 205.336
 c 425.59 181.262 406.004 161.676 381.926 161.676 c h
381.926 161.676 m f
368.5 226.262 m 378.379 247.008 l 379.625 249.621 383.324 249.676 384.645
 247.094 c 395.105 226.633 l 395.629 225.609 396.621 224.91 397.766 224.758
 c 420.551 221.777 l 423.422 221.402 424.613 217.895 422.57 215.844 c 406.344
 199.574 l 405.531 198.762 405.172 197.598 405.379 196.465 c 409.586 173.875
 l 410.113 171.031 407.152 168.812 404.57 170.121 c 384.078 180.527 l 383.055
 181.047 381.84 181.031 380.828 180.48 c 360.641 169.5 l 358.098 168.121
 355.07 170.25 355.52 173.113 c 359.086 195.816 l 359.262 196.949 358.871
 198.102 358.039 198.891 c 341.355 214.695 l 339.254 216.691 340.352 220.223
 343.211 220.684 c 365.902 224.305 l 367.039 224.492 368.008 225.223 368.5
 226.262 c h
368.5 226.262 m f
0.215686 0.384314 0.8 rg
381.926 139.395 m 345.566 139.395 315.984 168.98 315.984 205.336 c 315.984
 241.695 345.566 271.281 381.926 271.281 c 418.285 271.281 447.871 241.695
 447.871 205.336 c 447.871 168.98 418.285 139.395 381.926 139.395 c h
381.926 263.289 m 349.973 263.289 323.977 237.289 323.977 205.336 c 323.977
 173.387 349.973 147.387 381.926 147.387 c 413.879 147.387 439.875 173.387
 439.875 205.336 c 439.875 237.289 413.879 263.289 381.926 263.289 c h
381.926 157.68 m 355.648 157.68 334.27 179.059 334.27 205.336 c 334.27 
231.297 355.387 252.672 381.348 252.984 c 381.367 252.984 381.543 252.988
 381.559 252.988 c 381.602 252.988 381.879 252.996 381.926 252.996 c 401.688
 252.996 419.559 240.609 426.531 222.125 c 427.059 221.234 427.395 220.246
 427.52 219.215 c 428.891 214.723 429.586 210.055 429.586 205.332 c 429.586
 190.617 422.926 176.969 411.309 167.848 c 410.914 167.473 410.477 167.141
 410.012 166.855 c 401.801 160.852 392.098 157.68 381.926 157.68 c h
381.926 245.004 m 381.59 244.996 l 359.84 244.734 342.262 226.945 342.262
 205.336 c 342.262 183.465 360.055 165.672 381.926 165.672 c 390.445 165.672
 398.582 168.352 405.438 173.418 c 405.578 173.523 405.727 173.617 405.883
 173.703 c 406.016 173.836 406.062 173.895 406.215 174.012 c 415.992 181.613
 421.59 193.027 421.59 205.336 c 421.59 209.391 420.98 213.395 419.77 217.242
 c 419.676 217.535 419.617 217.84 419.594 218.148 c 419.426 218.406 419.289
 218.68 419.184 218.961 c 413.465 234.539 398.496 245.004 381.926 245.004
 c h
381.926 245.004 m f
358.965 165.074 m 357.457 165.074 355.953 165.539 354.656 166.453 c 352.309
 168.109 351.129 170.898 351.574 173.734 c 355.094 196.18 l 338.605 211.801
 l 336.52 213.777 335.758 216.707 336.602 219.449 c 337.453 222.195 339.742
 224.18 342.578 224.633 c 365.008 228.215 l 374.773 248.73 l 375.973 251.242
 378.449 252.875 381.242 252.98 c 381.27 252.98 381.457 252.988 381.484 
252.988 c 384.395 252.969 386.93 251.406 388.203 248.918 c 398.543 228.688
 l 421.066 225.742 l 423.16 225.465 424.988 224.363 426.199 222.637 c 426.402
 222.348 426.566 222.035 426.684 221.707 c 426.934 221.027 427.168 220.336
 427.391 219.637 c 427.496 219.301 427.555 218.949 427.57 218.602 c 427.656
 216.496 426.883 214.516 425.398 213.023 c 409.355 196.941 l 413.512 174.609
 l 413.953 172.234 413.238 169.855 411.555 168.094 c 411.418 167.953 411.27
 167.82 411.113 167.699 c 410.703 167.375 410.445 167.176 410.18 166.984
 c 410.043 166.879 409.891 166.785 409.742 166.703 c 407.527 165.48 404.977
 165.43 402.758 166.562 c 382.5 176.848 l 362.551 165.992 l 361.422 165.383
 360.188 165.074 358.965 165.074 c h
344.848 216.902 m 360.789 201.797 l 362.578 200.105 363.414 197.637 363.031
 195.203 c 359.629 173.508 l 378.918 183.996 l 381.082 185.176 383.688 185.211
 385.883 184.098 c 405.469 174.152 l 401.449 195.742 l 400.996 198.164 401.77
 200.656 403.512 202.402 c 419.016 217.953 l 397.246 220.801 l 394.797 221.121
 392.668 222.625 391.543 224.82 c 381.547 244.371 l 372.109 224.543 l 371.055
 222.32 368.965 220.758 366.531 220.367 c h
344.848 216.902 m f
1 0.917647 0.572549 rg
289.594 312.336 m 282.852 297.609 271.676 285.34 257.766 277.234 c 255.266
 275.781 255.266 272.25 257.766 270.797 c 271.676 262.691 282.852 250.422
 289.594 235.699 c 290.898 232.836 294.977 232.836 296.285 235.699 c 303.027
 250.422 314.199 262.691 328.113 270.797 c 330.609 272.254 330.609 275.781
 328.113 277.234 c 314.199 285.34 303.027 297.609 296.285 312.336 c 294.977
 315.195 290.898 315.195 289.594 312.336 c h
289.594 312.336 m f
447.523 160.176 m 442.809 149.867 434.984 141.281 425.246 135.605 c 423.5
 134.586 423.5 132.117 425.246 131.098 c 434.984 125.426 442.809 116.836
 447.523 106.527 c 448.441 104.527 451.297 104.527 452.211 106.527 c 456.926
 116.836 464.75 125.422 474.488 131.098 c 476.234 132.117 476.234 134.586
 474.488 135.605 c 464.75 141.281 456.926 149.867 452.211 160.176 c 451.297
 162.176 448.441 162.176 447.523 160.176 c h
447.523 160.176 m f
Q Q
showpage
%%Trailer
end restore
%%EOF
