%!PS-Adobe-3.0 EPSF-3.0
%%Creator: cairo 1.14.8 (http://cairographics.org)
%%CreationDate: Wed Mar 20 09:06:38 2019
%%Pages: 1
%%DocumentData: Clean7Bit
%%LanguageLevel: 2
%%BoundingBox: 23 0 469 491
%%EndComments
%%BeginProlog
save
50 dict begin
/q { gsave } bind def
/Q { grestore } bind def
/cm { 6 array astore concat } bind def
/w { setlinewidth } bind def
/J { setlinecap } bind def
/j { setlinejoin } bind def
/M { setmiterlimit } bind def
/d { setdash } bind def
/m { moveto } bind def
/l { lineto } bind def
/c { curveto } bind def
/h { closepath } bind def
/re { exch dup neg 3 1 roll 5 3 roll moveto 0 rlineto
      0 exch rlineto 0 rlineto closepath } bind def
/S { stroke } bind def
/f { fill } bind def
/f* { eofill } bind def
/n { newpath } bind def
/W { clip } bind def
/W* { eoclip } bind def
/BT { } bind def
/ET { } bind def
/pdfmark where { pop globaldict /?pdfmark /exec load put }
    { globaldict begin /?pdfmark /pop load def /pdfmark
    /cleartomark load def end } ifelse
/BDC { mark 3 1 roll /BDC pdfmark } bind def
/EMC { mark /EMC pdfmark } bind def
/cairo_store_point { /cairo_point_y exch def /cairo_point_x exch def } def
/Tj { show currentpoint cairo_store_point } bind def
/TJ {
  {
    dup
    type /stringtype eq
    { show } { -0.001 mul 0 cairo_font_matrix dtransform rmoveto } ifelse
  } forall
  currentpoint cairo_store_point
} bind def
/cairo_selectfont { cairo_font_matrix aload pop pop pop 0 0 6 array astore
    cairo_font exch selectfont cairo_point_x cairo_point_y moveto } bind def
/Tf { pop /cairo_font exch def /cairo_font_matrix where
      { pop cairo_selectfont } if } bind def
/Td { matrix translate cairo_font_matrix matrix concatmatrix dup
      /cairo_font_matrix exch def dup 4 get exch 5 get cairo_store_point
      /cairo_font where { pop cairo_selectfont } if } bind def
/Tm { 2 copy 8 2 roll 6 array astore /cairo_font_matrix exch def
      cairo_store_point /cairo_font where { pop cairo_selectfont } if } bind def
/g { setgray } bind def
/rg { setrgbcolor } bind def
/d1 { setcachedevice } bind def
%%EndProlog
%%BeginSetup
%%EndSetup
%%Page: 1 1
%%BeginPageSetup
%%PageBoundingBox: 23 0 469 491
%%EndPageSetup
q 23 0 446 491 rectclip q
0.643137 0.788235 1 rg
43.582 59.426 m 30.738 45.422 l 30.242 44.879 29.824 44.262 29.508 43.59
 c 28.555 41.566 l 26.832 37.914 28.367 33.539 31.98 31.801 c 82 7.699 l
 85.707 5.914 90.105 6.539 93.188 9.277 c 94.543 12.156 l 96 15.242 95.723
 18.875 93.828 21.703 c 80.434 41.672 l h
43.582 59.426 m f
0.215686 0.384314 0.8 rg
86.414 2.695 m 84.332 2.695 82.23 3.156 80.27 4.105 c 30.246 28.199 l 24.672
 30.887 22.293 37.648 24.941 43.266 c 25.898 45.289 l 26.383 46.328 27.023
 47.277 27.801 48.121 c 40.645 62.121 l 41.828 63.418 43.727 63.785 45.316
 63.02 c 82.168 45.266 l 82.809 44.961 83.359 44.484 83.75 43.895 c 97.145
 23.922 l 99.809 19.949 100.199 14.789 98.16 10.453 c 96.801 7.574 l 96.57
 7.086 96.246 6.656 95.848 6.297 c 93.184 3.926 89.816 2.695 86.414 2.695
 c h
44.523 54.543 m 33.68 42.727 l 33.453 42.477 33.266 42.195 33.121 41.891
 c 32.168 39.863 l 31.379 38.191 32.074 36.188 33.715 35.395 c 83.734 11.297
 l 85.77 10.316 88.145 10.531 89.965 11.812 c 90.93 13.855 l 91.785 15.664
 91.621 17.816 90.508 19.477 c 77.719 38.547 l h
44.523 54.543 m f
0.27451 0.443137 0.776471 rg
96.578 229.648 m 96.887 226.188 l 96.887 188.973 l 96.887 187.766 96.648
 186.578 96.184 185.473 c 43.492 60.156 l 82.281 41.309 l 148.418 164.684
 l 149.641 166.969 150.285 169.527 150.285 172.125 c 150.285 229.652 l 96.578
 229.652 l h
96.578 229.648 m f
0.215686 0.384314 0.8 rg
82.277 37.316 m 81.691 37.316 81.098 37.445 80.535 37.719 c 41.746 56.566
 l 39.84 57.492 38.988 59.75 39.812 61.707 c 92.504 187.016 l 92.766 187.641
 92.895 188.297 92.895 188.969 c 92.895 226.008 l 92.602 229.297 l 92.504
 230.41 92.879 231.516 93.637 232.344 c 94.391 233.172 95.461 233.641 96.582
 233.641 c 150.285 233.641 l 152.492 233.641 154.277 231.852 154.277 229.648
 c 154.277 172.125 l 154.277 168.875 153.469 165.652 151.938 162.797 c 85.797
 39.422 l 85.082 38.086 83.703 37.316 82.277 37.316 c h
48.641 62.094 m 80.574 46.578 l 144.898 166.57 l 145.809 168.27 146.293
 170.188 146.293 172.125 c 146.293 225.656 l 100.879 225.656 l 100.879 188.973
 l 100.879 187.223 100.535 185.523 99.863 183.922 c h
48.641 62.094 m f
0.976471 0.811765 0.811765 rg
82.305 311.109 m 71.145 229.828 l 58.66 207.383 l 53.629 184.754 l 57.523
 179.262 l 84.156 173.344 l 89.867 177.27 l 94.441 197.855 l 94.855 224.562
 l 116.262 303.562 l h
82.305 311.109 m f
0.215686 0.384314 0.8 rg
84.156 169.352 m 83.867 169.352 83.574 169.383 83.293 169.449 c 56.656 
175.367 l 55.691 175.582 54.836 176.148 54.266 176.953 c 50.371 182.445 
l 49.719 183.363 49.488 184.52 49.73 185.617 c 54.762 208.25 l 54.848 208.625
 54.98 208.988 55.172 209.324 c 67.289 231.117 l 78.352 311.656 l 78.504
 312.758 79.113 313.754 80.027 314.387 c 80.945 315.027 82.082 315.254 83.172
 315.008 c 117.133 307.461 l 118.195 307.227 119.117 306.562 119.68 305.633
 c 120.242 304.695 120.402 303.574 120.117 302.52 c 98.84 224 l 98.434 197.793
 l 98.43 197.527 98.395 197.254 98.34 196.992 c 93.766 176.406 l 93.547 
175.418 92.961 174.551 92.129 173.984 c 86.418 170.059 l 85.746 169.594 
84.957 169.352 84.156 169.352 c h
59.891 182.824 m 83.328 177.617 l 86.309 179.668 l 90.453 198.32 l 90.863
 224.621 l 90.867 224.953 90.914 225.281 91 225.602 c 111.312 300.57 l 85.668
 306.273 l 75.098 229.289 l 75.031 228.797 74.879 228.324 74.637 227.891
 c 62.43 205.953 l 57.914 185.613 l h
71.145 229.828 m 71.164 229.828 l h
71.145 229.828 m f
0.643137 0.788235 1 rg
126.355 38.941 m 119.82 17.562 l 119.594 16.828 119.48 16.062 119.48 15.297
 c 119.48 11.59 l 119.48 7.395 122.801 3.992 126.898 3.992 c 191.582 3.992
 l 196.305 3.992 200.574 6.879 202.43 11.324 c 202.43 15.039 l 202.43 19.023
 200.371 22.707 197.02 24.719 c 173.328 38.941 l h
126.355 38.941 m f
0.215686 0.384314 0.8 rg
191.582 0 m 126.898 0 l 120.605 0 115.488 5.195 115.488 11.59 c 115.488
 15.297 l 115.488 16.469 115.66 17.625 116.004 18.738 c 122.539 40.113 l
 123.055 41.793 124.602 42.941 126.355 42.941 c 173.328 42.941 l 174.055
 42.941 174.762 42.742 175.383 42.371 c 199.074 28.145 l 203.605 25.426 
206.422 20.402 206.422 15.043 c 206.422 11.324 l 206.422 10.801 206.316 
10.273 206.117 9.789 c 203.637 3.84 197.926 0 191.582 0 c h
129.312 34.949 m 123.641 16.395 l 123.527 16.039 123.477 15.668 123.477
 15.297 c 123.477 11.59 l 123.477 9.602 125.012 7.984 126.898 7.984 c 191.582
 7.984 l 194.457 7.984 197.082 9.621 198.438 12.207 c 198.438 15.039 l 198.438
 17.609 197.109 20.004 194.965 21.297 c 172.223 34.949 l h
129.312 34.949 m f
191.582 0 m 126.898 0 l 120.605 0 115.488 5.195 115.488 11.59 c 115.488
 15.297 l 115.488 16.469 115.66 17.625 116.004 18.738 c 122.539 40.113 l
 123.055 41.793 124.602 42.941 126.355 42.941 c 173.328 42.941 l 174.055
 42.941 174.762 42.742 175.383 42.371 c 199.074 28.145 l 203.605 25.426 
206.422 20.402 206.422 15.043 c 206.422 11.324 l 206.422 10.801 206.316 
10.273 206.117 9.789 c 203.637 3.84 197.926 0 191.582 0 c h
129.312 34.949 m 123.641 16.395 l 123.527 16.039 123.477 15.668 123.477
 15.297 c 123.477 11.59 l 123.477 9.602 125.012 7.984 126.898 7.984 c 191.582
 7.984 l 194.457 7.984 197.082 9.621 198.438 12.207 c 198.438 15.039 l 198.438
 17.609 197.109 20.004 194.965 21.297 c 172.223 34.949 l h
129.312 34.949 m f
0.27451 0.443137 0.776471 rg
163.301 213.383 m 164.363 223.164 l 165.703 229.648 l 96.18 229.648 l 95.113
 226.648 l 90.949 214.914 90.078 202.238 92.617 190.066 c 97.504 166.598
 l 123.422 39.27 l 126.43 38.941 l 168.543 38.941 l 168.465 39.418 l h
163.301 213.383 m f
0.215686 0.384314 0.8 rg
168.543 34.949 m 126.43 34.949 l 126.289 34.949 126.141 34.957 125.996 
34.973 c 122.988 35.301 l 121.266 35.492 119.855 36.773 119.508 38.477 c
 93.59 165.805 l 88.711 189.254 l 86.023 202.156 86.938 215.551 91.355 227.984
 c 92.418 230.988 l 92.984 232.578 94.488 233.641 96.18 233.641 c 165.699
 233.641 l 166.902 233.641 168.039 233.102 168.797 232.172 c 169.555 231.246
 169.852 230.02 169.613 228.848 c 168.312 222.547 l 167.301 213.227 l 172.449
 39.797 l 172.484 39.578 l 172.672 38.422 172.344 37.246 171.582 36.355 
c 170.82 35.465 169.715 34.949 168.543 34.949 c h
126.75 42.938 m 164.367 42.938 l 159.312 213.262 l 159.305 213.445 159.312
 213.633 159.332 213.812 c 160.395 223.594 l 160.41 223.723 160.43 223.844
 160.453 223.969 c 160.801 225.656 l 99 225.656 l 98.875 225.309 l 94.949
 214.258 94.137 202.352 96.523 190.883 c 101.41 167.414 l h
126.75 42.938 m f
122.66 298.148 m 122.375 298.148 122.082 298.18 121.789 298.242 c 76.688
 308.27 l 74.539 308.746 73.176 310.879 73.656 313.031 c 81.391 347.848 
l 84.633 362.434 99.148 371.656 113.719 368.418 c 128.301 365.176 137.531
 350.676 134.289 336.09 c 126.555 301.277 l 126.141 299.414 124.492 298.148
 122.66 298.148 c h
82.316 315.199 m 119.625 306.906 l 126.496 337.82 l 128.781 348.105 122.27
 358.34 111.984 360.625 c 101.703 362.906 91.469 356.402 89.184 346.109 
c h
82.316 315.199 m f
0.419608 0.866667 0.866667 rg
162.883 355.594 m 158.16 366.258 147.16 373.734 134.336 373.734 c 113.355
 373.734 l 99.543 373.734 88.34 362.977 88.34 349.707 c 88.34 227.32 l 165.336
 227.32 l 170.234 300.047 l 170.289 300.805 170.301 301.559 170.332 302.32
 c 170.363 302.32 l 172.609 335.977 162.883 355.594 162.883 355.594 c h
162.883 355.594 m f
0.215686 0.384314 0.8 rg
165.34 223.328 m 88.34 223.328 l 86.137 223.328 84.348 225.121 84.348 227.32
 c 84.348 349.707 l 84.348 365.156 97.363 377.727 113.355 377.727 c 134.336
 377.727 l 148.336 377.727 160.934 369.727 166.477 357.332 c 167.109 356.035
 176.613 335.973 174.348 302.055 c 174.34 301.93 174.328 301.805 174.309
 301.684 c 174.289 301.25 l 174.27 300.762 174.25 300.27 174.219 299.781
 c 169.32 227.059 l 169.18 224.957 167.441 223.328 165.34 223.328 c h
92.332 231.316 m 161.605 231.316 l 166.25 300.312 l 166.277 300.723 166.293
 301.137 166.305 301.543 c 166.348 302.523 l 166.355 302.699 166.379 302.875
 166.406 303.047 c 168.426 334.789 159.391 353.641 159.297 353.828 c 159.273
 353.875 159.25 353.93 159.227 353.98 c 154.988 363.555 145.215 369.742 
134.332 369.742 c 113.355 369.742 l 101.766 369.742 92.332 360.75 92.332
 349.703 c h
92.332 231.316 m f
0.976471 0.811765 0.811765 rg
134.711 480.68 m 155.918 480.68 173.113 463.484 173.113 442.277 c 173.113
 419.738 l 174.98 419.738 l 178.277 419.738 180.941 417.066 180.941 413.77
 c 180.941 410.48 178.273 407.809 174.98 407.809 c 172.066 407.809 l 168.762
 393.594 157.605 382.395 143.383 379.113 c 143.383 373.832 l 140.176 374.918
 136.746 375.535 133.172 375.535 c 113.816 375.535 l 112.434 375.535 111.086
 375.395 109.762 375.184 c 109.762 387.34 l 101.531 394.383 96.309 404.84
 96.309 416.516 c 96.309 442.277 l 96.305 463.484 113.5 480.68 134.711 480.68
 c h
134.711 480.68 m f
0.215686 0.384314 0.8 rg
159.07 419.422 m 161.027 419.422 162.609 421.008 162.609 422.965 c 162.609
 428.867 l 162.609 430.82 161.027 432.41 159.07 432.41 c 157.113 432.41 
155.527 430.82 155.527 428.867 c 155.527 422.965 l 155.527 421.008 157.117
 419.422 159.07 419.422 c h
159.07 419.422 m f
0.976471 0.811765 0.811765 rg
142.332 418.617 m 142.332 411.109 136.246 405.023 128.734 405.023 c 121.23
 405.023 115.145 411.109 115.145 418.617 c 115.145 426.129 121.23 432.215
 128.734 432.215 c 136.246 432.215 142.332 426.129 142.332 418.617 c h
142.332 418.617 m f
0.215686 0.384314 0.8 rg
143.383 369.836 m 142.953 369.836 142.523 369.906 142.105 370.047 c 139.18
 371.039 136.18 371.535 133.172 371.535 c 113.812 371.535 l 112.785 371.535
 111.664 371.438 110.383 371.238 c 109.234 371.059 108.055 371.383 107.168
 372.145 c 106.281 372.902 105.77 374.012 105.77 375.18 c 105.77 385.551
 l 97.195 393.562 92.312 404.746 92.312 416.516 c 92.312 442.277 l 92.312
 465.652 111.332 484.672 134.707 484.672 c 158.086 484.672 177.102 465.652
 177.102 442.277 c 177.102 423.5 l 181.574 422.523 184.938 418.535 184.938
 413.77 c 184.938 408.328 180.543 403.887 175.109 403.816 c 170.965 390.66
 160.504 380.188 147.371 376.062 c 147.371 373.828 l 147.371 372.543 146.754
 371.332 145.707 370.586 c 145.02 370.094 144.207 369.836 143.383 369.836
 c h
113.816 379.523 m 133.172 379.523 l 135.254 379.523 137.332 379.336 139.391
 378.969 c 139.391 379.109 l 139.391 380.969 140.672 382.578 142.484 383
 c 155.145 385.926 165.227 396.016 168.176 408.715 c 168.594 410.52 170.211
 411.801 172.066 411.801 c 174.977 411.801 l 176.066 411.801 176.949 412.684
 176.949 413.77 c 176.949 414.855 176.066 415.742 174.977 415.742 c 173.109
 415.742 l 170.906 415.742 169.117 417.531 169.117 419.734 c 169.117 442.277
 l 169.117 461.25 153.68 476.688 134.707 476.688 c 115.734 476.688 100.301
 461.25 100.301 442.277 c 100.301 416.516 l 100.301 406.457 104.691 396.926
 112.359 390.371 c 113.242 389.609 113.754 388.5 113.754 387.336 c 113.754
 379.523 l h
113.816 379.523 m f
0.27451 0.443137 0.776471 rg
89.422 468.664 m 89.426 468.66 l 96.273 479.125 108.52 486.098 122.484 
486.098 c 125.457 486.098 127.867 483.816 127.867 481.012 c 127.867 479.941
 l 127.867 481.199 128.246 482.367 128.906 483.344 c 128.906 483.344 129.09
 483.719 129.641 484.23 c 130.359 484.961 131.262 485.52 132.277 485.828
 c 133.703 486.398 135.691 486.871 138.43 486.988 c 138.43 486.984 l 138.445
 486.984 l 141.289 487.102 144.941 486.836 149.629 485.887 c 153.043 485.516
 156.301 484.645 159.332 483.355 c 159.344 483.352 159.352 483.348 159.363
 483.344 c 159.363 483.34 l 161.082 482.602 162.727 481.723 164.281 480.73
 c 164.961 480.316 165.301 480.055 165.301 480.055 c 174.051 474.023 179.773
 464.043 179.773 452.734 c 179.773 440.508 l 179.773 439.938 179.305 439.477
 178.73 439.477 c 127.867 439.477 l 127.867 402.969 l 121.727 390.449 l 
121.559 390.098 121.191 389.871 120.789 389.871 c 104.855 389.871 l 103.246
 389.871 101.664 390.102 100.152 390.535 c 100.109 390.555 98.488 391.234
 97.836 392.289 c 96.285 394.762 92.641 400.602 89.324 405.934 c 84.402 
413.844 81.609 422.887 81.387 432.16 c 80.785 457.566 89.422 468.664 89.422
 468.664 c h
89.422 468.664 m f
0.215686 0.384314 0.8 rg
120.793 385.879 m 104.859 385.879 l 102.898 385.879 100.945 386.152 99.051
 386.695 c 98.902 386.738 98.762 386.789 98.617 386.848 c 97.953 387.125
 95.691 388.188 94.445 390.176 c 92.902 392.645 89.254 398.492 85.934 403.824
 c 80.582 412.43 77.633 422.191 77.398 432.062 c 76.793 457.645 85.25 469.742
 86.199 471.016 c 94.105 482.965 107.652 490.09 122.484 490.09 c 124.625
 490.09 126.602 489.391 128.18 488.215 c 129.008 488.797 129.953 489.27 
130.945 489.594 c 132.984 490.383 135.43 490.848 138.207 490.969 c 138.246
 490.969 138.285 490.973 138.32 490.973 c 141.766 491.109 145.773 490.727
 150.25 489.836 c 153.875 489.422 157.414 488.496 160.762 487.082 c 160.887
 487.035 161.012 486.98 161.137 486.922 c 162.949 486.129 164.734 485.184
 166.434 484.094 c 167.074 483.699 167.484 483.41 167.633 483.301 c 177.738
 476.301 183.77 464.875 183.77 452.73 c 183.77 440.504 l 183.77 437.734 
181.512 435.484 178.734 435.484 c 131.859 435.484 l 131.859 402.969 l 131.859
 402.359 131.719 401.758 131.449 401.207 c 125.316 388.691 l 124.48 386.984
 122.707 385.879 120.793 385.879 c h
118.145 392.211 m 118.145 392.211 118.141 392.207 118.141 392.203 c h
101.543 394.293 m 102.625 394.008 103.742 393.863 104.855 393.863 c 118.957
 393.863 l 123.871 403.895 l 123.871 439.477 l 123.871 441.684 125.66 443.469
 127.867 443.469 c 175.781 443.469 l 175.781 452.734 l 175.781 462.281 171.012
 471.266 163.031 476.773 c 162.992 476.801 162.949 476.828 162.91 476.859
 c 162.875 476.883 162.637 477.059 162.191 477.328 c 160.738 478.258 159.273
 479.035 157.789 479.668 c 157.758 479.68 157.734 479.691 157.703 479.703
 c 155 480.855 152.137 481.598 149.191 481.918 c 149.078 481.934 148.957
 481.949 148.84 481.973 c 144.898 482.773 141.461 483.113 138.605 483 c 
138.543 482.996 138.48 482.996 138.41 482.996 c 136.141 482.891 134.609 
482.461 133.762 482.121 c 133.652 482.078 133.547 482.039 133.434 482.004
 c 133.074 481.895 132.742 481.695 132.473 481.422 c 132.473 481.422 132.363
 481.312 132.312 481.262 c 132.281 481.211 132.25 481.164 132.215 481.113
 c 131.98 480.758 131.855 480.363 131.855 479.941 c 131.855 477.734 130.062
 475.949 127.863 475.949 c 125.66 475.949 123.867 477.734 123.867 479.941
 c 123.867 481.012 l 123.867 481.602 123.234 482.105 122.484 482.105 c 110.285
 482.105 99.176 476.262 92.762 466.473 c 92.691 466.363 92.613 466.254 92.531
 466.152 c 91.816 465.121 84.848 454.547 85.379 432.254 c 85.578 423.809
 88.113 415.438 92.715 408.039 c 95.965 402.816 99.531 397.105 101.125 394.555
 c 101.223 394.477 101.387 394.375 101.543 394.293 c h
132.477 481.559 m 132.477 481.555 l 132.477 481.559 132.477 481.559 132.477
 481.559 c h
132.48 481.566 m 132.48 481.562 l h
132.484 481.578 m 132.484 481.57 l 132.484 481.57 132.484 481.574 132.484
 481.578 c h
132.484 481.578 m f
0.976471 0.811765 0.811765 rg
142.332 418.617 m 142.332 411.109 136.246 405.023 128.734 405.023 c 121.23
 405.023 115.145 411.109 115.145 418.617 c 115.145 426.129 121.23 432.215
 128.734 432.215 c 136.246 432.215 142.332 426.129 142.332 418.617 c h
142.332 418.617 m f
0.878431 0.921569 0.988235 rg
369.832 12.078 m 366.301 9.605 361.438 10.465 358.965 13.992 c 160.484 
297.453 l 158.012 300.984 158.871 305.848 162.398 308.32 c 165.93 310.793
 170.793 309.934 173.266 306.406 c 371.75 22.941 l 374.219 19.414 373.363
 14.551 369.832 12.078 c h
369.832 12.078 m f
0.215686 0.384314 0.8 rg
131.152 300.488 m 84.949 300.488 l 82.742 300.488 80.957 302.277 80.957
 304.48 c 80.957 340.145 l 80.957 355.086 93.109 367.238 108.047 367.238
 c 122.988 367.238 135.145 355.086 135.145 340.145 c 135.145 304.48 l 135.145
 302.277 133.359 300.488 131.152 300.488 c h
88.941 308.473 m 127.16 308.473 l 127.16 340.145 l 127.16 350.68 118.586
 359.254 108.051 359.254 c 97.516 359.254 88.941 350.68 88.941 340.145 c
 h
88.941 308.473 m f
365.379 6.672 m 364.695 6.672 364 6.73 363.309 6.852 c 360.207 7.398 357.504
 9.121 355.695 11.699 c 157.211 295.164 l 155.406 297.742 154.711 300.875
 155.258 303.977 c 155.805 307.086 157.531 309.789 160.109 311.594 c 162.688
 313.402 165.82 314.098 168.922 313.547 c 172.027 313 174.727 311.277 176.535
 308.695 c 375.02 25.234 l 376.824 22.652 377.52 19.527 376.973 16.418 c
 376.426 13.312 374.699 10.613 372.117 8.809 c 370.113 7.402 367.777 6.672
 365.379 6.672 c h
166.867 305.738 m 166.09 305.738 165.336 305.508 164.688 305.051 c 163.855
 304.469 163.301 303.594 163.125 302.594 c 162.945 301.59 163.168 300.582
 163.754 299.746 c 362.238 16.281 l 362.82 15.449 363.691 14.895 364.695
 14.715 c 365.691 14.539 366.707 14.762 367.539 15.348 c 368.375 15.926 
368.934 16.801 369.109 17.801 c 369.285 18.805 369.062 19.812 368.477 20.648
 c 169.992 304.117 l 169.41 304.949 168.535 305.508 167.539 305.68 c 167.312
 305.719 167.086 305.738 166.867 305.738 c h
166.867 305.738 m f
0.976471 0.811765 0.811765 rg
88.34 304.48 m 88.34 266.32 l 88.34 263.98 89.047 261.695 90.363 259.762
 c 93.355 255.375 l 95.387 252.395 98.684 250.527 102.285 250.312 c 177.324
 245.879 l 179.105 245.773 180.832 245.227 182.348 244.289 c 190.215 239.43
 l 191.629 238.555 193.266 238.09 194.93 238.09 c 213.016 238.09 l 216.98
 238.09 220.195 241.305 220.195 245.27 c 220.195 264.109 l 220.195 268.074
 216.98 271.285 213.016 271.285 c 188.602 271.285 l 187.25 271.285 185.922
 270.984 184.707 270.395 c 183.102 269.625 l 181.109 268.66 178.863 268.336
 176.676 268.699 c 128.781 276.582 l 126.949 276.887 125.648 278.535 125.785
 280.387 c 127.562 304.48 l h
88.34 304.48 m f
0.215686 0.384314 0.8 rg
213.02 234.094 m 194.934 234.094 l 192.523 234.094 190.168 234.766 188.121
 236.027 c 180.25 240.891 l 179.297 241.477 178.207 241.824 177.09 241.891
 c 102.051 246.324 l 97.25 246.609 92.766 249.148 90.055 253.125 c 87.066
 257.512 l 85.289 260.121 84.348 263.168 84.348 266.32 c 84.348 304.48 l
 84.348 306.684 86.137 308.473 88.34 308.473 c 127.562 308.473 l 128.672
 308.473 129.734 308.012 130.484 307.199 c 131.242 306.383 131.625 305.293
 131.543 304.188 c 129.793 280.461 l 177.328 272.637 l 178.715 272.402 180.113
 272.609 181.371 273.223 c 182.973 273.992 l 184.723 274.836 186.668 275.281
 188.602 275.281 c 213.016 275.281 l 219.176 275.281 224.191 270.27 224.191
 264.109 c 224.191 245.27 l 224.191 239.109 219.18 234.094 213.02 234.094
 c h
92.332 300.488 m 92.332 266.32 l 92.332 264.777 92.793 263.285 93.664 262.012
 c 96.652 257.621 l 97.98 255.68 100.176 254.438 102.52 254.297 c 177.562
 249.859 l 179.992 249.715 182.375 248.961 184.445 247.684 c 192.312 242.82
 l 193.102 242.336 194.004 242.082 194.934 242.082 c 213.02 242.082 l 214.781
 242.082 216.207 243.508 216.207 245.266 c 216.207 264.105 l 216.207 265.859
 214.781 267.293 213.02 267.293 c 188.602 267.293 l 187.859 267.293 187.113
 267.121 186.441 266.797 c 184.84 266.023 l 182.09 264.699 179.043 264.262
 176.031 264.754 c 128.129 272.641 l 124.23 273.281 121.516 276.738 121.801
 280.676 c 123.262 300.484 l 92.332 300.484 l h
92.332 300.488 m f
1 0.917647 0.572549 rg
464.543 370.906 m 464.543 307.508 413.148 256.117 349.754 256.117 c 286.359
 256.117 234.965 307.508 234.965 370.906 c 234.965 434.301 286.359 485.695
 349.754 485.695 c 413.148 485.695 464.543 434.301 464.543 370.906 c h
464.543 370.906 m f
0.643137 0.788235 1 rg
440.586 370.906 m 440.586 320.738 399.918 280.074 349.754 280.074 c 299.586
 280.074 258.922 320.738 258.922 370.906 c 258.922 421.07 299.586 461.738
 349.754 461.738 c 399.918 461.738 440.586 421.07 440.586 370.906 c h
440.586 370.906 m f
0.878431 0.921569 0.988235 rg
416.695 394.539 m 416.695 394.535 l 412.109 399.539 406.816 404.109 400.824
 408.086 c 385.758 418.082 368.512 422.926 351.41 423.023 c 351.41 422.984
 l 333.242 423.527 314.734 418.727 298.703 408.086 c 292.711 404.109 287.418
 399.539 282.832 394.535 c 282.832 394.539 l 282.832 394.539 272.707 384.031
 265.199 371.645 c 285.887 350.848 l 287.133 349.551 288.426 348.301 289.746
 347.094 c 289.758 347.082 289.77 347.07 289.781 347.059 c 289.777 347.062
 l 306.582 331.723 328.895 323.758 351.41 324.027 c 351.41 324.051 l 372.801
 324.559 393.77 332.469 409.75 347.062 c 409.746 347.059 l 409.758 347.07
 409.77 347.082 409.781 347.094 c 411.105 348.301 412.391 349.551 413.645
 350.848 c 434.332 371.645 l 426.82 384.031 416.695 394.539 416.695 394.539
 c h
416.695 394.539 m f
0.27451 0.443137 0.776471 rg
398.336 373.523 m 398.336 347.328 377.098 326.09 350.898 326.09 c 324.703
 326.09 303.465 347.328 303.465 373.523 c 303.465 399.723 324.703 420.961
 350.898 420.961 c 377.098 420.961 398.336 399.723 398.336 373.523 c h
398.336 373.523 m f
0.878431 0.921569 0.988235 rg
384.418 389.059 m 384.418 378.523 375.879 369.984 365.344 369.984 c 354.809
 369.984 346.27 378.523 346.27 389.059 c 346.27 399.594 354.809 408.133 
365.344 408.133 c 375.879 408.133 384.418 399.594 384.418 389.059 c h
384.418 389.059 m f
0.215686 0.384314 0.8 rg
349.754 252.125 m 284.258 252.125 230.973 305.41 230.973 370.906 c 230.973
 436.402 284.258 489.688 349.754 489.688 c 415.25 489.688 468.535 436.402
 468.535 370.906 c 468.535 305.41 415.25 252.125 349.754 252.125 c h
349.754 481.699 m 288.66 481.699 238.957 431.996 238.957 370.906 c 238.957
 309.812 288.66 260.109 349.754 260.109 c 410.848 260.109 460.547 309.812
 460.547 370.906 c 460.547 431.996 410.848 481.699 349.754 481.699 c h
349.754 481.699 m f
1 0.917647 0.572549 rg
404.352 443.441 m 277.211 316.309 l 282.043 309.906 287.707 304.176 294.031
 299.25 c 421.41 426.625 l 416.48 432.945 410.75 438.617 404.352 443.441
 c h
404.352 443.441 m f
Q Q
showpage
%%Trailer
end restore
%%EOF
