%!PS-Adobe-3.0 EPSF-3.0
%%Creator: cairo 1.14.8 (http://cairographics.org)
%%CreationDate: Wed Mar 20 09:06:38 2019
%%Pages: 1
%%DocumentData: Clean7Bit
%%LanguageLevel: 2
%%BoundingBox: 73 0 421 493
%%EndComments
%%BeginProlog
save
50 dict begin
/q { gsave } bind def
/Q { grestore } bind def
/cm { 6 array astore concat } bind def
/w { setlinewidth } bind def
/J { setlinecap } bind def
/j { setlinejoin } bind def
/M { setmiterlimit } bind def
/d { setdash } bind def
/m { moveto } bind def
/l { lineto } bind def
/c { curveto } bind def
/h { closepath } bind def
/re { exch dup neg 3 1 roll 5 3 roll moveto 0 rlineto
      0 exch rlineto 0 rlineto closepath } bind def
/S { stroke } bind def
/f { fill } bind def
/f* { eofill } bind def
/n { newpath } bind def
/W { clip } bind def
/W* { eoclip } bind def
/BT { } bind def
/ET { } bind def
/pdfmark where { pop globaldict /?pdfmark /exec load put }
    { globaldict begin /?pdfmark /pop load def /pdfmark
    /cleartomark load def end } ifelse
/BDC { mark 3 1 roll /BDC pdfmark } bind def
/EMC { mark /EMC pdfmark } bind def
/cairo_store_point { /cairo_point_y exch def /cairo_point_x exch def } def
/Tj { show currentpoint cairo_store_point } bind def
/TJ {
  {
    dup
    type /stringtype eq
    { show } { -0.001 mul 0 cairo_font_matrix dtransform rmoveto } ifelse
  } forall
  currentpoint cairo_store_point
} bind def
/cairo_selectfont { cairo_font_matrix aload pop pop pop 0 0 6 array astore
    cairo_font exch selectfont cairo_point_x cairo_point_y moveto } bind def
/Tf { pop /cairo_font exch def /cairo_font_matrix where
      { pop cairo_selectfont } if } bind def
/Td { matrix translate cairo_font_matrix matrix concatmatrix dup
      /cairo_font_matrix exch def dup 4 get exch 5 get cairo_store_point
      /cairo_font where { pop cairo_selectfont } if } bind def
/Tm { 2 copy 8 2 roll 6 array astore /cairo_font_matrix exch def
      cairo_store_point /cairo_font where { pop cairo_selectfont } if } bind def
/g { setgray } bind def
/rg { setrgbcolor } bind def
/d1 { setcachedevice } bind def
%%EndProlog
%%BeginSetup
%%EndSetup
%%Page: 1 1
%%BeginPageSetup
%%PageBoundingBox: 73 0 421 493
%%EndPageSetup
q 73 0 348 493 rectclip q
0.643137 0.788235 1 rg
92.938 63.945 m 80.074 49.926 l 79.574 49.379 79.16 48.762 78.844 48.09
 c 77.887 46.059 l 76.168 42.406 77.699 38.023 81.32 36.281 c 131.41 12.148
 l 135.121 10.359 139.523 10.98 142.609 13.73 c 143.969 16.613 l 145.426
 19.699 145.152 23.34 143.25 26.172 c 129.836 46.168 l h
92.938 63.945 m f
0.215686 0.384314 0.8 rg
135.832 7.137 m 133.742 7.137 131.641 7.602 129.672 8.547 c 79.582 32.68
 l 74.004 35.367 71.621 42.137 74.273 47.766 c 75.23 49.793 l 75.715 50.832
 76.355 51.785 77.129 52.625 c 89.992 66.648 l 91.184 67.945 93.086 68.316
 94.672 67.547 c 131.574 49.77 l 132.215 49.461 132.766 48.984 133.16 48.391
 c 146.574 28.391 l 149.242 24.414 149.629 19.242 147.586 14.902 c 146.23
 12.023 l 146.004 11.535 145.676 11.098 145.273 10.738 c 142.605 8.371 139.234
 7.137 135.832 7.137 c h
93.875 59.055 m 83.023 47.223 l 82.793 46.973 82.605 46.691 82.461 46.387
 c 81.508 44.355 l 80.715 42.684 81.41 40.676 83.055 39.883 c 133.145 15.75
 l 135.188 14.77 137.559 14.984 139.387 16.27 c 140.348 18.309 l 141.203
 20.121 141.043 22.281 139.93 23.941 c 127.125 43.035 l h
93.875 59.055 m f
0.643137 0.788235 1 rg
175.828 43.438 m 169.285 22.027 l 169.059 21.289 168.945 20.523 168.945
 19.754 c 168.945 16.047 l 168.945 11.844 172.27 8.438 176.371 8.438 c 241.145
 8.438 l 245.875 8.438 250.152 11.324 252.008 15.781 c 252.008 19.496 l 
252.008 23.484 249.949 27.176 246.59 29.191 c 222.867 43.438 l h
175.828 43.438 m f
0.215686 0.384314 0.8 rg
241.145 4.438 m 176.367 4.438 l 170.07 4.438 164.941 9.641 164.941 16.047
 c 164.941 19.754 l 164.941 20.918 165.117 22.074 165.457 23.195 c 172.004
 44.605 l 172.516 46.289 174.066 47.438 175.824 47.438 c 222.863 47.438 
l 223.59 47.438 224.301 47.238 224.918 46.867 c 248.641 32.625 l 253.184
 29.895 256.008 24.867 256.008 19.5 c 256.008 15.785 l 256.008 15.254 255.902
 14.73 255.695 14.242 c 253.211 8.285 247.496 4.438 241.145 4.438 c h
178.785 39.438 m 173.105 20.855 l 172.992 20.5 172.938 20.125 172.938 19.754
 c 172.938 16.047 l 172.938 14.055 174.477 12.434 176.367 12.434 c 241.145
 12.434 l 244.023 12.434 246.652 14.07 248.012 16.664 c 248.012 19.5 l 248.012
 22.07 246.676 24.477 244.527 25.766 c 221.758 39.438 l h
178.785 39.438 m f
241.145 4.438 m 176.367 4.438 l 170.07 4.438 164.941 9.641 164.941 16.047
 c 164.941 19.754 l 164.941 20.918 165.117 22.074 165.457 23.195 c 172.004
 44.605 l 172.516 46.289 174.066 47.438 175.824 47.438 c 222.863 47.438 
l 223.59 47.438 224.301 47.238 224.918 46.867 c 248.641 32.625 l 253.184
 29.895 256.008 24.867 256.008 19.5 c 256.008 15.785 l 256.008 15.254 255.902
 14.73 255.695 14.242 c 253.211 8.285 247.496 4.438 241.145 4.438 c h
178.785 39.438 m 173.105 20.855 l 172.992 20.5 172.938 20.125 172.938 19.754
 c 172.938 16.047 l 172.938 14.055 174.477 12.434 176.367 12.434 c 241.145
 12.434 l 244.023 12.434 246.652 14.07 248.012 16.664 c 248.012 19.5 l 248.012
 22.07 246.676 24.477 244.527 25.766 c 221.758 39.438 l h
178.785 39.438 m f
0.419608 0.866667 0.866667 rg
239.602 352.227 m 237 363.613 227.613 373.066 215.012 375.512 c 194.387
 379.523 l 180.809 382.164 167.738 373.727 165.203 360.68 c 141.82 240.379
 l 139.285 219 l 215.953 212.844 l 218.461 212.641 220.531 214.781 220.242
 217.285 c 220.047 219 l 222.551 244.684 l 236.215 296.223 l 236.41 296.953
 236.566 297.695 236.754 298.434 c 236.781 298.426 l 245.418 331.09 239.602
 352.227 239.602 352.227 c h
239.602 352.227 m f
0.215686 0.384314 0.8 rg
216.277 208.836 m 216.062 208.836 215.852 208.844 215.633 208.859 c 138.965
 215.016 l 137.883 215.102 136.887 215.629 136.195 216.469 c 135.504 217.309
 135.188 218.391 135.316 219.469 c 137.844 240.852 l 137.855 240.949 137.875
 241.047 137.891 241.145 c 161.277 361.445 l 164.23 376.633 179.434 386.504
 195.148 383.449 c 215.773 379.438 l 229.547 376.758 240.414 366.465 243.477
 353.195 c 243.953 351.391 249.254 329.965 240.641 297.402 c 240.609 297.277
 240.574 297.156 240.527 297.043 c 240.422 296.594 l 240.309 296.133 240.203
 295.664 240.082 295.203 c 226.492 243.977 l 224.062 219.031 l 224.215 217.742
 l 224.484 215.352 223.684 212.992 222.016 211.266 c 220.504 209.699 218.438
 208.836 216.277 208.836 c h
143.746 222.652 m 216.27 216.832 l 216.07 218.543 l 216.039 218.824 216.039
 219.105 216.066 219.387 c 218.57 245.074 l 218.59 245.289 218.629 245.5
 218.684 245.711 c 232.352 297.242 l 232.453 297.629 232.547 298.02 232.637
 298.414 c 232.875 299.398 l 232.918 299.57 232.969 299.738 233.035 299.902
 c 241.129 330.898 235.801 350.965 235.742 351.164 c 235.727 351.223 235.711
 351.277 235.699 351.336 c 233.367 361.559 224.941 369.508 214.246 371.586
 c 193.625 375.594 l 182.238 377.809 171.242 370.777 169.129 359.914 c 145.773
 239.762 l h
143.746 222.652 m f
0.976471 0.811765 0.811765 rg
235.809 480.566 m 256.66 476.516 270.273 456.328 266.219 435.484 c 261.914
 413.328 l 263.75 412.969 l 266.988 412.34 269.098 409.207 268.469 405.965
 c 267.844 402.727 264.707 400.617 261.469 401.246 c 258.605 401.797 l 252.641
 388.457 239.535 379.582 224.926 379.07 c 223.918 373.883 l 220.969 375.559
 217.719 376.816 214.207 377.5 c 195.176 381.199 l 193.816 381.465 192.465
 381.582 191.125 381.629 c 193.449 393.574 l 186.703 402.07 183.566 413.348
 185.801 424.836 c 190.719 450.156 l 194.777 471.008 214.965 484.621 235.809
 480.566 c h
235.809 480.566 m f
0.215686 0.384314 0.8 rg
248.051 415.699 m 249.977 415.328 251.836 416.582 252.207 418.508 c 253.336
 424.309 l 253.711 426.234 252.453 428.09 250.535 428.465 c 248.609 428.84
 246.75 427.586 246.375 425.664 c 245.246 419.855 l 244.871 417.938 246.129
 416.074 248.051 415.699 c h
248.051 415.699 m f
0.976471 0.811765 0.811765 rg
231.695 420.703 m 231.695 413.188 225.598 407.094 218.078 407.094 c 210.559
 407.094 204.465 413.188 204.465 420.703 c 204.465 428.223 210.559 434.32
 218.078 434.32 c 225.598 434.32 231.695 428.223 231.695 420.703 c h
231.695 420.703 m f
0.215686 0.384314 0.8 rg
223.922 369.883 m 223.234 369.883 222.551 370.059 221.941 370.406 c 219.258
 371.938 216.398 373 213.445 373.574 c 194.414 377.273 l 193.402 377.469
 192.281 377.59 190.988 377.633 c 189.816 377.676 188.727 378.223 188 379.141
 c 187.273 380.055 186.98 381.242 187.207 382.391 c 189.188 392.59 l 182.289
 402.102 179.629 414.027 181.879 425.598 c 186.801 450.918 l 188.965 462.047
 195.336 471.668 204.734 478.012 c 214.137 484.352 225.441 486.652 236.578
 484.488 c 247.707 482.324 257.332 475.957 263.672 466.555 c 270.012 457.152
 272.312 445.844 270.148 434.715 c 266.562 416.258 l 270.77 414.441 273.312
 409.879 272.402 405.199 c 271.359 399.848 266.195 396.324 260.84 397.289
 c 254.25 385.145 241.969 376.852 228.273 375.301 c 227.844 373.113 l 227.598
 371.848 226.758 370.777 225.586 370.238 c 225.055 370 224.488 369.883 223.922
 369.883 c h
195.883 385.133 m 195.902 385.129 195.926 385.125 195.941 385.121 c 214.973
 381.426 l 217.016 381.027 219.023 380.449 220.977 379.695 c 221.004 379.832
 l 221.359 381.66 222.93 383 224.785 383.066 c 237.789 383.523 249.633 391.516
 254.957 403.43 c 255.719 405.129 257.555 406.082 259.375 405.723 c 262.238
 405.168 l 263.293 404.961 264.344 405.66 264.551 406.73 c 264.762 407.797
 264.059 408.836 262.992 409.043 c 261.156 409.398 l 260.113 409.602 259.199
 410.207 258.605 411.086 c 258.012 411.965 257.793 413.043 257.996 414.086
 c 262.297 436.246 l 264.055 445.273 262.188 454.453 257.043 462.086 c 251.895
 469.719 244.086 474.883 235.047 476.641 c 226.023 478.398 216.84 476.531
 209.207 471.383 c 201.574 466.234 196.406 458.426 194.648 449.391 c 189.727
 424.074 l 187.805 414.184 190.301 403.977 196.582 396.062 c 197.309 395.148
 197.602 393.961 197.375 392.812 c h
195.883 385.133 m f
0.27451 0.443137 0.776471 rg
188.996 477.41 m 188.996 477.406 l 197.734 486.387 211.098 490.902 224.824
 488.238 c 227.746 487.668 229.68 484.969 229.141 482.199 c 228.938 481.152
 l 229.18 482.387 229.781 483.465 230.613 484.297 c 230.613 484.297 230.867
 484.633 231.504 485.031 c 232.355 485.609 233.348 485.988 234.398 486.098
 c 235.91 486.387 237.953 486.469 240.672 486.059 c 240.672 486.062 l 240.676
 486.059 240.68 486.059 240.688 486.059 c 243.504 485.629 247.043 484.668
 251.469 482.84 c 254.754 481.82 257.793 480.344 260.52 478.496 c 260.531
 478.492 260.539 478.488 260.551 478.48 c 260.547 478.477 l 262.102 477.426
 263.547 476.25 264.891 474.973 c 265.477 474.434 265.762 474.113 265.762
 474.113 c 273.207 466.512 276.93 455.602 274.766 444.496 c 272.43 432.473
 l 272.32 431.914 271.773 431.551 271.203 431.664 c 221.207 441.379 l 216.141
 415.324 l 214.23 405.492 l 205.809 394.355 l 205.57 394.039 205.168 393.887
 204.773 393.965 c 200.664 394.762 l 199.199 395.047 l 189.117 397.012 l
 187.531 397.316 186.02 397.848 184.617 398.562 c 184.574 398.59 183.113
 399.57 182.668 400.727 c 181.621 403.457 179.156 409.895 176.914 415.77
 c 173.586 424.488 172.566 433.906 174.125 443.066 c 178.387 468.152 188.996
 477.41 188.996 477.41 c h
188.996 477.41 m f
0.215686 0.384314 0.8 rg
204.965 389.949 m 204.645 389.949 204.324 389.98 204.008 390.043 c 188.352
 393.082 l 186.422 393.457 184.555 394.102 182.797 395 c 182.645 395.074
 182.496 395.164 182.355 395.262 c 181.59 395.781 179.734 397.215 178.941
 399.289 c 177.891 402.023 175.418 408.465 173.176 414.34 c 169.562 423.816
 168.527 433.98 170.18 443.73 c 174.477 469.035 185.133 479.305 186.281 
480.344 c 196.336 490.578 211.016 494.992 225.59 492.156 c 227.695 491.746
 229.504 490.68 230.832 489.223 c 231.754 489.637 232.77 489.922 233.805
 490.047 c 235.977 490.441 238.488 490.426 241.266 490.008 c 241.285 490.004
 241.305 490 241.328 489.996 c 244.734 489.477 248.605 488.336 252.828 486.602
 c 256.32 485.5 259.617 483.91 262.641 481.879 c 262.691 481.844 262.75 
481.812 262.797 481.777 c 264.496 480.621 266.121 479.309 267.641 477.867
 c 268.328 477.238 268.695 476.82 268.73 476.781 c 277.246 468.09 281.012
 455.684 278.684 443.727 c 276.352 431.703 l 275.816 428.98 273.168 427.207
 270.438 427.73 c 224.367 436.684 l 218.152 404.723 l 218.035 404.121 217.785
 403.559 217.418 403.07 c 208.992 391.941 l 208.035 390.68 206.523 389.949
 204.965 389.949 c h
205.531 397.891 m 205.539 397.891 l 205.535 397.891 205.535 397.891 205.531
 397.891 c h
186.703 401.984 m 187.715 401.5 188.781 401.148 189.875 400.934 c 203.734
 398.238 l 210.484 407.164 l 217.281 442.145 l 217.703 444.309 219.793 445.719
 221.973 445.301 c 269.07 436.152 l 270.84 445.25 l 272.664 454.633 269.699
 464.375 262.906 471.312 c 262.738 471.492 262.539 471.699 262.188 472.023
 c 260.934 473.215 259.648 474.254 258.316 475.16 c 258.305 475.168 258.289
 475.176 258.281 475.184 c 255.824 476.844 253.137 478.137 250.289 479.02
 c 250.172 479.059 250.059 479.098 249.945 479.145 c 246.23 480.676 242.91
 481.672 240.086 482.098 c 240.043 482.105 240.004 482.109 239.965 482.117
 c 237.617 482.465 236.047 482.336 235.152 482.164 c 235.039 482.145 234.926
 482.129 234.809 482.113 c 234.434 482.074 234.07 481.941 233.758 481.727
 c 233.758 481.727 233.625 481.641 233.562 481.598 c 233.52 481.555 233.48
 481.508 233.438 481.469 c 233.137 481.164 232.945 480.801 232.863 480.387
 c 232.863 480.383 l 232.438 478.219 230.328 476.805 228.172 477.227 c 226.004
 477.648 224.594 479.746 225.012 481.91 c 225.012 481.918 225.012 481.926
 225.016 481.934 c 225.215 482.969 l 225.332 483.551 224.801 484.164 224.062
 484.309 c 212.07 486.645 200.031 483.016 191.863 474.617 c 191.77 474.52
 191.668 474.43 191.57 474.344 c 190.641 473.445 181.797 464.371 178.066
 442.395 c 176.648 434.051 177.543 425.336 180.652 417.191 c 182.844 411.434
 185.258 405.145 186.34 402.324 c 186.422 402.23 186.562 402.098 186.703
 401.984 c h
260.52 478.492 m 260.539 478.492 l h
233.789 481.863 m 233.785 481.863 233.785 481.859 233.781 481.859 c 233.785
 481.859 233.785 481.863 233.789 481.863 c h
233.797 481.879 m 233.793 481.875 233.793 481.867 233.789 481.863 c 233.793
 481.867 233.793 481.875 233.797 481.879 c h
233.797 481.879 m f
0.976471 0.811765 0.811765 rg
231.695 420.703 m 231.695 413.188 225.598 407.094 218.078 407.094 c 210.559
 407.094 204.465 413.188 204.465 420.703 c 204.465 428.223 210.559 434.32
 218.078 434.32 c 225.598 434.32 231.695 428.223 231.695 420.703 c h
231.695 420.703 m f
0.419608 0.866667 0.866667 rg
226.922 318.156 m 181.938 307.32 l 173.574 342.043 l 170.586 354.465 178.23
 366.957 190.648 369.953 c 203.074 372.945 215.57 365.301 218.559 352.879
 c h
226.922 318.156 m f
0.215686 0.384314 0.8 rg
181.938 303.324 m 180.137 303.324 178.496 304.555 178.055 306.383 c 169.691
 341.105 l 166.188 355.652 175.168 370.332 189.719 373.836 c 196.762 375.531
 204.047 374.387 210.23 370.605 c 216.414 366.82 220.754 360.859 222.449
 353.812 c 230.812 319.09 l 231.062 318.059 230.891 316.973 230.34 316.066
 c 229.785 315.164 228.895 314.516 227.863 314.266 c 182.879 303.434 l 182.559
 303.359 182.246 303.324 181.938 303.324 c h
196.105 366.602 m 194.602 366.602 193.082 366.43 191.586 366.066 c 181.324
 363.594 174.992 353.234 177.465 342.977 c 184.891 312.145 l 222.102 321.105
 l 214.676 351.938 l 213.477 356.91 210.414 361.113 206.055 363.781 c 203.012
 365.648 199.586 366.602 196.105 366.602 c h
196.105 366.602 m f
0.878431 0.921569 0.988235 rg
266.406 121.871 120.93 -14.395 re f
0.976471 0.654902 0.654902 rg
267.277 3.996 m 250.637 3.996 l 249.531 3.996 248.637 4.895 248.637 5.996
 c 248.637 25.82 l 248.637 26.922 249.531 27.816 250.637 27.816 c 267.277
 27.816 l 268.379 27.816 269.273 26.922 269.273 25.82 c 269.273 5.996 l 
269.273 4.891 268.379 3.996 267.277 3.996 c h
267.277 3.996 m f
416.348 25.988 m 416.348 13.844 406.5 3.996 394.355 3.996 c 382.207 3.996
 372.367 13.844 372.367 25.988 c 372.367 38.133 382.207 47.977 394.355 47.977
 c 406.5 47.977 416.348 38.133 416.348 25.988 c h
416.348 25.988 m f
1 0.917647 0.572549 rg
405.18 25.988 m 405.18 20.008 400.332 15.164 394.355 15.164 c 388.375 15.164
 383.527 20.008 383.527 25.988 c 383.527 31.969 388.375 36.812 394.355 36.812
 c 400.332 36.812 405.18 31.969 405.18 25.988 c h
405.18 25.988 m f
0.878431 0.921569 0.988235 rg
383.734 240.707 m 319.707 240.707 l 309.902 240.707 300.77 235.719 295.477
 227.461 c 259.418 171.25 l 254.578 163.715 252.008 154.949 252.008 145.992
 c 252.008 27.816 l 266.406 27.816 l 266.406 145.992 l 266.406 152.203 268.18
 158.25 271.531 163.48 c 307.594 219.691 l 310.254 223.84 314.777 226.316
 319.711 226.316 c 383.738 226.316 l 385.723 226.316 387.34 224.703 387.34
 222.715 c 387.34 46.812 l 389.547 47.559 391.898 47.977 394.355 47.977 
c 396.949 47.977 399.422 47.508 401.73 46.684 c 401.73 222.715 l 401.727
 232.656 393.672 240.707 383.734 240.707 c h
383.734 240.707 m f
0.215686 0.384314 0.8 rg
387.34 103.48 m 266.406 103.48 l 264.195 103.48 262.406 105.266 262.406
 107.477 c 262.406 121.871 l 262.406 124.074 264.195 125.867 266.406 125.867
 c 387.34 125.867 l 389.547 125.867 391.336 124.074 391.336 121.871 c 391.336
 107.477 l 391.336 105.266 389.547 103.48 387.34 103.48 c h
270.402 111.477 m 383.34 111.477 l 383.34 117.871 l 270.402 117.871 l h
270.402 111.477 m f
267.277 0 m 250.637 0 l 247.332 0 244.637 2.691 244.637 5.996 c 244.637
 25.82 l 244.637 29.125 247.332 31.816 250.637 31.816 c 267.277 31.816 l
 270.582 31.816 273.273 29.125 273.273 25.82 c 273.273 5.996 l 273.273 2.688
 270.582 0 267.277 0 c h
252.633 7.996 m 265.277 7.996 l 265.277 23.82 l 252.633 23.82 l h
252.633 7.996 m f
394.355 0 m 380.027 0 368.367 11.656 368.367 25.988 c 368.367 40.316 380.027
 51.977 394.355 51.977 c 408.684 51.977 420.344 40.316 420.344 25.988 c 
420.344 11.656 408.684 0 394.355 0 c h
394.355 43.977 m 384.434 43.977 376.363 35.906 376.363 25.988 c 376.363
 16.07 384.434 7.996 394.355 7.996 c 404.277 7.996 412.348 16.07 412.348
 25.988 c 412.348 35.906 404.277 43.977 394.355 43.977 c h
394.355 43.977 m f
266.406 23.82 m 252.012 23.82 l 249.805 23.82 248.016 25.613 248.016 27.816
 c 248.016 145.996 l 248.016 155.738 250.797 165.219 256.051 173.414 c 292.113
 229.625 l 298.172 239.07 308.488 244.703 319.711 244.703 c 383.738 244.703
 l 395.863 244.703 405.73 234.844 405.73 222.715 c 405.73 46.684 l 405.73
 45.383 405.098 44.164 404.035 43.418 c 402.969 42.668 401.609 42.48 400.387
 42.918 c 396.531 44.289 392.469 44.324 388.617 43.027 c 387.402 42.613 
386.055 42.812 385.004 43.566 c 383.961 44.312 383.34 45.523 383.34 46.812
 c 383.34 222.316 l 319.711 222.316 l 316.152 222.316 312.879 220.527 310.961
 217.535 c 274.898 161.324 l 271.953 156.742 270.402 151.441 270.402 145.996
 c 270.402 27.82 l 270.402 25.613 268.609 23.82 266.406 23.82 c h
256.008 31.816 m 262.402 31.816 l 262.402 145.996 l 262.402 152.973 264.395
 159.762 268.164 165.641 c 304.223 221.852 l 307.625 227.148 313.41 230.312
 319.707 230.312 c 383.734 230.312 l 387.926 230.312 391.332 226.906 391.332
 222.715 c 391.332 51.797 l 393.453 52.051 395.605 52.039 397.73 51.754 
c 397.73 222.715 l 397.73 230.434 391.449 236.707 383.734 236.707 c 319.707
 236.707 l 311.223 236.707 303.418 232.449 298.84 225.305 c 262.777 169.09
 l 258.348 162.188 256.008 154.199 256.008 145.992 c h
256.008 31.816 m f
0.976471 0.811765 0.811765 rg
303.352 249.105 m 294.352 245.734 l 233.82 284.121 l 232.086 285.227 230.836
 286.957 230.344 288.957 c 223.348 317.293 l 189.906 309.242 l 202.09 268.957
 l 203.148 265.445 205.645 262.543 208.957 260.977 c 281.66 226.508 l 290.777
 215.316 l 291.488 214.449 292.531 213.914 293.652 213.852 c 318.199 212.461
 l 320.238 212.348 322.031 213.781 322.367 215.793 c 326.25 238.949 l 326.578
 240.902 325.43 242.797 323.551 243.414 c 306 249.16 l 305.141 249.445 304.203
 249.426 303.352 249.105 c h
303.352 249.105 m f
0.215686 0.384314 0.8 rg
318.434 208.457 m 318.277 208.457 318.129 208.461 317.973 208.473 c 293.426
 209.859 l 291.188 209.984 289.09 211.055 287.676 212.793 c 279.133 223.277
 l 207.246 257.363 l 202.922 259.418 199.645 263.219 198.266 267.801 c 186.082
 308.082 l 185.766 309.137 185.895 310.273 186.441 311.23 c 186.988 312.184
 187.906 312.871 188.977 313.129 c 222.41 321.18 l 224.559 321.699 226.699
 320.391 227.227 318.25 c 234.223 289.914 l 234.473 288.91 235.09 288.055
 235.965 287.5 c 294.812 250.18 l 301.957 252.852 l 303.648 253.484 305.527
 253.523 307.25 252.961 c 324.797 247.211 l 328.586 245.969 330.852 242.215
 330.191 238.285 c 326.312 215.133 l 325.66 211.254 322.312 208.461 318.434
 208.457 c h
194.961 306.344 m 205.914 270.113 l 206.648 267.688 208.379 265.672 210.672
 264.586 c 283.371 230.113 l 283.914 229.859 284.387 229.488 284.762 229.027
 c 293.879 217.844 l 318.426 216.453 l 322.305 239.609 l 304.754 245.359
 l 295.75 241.992 l 294.57 241.551 293.266 241.688 292.207 242.359 c 231.684
 280.742 l 229.055 282.41 227.203 284.988 226.461 288.004 c 220.418 312.473
 l h
303.355 249.105 m 303.375 249.105 l h
303.355 249.105 m f
0.27451 0.443137 0.776471 rg
146.316 218.434 m 146.316 193.668 l 146.316 192.465 146.078 191.277 145.613
 190.168 c 92.848 64.676 l 131.688 45.801 l 197.918 169.352 l 199.141 171.637
 199.785 174.199 199.785 176.801 c 199.785 214.141 l h
146.316 218.434 m f
0.215686 0.384314 0.8 rg
131.684 41.805 m 131.098 41.805 130.5 41.938 129.938 42.211 c 91.102 61.086
 l 89.188 62.008 88.336 64.27 89.16 66.23 c 141.926 191.719 l 142.188 192.336
 142.32 192.992 142.32 193.668 c 142.32 218.434 l 142.32 219.551 142.785
 220.617 143.605 221.375 c 144.43 222.133 145.508 222.516 146.637 222.422
 c 200.109 218.129 l 202.188 217.965 203.789 216.227 203.789 214.141 c 203.789
 176.801 l 203.789 173.555 202.977 170.32 201.445 167.461 c 135.215 43.914
 l 134.492 42.578 133.113 41.805 131.684 41.805 c h
98 66.621 m 129.977 51.082 l 194.395 171.242 l 195.309 172.945 195.789 
174.863 195.789 176.801 c 195.789 210.453 l 150.316 214.105 l 150.316 193.672
 l 150.316 191.93 149.973 190.23 149.297 188.625 c h
98 66.621 m f
0.27451 0.443137 0.776471 rg
212.973 213.086 m 141.414 218.832 l 140.203 210.863 140.387 202.715 142.039
 194.773 c 146.93 171.273 l 172.887 43.77 l 175.902 43.441 l 218.07 43.441
 l 217.992 43.914 l h
212.973 213.086 m f
0.215686 0.384314 0.8 rg
218.07 39.438 m 175.902 39.438 l 175.758 39.438 175.613 39.445 175.473 
39.461 c 172.453 39.789 l 170.727 39.977 169.316 41.266 168.969 42.969 c
 143.016 170.473 l 138.125 193.957 l 136.391 202.305 136.168 210.875 137.465
 219.43 c 137.773 221.508 139.641 222.973 141.734 222.816 c 213.293 217.07
 l 215.328 216.906 216.906 215.238 216.969 213.203 c 221.988 44.285 l 222.023
 44.066 l 222.211 42.914 221.879 41.734 221.117 40.844 c 220.355 39.953 
219.242 39.438 218.07 39.438 c h
176.219 47.434 m 213.891 47.434 l 209.078 209.387 l 144.914 214.539 l 144.312
 208.164 144.66 201.801 145.957 195.59 c 150.844 172.086 l h
176.219 47.434 m f
Q Q
showpage
%%Trailer
end restore
%%EOF
