%!PS-Adobe-3.0 EPSF-3.0
%%Creator: cairo 1.14.8 (http://cairographics.org)
%%CreationDate: Wed Mar 20 09:06:38 2019
%%Pages: 1
%%DocumentData: Clean7Bit
%%LanguageLevel: 2
%%BoundingBox: 0 23 488 465
%%EndComments
%%BeginProlog
save
50 dict begin
/q { gsave } bind def
/Q { grestore } bind def
/cm { 6 array astore concat } bind def
/w { setlinewidth } bind def
/J { setlinecap } bind def
/j { setlinejoin } bind def
/M { setmiterlimit } bind def
/d { setdash } bind def
/m { moveto } bind def
/l { lineto } bind def
/c { curveto } bind def
/h { closepath } bind def
/re { exch dup neg 3 1 roll 5 3 roll moveto 0 rlineto
      0 exch rlineto 0 rlineto closepath } bind def
/S { stroke } bind def
/f { fill } bind def
/f* { eofill } bind def
/n { newpath } bind def
/W { clip } bind def
/W* { eoclip } bind def
/BT { } bind def
/ET { } bind def
/pdfmark where { pop globaldict /?pdfmark /exec load put }
    { globaldict begin /?pdfmark /pop load def /pdfmark
    /cleartomark load def end } ifelse
/BDC { mark 3 1 roll /BDC pdfmark } bind def
/EMC { mark /EMC pdfmark } bind def
/cairo_store_point { /cairo_point_y exch def /cairo_point_x exch def } def
/Tj { show currentpoint cairo_store_point } bind def
/TJ {
  {
    dup
    type /stringtype eq
    { show } { -0.001 mul 0 cairo_font_matrix dtransform rmoveto } ifelse
  } forall
  currentpoint cairo_store_point
} bind def
/cairo_selectfont { cairo_font_matrix aload pop pop pop 0 0 6 array astore
    cairo_font exch selectfont cairo_point_x cairo_point_y moveto } bind def
/Tf { pop /cairo_font exch def /cairo_font_matrix where
      { pop cairo_selectfont } if } bind def
/Td { matrix translate cairo_font_matrix matrix concatmatrix dup
      /cairo_font_matrix exch def dup 4 get exch 5 get cairo_store_point
      /cairo_font where { pop cairo_selectfont } if } bind def
/Tm { 2 copy 8 2 roll 6 array astore /cairo_font_matrix exch def
      cairo_store_point /cairo_font where { pop cairo_selectfont } if } bind def
/g { setgray } bind def
/rg { setrgbcolor } bind def
/d1 { setcachedevice } bind def
%%EndProlog
%%BeginSetup
%%EndSetup
%%Page: 1 1
%%BeginPageSetup
%%PageBoundingBox: 0 23 488 465
%%EndPageSetup
q 0 23 488 442 rectclip q
0.878431 0.921569 0.988235 rg
165.113 116.199 m 160.078 116.199 156 120.277 156 125.312 c 156 136.434
 l 4 97.207 l 4 72.004 l 175.242 116.199 l h
165.113 116.199 m f
0.976471 0.811765 0.811765 rg
49.586 340.355 m 62.684 342.668 75.176 333.922 77.484 320.82 c 79.938 306.898
 l 81.094 307.102 l 83.125 307.461 85.066 306.102 85.426 304.07 c 85.785
 302.035 84.426 300.094 82.391 299.734 c 80.594 299.418 l 80.102 290.277
 74.43 282.148 66.004 278.57 c 66.574 275.309 l 64.477 275.629 62.293 275.637
 60.086 275.246 c 48.129 273.141 l 47.277 272.988 46.461 272.754 45.664 
272.48 c 44.34 279.988 l 38.488 283.441 34.125 289.332 32.855 296.547 c 
30.047 312.457 l 27.738 325.559 36.484 338.047 49.586 340.355 c h
49.586 340.355 m f
0.215686 0.384314 0.8 rg
71.301 305.176 m 72.508 305.391 73.312 306.543 73.102 307.75 c 72.461 311.398
 l 72.246 312.605 71.094 313.41 69.887 313.199 c 68.68 312.984 67.871 311.832
 68.086 310.625 c 68.727 306.98 l 68.941 305.77 70.094 304.965 71.301 305.176
 c h
71.301 305.176 m f
0.419608 0.866667 0.866667 rg
63.812 178.832 m 96.387 184.578 l 83.16 259.574 l 81.297 270.148 71.215
 277.211 60.637 275.344 c 47.68 273.062 l 39.145 271.559 33.449 263.418 
34.953 254.887 c 46.188 191.176 l 47.648 182.898 55.539 177.375 63.812 178.832
 c h
63.812 178.832 m f
0.27451 0.443137 0.776471 rg
22.922 328.004 m 22.926 328.004 l 26.016 335.215 32.816 340.855 41.441 
342.379 c 43.277 342.699 45.016 341.555 45.32 339.82 c 45.438 339.16 l 45.301
 339.934 45.41 340.699 45.711 341.371 c 45.711 341.371 45.785 341.625 46.066
 342 c 46.434 342.531 46.93 342.973 47.523 343.273 c 48.34 343.781 49.516
 344.289 51.195 344.66 c 51.203 344.66 l 52.949 345.043 55.234 345.277 58.23
 345.203 c 60.379 345.344 62.484 345.16 64.496 344.691 c 64.52 344.691 l
 64.52 344.688 l 65.66 344.422 66.773 344.059 67.844 343.613 c 68.309 343.434
 68.547 343.309 68.547 343.309 c 74.605 340.535 79.227 334.992 80.457 328.012
 c 81.789 320.461 l 81.852 320.109 81.613 319.773 81.258 319.711 c 49.844
 314.172 l 52.727 297.801 l 53.816 291.621 l 51.391 283.223 l 51.324 282.984
 51.121 282.805 50.875 282.762 c 48.293 282.305 l 47.371 282.145 l 41.035
 281.023 l 40.039 280.848 39.039 280.82 38.059 280.922 c 38.027 280.93 36.953
 281.176 36.438 281.75 c 35.211 283.113 32.324 286.32 29.695 289.254 c 25.793
 293.605 23.082 298.883 21.938 304.586 c 18.797 320.211 22.922 328.004 22.922
 328.004 c h
22.922 328.004 m f
0.215686 0.384314 0.8 rg
61.129 174.598 m 57.223 174.598 53.418 175.789 50.148 178.078 c 45.945 
181.02 43.141 185.426 42.25 190.48 c 31.016 254.188 l 29.523 262.672 33.777
 271.047 41.16 274.977 c 40.812 276.949 l 39.762 276.832 38.699 276.828 
37.637 276.941 c 37.488 276.953 37.344 276.98 37.199 277.012 c 36.492 277.164
 34.719 277.676 33.461 279.066 c 26.715 286.578 l 22.297 291.504 19.285 
297.461 18.012 303.793 c 14.836 319.594 18.531 328.156 19.297 329.699 c 
23.086 338.406 31.09 344.609 40.746 346.312 c 42.008 346.535 43.273 346.438
 44.449 346.039 c 44.789 346.305 45.156 346.543 45.547 346.75 c 46.852 347.531
 48.434 348.137 50.258 348.543 c 50.34 348.562 50.426 348.582 50.508 348.594
 c 52.559 349.051 55.176 349.258 58.152 349.199 c 60.57 349.34 62.984 349.141
 65.336 348.598 c 65.387 348.59 65.441 348.578 65.488 348.562 c 66.777 348.258
 68.102 347.832 69.379 347.301 c 69.996 347.059 70.355 346.863 70.375 346.855
 c 77.684 343.516 82.984 336.695 84.395 328.695 c 85.727 321.145 l 85.941
 319.934 85.656 318.652 84.938 317.645 c 84.312 316.773 83.434 316.156 82.414
 315.867 c 83.277 311.004 l 86.301 310.387 88.797 307.98 89.363 304.762 
c 89.723 302.723 89.27 300.672 88.082 298.977 c 87.125 297.609 85.789 296.609
 84.238 296.086 c 83.004 288.766 78.871 282.195 72.906 277.898 c 80.238 
274.914 85.672 268.363 87.102 260.262 c 100.324 185.266 l 100.707 183.094
 99.258 181.016 97.078 180.633 c 64.508 174.891 l 63.379 174.695 62.254 
174.598 61.129 174.598 c h
42.418 285.266 m 43.262 285.266 44.086 285 44.777 284.496 c 45.293 284.121
 45.82 283.758 46.375 283.434 c 47.379 282.84 48.078 281.836 48.281 280.684
 c 49.594 273.242 l 49.941 271.266 48.773 269.34 46.863 268.734 c 41.309
 266.973 37.883 261.32 38.895 255.582 c 50.129 191.871 l 51.203 185.785 
57.031 181.699 63.117 182.777 c 91.754 187.824 l 79.223 258.883 l 78.047
 265.559 72.742 270.637 66.027 271.516 c 64.293 271.742 62.906 273.066 62.605
 274.785 c 62.062 277.879 l 61.738 279.715 62.723 281.527 64.438 282.254
 c 71.414 285.219 76.188 292.039 76.598 299.637 c 76.676 301.137 77.578 
302.43 78.887 303.043 c 78.445 303.164 78.023 303.359 77.645 303.629 c 76.773
 304.234 76.184 305.164 75.996 306.211 c 73.848 318.406 l 73.664 319.449
 73.902 320.523 74.512 321.395 c 75.121 322.262 76.047 322.852 77.094 323.039
 c 77.266 323.07 l 76.516 327.316 l 75.562 332.73 71.961 337.348 66.879 
339.672 c 66.691 339.762 66.57 339.816 66.387 339.891 c 65.426 340.285 64.52
 340.582 63.605 340.797 c 63.574 340.805 63.543 340.812 63.512 340.82 c 
61.91 341.188 60.207 341.328 58.488 341.215 c 58.367 341.207 58.246 341.203
 58.129 341.207 c 55.73 341.266 53.688 341.117 52.059 340.758 c 52.047 340.754
 52.039 340.754 52.027 340.75 c 50.746 340.469 50.012 340.117 49.621 339.875
 c 49.535 339.824 49.453 339.773 49.367 339.73 c 49.625 338.02 48.773 336.422
 47.219 335.645 c 47.102 335.586 46.977 335.531 46.852 335.484 c 45.805 
335.082 44.633 335.137 43.621 335.648 c 42.559 336.184 41.789 337.168 41.523
 338.324 c 34.762 336.938 29.211 332.527 26.598 326.43 c 26.555 326.336 
26.516 326.246 26.469 326.156 c 26.316 325.84 23.141 318.875 25.855 305.375
 c 26.848 300.438 29.203 295.789 32.668 291.922 c 39.008 284.863 l 39.469
 284.859 39.902 284.887 40.34 284.965 c 41.719 285.207 l 41.953 285.246 
42.188 285.266 42.418 285.266 c h
77.852 319.762 m 77.852 319.75 l h
49.34 339.711 m 49.332 339.703 49.328 339.699 49.328 339.699 c 49.332 339.699
 49.336 339.703 49.34 339.711 c h
49.535 340.195 m 49.531 340.195 49.531 340.191 49.531 340.191 c 49.531 
340.191 49.531 340.191 49.535 340.195 c h
49.535 340.203 m 49.535 340.199 l h
49.547 340.246 m 49.543 340.23 49.539 340.219 49.535 340.203 c 49.539 340.219
 49.543 340.23 49.547 340.246 c h
49.547 340.246 m f
0.976471 0.811765 0.811765 rg
61.18 301.379 m 61.18 296.668 57.363 292.852 52.652 292.852 c 47.945 292.852
 44.129 296.668 44.129 301.379 c 44.129 306.086 47.945 309.902 52.652 309.902
 c 57.363 309.902 61.18 306.086 61.18 301.379 c h
61.18 301.379 m f
0.643137 0.788235 1 rg
171.684 171.16 m 186.316 176.391 l 187.613 176.852 189.055 176.59 190.148
 175.691 c 193.293 173.105 l 194.082 172.457 194.621 171.527 194.801 170.5
 c 195.059 169.031 194.566 167.539 193.496 166.574 c 172.621 147.723 l 171.445
 146.66 169.926 146.09 168.355 146.129 c 166.453 146.176 164.656 147.102
 163.453 148.66 c 159.922 153.23 l 158.859 154.605 158.902 156.57 160.027
 157.855 c h
171.684 171.16 m f
0.215686 0.384314 0.8 rg
168.508 142.125 m 168.426 142.125 168.34 142.125 168.254 142.129 c 165.141
 142.203 162.238 143.691 160.289 146.211 c 156.758 150.777 l 154.52 153.676
 154.629 157.758 157.016 160.484 c 168.672 173.793 l 169.121 174.305 169.695
 174.695 170.336 174.922 c 184.969 180.152 l 187.613 181.098 190.5 180.582
 192.688 178.777 c 195.828 176.191 l 197.359 174.938 198.391 173.16 198.738
 171.188 c 199.234 168.387 198.254 165.48 196.176 163.602 c 175.301 144.75
 l 173.422 143.055 171.02 142.125 168.508 142.125 c h
163.25 155.461 m 166.617 151.105 l 167.086 150.5 167.754 150.145 168.449
 150.129 c 169.039 150.102 169.523 150.312 169.941 150.688 c 190.816 169.543
 l 190.84 169.562 190.887 169.66 190.863 169.801 c 190.844 169.906 190.793
 169.98 190.75 170.016 c 187.605 172.602 l 174.008 167.742 l h
163.25 155.461 m f
0.27451 0.443137 0.776471 rg
116.891 222.383 m 121.707 223.23 126.684 222.617 131.285 220.609 c 135.543
 218.754 139.336 215.766 142.309 211.922 c 173.859 173.906 l 174.488 173.148
 174.504 172.008 173.891 171.273 c 160.875 155.684 l 160.191 154.863 158.992
 154.867 158.266 155.691 c 132.285 185.012 l 129.52 187.941 l 128.262 189.273
 126.512 189.891 124.816 189.59 c 63.98 178.863 l 55.613 177.387 47.52 183.637
 45.898 192.82 c 42.984 209.348 l h
116.891 222.383 m f
0.215686 0.384314 0.8 rg
159.594 151.074 m 157.953 151.074 156.383 151.785 155.273 153.039 c 129.293
 182.359 l 126.613 185.195 l 126.285 185.547 125.855 185.715 125.512 185.652
 c 64.68 174.926 l 59.512 174.016 54.285 175.348 49.969 178.68 c 45.762 
181.926 42.918 186.703 41.961 192.129 c 39.047 208.656 l 38.664 210.832 
40.113 212.906 42.289 213.289 c 116.195 226.324 l 116.199 226.324 l 121.789
 227.312 127.562 226.602 132.887 224.277 c 137.746 222.16 142.102 218.734
 145.477 214.375 c 176.941 176.465 l 178.816 174.199 178.824 170.945 176.969
 168.719 c 163.949 153.125 l 162.879 151.844 161.32 151.098 159.676 151.078
 c 159.645 151.074 159.621 151.074 159.594 151.074 c h
125.664 193.664 m 128.172 193.664 130.617 192.609 132.43 190.691 c 135.195
 187.762 l 159.523 160.305 l 169.77 172.578 l 139.234 209.367 l 136.594 
212.777 133.32 215.359 129.688 216.945 c 125.812 218.637 121.625 219.156
 117.586 218.441 c 47.617 206.105 l 49.84 193.516 l 50.449 190.059 52.227
 187.039 54.855 185.012 c 57.367 183.07 60.367 182.289 63.289 182.805 c 
124.121 193.531 l 124.633 193.617 125.152 193.664 125.664 193.664 c h
125.664 193.664 m f
1 0.917647 0.572549 rg
138.797 176.305 m 138.797 144.285 112.84 118.328 80.82 118.328 c 48.805
 118.328 22.848 144.285 22.848 176.305 c 22.848 208.324 48.805 234.281 80.82
 234.281 c 112.84 234.281 138.797 208.324 138.797 176.305 c h
138.797 176.305 m f
0.215686 0.384314 0.8 rg
80.793 114.324 m 51.297 114.324 25.086 135.512 19.789 165.543 c 13.855 
199.195 36.406 231.406 70.059 237.336 c 103.73 243.27 135.926 220.719 141.855
 187.066 c 144.73 170.762 141.086 154.316 131.59 140.758 c 122.094 127.195
 107.887 118.145 91.586 115.27 c 87.957 114.633 84.352 114.324 80.793 114.324
 c h
27.664 166.934 m 32.836 137.621 60.898 117.984 90.195 123.152 c 104.395
 125.652 116.766 133.535 125.035 145.348 c 133.305 157.156 136.48 171.48
 133.977 185.68 c 128.809 214.988 100.77 234.633 71.449 229.461 c 42.141
 224.293 22.496 196.242 27.664 166.934 c h
27.664 166.934 m f
0.643137 0.788235 1 rg
118.434 182.938 m 114.77 203.719 94.953 217.598 74.172 213.934 c 53.391
 210.27 39.512 190.453 43.176 169.668 c 46.84 148.887 66.656 135.012 87.438
 138.676 c 108.223 142.336 122.098 162.156 118.434 182.938 c h
118.434 182.938 m f
0.976471 0.811765 0.811765 rg
61.18 301.379 m 61.18 296.668 57.363 292.852 52.652 292.852 c 47.945 292.852
 44.129 296.668 44.129 301.379 c 44.129 306.086 47.945 309.902 52.652 309.902
 c 57.363 309.902 61.18 306.086 61.18 301.379 c h
61.18 301.379 m f
0.215686 0.384314 0.8 rg
80.801 134.09 m 60.711 134.09 42.855 148.52 39.254 168.977 c 35.211 191.895
 50.57 213.832 73.488 217.875 c 96.426 221.906 118.352 206.555 122.391 183.637
 c 124.348 172.551 121.855 161.352 115.383 152.105 c 108.91 142.859 99.238
 136.691 88.152 134.734 c 85.684 134.301 83.227 134.09 80.801 134.09 c h
87.457 138.676 m 87.477 138.676 l h
80.836 210.52 m 78.871 210.52 76.879 210.348 74.879 209.996 c 56.305 206.719
 43.855 188.941 47.129 170.363 c 50.406 151.785 68.184 139.332 86.762 142.613
 c 95.742 144.195 103.582 149.195 108.828 156.691 c 114.078 164.188 116.094
 173.262 114.512 182.246 c 111.59 198.82 97.117 210.52 80.836 210.52 c h
80.836 210.52 m f
0.878431 0.921569 0.988235 rg
80.805 158.09 m 71.961 158.09 64.426 164.422 62.887 173.145 c 61.145 183.031
 67.77 192.496 77.66 194.238 c 78.711 194.426 79.785 194.52 80.84 194.52
 c 89.684 194.52 97.215 188.188 98.758 179.469 c 99.598 174.691 98.523 169.863
 95.723 165.867 c 92.926 161.875 88.758 159.211 83.984 158.367 c 82.93 158.184
 81.859 158.09 80.805 158.09 c h
80.805 158.09 m f
0.976471 0.811765 0.811765 rg
22.477 176.195 m 24.66 187.508 l 32.328 240.477 l 32.336 240.477 l 50.57
 229.324 l 50.66 229.27 50.762 229.227 50.855 229.188 c 39.375 185.789 l
 41.105 173.609 l 41.168 173.172 41.16 172.73 41.09 172.301 c 40.551 169.066
 l 40.199 166.953 38.348 165.426 36.207 165.48 c 27.562 165.699 l 25.547
 165.75 23.84 167.195 23.457 169.176 c 22.477 174.25 l 22.352 174.891 22.352
 175.555 22.477 176.195 c h
22.477 176.195 m f
0.215686 0.384314 0.8 rg
36.312 161.477 m 36.246 161.477 36.18 161.477 36.109 161.48 c 27.461 161.695
 l 23.598 161.797 20.262 164.617 19.527 168.41 c 18.547 173.488 l 18.328
 174.633 18.324 175.797 18.543 176.945 c 18.547 176.949 18.547 176.953 18.547
 176.953 c 20.73 188.262 l 28.371 241.047 l 28.562 242.379 29.41 243.523
 30.629 244.094 c 31.844 244.664 33.27 244.59 34.414 243.887 c 52.504 232.828
 l 54.27 232.023 55.223 230.051 54.723 228.16 c 43.449 185.547 l 45.066 
174.168 l 45.188 173.332 45.176 172.48 45.035 171.637 c 44.492 168.402 l
 43.828 164.422 40.332 161.477 36.312 161.477 c h
26.402 175.445 m 26.375 175.301 26.375 175.152 26.402 175.008 c 27.383 
169.93 l 27.41 169.797 27.527 169.695 27.664 169.691 c 36.309 169.477 l 
36.418 169.445 36.582 169.578 36.605 169.723 c 37.145 172.949 l 35.414 185.223
 l 35.34 185.75 35.371 186.289 35.508 186.809 c 46.219 227.293 l 35.422 
233.895 l 28.621 186.93 l h
52.633 232.75 m 52.652 232.734 l 52.648 232.742 52.641 232.746 52.633 232.75
 c h
52.633 232.75 m f
0.419608 0.866667 0.866667 rg
32.332 240.473 m 50.566 229.324 l 51.449 228.785 52.602 229.062 53.141 
229.941 c 68.824 255.598 l 72.445 261.512 70.578 269.242 64.664 272.859 
c 58.746 276.48 51.02 274.613 47.398 268.699 c 31.715 243.047 l 31.176 242.164
 31.453 241.012 32.332 240.473 c h
32.332 240.473 m f
0.215686 0.384314 0.8 rg
51.535 225.047 m 50.465 225.047 49.414 225.34 48.48 225.914 c 30.246 237.062
 l 27.484 238.75 26.617 242.367 28.301 245.133 c 43.988 270.785 l 48.75 
278.574 58.961 281.035 66.75 276.277 c 74.539 271.512 77 261.305 72.238 
253.512 c 56.551 227.859 l 55.734 226.52 54.445 225.582 52.922 225.215 c
 52.457 225.102 51.992 225.047 51.535 225.047 c h
36.234 242.773 m 50.84 233.848 l 65.41 257.684 l 67.871 261.711 66.602 
266.988 62.574 269.449 c 58.551 271.906 53.273 270.637 50.809 266.609 c 
h
36.234 242.773 m f
1 0.917647 0.572549 rg
474.887 176.199 m 475.242 176.199 475.578 176.137 475.926 176.094 c 475.926
 418.711 l 475.926 442.066 456.992 461 433.641 461 c 207.41 461 l 184.059
 461 165.125 442.066 165.125 418.711 c 165.125 176.195 l 474.887 176.195
 l h
474.887 176.199 m f
0.976471 0.654902 0.654902 rg
476 27.535 m 12 27.535 l 7.582 27.535 4 31.117 4 35.535 c 4 74.074 l 476
 74.074 l 480.414 74.074 483.996 70.492 483.996 66.074 c 483.996 35.535 
l 483.996 31.117 480.414 27.535 476 27.535 c h
476 27.535 m f
1 0.917647 0.572549 rg
474.887 116.125 m 165.113 116.125 l 160.078 116.125 156 120.203 156 125.238
 c 156 167.012 l 156 172.043 160.078 176.121 165.113 176.121 c 474.887 176.121
 l 479.918 176.121 483.992 172.043 483.992 167.012 c 483.992 125.238 l 483.996
 120.203 479.922 116.125 474.887 116.125 c h
474.887 116.125 m f
0.878431 0.921569 0.988235 rg
186.41 265 m 454.637 265 l 466.391 265 475.926 273.953 475.926 285 c 475.926
 405 l 165.125 405 l 165.125 285 l 165.125 273.953 174.656 265 186.41 265
 c h
186.41 265 m f
0.976471 0.654902 0.654902 rg
322.102 237.473 m 254.895 237.473 l 252.242 237.473 250.094 235.32 250.094
 232.672 c 250.094 223.461 l 250.094 218.52 251.617 213.699 254.461 209.656
 c 258.109 204.465 l 262.605 198.07 269.93 194.266 277.746 194.266 c 366.453
 194.266 l 374.27 194.266 381.598 198.074 386.09 204.465 c 389.738 209.656
 l 392.582 213.699 394.105 218.52 394.105 223.461 c 394.105 232.672 l 394.105
 235.324 391.957 237.473 389.305 237.473 c h
322.102 237.473 m f
0.27451 0.443137 0.776471 rg
460.805 221.398 m 460.805 204.812 447.359 191.367 430.773 191.367 c 414.188
 191.367 400.742 204.812 400.742 221.398 c 400.742 237.984 414.188 251.43
 430.773 251.43 c 447.359 251.43 460.805 237.984 460.805 221.398 c h
460.805 221.398 m f
0.976471 0.654902 0.654902 rg
430.777 202.098 m 420.133 202.098 411.477 210.758 411.477 221.398 c 411.477
 232.039 420.133 240.699 430.777 240.699 c 441.414 240.699 450.074 232.039
 450.074 221.398 c 450.074 210.758 441.414 202.098 430.777 202.098 c h
430.777 202.098 m f
0.27451 0.443137 0.776471 rg
243.453 221.398 m 243.453 204.812 230.008 191.367 213.426 191.367 c 196.84
 191.367 183.395 204.812 183.395 221.398 c 183.395 237.984 196.84 251.43
 213.426 251.43 c 230.008 251.43 243.453 237.984 243.453 221.398 c h
243.453 221.398 m f
0.976471 0.654902 0.654902 rg
213.426 202.098 m 202.785 202.098 194.125 210.758 194.125 221.398 c 194.125
 232.039 202.785 240.699 213.426 240.699 c 224.066 240.699 232.723 232.039
 232.723 221.398 c 232.723 210.758 224.066 202.098 213.426 202.098 c h
213.426 202.098 m f
0.215686 0.384314 0.8 rg
474.887 112.199 m 165.113 112.199 l 157.883 112.199 152 118.082 152 125.312
 c 152 167.086 l 152 174.316 157.883 180.199 165.113 180.199 c 474.887 180.199
 l 482.113 180.199 488 174.316 488 167.086 c 488 125.312 l 487.996 118.082
 482.113 112.199 474.887 112.199 c h
165.113 172.199 m 162.293 172.199 160 169.906 160 167.086 c 160 125.312
 l 160 122.492 162.293 120.199 165.113 120.199 c 474.887 120.199 l 477.707
 120.199 480.004 122.492 480.004 125.312 c 480.004 167.086 l 480.004 169.906
 477.711 172.199 474.887 172.199 c h
165.113 172.199 m f
475.926 172.094 m 475.773 172.094 475.621 172.102 475.465 172.117 c 474.852
 172.199 l 165.125 172.199 l 162.918 172.199 161.125 173.992 161.125 176.199
 c 161.125 418.711 l 161.125 444.234 181.891 465 207.414 465 c 433.641 465
 l 459.164 465 479.93 444.234 479.93 418.711 c 479.93 176.094 l 479.93 174.953
 479.441 173.863 478.59 173.105 c 477.852 172.449 476.902 172.094 475.926
 172.094 c h
474.887 172.199 m 474.906 172.199 l h
169.125 180.199 m 471.926 180.199 l 471.926 418.711 l 471.926 439.824 454.75
 457 433.637 457 c 207.41 457 l 186.301 457 169.125 439.824 169.125 418.711
 c h
169.125 180.199 m f
454.637 261 m 186.41 261 l 172.469 261 161.125 271.766 161.125 285 c 161.125
 405 l 161.125 407.207 162.914 409 165.125 409 c 475.926 409 l 478.133 409
 479.926 407.207 479.926 405 c 479.926 285 l 479.926 271.766 468.582 261
 454.637 261 c h
169.125 401 m 169.125 285 l 169.125 276.176 176.883 269 186.414 269 c 454.637
 269 l 464.172 269 471.93 276.176 471.93 285 c 471.93 401 l h
169.125 401 m f
474.887 112.199 m 165.113 112.199 l 157.883 112.199 152 118.082 152 125.312
 c 152 167.086 l 152 174.316 157.883 180.199 165.113 180.199 c 474.887 180.199
 l 482.113 180.199 488 174.316 488 167.086 c 488 125.312 l 487.996 118.082
 482.113 112.199 474.887 112.199 c h
165.113 172.199 m 162.293 172.199 160 169.906 160 167.086 c 160 125.312
 l 160 122.492 162.293 120.199 165.113 120.199 c 474.887 120.199 l 477.707
 120.199 480.004 122.492 480.004 125.312 c 480.004 167.086 l 480.004 169.906
 477.711 172.199 474.887 172.199 c h
165.113 172.199 m f
4 68.004 m 3.125 68.004 2.262 68.297 1.551 68.844 c 0.57 69.602 0 70.766
 0 72.004 c 0 97.207 l 0 99.031 1.234 100.621 3 101.082 c 155 140.309 l 
156.195 140.617 157.469 140.355 158.449 139.598 c 159.43 138.84 160 137.676
 160 136.438 c 160 125.312 l 160 122.492 162.293 120.199 165.113 120.199
 c 175.242 120.199 l 177.258 120.199 178.957 118.703 179.211 116.703 c 179.465
 114.707 178.191 112.832 176.242 112.328 c 5 68.133 l 4.672 68.047 4.336
 68.004 4 68.004 c h
8 94.105 m 8 77.168 l 156.445 115.48 l 153.723 117.883 152 121.398 152 
125.312 c 152 131.27 l h
8 94.105 m f
474.887 112.199 m 165.113 112.199 l 157.883 112.199 152 118.082 152 125.312
 c 152 167.086 l 152 174.316 157.883 180.199 165.113 180.199 c 474.887 180.199
 l 482.113 180.199 488 174.316 488 167.086 c 488 125.312 l 487.996 118.082
 482.113 112.199 474.887 112.199 c h
165.113 172.199 m 162.293 172.199 160 169.906 160 167.086 c 160 125.312
 l 160 122.492 162.293 120.199 165.113 120.199 c 474.887 120.199 l 477.707
 120.199 480.004 122.492 480.004 125.312 c 480.004 167.086 l 480.004 169.906
 477.711 172.199 474.887 172.199 c h
165.113 172.199 m f
474.887 112.199 m 165.113 112.199 l 157.883 112.199 152 118.082 152 125.312
 c 152 167.086 l 152 174.316 157.883 180.199 165.113 180.199 c 474.887 180.199
 l 482.113 180.199 488 174.316 488 167.086 c 488 125.312 l 487.996 118.082
 482.113 112.199 474.887 112.199 c h
165.113 172.199 m 162.293 172.199 160 169.906 160 167.086 c 160 125.312
 l 160 122.492 162.293 120.199 165.113 120.199 c 474.887 120.199 l 477.707
 120.199 480.004 122.492 480.004 125.312 c 480.004 167.086 l 480.004 169.906
 477.711 172.199 474.887 172.199 c h
165.113 172.199 m f
0.27451 0.443137 0.776471 rg
401.375 116.199 m 401.375 94.621 l 401.375 83.574 410.328 74.621 421.375
 74.621 c 440.176 74.621 l 451.223 74.621 460.176 83.574 460.176 94.621 
c 460.176 116.199 l h
401.375 116.199 m f
184.023 116.199 m 184.023 94.621 l 184.023 83.574 192.977 74.621 204.023
 74.621 c 222.824 74.621 l 233.871 74.621 242.824 83.574 242.824 94.621 
c 242.824 116.199 l h
184.023 116.199 m f
0.215686 0.384314 0.8 rg
476 23.535 m 12 23.535 l 5.383 23.535 0 28.918 0 35.535 c 0 74.074 l 0 
76.281 1.793 78.074 4 78.074 c 476 78.074 l 482.613 78.074 487.996 72.691
 487.996 66.074 c 487.996 35.535 l 487.996 28.918 482.613 23.535 476 23.535
 c h
8 70.074 m 8 35.535 l 8 33.328 9.793 31.535 12 31.535 c 476 31.535 l 478.207
 31.535 480 33.328 480 35.535 c 480 66.074 l 480 68.277 478.207 70.074 476
 70.074 c h
8 70.074 m f
440.176 70.621 m 421.375 70.621 l 408.141 70.621 397.375 81.387 397.375
 94.621 c 397.375 116.199 l 397.375 118.406 399.168 120.199 401.375 120.199
 c 460.176 120.199 l 462.383 120.199 464.176 118.406 464.176 116.199 c 464.176
 94.621 l 464.176 81.387 453.41 70.621 440.176 70.621 c h
405.375 112.199 m 405.375 94.621 l 405.375 85.801 412.555 78.621 421.375
 78.621 c 440.176 78.621 l 448.996 78.621 456.176 85.801 456.176 94.621 
c 456.176 112.199 l h
405.375 112.199 m f
222.824 70.621 m 204.027 70.621 l 190.793 70.621 180.027 81.387 180.027
 94.621 c 180.027 116.199 l 180.027 118.406 181.816 120.199 184.027 120.199
 c 242.824 120.199 l 245.031 120.199 246.824 118.406 246.824 116.199 c 246.824
 94.621 l 246.824 81.387 236.059 70.621 222.824 70.621 c h
188.027 112.199 m 188.027 94.621 l 188.027 85.801 195.203 78.621 204.027
 78.621 c 222.824 78.621 l 231.645 78.621 238.824 85.801 238.824 94.621 
c 238.824 112.199 l h
188.027 112.199 m f
0.27451 0.443137 0.776471 rg
393.375 131.195 m 250.824 131.195 l 246.406 131.195 242.824 134.777 242.824
 139.195 c 242.824 154.297 l 242.824 158.715 246.406 162.297 250.824 162.297
 c 393.375 162.297 l 397.793 162.297 401.375 158.715 401.375 154.297 c 401.375
 139.195 l 401.375 134.773 397.793 131.195 393.375 131.195 c h
393.375 131.195 m f
0.878431 0.921569 0.988235 rg
377.656 221.203 m 266.543 221.203 l 264.09 221.203 262.102 223.195 262.102
 225.648 c 262.102 228.102 264.09 230.09 266.543 230.09 c 377.656 230.09
 l 380.109 230.09 382.098 228.098 382.098 225.648 c 382.102 223.195 380.109
 221.203 377.656 221.203 c h
377.656 221.203 m f
365.027 203.051 m 279.176 203.051 l 276.719 203.051 274.73 205.039 274.73
 207.492 c 274.73 209.945 276.723 211.934 279.176 211.934 c 365.027 211.934
 l 367.48 211.934 369.469 209.945 369.469 207.492 c 369.469 205.039 367.477
 203.051 365.027 203.051 c h
365.027 203.051 m f
Q Q
showpage
%%Trailer
end restore
%%EOF
