%!PS-Adobe-3.0 EPSF-3.0
%%Creator: cairo 1.14.8 (http://cairographics.org)
%%CreationDate: Wed Mar 20 09:06:38 2019
%%Pages: 1
%%DocumentData: Clean7Bit
%%LanguageLevel: 2
%%BoundingBox: 2 0 486 487
%%EndComments
%%BeginProlog
save
50 dict begin
/q { gsave } bind def
/Q { grestore } bind def
/cm { 6 array astore concat } bind def
/w { setlinewidth } bind def
/J { setlinecap } bind def
/j { setlinejoin } bind def
/M { setmiterlimit } bind def
/d { setdash } bind def
/m { moveto } bind def
/l { lineto } bind def
/c { curveto } bind def
/h { closepath } bind def
/re { exch dup neg 3 1 roll 5 3 roll moveto 0 rlineto
      0 exch rlineto 0 rlineto closepath } bind def
/S { stroke } bind def
/f { fill } bind def
/f* { eofill } bind def
/n { newpath } bind def
/W { clip } bind def
/W* { eoclip } bind def
/BT { } bind def
/ET { } bind def
/pdfmark where { pop globaldict /?pdfmark /exec load put }
    { globaldict begin /?pdfmark /pop load def /pdfmark
    /cleartomark load def end } ifelse
/BDC { mark 3 1 roll /BDC pdfmark } bind def
/EMC { mark /EMC pdfmark } bind def
/cairo_store_point { /cairo_point_y exch def /cairo_point_x exch def } def
/Tj { show currentpoint cairo_store_point } bind def
/TJ {
  {
    dup
    type /stringtype eq
    { show } { -0.001 mul 0 cairo_font_matrix dtransform rmoveto } ifelse
  } forall
  currentpoint cairo_store_point
} bind def
/cairo_selectfont { cairo_font_matrix aload pop pop pop 0 0 6 array astore
    cairo_font exch selectfont cairo_point_x cairo_point_y moveto } bind def
/Tf { pop /cairo_font exch def /cairo_font_matrix where
      { pop cairo_selectfont } if } bind def
/Td { matrix translate cairo_font_matrix matrix concatmatrix dup
      /cairo_font_matrix exch def dup 4 get exch 5 get cairo_store_point
      /cairo_font where { pop cairo_selectfont } if } bind def
/Tm { 2 copy 8 2 roll 6 array astore /cairo_font_matrix exch def
      cairo_store_point /cairo_font where { pop cairo_selectfont } if } bind def
/g { setgray } bind def
/rg { setrgbcolor } bind def
/d1 { setcachedevice } bind def
%%EndProlog
%%BeginSetup
%%EndSetup
%%Page: 1 1
%%BeginPageSetup
%%PageBoundingBox: 2 0 486 487
%%EndPageSetup
q 2 0 484 487 rectclip q
0.976471 0.654902 0.654902 rg
323.402 6.785 m 392.637 50.68 l 396.691 53.25 397.895 58.617 395.324 62.672
 c 394.473 64.02 l 391.902 68.074 386.531 69.273 382.48 66.707 c 303.555
 16.664 l 307.566 10.336 l 310.957 4.98 318.051 3.391 323.402 6.785 c h
323.402 6.785 m f
0.976471 0.811765 0.811765 rg
146.637 474.695 m 174.465 474.695 197.027 452.133 197.027 424.297 c 197.027
 394.723 l 199.48 394.723 l 203.805 394.723 207.305 391.219 207.305 386.895
 c 207.305 382.574 203.805 379.07 199.48 379.07 c 195.656 379.07 l 191.32
 360.414 176.684 345.723 158.016 341.41 c 158.016 334.484 l 153.809 335.906
 149.309 336.711 144.617 336.711 c 119.215 336.711 l 117.402 336.711 115.637
 336.527 113.898 336.254 c 113.898 352.207 l 103.098 361.449 96.246 375.172
 96.246 390.5 c 96.246 424.297 l 96.246 452.133 118.805 474.695 146.637 
474.695 c h
146.637 474.695 m f
0.976471 0.654902 0.654902 rg
16.953 332.324 m 73.699 332.324 l 80.18 332.324 85.438 327.066 85.438 320.586
 c 85.438 229.418 l 77.965 223.656 71.176 217.062 65.23 209.746 c 65.23 
312.117 l 16.953 312.117 l 11.371 312.117 6.848 316.641 6.848 322.223 c 
6.852 327.801 11.371 332.324 16.953 332.324 c h
16.953 332.324 m f
0.215686 0.384314 0.8 rg
65.23 205.754 m 64.781 205.754 64.328 205.828 63.891 205.984 c 62.297 206.551
 61.234 208.055 61.234 209.746 c 61.234 308.125 l 16.953 308.125 l 9.18 
308.125 2.855 314.445 2.855 322.223 c 2.855 329.996 9.18 336.316 16.953 
336.316 c 73.695 336.316 l 82.371 336.316 89.43 329.258 89.43 320.586 c 
89.43 229.418 l 89.43 228.176 88.852 227.012 87.871 226.254 c 80.633 220.676
 74.055 214.273 68.324 207.23 c 67.555 206.277 66.406 205.754 65.23 205.754
 c h
16.957 328.332 m 13.586 328.332 10.844 325.59 10.844 322.223 c 10.844 318.852
 13.586 316.109 16.957 316.109 c 65.23 316.109 l 67.434 316.109 69.223 314.32
 69.223 312.117 c 69.223 220.262 l 73.043 224.215 77.129 227.926 81.445 
231.363 c 81.445 320.586 l 81.445 324.855 77.969 328.332 73.699 328.332 
c h
85.438 229.418 m 85.457 229.418 l h
85.438 229.418 m f
178.602 394.312 m 181.168 394.312 183.25 396.391 183.25 398.961 c 183.25
 406.703 l 183.25 409.273 181.168 411.352 178.602 411.352 c 176.039 411.352
 173.953 409.273 173.953 406.703 c 173.953 398.961 l 173.953 396.395 176.039
 394.312 178.602 394.312 c h
178.602 394.312 m f
0.643137 0.788235 1 rg
336.754 81.68 m 368.805 87.141 l 371.648 87.625 374.527 86.559 376.449 
84.312 c 381.988 77.84 l 383.383 76.215 384.152 74.102 384.152 71.918 c 
384.152 68.797 382.59 65.91 380.035 64.305 c 330.176 33.039 l 327.355 31.277
 324.023 30.66 320.797 31.309 c 316.898 32.098 313.535 34.66 311.621 38.305
 c 306.004 49.004 l 304.312 52.227 305.117 56.258 307.902 58.496 c h
336.754 81.68 m f
0.215686 0.384314 0.8 rg
323.328 27.062 m 322.223 27.062 321.113 27.172 320.004 27.398 c 314.914
 28.426 310.57 31.723 308.086 36.453 c 302.469 47.148 l 299.875 52.082 301.109
 58.164 305.398 61.609 c 334.25 84.793 l 334.781 85.219 335.41 85.504 336.082
 85.621 c 368.137 91.078 l 372.387 91.805 376.629 90.246 379.48 86.906 c
 385.023 80.438 l 387.035 78.082 388.148 75.055 388.148 71.918 c 388.148
 67.453 385.852 63.238 382.156 60.926 c 332.293 29.66 l 329.566 27.953 326.469
 27.062 323.328 27.062 c h
338.445 77.918 m 310.402 55.383 l 309.102 54.344 308.73 52.398 309.539 
50.863 c 315.156 40.168 l 316.52 37.574 318.859 35.773 321.586 35.223 c 
323.809 34.777 326.105 35.203 328.055 36.43 c 377.918 67.691 l 379.301 68.559
 380.16 70.18 380.16 71.918 c 380.16 73.156 379.73 74.34 378.957 75.246 
c 373.418 81.715 l 372.406 82.898 370.93 83.457 369.48 83.207 c h
338.445 77.918 m f
0.27451 0.443137 0.776471 rg
242.461 207.141 m 252.691 207.141 262.727 204.07 271.484 198.262 c 279.586
 192.883 286.316 185.352 291.043 176.355 c 291.043 176.352 l 342.242 86.551
 l 343.266 84.762 342.879 82.406 341.352 81.121 c 308.863 53.727 l 307.152
 52.281 304.688 52.723 303.484 54.688 c 260.605 124.547 l 255.973 131.59
 l 253.859 134.789 250.48 136.691 246.875 136.691 c 117.629 136.691 l 99.848
 136.691 85.438 152.508 85.438 172.023 c 85.438 207.141 l h
242.461 207.141 m f
0.215686 0.384314 0.8 rg
306.582 48.883 m 306.191 48.883 305.801 48.914 305.41 48.977 c 303.219 
49.332 301.277 50.648 300.082 52.602 c 257.207 122.457 l 252.641 129.391
 l 251.273 131.461 249.121 132.695 246.875 132.695 c 117.629 132.695 l 97.676
 132.695 81.441 150.336 81.441 172.023 c 81.441 207.141 l 81.441 209.344
 83.234 211.133 85.438 211.133 c 242.461 211.133 l 253.48 211.133 264.281
 207.828 273.691 201.586 c 282.324 195.859 289.547 187.773 294.582 178.211
 c 345.715 88.531 l 347.68 85.082 346.91 80.586 343.93 78.066 c 311.438 
50.672 l 310.062 49.508 308.34 48.883 306.582 48.883 c h
89.43 203.145 m 89.43 172.027 l 89.43 154.742 102.078 140.684 117.629 140.684
 c 246.879 140.684 l 251.816 140.684 256.465 138.105 259.312 133.785 c 263.949
 126.742 l 306.684 57.113 l 338.777 84.176 l 338.82 84.223 338.855 84.441
 338.777 84.578 c 287.578 174.375 l 283.102 182.879 276.797 189.945 269.277
 194.934 c 261.18 200.309 251.906 203.148 242.461 203.148 c 89.43 203.148
 l h
89.43 203.145 m f
0.419608 0.866667 0.866667 rg
117.266 136.691 m 186.477 136.691 l 186.477 296.027 l 186.477 318.496 168.262
 336.711 145.797 336.711 c 118.266 336.711 l 100.133 336.711 85.438 322.016
 85.438 303.883 c 85.438 168.516 l 85.438 150.938 99.688 136.691 117.266
 136.691 c h
117.266 136.691 m f
0.215686 0.384314 0.8 rg
186.477 132.695 m 117.266 132.695 l 97.516 132.695 81.445 148.766 81.445
 168.52 c 81.445 303.883 l 81.445 324.188 97.965 340.703 118.27 340.703 
c 145.797 340.703 l 170.43 340.703 190.469 320.664 190.469 296.031 c 190.469
 136.691 l 190.469 134.484 188.684 132.695 186.477 132.695 c h
118.266 332.719 m 102.367 332.719 89.43 319.785 89.43 303.883 c 89.43 168.516
 l 89.43 153.168 101.918 140.68 117.266 140.68 c 182.484 140.68 l 182.484
 296.027 l 182.484 316.258 166.023 332.715 145.793 332.715 c 118.266 332.715
 l h
118.266 332.719 m f
1 0.917647 0.572549 rg
272.703 125.301 m 272.703 58.305 218.391 3.996 151.398 3.996 c 84.402 3.996
 30.094 58.305 30.094 125.301 c 30.094 192.293 84.402 246.605 151.398 246.605
 c 218.391 246.605 272.703 192.293 272.703 125.301 c h
272.703 125.301 m f
0.215686 0.384314 0.8 rg
151.398 0 m 82.309 0 26.098 56.207 26.098 125.301 c 26.098 194.387 82.309
 250.598 151.398 250.598 c 220.484 250.598 276.695 194.387 276.695 125.301
 c 276.695 56.207 220.484 0 151.398 0 c h
151.398 242.613 m 86.711 242.613 34.086 189.984 34.086 125.301 c 34.086
 60.609 86.711 7.988 151.398 7.988 c 216.082 7.988 268.711 60.613 268.711
 125.301 c 268.711 189.984 216.082 242.613 151.398 242.613 c h
151.398 242.613 m f
0.643137 0.788235 1 rg
245.457 125.301 m 245.457 73.352 203.344 31.238 151.398 31.238 c 99.449
 31.238 57.336 73.352 57.336 125.301 c 57.336 177.246 99.449 219.359 151.398
 219.359 c 203.344 219.359 245.457 177.246 245.457 125.301 c h
245.457 125.301 m f
0.976471 0.811765 0.811765 rg
156.637 393.254 m 156.637 383.402 148.652 375.418 138.797 375.418 c 128.945
 375.418 120.957 383.402 120.957 393.254 c 120.957 403.109 128.945 411.094
 138.797 411.094 c 148.652 411.094 156.637 403.109 156.637 393.254 c h
156.637 393.254 m f
0.215686 0.384314 0.8 rg
158.016 330.492 m 157.586 330.492 157.156 330.559 156.738 330.699 c 152.773
 332.039 148.695 332.719 144.617 332.719 c 119.215 332.719 l 117.797 332.719
 116.262 332.586 114.52 332.309 c 113.371 332.125 112.191 332.457 111.305
 333.215 c 110.414 333.973 109.902 335.086 109.902 336.25 c 109.902 350.406
 l 98.664 360.711 92.246 375.215 92.246 390.496 c 92.246 424.297 l 92.246
 454.289 116.645 478.688 146.633 478.688 c 176.621 478.688 201.02 454.289
 201.02 424.297 c 201.02 398.617 l 206.812 397.855 211.301 392.895 211.301
 386.895 c 211.301 380.379 205.996 375.078 199.48 375.078 c 198.727 375.078
 l 193.52 357.496 179.547 343.516 162.008 338.332 c 162.008 334.484 l 162.008
 333.195 161.387 331.988 160.344 331.238 c 159.656 330.746 158.84 330.492
 158.016 330.492 c h
119.215 340.703 m 144.621 340.703 l 147.77 340.703 150.918 340.367 154.023
 339.711 c 154.023 341.41 l 154.023 343.27 155.309 344.883 157.117 345.301
 c 174.188 349.242 187.789 362.855 191.766 379.973 c 192.188 381.785 193.797
 383.062 195.656 383.062 c 199.48 383.062 l 201.594 383.062 203.312 384.781
 203.312 386.895 c 203.312 389.008 201.594 390.73 199.48 390.73 c 197.027
 390.73 l 194.824 390.73 193.035 392.52 193.035 394.723 c 193.035 424.297
 l 193.035 449.887 172.219 470.699 146.637 470.699 c 121.051 470.699 100.238
 449.887 100.238 424.297 c 100.238 390.496 l 100.238 376.93 106.16 364.078
 116.492 355.238 c 117.379 354.477 117.891 353.367 117.891 352.203 c 117.891
 340.672 l 118.34 340.695 118.777 340.703 119.215 340.703 c h
119.215 340.703 m f
0.27451 0.443137 0.776471 rg
87.207 458.926 m 87.211 458.918 l 96.203 472.652 112.262 481.809 130.59
 481.809 c 134.488 481.809 137.652 478.82 137.652 475.125 c 137.652 473.727
 l 137.652 475.375 138.156 476.91 139.02 478.188 c 139.016 478.191 l 139.016
 478.191 139.262 478.688 139.977 479.355 c 140.926 480.316 142.109 481.047
 143.438 481.453 c 145.305 482.199 147.914 482.82 151.512 482.973 c 151.531
 482.973 l 155.266 483.125 160.059 482.777 166.211 481.527 c 170.688 481.043
 174.965 479.898 178.938 478.203 c 178.953 478.199 178.969 478.195 178.98
 478.188 c 178.98 478.184 l 181.238 477.215 183.395 476.066 185.438 474.766
 c 186.328 474.219 186.773 473.879 186.777 473.875 c 198.254 465.961 205.762
 452.855 205.762 438.023 c 205.762 421.973 l 205.762 421.23 205.148 420.629
 204.395 420.629 c 137.652 420.629 l 137.652 372.719 l 129.605 356.293 l
 129.375 355.824 128.895 355.531 128.367 355.531 c 107.465 355.531 l 105.352
 355.531 103.27 355.828 101.285 356.398 c 101.223 356.426 99.105 357.32 
98.246 358.699 c 96.215 361.949 91.434 369.609 87.082 376.605 c 80.625 386.988
 76.953 398.852 76.668 411.02 c 75.875 444.359 87.207 458.926 87.207 458.926
 c h
87.207 458.926 m f
0.215686 0.384314 0.8 rg
128.367 351.539 m 107.465 351.539 l 105.008 351.539 102.559 351.883 100.188
 352.566 c 100.027 352.609 99.867 352.668 99.719 352.73 c 98.715 353.16 
96.227 354.395 94.855 356.586 c 92.824 359.836 88.039 367.496 83.688 374.5
 c 76.785 385.602 72.977 398.199 72.672 410.926 c 71.883 444.332 82.914 
459.859 83.984 461.293 c 94.129 476.645 111.531 485.805 130.59 485.805 c
 133.461 485.805 136.082 484.742 138.047 483.004 c 139.199 483.961 140.605
 484.738 142.109 485.219 c 144.672 486.219 147.762 486.805 151.305 486.961
 c 151.34 486.961 151.375 486.961 151.41 486.965 c 155.844 487.148 161.023
 486.645 166.828 485.484 c 171.543 484.945 176.129 483.738 180.473 481.891
 c 180.512 481.875 180.543 481.859 180.582 481.844 c 182.984 480.816 185.34
 479.566 187.582 478.133 c 188.023 477.867 188.594 477.5 189.051 477.16 
c 202.016 468.215 209.754 453.586 209.754 438.027 c 209.754 421.98 l 209.754
 419.039 207.348 416.645 204.391 416.645 c 141.645 416.645 l 141.645 372.727
 l 141.645 372.117 141.504 371.516 141.234 370.969 c 133.188 354.543 l 132.293
 352.715 130.402 351.539 128.367 351.539 c h
102.66 360.164 m 104.23 359.742 105.844 359.527 107.465 359.527 c 126.738
 359.527 l 133.66 373.645 l 133.66 420.629 l 133.66 422.836 135.449 424.621
 137.652 424.621 c 201.773 424.621 l 201.773 438.023 l 201.773 450.957 195.324
 463.133 184.512 470.586 c 184.461 470.625 184.406 470.664 184.355 470.699
 c 184.266 470.77 183.93 471.004 183.355 471.355 c 181.402 472.605 179.426
 473.648 177.41 474.516 c 177.391 474.523 177.371 474.531 177.355 474.539
 c 173.676 476.105 169.781 477.121 165.777 477.562 c 165.66 477.574 165.539
 477.594 165.422 477.617 c 160.16 478.684 155.547 479.148 151.703 478.984
 c 151.637 478.98 151.566 478.98 151.5 478.98 c 148.953 478.863 146.684 
478.445 144.93 477.742 c 144.824 477.699 144.715 477.66 144.605 477.629 
c 143.934 477.426 143.316 477.055 142.82 476.551 c 142.695 476.43 142.613
 476.344 142.555 476.285 c 142.5 476.125 142.508 476.219 142.332 475.957
 c 141.883 475.289 141.645 474.52 141.645 473.723 c 141.645 471.52 139.855
 469.73 137.652 469.73 c 135.449 469.73 133.66 471.52 133.66 473.723 c 133.66
 475.125 l 133.66 476.613 132.281 477.816 130.59 477.816 c 114.164 477.816
 99.191 469.938 90.547 456.734 c 90.469 456.617 90.387 456.504 90.301 456.398
 c 89.391 455.105 79.945 440.992 80.656 411.117 c 80.926 399.812 84.316 
388.609 90.469 378.715 c 94.816 371.723 99.598 364.066 101.629 360.816 c
 101.742 360.695 102.234 360.375 102.66 360.164 c h
102.66 360.164 m f
0.976471 0.811765 0.811765 rg
156.637 393.254 m 156.637 383.402 148.652 375.418 138.797 375.418 c 128.945
 375.418 120.957 383.402 120.957 393.254 c 120.957 403.109 128.945 411.094
 138.797 411.094 c 148.652 411.094 156.637 403.109 156.637 393.254 c h
156.637 393.254 m f
0.215686 0.384314 0.8 rg
317.285 1.012 m 312.156 1.012 307.137 3.555 304.195 8.195 c 300.18 14.523
 l 299 16.387 299.555 18.852 301.414 20.035 c 380.344 70.078 l 386.246 73.82
 394.098 72.062 397.84 66.156 c 398.699 64.805 l 400.512 61.945 401.102 
58.551 400.359 55.246 c 399.621 51.941 397.637 49.121 394.777 47.309 c 325.543
 3.414 l 322.98 1.789 320.113 1.012 317.285 1.012 c h
309.062 15.426 m 310.934 12.473 l 313.145 8.988 317.781 7.949 321.266 10.16
 c 390.5 54.055 l 391.559 54.727 392.293 55.77 392.57 56.996 c 392.84 58.219
 392.625 59.473 391.953 60.531 c 391.094 61.883 l 389.711 64.066 386.801
 64.719 384.617 63.332 c h
309.062 15.426 m f
151.398 27.242 m 97.332 27.242 53.344 71.23 53.344 125.301 c 53.344 179.363
 97.332 223.352 151.398 223.352 c 205.465 223.352 249.449 179.363 249.449
 125.301 c 249.449 71.23 205.465 27.242 151.398 27.242 c h
151.398 215.367 m 101.734 215.367 61.328 174.961 61.328 125.301 c 61.328
 75.633 101.734 35.227 151.398 35.227 c 201.059 35.227 241.465 75.633 241.465
 125.301 c 241.465 174.961 201.059 215.367 151.398 215.367 c h
151.398 215.367 m f
0.878431 0.921569 0.988235 rg
151.398 75.156 m 123.75 75.156 101.258 97.652 101.258 125.301 c 101.258
 152.945 123.75 175.438 151.398 175.438 c 179.043 175.438 201.535 152.941
 201.535 125.301 c 201.535 97.652 179.043 75.156 151.398 75.156 c h
151.398 75.156 m f
0.976471 0.811765 0.811765 rg
31.129 146.273 m 39.738 168.785 l 74.789 275.145 l 74.789 275.145 74.793
 275.141 74.793 275.141 c 108.32 245.539 l 108.488 245.391 108.672 245.266
 108.859 245.148 c 69.438 159.895 l 68.578 134.172 l 68.547 133.254 68.375
 132.344 68.066 131.477 c 65.777 125.008 l 64.285 120.789 59.918 118.312
 55.531 119.199 c 37.797 122.789 l 33.66 123.625 30.664 127.227 30.594 131.445
 c 30.418 142.258 l 30.398 143.629 30.641 144.996 31.129 146.273 c h
31.129 146.273 m f
0.215686 0.384314 0.8 rg
57.285 115.027 m 56.445 115.027 55.594 115.113 54.742 115.285 c 37.004 
118.875 l 31.082 120.074 26.707 125.332 26.609 131.379 c 26.43 142.188 l
 26.398 144.082 26.727 145.934 27.402 147.703 c 36.016 170.211 l 71 276.395
 l 71.48 277.844 72.734 278.887 74.246 279.098 c 75.441 279.266 76.633 278.879
 77.496 278.086 c 110.969 248.531 l 112.68 247.469 113.336 245.305 112.488
 243.473 c 73.406 158.949 l 72.574 134.039 l 72.527 132.707 72.281 131.395
 71.84 130.145 c 69.551 123.672 l 67.695 118.438 62.68 115.027 57.285 115.027
 c h
76.684 268.145 m 43.535 167.539 l 34.859 144.852 l 34.555 144.039 34.402
 143.191 34.418 142.324 c 34.594 131.512 l 34.637 129.188 36.316 127.164
 38.594 126.703 c 56.328 123.117 l 58.75 122.621 61.195 124.008 62.02 126.34
 c 64.309 132.805 l 64.48 133.289 64.574 133.793 64.594 134.305 c 65.453
 160.027 l 65.473 160.562 65.598 161.09 65.82 161.57 c 103.965 244.062 l
 h
31.129 146.273 m 31.148 146.273 l h
31.129 146.273 m f
0.419608 0.866667 0.866667 rg
74.797 275.141 m 108.32 245.539 l 109.938 244.109 112.414 244.266 113.848
 245.883 c 155.488 293.047 l 165.09 303.922 164.062 320.527 153.184 330.133
 c 142.305 339.738 125.699 338.703 116.098 327.828 c 74.457 280.664 l 73.02
 279.043 73.176 276.57 74.797 275.141 c h
74.797 275.141 m f
0.215686 0.384314 0.8 rg
110.906 240.574 m 109.043 240.574 107.18 241.223 105.676 242.547 c 72.156
 272.145 l 68.887 275.031 68.574 280.039 71.461 283.305 c 113.102 330.469
 l 118.457 336.531 125.844 340.145 133.914 340.645 c 141.977 341.152 149.762
 338.477 155.824 333.125 c 168.332 322.078 169.523 302.914 158.48 290.406
 c 116.836 243.238 l 115.277 241.473 113.094 240.574 110.906 240.574 c h
77.496 278.082 m 110.961 248.531 l 152.492 295.691 l 160.625 304.898 159.746
 319.008 150.539 327.137 c 146.078 331.082 140.332 333.047 134.406 332.676
 c 128.469 332.305 123.031 329.645 119.09 325.184 c h
77.496 278.082 m f
0.878431 0.921569 0.988235 rg
303.555 16.664 m 319.559 26.809 l 270.68 103.344 l 269.145 94.945 266.758
 86.852 263.594 79.16 c 306.328 12.246 l 306.348 12.258 l h
303.555 16.664 m f
0.215686 0.384314 0.8 rg
306.328 8.262 m 306.051 8.262 305.77 8.289 305.492 8.348 c 304.449 8.574
 303.535 9.195 302.961 10.094 c 260.227 77.008 l 259.527 78.102 259.406 
79.469 259.902 80.676 c 262.977 88.148 265.281 96.016 266.75 104.055 c 267.047
 105.672 268.301 106.938 269.91 107.258 c 271.523 107.574 273.164 106.871
 274.047 105.488 c 322.918 28.957 l 323.492 28.062 323.684 26.977 323.453
 25.941 c 323.223 24.902 322.59 24.004 321.695 23.434 c 309.062 15.422 l
 309.719 14.395 l 310.887 12.543 310.355 10.098 308.523 8.906 c 307.867 
8.488 307.098 8.262 306.328 8.262 c h
268.066 79.574 m 304.742 22.145 l 314.035 28.039 l 272.484 93.102 l 271.266
 88.496 269.789 83.977 268.066 79.574 c h
268.066 79.574 m f
1 0.917647 0.572549 rg
416.457 370.203 m 416.457 379.234 l 416.457 384.797 421.723 388.047 425.535
 384.828 c 478.844 339.793 l 482.082 337.059 482.082 331.328 478.844 328.598
 c 425.535 283.559 l 421.723 280.344 416.457 283.59 416.457 289.16 c 416.457
 298.184 l 416.457 301.973 413.883 305.043 410.703 305.043 c 255.43 305.043
 l 252.254 305.043 249.676 308.117 249.676 311.902 c 249.676 356.484 l 249.676
 360.273 252.254 363.348 255.43 363.348 c 410.703 363.348 l 413.883 363.344
 416.457 366.418 416.457 370.203 c h
416.457 370.203 m f
0.215686 0.384314 0.8 rg
422.234 278.281 m 420.965 278.281 419.684 278.562 418.453 279.137 c 414.812
 280.824 412.465 284.762 412.465 289.16 c 412.465 298.184 l 412.465 299.801
 411.52 301.051 410.707 301.051 c 255.434 301.051 l 250.059 301.051 245.688
 305.918 245.688 311.902 c 245.688 356.484 l 245.688 362.469 250.059 367.34
 255.434 367.34 c 410.707 367.34 l 411.52 367.34 412.465 368.594 412.465
 370.207 c 412.465 379.234 l 412.465 383.633 414.812 387.566 418.453 389.254
 c 421.695 390.762 425.309 390.25 428.105 387.879 c 481.418 342.84 l 483.859
 340.777 485.266 337.629 485.266 334.195 c 485.266 330.766 483.859 327.609
 481.418 325.547 c 428.105 280.508 l 426.367 279.039 424.316 278.281 422.234
 278.281 c h
255.43 359.352 m 254.617 359.352 253.672 358.098 253.672 356.484 c 253.672
 311.898 l 253.672 310.285 254.617 309.035 255.43 309.035 c 410.703 309.035
 l 416.078 309.035 420.449 304.168 420.449 298.18 c 420.449 289.156 l 420.449
 287.672 421.137 286.691 421.812 286.375 c 422.105 286.246 422.445 286.176
 422.957 286.605 c 476.27 331.641 l 476.898 332.18 477.277 333.133 477.277
 334.191 c 477.277 335.254 476.898 336.203 476.27 336.738 c 422.957 381.777
 l 422.449 382.203 422.109 382.137 421.812 382.008 c 421.137 381.691 420.449
 380.707 420.449 379.227 c 420.449 370.199 l 420.449 364.219 416.078 359.348
 410.703 359.348 c 255.43 359.348 l h
255.43 359.352 m f
Q Q
showpage
%%Trailer
end restore
%%EOF
