%!PS-Adobe-3.0 EPSF-3.0
%%Creator: cairo 1.14.8 (http://cairographics.org)
%%CreationDate: Wed Mar 20 09:06:38 2019
%%Pages: 1
%%DocumentData: Clean7Bit
%%LanguageLevel: 2
%%BoundingBox: 1 0 489 491
%%EndComments
%%BeginProlog
save
50 dict begin
/q { gsave } bind def
/Q { grestore } bind def
/cm { 6 array astore concat } bind def
/w { setlinewidth } bind def
/J { setlinecap } bind def
/j { setlinejoin } bind def
/M { setmiterlimit } bind def
/d { setdash } bind def
/m { moveto } bind def
/l { lineto } bind def
/c { curveto } bind def
/h { closepath } bind def
/re { exch dup neg 3 1 roll 5 3 roll moveto 0 rlineto
      0 exch rlineto 0 rlineto closepath } bind def
/S { stroke } bind def
/f { fill } bind def
/f* { eofill } bind def
/n { newpath } bind def
/W { clip } bind def
/W* { eoclip } bind def
/BT { } bind def
/ET { } bind def
/pdfmark where { pop globaldict /?pdfmark /exec load put }
    { globaldict begin /?pdfmark /pop load def /pdfmark
    /cleartomark load def end } ifelse
/BDC { mark 3 1 roll /BDC pdfmark } bind def
/EMC { mark /EMC pdfmark } bind def
/cairo_store_point { /cairo_point_y exch def /cairo_point_x exch def } def
/Tj { show currentpoint cairo_store_point } bind def
/TJ {
  {
    dup
    type /stringtype eq
    { show } { -0.001 mul 0 cairo_font_matrix dtransform rmoveto } ifelse
  } forall
  currentpoint cairo_store_point
} bind def
/cairo_selectfont { cairo_font_matrix aload pop pop pop 0 0 6 array astore
    cairo_font exch selectfont cairo_point_x cairo_point_y moveto } bind def
/Tf { pop /cairo_font exch def /cairo_font_matrix where
      { pop cairo_selectfont } if } bind def
/Td { matrix translate cairo_font_matrix matrix concatmatrix dup
      /cairo_font_matrix exch def dup 4 get exch 5 get cairo_store_point
      /cairo_font where { pop cairo_selectfont } if } bind def
/Tm { 2 copy 8 2 roll 6 array astore /cairo_font_matrix exch def
      cairo_store_point /cairo_font where { pop cairo_selectfont } if } bind def
/g { setgray } bind def
/rg { setrgbcolor } bind def
/d1 { setcachedevice } bind def
%%EndProlog
%%BeginSetup
%%EndSetup
%%Page: 1 1
%%BeginPageSetup
%%PageBoundingBox: 1 0 489 491
%%EndPageSetup
q 1 0 488 491 rectclip q
0.976471 0.654902 0.654902 rg
342.301 98.863 m 395.68 147.566 l 398.805 150.418 399.027 155.262 396.176
 158.379 c 395.23 159.422 l 392.379 162.543 387.535 162.766 384.41 159.918
 c 323.555 104.398 l 328.008 99.52 l 331.773 95.391 338.172 95.098 342.301
 98.863 c h
342.301 98.863 m f
0.976471 0.811765 0.811765 rg
117.227 477.984 m 141.391 482.242 164.426 466.113 168.688 441.949 c 173.215
 416.277 l 175.344 416.652 l 179.098 417.316 182.676 414.809 183.336 411.059
 c 184 407.305 181.492 403.727 177.742 403.066 c 174.422 402.48 l 173.512
 385.625 163.055 370.625 147.512 364.027 c 148.566 358.012 l 144.699 358.605
 140.672 358.613 136.602 357.898 c 114.547 354.008 l 112.969 353.734 111.465
 353.305 110 352.801 c 107.559 366.645 l 96.77 373.012 88.719 383.875 86.371
 397.18 c 81.199 426.527 l 76.938 450.688 93.07 473.723 117.227 477.984 
c h
117.227 477.984 m f
0.976471 0.654902 0.654902 rg
26.449 334.547 m 75.703 343.234 l 81.332 344.227 86.699 340.469 87.691 
334.84 c 88.984 327.488 l 101.645 255.699 l 96.039 249.555 91.156 242.789
 87.113 235.531 c 71.445 324.395 l 29.543 317.004 l 24.699 316.152 20.078
 319.383 19.223 324.23 c 18.371 329.074 21.605 333.695 26.449 334.547 c 
h
26.449 334.547 m f
0.215686 0.384314 0.8 rg
87.117 231.531 m 86.895 231.531 86.676 231.551 86.449 231.59 c 84.781 231.871
 83.469 233.172 83.176 234.84 c 68.203 319.762 l 30.234 313.07 l 23.238 
311.836 16.523 316.523 15.285 323.535 c 14.688 326.93 15.449 330.355 17.426
 333.18 c 19.398 336.004 22.359 337.887 25.758 338.488 c 75.012 347.172 
l 82.801 348.535 90.262 343.324 91.633 335.535 c 105.59 256.391 l 105.805
 255.172 105.441 253.918 104.605 253.004 c 99.195 247.078 94.488 240.543
 90.609 233.586 c 89.895 232.305 88.551 231.531 87.117 231.531 c h
71.449 328.395 m 73.355 328.395 75.043 327.027 75.383 325.09 c 89.238 246.512
 l 91.738 250.133 94.457 253.609 97.371 256.922 c 83.754 334.148 l 83.145
 337.594 79.844 339.902 76.395 339.297 c 27.141 330.609 l 25.852 330.383
 24.727 329.668 23.973 328.594 c 23.223 327.52 22.934 326.215 23.16 324.926
 c 23.633 322.262 26.188 320.477 28.848 320.945 c 70.75 328.336 l 70.984
 328.375 71.219 328.395 71.449 328.395 c h
26.449 334.547 m 26.469 334.547 l h
26.449 334.547 m f
157.281 413.102 m 159.512 413.492 161 415.617 160.605 417.848 c 159.422
 424.574 l 159.027 426.801 156.902 428.289 154.676 427.898 c 152.445 427.504
 150.957 425.379 151.352 423.152 c 152.535 416.426 l 152.93 414.195 155.055
 412.707 157.281 413.102 c h
157.281 413.102 m f
0.643137 0.788235 1 rg
342.422 165.922 m 369.414 175.566 l 371.805 176.422 374.465 175.938 376.48
 174.281 c 382.281 169.508 l 383.734 168.309 384.727 166.598 385.062 164.695
 c 385.539 161.988 384.625 159.242 382.656 157.461 c 344.152 122.688 l 341.984
 120.723 339.18 119.676 336.281 119.746 c 332.777 119.832 329.465 121.543
 327.246 124.418 c 320.73 132.848 l 318.766 135.383 318.852 139.008 320.922
 141.375 c h
342.422 165.922 m f
0.215686 0.384314 0.8 rg
336.562 115.754 m 336.438 115.754 336.312 115.754 336.184 115.758 c 331.461
 115.871 327.051 118.141 324.082 121.973 c 317.566 130.402 l 314.418 134.465
 314.566 140.191 317.914 144.012 c 339.414 168.555 l 339.863 169.066 340.438
 169.457 341.078 169.684 c 368.07 179.332 l 371.809 180.668 375.902 179.934
 379.023 177.367 c 384.82 172.598 l 387.016 170.789 388.5 168.227 389 165.387
 c 389.711 161.352 388.309 157.18 385.336 154.496 c 346.836 119.719 l 343.988
 117.156 340.355 115.754 336.562 115.754 c h
344.742 162.504 m 323.934 138.746 l 323.113 137.809 323.098 136.328 323.895
 135.297 c 330.41 126.871 l 331.898 124.945 334.074 123.809 336.379 123.754
 c 338.25 123.699 340.062 124.383 341.477 125.66 c 379.977 160.434 l 380.922
 161.285 381.359 162.656 381.121 164.008 c 380.953 164.969 380.461 165.828
 379.738 166.422 c 373.938 171.195 l 373.012 171.957 371.82 172.18 370.754
 171.801 c h
344.742 162.504 m f
0.27451 0.443137 0.776471 rg
241.367 260.395 m 250.25 261.961 259.434 260.832 267.918 257.129 c 275.773
 253.703 282.77 248.191 288.254 241.105 c 346.441 170.992 l 347.602 169.59
 347.625 167.492 346.5 166.137 c 322.492 137.383 l 321.23 135.871 319.02
 135.875 317.676 137.395 c 269.762 191.477 l 264.66 196.883 l 262.34 199.336
 259.109 200.465 255.984 199.914 c 143.785 180.133 l 128.352 177.41 113.418
 188.938 110.43 205.875 c 105.055 236.363 l h
241.367 260.395 m f
0.215686 0.384314 0.8 rg
320.121 132.254 m 318.066 132.254 316.086 133.156 314.68 134.746 c 266.77
 188.828 l 261.754 194.133 l 260.367 195.605 258.469 196.301 256.68 195.977
 c 144.48 176.191 l 135.895 174.68 127.199 176.902 119.996 182.465 c 112.906
 187.938 108.113 196.008 106.496 205.18 c 101.121 235.668 l 100.938 236.707
 101.176 237.785 101.785 238.652 c 102.395 239.52 103.32 240.113 104.367
 240.297 c 240.676 264.336 l 250.332 266.039 260.309 264.816 269.52 260.797
 c 277.965 257.113 285.539 251.152 291.418 243.555 c 349.523 173.547 l 351.902
 170.676 351.922 166.387 349.57 163.574 c 325.566 134.824 l 324.23 133.223
 322.281 132.285 320.23 132.258 c 320.191 132.254 320.156 132.254 320.121
 132.254 c h
257.547 204.051 m 261.25 204.051 264.875 202.477 267.566 199.625 c 272.672
 194.223 l 320.07 140.723 l 343.289 168.531 l 285.176 238.547 l 280.027 
245.191 273.535 250.312 266.316 253.461 c 258.555 256.852 250.164 257.887
 242.059 256.457 c 109.688 233.117 l 114.367 206.57 l 115.637 199.359 119.371
 193.051 124.883 188.797 c 130.277 184.633 136.738 182.953 143.09 184.074
 c 255.289 203.855 l 256.043 203.984 256.797 204.051 257.547 204.051 c h
241.367 260.395 m 241.387 260.395 l h
241.367 260.395 m f
0.419608 0.866667 0.866667 rg
143.473 180.078 m 203.551 190.672 l 179.164 328.992 l 175.723 348.496 157.121
 361.516 137.621 358.078 c 113.719 353.867 l 97.984 351.09 87.473 336.082
 90.25 320.34 c 110.965 202.836 l 113.66 187.578 128.211 177.383 143.473
 180.078 c h
143.473 180.078 m f
0.215686 0.384314 0.8 rg
138.531 175.641 m 132.016 175.641 125.664 177.633 120.211 181.449 c 113.195
 186.359 108.516 193.711 107.031 202.141 c 86.309 319.645 l 83.156 337.531
 95.145 354.648 113.027 357.805 c 136.926 362.016 l 158.555 365.844 179.285
 351.332 183.102 329.688 c 207.488 191.367 l 207.672 190.324 207.434 189.25
 206.824 188.379 c 206.215 187.512 205.285 186.922 204.242 186.734 c 144.168
 176.141 l 142.289 175.805 140.402 175.641 138.531 175.641 c h
143.863 354.625 m 142.031 354.625 140.18 354.465 138.316 354.137 c 114.418
 349.926 l 100.879 347.539 91.801 334.578 94.191 321.031 c 114.91 203.527
 l 116.023 197.203 119.535 191.688 124.801 188 c 130.066 184.312 136.449
 182.898 142.781 184.016 c 198.918 193.914 l 175.223 328.297 l 172.5 343.734
 159.023 354.625 143.863 354.625 c h
143.863 354.625 m f
1 0.917647 0.572549 rg
281.77 175.414 m 281.77 116.359 233.898 68.484 174.844 68.484 c 115.789
 68.484 67.918 116.359 67.918 175.414 c 67.918 234.469 115.789 282.34 174.844
 282.34 c 233.898 282.34 281.77 234.469 281.77 175.414 c h
281.77 175.414 m f
0.215686 0.384314 0.8 rg
174.609 64.457 m 152.055 64.457 130.078 71.34 111.215 84.543 c 86.945 101.539
 70.742 126.969 65.602 156.152 c 60.457 185.332 66.98 214.766 83.977 239.035
 c 100.973 263.309 126.398 279.508 155.578 284.652 c 184.762 289.797 214.199
 283.27 238.465 266.281 c 262.742 249.281 278.938 223.855 284.086 194.676
 c 294.707 134.438 254.344 76.793 194.105 66.172 c 187.598 65.023 181.082
 64.457 174.609 64.457 c h
174.895 278.348 m 168.977 278.348 162.992 277.836 156.969 276.773 c 101.078
 266.922 63.625 213.43 73.477 157.539 c 78.254 130.461 93.285 106.867 115.805
 91.098 c 138.332 75.328 165.641 69.27 192.715 74.047 c 248.609 83.898 286.062
 137.391 276.207 193.285 c 267.41 243.156 223.875 278.348 174.895 278.348
 c h
174.895 278.348 m f
0.643137 0.788235 1 rg
256.48 189.801 m 248.527 234.895 205.527 265.008 160.434 257.059 c 115.336
 249.109 85.227 206.105 93.176 161.012 c 101.125 115.918 144.125 85.805 
189.219 93.754 c 234.312 101.703 264.43 144.707 256.48 189.801 c h
256.48 189.801 m f
0.976471 0.811765 0.811765 rg
138.617 406.09 m 138.617 397.406 131.578 390.367 122.891 390.367 c 114.203
 390.367 107.168 397.406 107.168 406.09 c 107.168 414.777 114.203 421.82
 122.891 421.82 c 131.578 421.82 138.617 414.777 138.617 406.09 c h
138.617 406.09 m f
0.215686 0.384314 0.8 rg
110 348.797 m 109.293 348.797 108.59 348.984 107.973 349.352 c 106.965 
349.945 106.266 350.953 106.062 352.105 c 103.934 364.184 l 92.578 371.488
 84.781 383.164 82.434 396.488 c 77.258 425.836 l 75.012 438.57 77.859 451.418
 85.281 462.016 c 92.699 472.605 103.801 479.676 116.535 481.926 c 129.273
 484.172 142.121 481.32 152.715 473.902 c 163.309 466.488 170.379 455.387
 172.629 442.648 c 176.488 420.762 l 176.566 420.762 l 178.781 420.762 180.941
 420.086 182.793 418.789 c 185.18 417.117 186.77 414.621 187.273 411.754
 c 187.777 408.887 187.137 405.992 185.469 403.609 c 183.801 401.227 181.301
 399.633 178.434 399.125 c 178.133 399.074 l 176.191 383.121 166.277 368.953
 151.977 361.699 c 152.508 358.707 l 152.73 357.441 152.328 356.141 151.43
 355.219 c 150.527 354.297 149.234 353.863 147.965 354.062 c 144.375 354.609
 140.781 354.574 137.293 353.961 c 115.238 350.078 l 114.031 349.863 112.746
 349.52 111.301 349.02 c 110.875 348.871 110.438 348.797 110 348.797 c h
125.031 474.668 m 122.672 474.668 120.297 474.461 117.926 474.043 c 107.293
 472.168 98.027 466.27 91.836 457.422 c 85.641 448.578 83.262 437.852 85.137
 427.223 c 90.312 397.871 l 92.363 386.238 99.391 376.109 109.59 370.086
 c 110.598 369.492 111.293 368.488 111.496 367.336 c 113.176 357.816 l 113.398
 357.859 113.625 357.906 113.848 357.945 c 135.902 361.832 l 138.48 362.285
 141.098 362.484 143.73 362.434 c 143.57 363.328 l 143.25 365.164 144.234
 366.977 145.949 367.703 c 159.992 373.668 169.602 387.402 170.426 402.691
 c 170.527 404.551 171.895 406.094 173.727 406.414 c 177.047 407 l 177.809
 407.133 178.473 407.559 178.918 408.191 c 179.363 408.824 179.531 409.594
 179.398 410.355 c 179.266 411.121 178.84 411.785 178.207 412.23 c 177.57
 412.676 176.797 412.848 176.039 412.711 c 173.914 412.336 l 171.73 411.957
 169.664 413.402 169.277 415.582 c 164.75 441.254 l 162.875 451.887 156.973
 461.156 148.125 467.348 c 141.258 472.16 133.246 474.668 125.031 474.668
 c h
117.227 477.984 m 117.25 477.984 l h
117.227 477.984 m f
0.27451 0.443137 0.776471 rg
68.055 455.199 m 68.059 455.195 l 73.758 468.496 86.301 478.898 102.215
 481.703 c 105.602 482.301 108.797 480.188 109.363 476.984 c 109.578 475.766
 l 109.324 477.195 109.527 478.605 110.082 479.848 c 110.082 479.852 l 110.082
 479.852 110.215 480.316 110.734 481.008 c 111.414 481.988 112.328 482.805
 113.422 483.355 c 114.93 484.293 117.102 485.23 120.195 485.91 c 120.195
 485.914 l 120.215 485.914 l 123.43 486.621 127.645 487.051 133.18 486.914
 c 137.141 487.172 141.027 486.836 144.734 485.973 c 144.75 485.973 144.762
 485.969 144.777 485.969 c 144.777 485.965 l 146.883 485.473 148.93 484.805
 150.902 483.984 c 151.758 483.648 152.195 483.422 152.199 483.418 c 163.375
 478.305 171.902 468.082 174.172 455.203 c 176.629 441.273 l 176.742 440.625
 176.301 440.008 175.645 439.895 c 117.703 429.68 l 123.027 399.48 l 125.035
 388.09 l 120.562 372.598 l 120.434 372.156 120.062 371.828 119.609 371.746
 c 114.848 370.906 l 113.145 370.605 l 101.461 368.547 l 99.625 368.223 
97.777 368.168 95.969 368.359 c 95.91 368.371 93.934 368.824 92.973 369.887
 c 90.711 372.398 85.387 378.316 80.539 383.727 c 73.344 391.75 68.348 401.484
 66.234 412.004 c 60.445 440.824 68.055 455.199 68.055 455.199 c h
68.055 455.199 m f
0.215686 0.384314 0.8 rg
98.051 364.25 m 97.215 364.25 96.383 364.293 95.551 364.379 c 95.402 364.398
 95.258 364.422 95.109 364.453 c 94.344 364.621 91.707 365.32 90.004 367.211
 c 87.742 369.723 82.418 375.645 77.562 381.055 c 69.812 389.699 64.543 
400.129 62.316 411.219 c 56.5 440.156 63.703 455.457 64.465 456.969 c 70.98
 471.988 84.82 482.699 101.52 485.645 c 103.984 486.078 106.398 485.613 
108.402 484.496 c 109.246 485.418 110.289 486.234 111.449 486.844 c 113.562
 488.133 116.203 489.129 119.293 489.812 c 119.328 489.82 119.363 489.828
 119.395 489.832 c 123.25 490.672 127.848 491.043 133.098 490.918 c 137.312
 491.176 141.527 490.824 145.617 489.875 c 145.652 489.867 145.688 489.859
 145.723 489.848 c 147.98 489.316 150.242 488.586 152.434 487.676 c 153.445
 487.277 154.008 486.984 154.027 486.973 c 166.633 481.207 175.699 469.562
 178.109 455.895 c 180.566 441.965 l 180.805 440.602 180.504 439.23 179.707
 438.094 c 178.906 436.949 177.707 436.188 176.332 435.949 c 122.336 426.43
 l 128.977 388.777 l 129.082 388.18 129.051 387.562 128.879 386.977 c 124.406
 371.48 l 123.859 369.59 122.25 368.148 120.305 367.801 c 102.156 364.598
 l 100.801 364.367 99.426 364.25 98.051 364.25 c h
96.676 372.309 m 98.043 372.188 99.422 372.25 100.77 372.488 c 117.207 
375.383 l 120.938 388.309 l 113.766 428.984 l 113.383 431.16 114.836 433.23
 117.012 433.613 c 172.203 443.348 l 170.234 454.508 l 168.281 465.582 160.918
 475.027 150.535 479.781 c 150.305 479.895 149.988 480.047 149.438 480.262
 c 147.57 481.035 145.719 481.637 143.867 482.07 c 143.844 482.074 143.82
 482.078 143.801 482.086 c 140.418 482.871 136.93 483.152 133.441 482.926
 c 133.32 482.918 133.199 482.914 133.078 482.918 c 128.395 483.031 124.348
 482.73 121.07 482.012 c 121.047 482.004 121.02 482 120.996 481.996 c 118.762
 481.496 116.875 480.797 115.531 479.961 c 115.434 479.902 115.336 479.844
 115.234 479.793 c 114.754 479.551 114.34 479.184 114.027 478.738 c 113.977
 478.664 113.938 478.609 113.902 478.566 c 113.883 478.414 113.871 478.531
 113.738 478.227 c 113.488 477.672 113.414 477.062 113.516 476.473 c 113.52
 476.465 l 113.902 474.289 112.449 472.215 110.273 471.832 c 108.109 471.453
 106.027 472.898 105.645 475.074 c 105.43 476.293 l 105.25 477.316 104.113
 477.98 102.914 477.766 c 88.809 475.281 77.152 466.258 71.734 453.621 c
 71.684 453.496 71.621 453.371 71.555 453.254 c 70.953 451.969 65.023 438.375
 70.16 412.793 c 72.105 403.105 76.727 393.977 83.527 386.395 c 88.371 380.988
 93.695 375.074 95.953 372.562 c 95.996 372.547 96.355 372.406 96.676 372.309
 c h
174.949 443.832 m 174.945 443.832 l h
174.949 443.832 m f
0.976471 0.811765 0.811765 rg
138.617 406.09 m 138.617 397.406 131.578 390.367 122.891 390.367 c 114.203
 390.367 107.168 397.406 107.168 406.09 c 107.168 414.777 114.203 421.82
 122.891 421.82 c 131.578 421.82 138.617 414.777 138.617 406.09 c h
138.617 406.09 m f
0.215686 0.384314 0.8 rg
335.488 92.227 m 331.652 92.227 327.832 93.773 325.051 96.82 c 320.598 
101.703 l 319.883 102.484 319.512 103.523 319.559 104.582 c 319.605 105.641
 320.074 106.637 320.855 107.355 c 381.715 162.875 l 386.461 167.207 393.848
 166.867 398.184 162.121 c 399.133 161.082 l 403.465 156.336 403.125 148.945
 398.375 144.613 c 344.992 95.91 l 342.293 93.445 338.887 92.227 335.488
 92.227 c h
329.203 104.141 m 330.961 102.215 l 332.062 101.008 333.57 100.301 335.199
 100.227 c 336.867 100.141 338.398 100.719 339.605 101.82 c 392.984 150.523
 l 394.477 151.883 394.582 154.203 393.223 155.691 c 392.273 156.73 l 391.613
 157.453 390.715 157.875 389.738 157.922 c 388.781 157.949 387.828 157.629
 387.105 156.969 c h
329.203 104.141 m f
174.711 88.48 m 157.043 88.48 139.816 93.887 125.016 104.25 c 105.977 117.582
 93.277 137.492 89.254 160.316 c 85.227 183.148 90.352 206.199 103.684 225.242
 c 117.008 244.277 136.926 256.977 159.75 261.004 c 182.582 265.027 205.633
 259.902 224.672 246.574 c 243.707 233.246 256.41 213.332 260.434 190.504
 c 264.461 167.676 259.336 144.621 246.004 125.582 c 232.676 106.547 212.762
 93.844 189.934 89.82 c 184.859 88.926 179.766 88.48 174.711 88.48 c h
174.961 254.34 m 170.371 254.34 165.75 253.938 161.137 253.125 c 140.418
 249.469 122.336 237.938 110.23 220.652 c 98.129 203.363 93.477 182.434 
97.129 161.707 c 100.785 140.988 112.312 122.906 129.602 110.805 c 146.891
 98.699 167.824 94.043 188.543 97.699 c 209.266 101.355 227.344 112.887 
239.449 130.172 c 251.555 147.461 256.207 168.391 252.555 189.117 c 248.902
 209.836 237.367 227.918 220.082 240.02 c 206.641 249.434 190.996 254.34
 174.961 254.34 c h
174.961 254.34 m f
0.878431 0.921569 0.988235 rg
174.805 132.484 m 153.961 132.484 136.203 147.406 132.582 167.957 c 128.469
 191.266 144.09 213.562 167.391 217.676 c 169.875 218.113 172.395 218.336
 174.883 218.336 c 195.723 218.336 213.48 203.418 217.105 182.863 c 221.215
 159.559 205.598 137.258 182.297 133.148 c 179.812 132.711 177.289 132.484
 174.805 132.484 c h
174.805 132.484 m f
0.976471 0.811765 0.811765 rg
67.234 175.215 m 71.258 196.074 l 85.406 293.766 l 85.406 293.766 85.41
 293.762 85.414 293.762 c 119.043 273.199 l 119.215 273.098 119.395 273.02
 119.574 272.945 c 98.402 192.902 l 101.594 170.438 l 101.707 169.633 101.699
 168.816 101.562 168.02 c 100.566 162.051 l 99.918 158.16 96.504 155.348
 92.559 155.445 c 76.613 155.848 l 72.895 155.941 69.746 158.605 69.043 
162.258 c 67.234 171.617 l 67.004 172.805 67.004 174.027 67.234 175.215 
c h
67.234 175.215 m f
0.215686 0.384314 0.8 rg
92.758 151.445 m 92.656 151.445 92.559 151.445 92.461 151.449 c 76.516 
151.852 l 70.961 151.988 66.172 156.051 65.117 161.5 c 63.305 170.859 l 
62.977 172.555 62.977 174.277 63.305 175.973 c 67.336 196.836 l 81.445 294.34
 l 81.641 295.672 82.488 296.816 83.707 297.383 c 84.926 297.953 86.352 
297.875 87.5 297.176 c 121.129 276.609 l 123.016 275.863 123.961 273.883
 123.441 271.922 c 102.477 192.664 l 105.555 171 l 105.727 169.793 105.711
 168.57 105.512 167.363 c 104.516 161.395 l 103.559 155.676 98.531 151.445
 92.758 151.445 c h
71.156 174.453 m 71.023 173.766 71.023 173.062 71.156 172.375 c 72.969 
163.016 l 73.312 161.223 74.891 159.891 76.715 159.844 c 92.664 159.441 
l 94.578 159.387 96.305 160.797 96.625 162.711 c 97.621 168.676 l 97.688
 169.074 97.695 169.477 97.637 169.871 c 94.445 192.34 l 94.367 192.867 
94.398 193.406 94.535 193.922 c 114.93 271.023 l 88.492 287.188 l 75.215
 195.5 l h
71.156 174.453 m f
0.419608 0.866667 0.866667 rg
85.414 293.762 m 119.043 273.199 l 120.672 272.207 122.793 272.719 123.785
 274.344 c 152.715 321.656 l 159.387 332.57 155.949 346.828 145.039 353.5
 c 134.125 360.168 119.871 356.734 113.195 345.824 c 84.27 298.508 l 83.273
 296.879 83.785 294.754 85.414 293.762 c h
85.414 293.762 m f
0.215686 0.384314 0.8 rg
120.828 268.691 m 119.473 268.691 118.141 269.062 116.953 269.785 c 83.32
 290.348 l 81.625 291.387 80.434 293.023 79.965 294.957 c 79.5 296.891 79.812
 298.891 80.855 300.59 c 109.781 347.906 l 113.566 354.094 119.535 358.438
 126.59 360.141 c 133.641 361.836 140.934 360.688 147.125 356.906 c 159.898
 349.098 163.941 332.344 156.125 319.57 c 127.199 272.258 l 126.16 270.559
 124.523 269.367 122.59 268.902 c 122.004 268.762 121.414 268.691 120.828
 268.691 c h
121.129 276.609 m 121.148 276.609 l h
87.969 296.887 m 120.66 276.895 l 149.301 323.742 l 154.812 332.758 151.965
 344.574 142.953 350.086 c 133.941 355.594 122.121 352.746 116.609 343.734
 c h
87.969 296.887 m f
0.878431 0.921569 0.988235 rg
323.555 104.398 m 335.898 115.656 l 281.754 174.605 l 281.707 167.086 280.875
 159.691 279.301 152.531 c 326.641 100.984 l 326.656 101 l h
323.555 104.398 m f
0.215686 0.384314 0.8 rg
326.645 96.992 m 326.594 96.992 326.543 96.992 326.492 96.996 c 325.426
 97.039 324.414 97.496 323.691 98.281 c 276.355 149.828 l 275.473 150.785
 275.113 152.117 275.395 153.391 c 276.914 160.309 277.707 167.457 277.754
 174.633 c 277.762 176.277 278.777 177.75 280.312 178.34 c 281.848 178.934
 283.586 178.527 284.699 177.312 c 338.84 118.363 l 339.559 117.582 339.938
 116.543 339.891 115.48 c 339.844 114.422 339.375 113.422 338.59 112.703
 c 329.203 104.141 l 329.609 103.699 l 331.086 102.078 330.984 99.574 329.383
 98.078 c 328.641 97.383 327.656 96.992 326.645 96.992 c h
283.637 153.727 m 323.777 110.02 l 330.234 115.906 l 285.266 164.871 l 
284.914 161.117 284.367 157.398 283.637 153.727 c h
283.637 153.727 m f
0.976471 0.654902 0.654902 rg
5.047 32.797 m 5.047 7.996 l 5.047 5.789 6.84 3.996 9.047 3.996 c 481 3.996
 l 483.211 3.996 485 5.789 485 7.996 c 485 116.016 l 485 118.504 482.754
 120.383 480.309 119.953 c 8.355 36.738 l 6.441 36.398 5.047 34.738 5.047
 32.797 c h
5.047 32.797 m f
0.215686 0.384314 0.8 rg
481 0 m 9.047 0 l 4.637 0 1.047 3.586 1.047 7.996 c 1.047 32.797 l 1.047
 36.688 3.828 40 7.66 40.672 c 479.613 123.891 l 481.945 124.301 484.328
 123.664 486.145 122.141 c 487.961 120.617 489 118.387 489 116.016 c 489
 7.996 l 489 3.586 485.414 0 481 0 c h
481 116.02 m 9.047 32.797 l 9.047 7.996 l 481 7.996 l h
481 116.02 m f
Q Q
showpage
%%Trailer
end restore
%%EOF
