%!PS-Adobe-3.0 EPSF-3.0
%%Creator: cairo 1.14.8 (http://cairographics.org)
%%CreationDate: Wed Mar 20 09:06:38 2019
%%Pages: 1
%%DocumentData: Clean7Bit
%%LanguageLevel: 2
%%BoundingBox: 100 0 388 488
%%EndComments
%%BeginProlog
save
50 dict begin
/q { gsave } bind def
/Q { grestore } bind def
/cm { 6 array astore concat } bind def
/w { setlinewidth } bind def
/J { setlinecap } bind def
/j { setlinejoin } bind def
/M { setmiterlimit } bind def
/d { setdash } bind def
/m { moveto } bind def
/l { lineto } bind def
/c { curveto } bind def
/h { closepath } bind def
/re { exch dup neg 3 1 roll 5 3 roll moveto 0 rlineto
      0 exch rlineto 0 rlineto closepath } bind def
/S { stroke } bind def
/f { fill } bind def
/f* { eofill } bind def
/n { newpath } bind def
/W { clip } bind def
/W* { eoclip } bind def
/BT { } bind def
/ET { } bind def
/pdfmark where { pop globaldict /?pdfmark /exec load put }
    { globaldict begin /?pdfmark /pop load def /pdfmark
    /cleartomark load def end } ifelse
/BDC { mark 3 1 roll /BDC pdfmark } bind def
/EMC { mark /EMC pdfmark } bind def
/cairo_store_point { /cairo_point_y exch def /cairo_point_x exch def } def
/Tj { show currentpoint cairo_store_point } bind def
/TJ {
  {
    dup
    type /stringtype eq
    { show } { -0.001 mul 0 cairo_font_matrix dtransform rmoveto } ifelse
  } forall
  currentpoint cairo_store_point
} bind def
/cairo_selectfont { cairo_font_matrix aload pop pop pop 0 0 6 array astore
    cairo_font exch selectfont cairo_point_x cairo_point_y moveto } bind def
/Tf { pop /cairo_font exch def /cairo_font_matrix where
      { pop cairo_selectfont } if } bind def
/Td { matrix translate cairo_font_matrix matrix concatmatrix dup
      /cairo_font_matrix exch def dup 4 get exch 5 get cairo_store_point
      /cairo_font where { pop cairo_selectfont } if } bind def
/Tm { 2 copy 8 2 roll 6 array astore /cairo_font_matrix exch def
      cairo_store_point /cairo_font where { pop cairo_selectfont } if } bind def
/g { setgray } bind def
/rg { setrgbcolor } bind def
/d1 { setcachedevice } bind def
%%EndProlog
%%BeginSetup
%%EndSetup
%%Page: 1 1
%%BeginPageSetup
%%PageBoundingBox: 100 0 388 488
%%EndPageSetup
q 100 0 288 488 rectclip q
0.419608 0.866667 0.866667 rg
364 58 m 124 58 l 112.953 58 104 66.953 104 78 c 104 268 l 104 279.047 
112.953 288 124 288 c 364 288 l 375.047 288 384 279.047 384 268 c 384 78
 l 384 66.953 375.047 58 364 58 c h
364 58 m f
0.27451 0.443137 0.776471 rg
128 92 m 128 254 l 128 259.523 132.477 264 138 264 c 350 264 l 355.523 
264 360 259.523 360 254 c 360 92 l 360 86.477 355.523 82 350 82 c 138 82
 l 132.477 82 128 86.477 128 92 c h
128 92 m f
0.643137 0.788235 1 rg
162.102 254.414 m 162.102 82 l 325.898 82 l 325.898 254.414 l 325.898 257.75
 325.395 260.965 324.473 264 c 163.527 264 l 162.605 260.965 162.102 257.75
 162.102 254.414 c h
162.102 254.414 m f
0.976471 0.811765 0.811765 rg
306.191 388.879 m 306.059 388.879 305.93 388.859 305.801 388.859 c 305.801
 394.703 l 305.801 428.859 278.109 456.547 243.953 456.547 c 209.797 456.547
 182.109 428.859 182.109 394.703 c 182.109 388.859 l 181.977 388.859 181.852
 388.879 181.719 388.879 c 171.297 388.879 162.852 380.43 162.852 370.012
 c 162.852 359.59 171.297 351.141 181.719 351.141 c 182.402 351.141 183.074
 351.184 183.742 351.254 c 190.125 323.895 214.648 303.508 243.953 303.508
 c 273.258 303.508 297.785 323.895 304.164 351.254 c 304.832 351.184 305.508
 351.141 306.191 351.141 c 316.609 351.141 325.059 359.59 325.059 370.012
 c 325.059 380.43 316.609 388.879 306.191 388.879 c h
306.191 388.879 m f
306.191 388.879 m 306.059 388.879 305.93 388.859 305.801 388.859 c 305.801
 394.703 l 305.801 428.859 278.109 456.547 243.953 456.547 c 209.797 456.547
 182.109 428.859 182.109 394.703 c 182.109 388.859 l 181.977 388.859 181.852
 388.879 181.719 388.879 c 171.297 388.879 162.852 380.43 162.852 370.012
 c 162.852 359.59 171.297 351.141 181.719 351.141 c 182.402 351.141 183.074
 351.184 183.742 351.254 c 190.125 323.895 214.648 303.508 243.953 303.508
 c 273.258 303.508 297.785 323.895 304.164 351.254 c 304.832 351.184 305.508
 351.141 306.191 351.141 c 316.609 351.141 325.059 359.59 325.059 370.012
 c 325.059 380.43 316.609 388.879 306.191 388.879 c h
306.191 388.879 m f
306.191 388.879 m 306.059 388.879 305.93 388.859 305.801 388.859 c 305.801
 394.703 l 305.801 428.859 278.109 456.547 243.953 456.547 c 209.797 456.547
 182.109 428.859 182.109 394.703 c 182.109 388.859 l 181.977 388.859 181.852
 388.879 181.719 388.879 c 171.297 388.879 162.852 380.43 162.852 370.012
 c 162.852 359.59 171.297 351.141 181.719 351.141 c 182.402 351.141 183.074
 351.184 183.742 351.254 c 190.125 323.895 214.648 303.508 243.953 303.508
 c 273.258 303.508 297.785 323.895 304.164 351.254 c 304.832 351.184 305.508
 351.141 306.191 351.141 c 316.609 351.141 325.059 359.59 325.059 370.012
 c 325.059 380.43 316.609 388.879 306.191 388.879 c h
306.191 388.879 m f
0.215686 0.384314 0.8 rg
243.953 299.508 m 214.289 299.508 188.719 318.941 180.664 347.164 c 168.539
 347.715 158.848 357.754 158.848 370.012 c 158.848 381.391 167.203 390.859
 178.105 392.594 c 178.105 394.703 l 178.105 431.012 207.645 460.551 243.949
 460.551 c 280.258 460.551 309.797 431.012 309.797 394.703 c 309.797 392.594
 l 320.699 390.859 329.055 381.391 329.055 370.012 c 329.055 357.754 319.359
 347.715 307.234 347.164 c 299.188 318.941 273.617 299.508 243.953 299.508
 c h
183.742 355.254 m 185.578 355.254 187.207 353.988 187.633 352.16 c 193.766
 325.871 216.926 307.508 243.953 307.508 c 270.977 307.508 294.137 325.871
 300.27 352.16 c 300.727 354.125 302.574 355.414 304.586 355.23 c 305.113
 355.176 305.648 355.141 306.191 355.141 c 314.387 355.141 321.059 361.812
 321.059 370.012 c 321.059 378.188 314.422 384.844 306.254 384.879 c 306.094
 384.871 305.867 384.859 305.797 384.859 c 304.746 384.859 303.738 385.273
 302.988 386.012 c 302.227 386.762 301.797 387.789 301.797 388.859 c 301.797
 394.703 l 301.797 426.602 275.848 452.551 243.953 452.551 c 212.055 452.551
 186.105 426.602 186.105 394.703 c 186.105 388.859 l 186.105 387.789 185.676
 386.762 184.914 386.012 c 184.152 385.258 183.129 384.879 182.047 384.859
 c 181.969 384.863 181.711 384.875 181.637 384.879 c 173.516 384.879 166.848
 378.211 166.848 370.012 c 166.848 361.812 173.516 355.141 181.715 355.141
 c 182.258 355.141 182.789 355.176 183.316 355.23 c 183.461 355.246 183.602
 355.254 183.742 355.254 c h
183.742 355.254 m f
0.27451 0.443137 0.776471 rg
305.039 404.336 m 305.531 401.195 305.801 397.98 305.801 394.703 c 305.801
 388.859 l 305.934 388.863 306.059 388.879 306.191 388.879 c 309.852 388.879
 313.258 387.82 316.148 386.016 c 316.148 404.336 l h
305.039 404.336 m f
171.758 404.336 m 171.758 386.016 l 174.648 387.82 178.055 388.879 181.715
 388.879 c 181.848 388.879 181.977 388.863 182.105 388.859 c 182.105 394.703
 l 182.105 397.98 182.375 401.195 182.867 404.336 c h
171.758 404.336 m f
0.878431 0.921569 0.988235 rg
236 263.5 16 -176.5 re f
278.562 232.5 m 209.438 232.5 l 204.289 232.5 199.414 235.258 196.398 239.871
 c 190.613 248.719 l 188.801 251.492 189.578 255.211 192.352 257.023 c 195.125
 258.836 198.844 258.059 200.656 255.285 c 206.441 246.438 l 207.246 245.207
 208.34 244.5 209.438 244.5 c 278.562 244.5 l 279.66 244.5 280.754 245.207
 281.559 246.438 c 287.344 255.285 l 289.156 258.059 292.875 258.836 295.645
 257.023 c 298.422 255.211 299.199 251.488 297.383 248.719 c 291.602 239.871
 l 288.582 235.258 283.707 232.5 278.562 232.5 c h
278.562 232.5 m f
282.266 208.5 m 205.734 208.5 l 200.367 208.5 195.234 211.168 191.996 215.633
 c 185.594 224.48 l 183.648 227.164 184.25 230.914 186.934 232.859 c 189.617
 234.801 193.367 234.199 195.312 231.52 c 201.715 222.672 l 202.715 221.293
 204.18 220.496 205.73 220.496 c 282.266 220.496 l 283.816 220.496 285.281
 221.289 286.281 222.672 c 292.684 231.52 l 294.629 234.203 298.379 234.801
 301.062 232.859 c 303.746 230.914 304.348 227.164 302.402 224.48 c 296 
215.633 l 292.766 211.168 287.629 208.5 282.266 208.5 c h
282.266 208.5 m f
284.734 180.5 m 203.266 180.5 l 197.75 180.5 192.441 183.113 189.066 187.492
 c 182.246 196.34 l 180.223 198.965 180.711 202.73 183.336 204.754 c 185.961
 206.777 189.727 206.289 191.754 203.66 c 198.57 194.816 l 199.707 193.344
 201.414 192.5 203.266 192.5 c 284.734 192.5 l 286.586 192.5 288.297 193.344
 289.434 194.816 c 296.25 203.66 l 298.273 206.289 302.039 206.777 304.664
 204.754 c 307.289 202.73 307.777 198.961 305.754 196.34 c 298.938 187.492
 l 295.559 183.113 290.254 180.5 284.734 180.5 c h
284.734 180.5 m f
282.266 152.5 m 205.734 152.5 l 200.367 152.5 195.234 155.168 191.996 159.633
 c 185.594 168.48 l 183.648 171.164 184.25 174.914 186.934 176.859 c 189.617
 178.801 193.367 178.199 195.312 175.52 c 201.715 166.672 l 202.715 165.293
 204.18 164.496 205.73 164.496 c 282.266 164.496 l 283.816 164.496 285.281
 165.289 286.281 166.672 c 292.684 175.52 l 294.629 178.199 298.379 178.805
 301.062 176.859 c 303.746 174.914 304.348 171.164 302.402 168.48 c 296 
159.633 l 292.766 155.168 287.629 152.5 282.266 152.5 c h
282.266 152.5 m f
278.562 124.5 m 209.438 124.5 l 204.289 124.5 199.414 127.258 196.398 131.871
 c 190.613 140.719 l 188.801 143.492 189.578 147.211 192.352 149.023 c 195.125
 150.836 198.844 150.059 200.656 147.285 c 206.441 138.438 l 207.246 137.207
 208.34 136.5 209.438 136.5 c 278.562 136.5 l 279.66 136.5 280.754 137.207
 281.559 138.438 c 287.344 147.285 l 289.156 150.059 292.875 150.836 295.645
 149.023 c 298.422 147.211 299.199 143.488 297.383 140.719 c 291.602 131.871
 l 288.582 127.258 283.707 124.5 278.562 124.5 c h
278.562 124.5 m f
214.227 90 m 207.188 90 200.84 92.73 197.664 97.125 c 193.137 103.395 l
 191.199 106.082 191.801 109.836 194.488 111.773 c 197.176 113.711 200.926
 113.109 202.863 110.422 c 207.395 104.148 l 208.02 103.281 210.625 102 
214.227 102 c 217.277 102 219.707 102.926 220.766 103.84 c 240.023 120.535
 l 242.527 122.703 246.312 122.434 248.484 119.93 c 250.656 117.426 250.387
 113.637 247.883 111.469 c 228.621 94.773 l 225.121 91.738 219.875 90 214.227
 90 c h
214.227 90 m f
273.773 90 m 268.125 90 262.879 91.738 259.379 94.77 c 240.117 111.469 
l 237.613 113.637 237.344 117.426 239.516 119.93 c 241.684 122.434 245.473
 122.707 247.977 120.535 c 267.238 103.84 l 268.293 102.926 270.727 102 
273.773 102 c 277.375 102 279.98 103.281 280.605 104.148 c 285.137 110.422
 l 287.078 113.109 290.828 113.715 293.516 111.773 c 296.199 109.832 296.805
 106.078 294.863 103.395 c 290.336 97.125 l 287.16 92.73 280.816 90 273.773
 90 c h
273.773 90 m f
0.27451 0.443137 0.776471 rg
289.66 404.336 m 322.324 404.336 l 324.742 404.336 326.699 406.293 326.699
 408.707 c 326.699 433.691 l 326.699 461.477 304.176 484 276.391 484 c 274.832
 484 l 267.586 484 261.707 478.125 261.707 470.875 c 261.707 432.285 l 261.707
 416.848 274.223 404.336 289.66 404.336 c h
289.66 404.336 m f
222.516 404.336 m 165.598 404.336 l 163.172 404.336 161.203 406.301 161.203
 408.727 c 161.203 429.387 l 161.203 459.551 185.652 484 215.816 484 c 248.727
 484 l 255.965 484 261.836 478.133 261.836 470.895 c 261.836 443.656 l 261.836
 421.938 244.23 404.336 222.516 404.336 c h
222.516 404.336 m f
0.215686 0.384314 0.8 rg
322.324 400.336 m 289.66 400.336 l 272.043 400.336 257.707 414.668 257.707
 432.285 c 257.707 470.875 l 257.707 480.316 265.391 488 274.832 488 c 276.391
 488 l 306.34 488 330.699 463.637 330.699 433.695 c 330.699 408.711 l 330.699
 404.094 326.945 400.336 322.324 400.336 c h
274.832 480 m 269.801 480 265.707 475.906 265.707 470.875 c 265.707 432.285
 l 265.707 419.074 276.453 408.332 289.66 408.332 c 322.324 408.332 l 322.535
 408.332 322.703 408.5 322.703 408.707 c 322.703 433.695 l 322.699 459.227
 301.926 480 276.391 480 c h
274.832 480 m f
222.516 400.336 m 165.598 400.336 l 160.969 400.336 157.203 404.102 157.203
 408.727 c 157.203 429.387 l 157.203 461.707 183.496 488 215.816 488 c 248.727
 488 l 258.16 488 265.836 480.324 265.836 470.891 c 265.836 443.652 l 265.836
 419.77 246.402 400.336 222.516 400.336 c h
215.816 480 m 187.906 480 165.203 457.293 165.203 429.387 c 165.203 408.727
 l 165.203 408.512 165.379 408.336 165.598 408.336 c 222.516 408.336 l 241.988
 408.336 257.836 424.18 257.836 443.652 c 257.836 470.891 l 257.836 475.914
 253.75 480 248.727 480 c h
215.816 480 m f
316.148 382.016 m 315.41 382.016 314.68 382.219 314.031 382.621 c 311.66
 384.098 308.949 384.879 306.188 384.879 c 306.094 384.871 305.891 384.855
 305.797 384.859 c 304.746 384.859 303.738 385.273 302.988 386.012 c 302.227
 386.762 301.797 387.789 301.797 388.859 c 301.797 394.703 l 301.797 397.668
 301.555 400.699 301.086 403.715 c 300.902 404.871 301.234 406.047 301.996
 406.934 c 302.758 407.82 303.867 408.336 305.035 408.336 c 316.148 408.336
 l 318.355 408.336 320.148 406.543 320.148 404.336 c 320.148 386.016 l 320.148
 384.562 319.359 383.223 318.09 382.52 c 317.484 382.184 316.816 382.016
 316.148 382.016 c h
309.797 392.59 m 310.59 392.465 311.375 392.293 312.148 392.082 c 312.148
 400.336 l 309.551 400.336 l 309.715 398.449 309.797 396.562 309.797 394.703
 c h
309.797 392.59 m f
171.758 382.016 m 171.09 382.016 170.422 382.184 169.816 382.52 c 168.543
 383.223 167.758 384.562 167.758 386.016 c 167.758 404.336 l 167.758 406.543
 169.547 408.336 171.758 408.336 c 182.867 408.336 l 184.035 408.336 185.148
 407.82 185.906 406.934 c 186.668 406.047 187 404.871 186.82 403.715 c 186.348
 400.695 186.105 397.664 186.105 394.703 c 186.105 388.859 l 186.105 387.789
 185.676 386.762 184.914 386.012 c 184.152 385.258 183.129 384.879 182.047
 384.859 c 181.969 384.863 181.711 384.875 181.637 384.879 c 178.953 384.879
 176.238 384.098 173.875 382.621 c 173.227 382.219 172.492 382.016 171.758
 382.016 c h
175.758 400.336 m 175.758 392.082 l 176.531 392.293 177.312 392.461 178.105
 392.59 c 178.105 394.703 l 178.105 396.562 178.191 398.445 178.355 400.336
 c h
175.758 400.336 m f
0.27451 0.443137 0.776471 rg
244 58 m 244 4 l 316.426 4 l 318.551 38.801 l 318.551 58 l h
244 58 m f
169.449 58 m 169.449 38.801 l 171.574 4 l 244 4 l 244 58 l h
169.449 58 m f
0.215686 0.384314 0.8 rg
316.426 0 m 244 0 l 241.793 0 240 1.793 240 4 c 240 58 l 240 60.207 241.793
 62 244 62 c 318.551 62 l 320.758 62 322.551 60.207 322.551 58 c 322.551
 38.801 l 322.551 38.719 322.547 38.637 322.543 38.555 c 320.418 3.758 l
 320.293 1.645 318.543 0 316.426 0 c h
248 8 m 312.664 8 l 314.551 38.922 l 314.551 54 l 248 54 l h
248 8 m f
244 0 m 171.574 0 l 169.461 0 167.711 1.645 167.582 3.758 c 165.457 38.555
 l 165.453 38.637 165.449 38.719 165.449 38.801 c 165.449 58 l 165.449 60.207
 167.242 62 169.449 62 c 244 62 l 246.207 62 248 60.207 248 58 c 248 4 l
 248 1.793 246.207 0 244 0 c h
175.336 8 m 240 8 l 240 54 l 173.449 54 l 173.449 38.922 l h
175.336 8 m f
0.976471 0.811765 0.811765 rg
129.043 58 m 126.684 45.512 l 126.574 44.934 126.59 44.344 126.723 43.77
 c 129.836 30.516 l 130.504 27.672 133.043 25.656 135.969 25.656 c 158.145
 25.656 l 161.383 25.656 164.094 28.113 164.414 31.336 c 167.062 58 l h
129.043 58 m f
358.934 58 m 320.93 58 l 323.59 31.219 l 323.906 27.996 326.617 25.539 
329.859 25.539 c 352.031 25.539 l 354.957 25.539 357.496 27.551 358.164 
30.398 c 361.281 43.652 l 361.414 44.227 361.43 44.816 361.316 45.395 c 
h
358.934 58 m f
0.215686 0.384314 0.8 rg
158.145 21.656 m 135.969 21.656 l 131.164 21.656 127.043 24.926 125.945
 29.602 c 122.828 42.855 l 122.566 43.977 122.543 45.117 122.754 46.25 c
 125.113 58.742 l 125.473 60.633 127.121 62 129.043 62 c 167.059 62 l 168.191
 62 169.27 61.523 170.023 60.688 c 170.781 59.848 171.148 58.727 171.039
 57.605 c 168.391 30.938 l 167.867 25.645 163.461 21.656 158.145 21.656 
c h
132.359 54 m 130.617 44.77 l 133.73 31.43 l 133.977 30.387 134.898 29.656
 135.973 29.656 c 158.145 29.656 l 159.336 29.656 160.316 30.547 160.438
 31.727 c 162.645 54 l h
132.359 54 m f
352.031 21.543 m 329.855 21.543 l 324.539 21.543 320.133 25.531 319.605
 30.824 c 316.945 57.609 l 316.836 58.73 317.203 59.852 317.961 60.688 c
 318.719 61.523 319.797 62.004 320.926 62.004 c 358.934 62.004 l 360.855
 62.004 362.508 60.633 362.863 58.742 c 365.242 46.137 l 365.457 45.008 
365.434 43.863 365.172 42.742 c 362.055 29.488 l 360.957 24.809 356.836 
21.543 352.031 21.543 c h
325.344 54 m 327.566 31.613 l 327.684 30.434 328.668 29.543 329.855 29.543
 c 352.031 29.543 l 353.102 29.543 354.023 30.273 354.27 31.316 c 357.383
 44.57 l 355.613 54 l h
325.344 54 m f
350 78 m 138 78 l 130.281 78 124 84.281 124 92 c 124 254 l 124 261.719 
130.281 268 138 268 c 350 268 l 357.719 268 364 261.719 364 254 c 364 92
 l 364 84.281 357.719 78 350 78 c h
138 260 m 134.691 260 132 257.309 132 254 c 132 92 l 132 88.691 134.691
 86 138 86 c 350 86 l 353.309 86 356 88.691 356 92 c 356 254 l 356 257.309
 353.309 260 350 260 c h
138 260 m f
0.976471 0.811765 0.811765 rg
274.629 288 m 274.629 311.625 l 265.602 306.461 255.148 303.508 244 303.508
 c 232.852 303.508 222.398 306.461 213.371 311.625 c 213.371 288 l h
274.629 288 m f
0.215686 0.384314 0.8 rg
274.629 284 m 213.371 284 l 211.164 284 209.371 285.793 209.371 288 c 209.371
 311.625 l 209.371 313.051 210.133 314.367 211.367 315.086 c 212.602 315.797
 214.121 315.801 215.359 315.098 c 224.043 310.129 233.945 307.504 244.004
 307.504 c 254.059 307.504 263.961 310.129 272.645 315.098 c 273.879 315.805
 275.402 315.801 276.637 315.086 c 277.871 314.367 278.633 313.047 278.633
 311.625 c 278.633 288 l 278.629 285.793 276.836 284 274.629 284 c h
217.371 292 m 270.629 292 l 270.629 305.125 l 262.281 301.434 253.195 299.504
 244 299.504 c 234.805 299.504 225.719 301.434 217.371 305.125 c h
217.371 292 m f
364 54 m 124 54 l 110.766 54 100 64.766 100 78 c 100 268 l 100 281.234 
110.766 292 124 292 c 364 292 l 377.234 292 388 281.234 388 268 c 388 78
 l 388 64.766 377.234 54 364 54 c h
124 284 m 115.18 284 108 276.82 108 268 c 108 78 l 108 69.18 115.18 62 
124 62 c 364 62 l 372.82 62 380 69.18 380 78 c 380 268 l 380 276.82 372.82
 284 364 284 c h
124 284 m f
325.898 78 m 162.102 78 l 159.891 78 158.102 79.793 158.102 82 c 158.102
 254.414 l 158.102 258.055 158.641 261.672 159.703 265.164 c 160.215 266.852
 161.77 268 163.531 268 c 324.473 268 l 326.234 268 327.789 266.852 328.301
 265.164 c 329.363 261.672 329.902 258.055 329.902 254.414 c 329.902 82 
l 329.898 79.793 328.109 78 325.898 78 c h
166.102 86 m 321.898 86 l 321.898 254.414 l 321.898 256.293 321.715 258.16
 321.355 260 c 166.645 260 l 166.285 258.16 166.102 256.293 166.102 254.414
 c h
166.102 86 m f
350 78 m 138 78 l 130.281 78 124 84.281 124 92 c 124 254 l 124 261.719 
130.281 268 138 268 c 350 268 l 357.719 268 364 261.719 364 254 c 364 92
 l 364 84.281 357.719 78 350 78 c h
138 260 m 134.691 260 132 257.309 132 254 c 132 92 l 132 88.691 134.691
 86 138 86 c 350 86 l 353.309 86 356 88.691 356 92 c 356 254 l 356 257.309
 353.309 260 350 260 c h
138 260 m f
0.643137 0.788235 1 rg
360 92 m 360 153.773 l 338.5 264 l 324.473 264 l 325.898 82 l 350 82 l 
355.523 82 360 86.477 360 92 c h
360 92 m f
148.816 264 m 128 157.27 l 128 92 l 128 86.477 132.477 82 138 82 c 161.418
 82 l 162.848 264 l h
148.816 264 m f
0.215686 0.384314 0.8 rg
350 78 m 325.898 78 l 323.703 78 321.918 79.773 321.898 81.969 c 320.473
 263.969 l 320.465 265.035 320.883 266.059 321.633 266.816 c 322.383 267.574
 323.406 268 324.473 268 c 338.5 268 l 340.414 268 342.059 266.645 342.426
 264.766 c 363.926 154.539 l 363.977 154.289 364 154.031 364 153.773 c 364
 92 l 364 84.281 357.719 78 350 78 c h
329.871 86 m 350 86 l 353.309 86 356 88.691 356 92 c 356 153.387 l 335.207
 260 l 328.504 260 l h
329.871 86 m f
161.418 78 m 138 78 l 130.281 78 124 84.281 124 92 c 124 157.27 l 124 157.527
 124.023 157.785 124.074 158.035 c 144.891 264.766 l 145.258 266.645 146.902
 268 148.816 268 c 162.848 268 l 163.91 268 164.934 267.574 165.688 266.816
 c 166.438 266.059 166.855 265.035 166.848 263.969 c 165.418 81.969 l 165.398
 79.773 163.617 78 161.418 78 c h
132 156.883 m 132 92 l 132 88.691 134.691 86 138 86 c 157.449 86 l 158.816
 260 l 152.113 260 l h
132 156.883 m f
243.953 335.223 m 235.148 335.223 228.512 339.188 228.512 344.441 c 228.512
 346.098 229.855 347.441 231.512 347.441 c 233.172 347.441 234.512 346.098
 234.512 344.441 c 234.512 343.613 237.758 341.223 243.953 341.223 c 250.145
 341.223 253.391 343.613 253.391 344.441 c 253.391 346.098 254.734 347.441
 256.391 347.441 c 258.051 347.441 259.391 346.098 259.391 344.441 c 259.391
 339.188 252.754 335.223 243.953 335.223 c h
243.953 335.223 m f
212.938 362.543 m 209.277 362.543 206.297 365.52 206.297 369.18 c 206.297
 380.242 l 206.297 383.902 209.277 386.883 212.938 386.883 c 216.598 386.883
 219.574 383.902 219.574 380.242 c 219.574 369.18 l 219.57 365.52 216.594
 362.543 212.938 362.543 c h
212.938 362.543 m f
274.969 362.543 m 271.309 362.543 268.332 365.52 268.332 369.18 c 268.332
 380.242 l 268.332 383.902 271.309 386.883 274.969 386.883 c 278.629 386.883
 281.609 383.902 281.609 380.242 c 281.609 369.18 l 281.609 365.52 278.629
 362.543 274.969 362.543 c h
274.969 362.543 m f
Q Q
showpage
%%Trailer
end restore
%%EOF
